<?xml version="1.0" ?><svg cb-auto-time="04/21/2020 11:06:09" cb-classname="ControlFunction" cb-create-time="01/23/2020" cb-drop-id="2" cb-filename="Z:\OVATION\NET0\UNIT0\ControlFunctions\0051.svg" cb-function-id="0051" cb-key="321525511234" cb-modified-timestamp="1587023943" cb-modify-id="00000002" cb-path="Z:/OVATION/NET0/UNIT0/ControlFunctions" cb-revision="A" cb-sheet-number="H-SEQ-STP" cb-sheet-title="SEQUENCE STARTUP TESTING" cb-snap-grid="10" cb-task-id="2" height="3522" id="1" width="5453" xmlns="http://www.w3.org/2000/svg">
<style cb-classname="EntityStyle" id="2" type="text/css">
	.algorithm { fill: white; stroke: black; stroke-width: 3 }
	.algorithm-function { fill: black; stroke: none }
	.algorithm-functionline { fill: none; stroke: black; stroke-linecap: round; stroke-width: 3 }
	.algorithm-name { fill: black; stroke: none }
	.algorithm-nameline { fill: none; stroke: black; stroke-linecap: round; stroke-width: 3 }
	.algorithm-sequence { fill: black; stroke: none; visibility: hidden }
	.algorithm-sequenceline { fill: none; stroke: black; stroke-linecap: round; stroke-width: 3; visibility: hidden }
	.algorithmline { fill: none; stroke: black; stroke-linecap: round; stroke-width: 3 }
	.annotation { fill: black; stroke: none }
	.annotationline { fill: none; stroke: black; stroke-linecap: round; stroke-width: 3 }
	.frame { fill: black; stroke: none }
	.frameline { fill: none; stroke: black; stroke-linecap: round; stroke-width: 3 }
	.signal { fill: black; stroke: none }
	.signalline { fill: none; stroke: black; stroke-linecap: round; stroke-width: 3 }
	text.algorithm { fill: black; font-family: Arial; font-size: 22; stroke: none }
	text.algorithm-function { fill: black; font-family: Arial; font-size: 22; stroke: none }
	text.algorithm-name { fill: black; font-family: Arial; font-size: 22; stroke: none }
	text.algorithm-sequence { fill: black; font-family: Arial; font-size: 22; stroke: none; visibility: hidden }
	text.annotation { fill: black; font-family: Arial; font-size: 22; stroke: none }
	text.frame { fill: black; font-family: Arial; font-size: 18; stroke: none }
	text.signal { fill: black; font-family: Arial; font-size: 12; stroke: none }
</style>
<g cb-classname="NamedObject" cb-objectname="Comments" id="3"/>
<g cb-classname="AlgorithmContainer" cb-objectname="Algorithms" id="4">
<g cb-alg-a2k="SIM-SEQ1_PASS01" cb-alg-dc09="69" cb-alg-vVNO="1" cb-algorithm-id="004" cb-classname="ControlAlgorithm" cb-function-name="DVALGEN" cb-modify-id="00000001" id="6p">
<rect cb-classname="GraphicRectangleEntity" class="algorithm" height="60" id="6b" width="100" x="650" y="670"/>
<text baseline-shift="-50%" cb-classname="GraphicTextEntity" class="algorithm" font-size="18" id="6m" text-anchor="middle" x="700" y="687">
DVAL
</text>
<text baseline-shift="-50%" cb-classname="GraphicTextEntity" class="algorithm" font-size="18" id="66" text-anchor="middle" x="700" y="713">
GEN
</text>
<g cb-classname="ControlPin" cb-pin-name="c0-6EW-3vo" id="6I">
<line cb-classname="GraphicLineEntity" class="signalline" id="7K" x1="750" x2="770" y1="700" y2="700"/>
<g cb-classname="DynamicText" cb-source="Ry-7r6-mzCe" class="signal" id="7S">
<text baseline-shift="5%" cb-classname="GraphicTextEntity" class="signal" fill="black" font-style="normal" font-weight="normal" id="7N" text-decoration="normal" x="764" y="690"/>
</g>
<g cb-classname="SignalSegment" id="73">
<line cb-classname="GraphicLineEntity" class="signalline" id="5bp" stroke="#1e12bf" stroke-dasharray="5,4" x1="770" x2="1440" y1="700" y2="700"/>
<g cb-classname="SignalSegment" id="5bj">
<line cb-classname="GraphicLineEntity" class="signalline" id="5bl" stroke="#1e12bf" stroke-dasharray="5,4" x1="1440" x2="1440" y1="700" y2="720"/>
<g cb-classname="SignalSegment" id="5b8">
<line cb-classname="GraphicLineEntity" class="signalline" id="5bv" stroke="#1e12bf" stroke-dasharray="5,4" x1="1440" x2="1540" y1="720" y2="720"/>
<g cb-classname="SignalConnection" cb-graphic-line="$568$" cb-input-pin="$KGT$" id="5bo"/>
</g>
<line cb-classname="GraphicLineEntity" class="signalline" id="5bM" stroke="#1e12bf" stroke-dasharray="5,4" x1="1440" x2="1540" y1="700" y2="700"/>
<g cb-classname="SignalConnection" cb-graphic-line="$561$" cb-input-pin="$yst$" id="5bZ"/>
<ellipse cb-classname="GraphicEllipseEntity" class="signal" cx="1440" cy="700" fill="#1e12bf" id="5ms" rx="5" ry="5" stroke="#1e12bf" stroke-dasharray="5,4"/>
</g>
</g>
</g>
<g cb-classname="GraphicShape" id="83">
<g cb-classname="DynamicText" cb-labeled="false" cb-source="Ry-4k7-9JL" id="8v">
<text cb-classname="GraphicTextEntity" class="algorithm" id="8p" text-anchor="start" x="280" y="730"/>
</g>
</g>
</g>
<g cb-alg-BFMW="96" cb-alg-HWxD="1.000000" cb-alg-NWsW="5" cb-alg-r6o="$65$cb-alg-out$" cb-alg-z6Ti="$65$cb-alg-out$" cb-algorithm-id="00B" cb-classname="ControlAlgorithm" cb-function-name="ONDELAY" cb-modify-id="00000002" id="5vZ">
<rect cb-classname="GraphicRectangleEntity" class="algorithm" height="60" id="5vp" width="60" x="1560" y="680"/>
<text baseline-shift="-50%" cb-classname="GraphicTextEntity" class="algorithm" font-size="18" id="5vj" text-anchor="middle" x="1589" y="692">
TD
</text>
<text cb-classname="GraphicTextEntity" class="algorithm" font-size="18" id="5vl" text-anchor="middle" x="1589" y="727">
ON
</text>
<g cb-classname="ControlPin" cb-pin-name="FE-bTT-6XO" id="5v8">
<line cb-classname="GraphicLineEntity" class="signalline" id="5vv" x1="1540" x2="1560" y1="700" y2="700"/>
<polygon cb-classname="GraphicPolygonEntity" class="signal" id="5vo" points="1560,700 1549,696 1549,704"/>
<g cb-classname="DynamicText" cb-source="c0-d6X-6M8H" class="signal" id="5ps" text-anchor="end">
<text baseline-shift="5%" cb-classname="GraphicTextEntity" class="signal" fill="black" font-style="normal" font-weight="normal" id="5pM" text-anchor="end" text-decoration="normal" x="1524" y="696"/>
</g>
</g>
<g cb-classname="ControlPin" cb-pin-name="Ry-4k7-foY" id="5pH">
<line cb-classname="GraphicLineEntity" class="signalline" id="5pZ" x1="1620" x2="1640" y1="700" y2="700"/>
<g cb-classname="DynamicText" cb-source="Nu-0qm-vTsP" class="signal" id="5pp">
<text baseline-shift="5%" cb-classname="GraphicTextEntity" class="signal" fill="black" font-style="normal" font-weight="normal" id="5pj" text-decoration="normal" x="1656" y="696"/>
</g>
<g cb-classname="SignalSegment" cb-start-x="1640" cb-start-y="700" id="5bH">
<line cb-classname="GraphicLineEntity" class="signalline" id="7v" stroke="#1e12bf" stroke-dasharray="5,4" x1="1640" x2="1960" y1="700" y2="700"/>
<g cb-classname="SignalSegment" id="7p">
<line cb-classname="GraphicLineEntity" class="signalline" id="7b" stroke="#1e12bf" stroke-dasharray="5,4" x1="1960" x2="1960" y1="700" y2="570"/>
<g cb-classname="SignalSegment" id="7m">
<line cb-classname="GraphicLineEntity" class="signalline" id="76" stroke="#1e12bf" stroke-dasharray="5,4" x1="1960" x2="2060" y1="570" y2="570"/>
<g cb-classname="SignalConnection" cb-graphic-line="$78$" cb-input-pin="$ov$" id="7I"/>
</g>
<line cb-classname="GraphicLineEntity" class="signalline" id="8K" stroke="#1e12bf" stroke-dasharray="5,4" x1="1960" x2="2970" y1="700" y2="700"/>
<g cb-classname="SignalConnection" cb-graphic-line="$80$" cb-input-pin="$1eX$" id="8S"/>
<ellipse cb-classname="GraphicEllipseEntity" class="signal" cx="1960" cy="700" fill="#1e12bf" id="8N" rx="5" ry="5" stroke="#1e12bf" stroke-dasharray="5,4"/>
</g>
</g>
</g>
<g cb-classname="ControlPin" cb-pin-name="I4-9JL-cWC2" id="5pl">
<line cb-classname="GraphicLineEntity" class="signalline" id="5p8" x1="1540" x2="1560" y1="720" y2="720"/>
<polygon cb-classname="GraphicPolygonEntity" class="signal" id="5pv" points="1560,720 1549,716 1549,724"/>
<g cb-classname="DynamicText" cb-source="cR-K93-Dojz" class="signal" id="5po" text-anchor="end">
<text baseline-shift="5%" cb-classname="GraphicTextEntity" class="signal" fill="black" font-style="normal" font-weight="normal" id="5bs" text-anchor="end" text-decoration="normal" x="1524" y="716"/>
</g>
</g>
<g cb-classname="GraphicShape" id="5mM">
<g cb-classname="DynamicText" cb-labeled="true" cb-source="cR-aw2-GoyG" id="5mH">
<text cb-classname="GraphicTextEntity" class="algorithm" id="5mZ" text-anchor="start" x="1540" y="660"/>
</g>
</g>
</g>
<g cb-alg-3="0" cb-alg-6XIVUo="DISABLED" cb-alg-6Xl="$543$cb-alg-out$" cb-alg-6ig64="NORMAL" cb-alg-6ig66="NORMAL" cb-alg-6ig68="NORMAL" cb-alg-6ig6G="NORMAL" cb-alg-6ig6h="NORMAL" cb-alg-6ig6i="NORMAL" cb-alg-6ig6o="NORMAL" cb-alg-6ig6t="NORMAL" cb-alg-C1qe4="TITLE6" cb-alg-C1qe6="TITLE4" cb-alg-C1qe8="TITLE8" cb-alg-C1qeG="TITLE5" cb-alg-C1qeh="TITLE7" cb-alg-C1qei="PASS CONDITION - 通过条件" cb-alg-C1qeo="DISABLE CONDITION -禁用条件" cb-alg-C1qet="TITLE3" cb-alg-C1qez="SEQUENCE" cb-alg-l6BeW="850" cb-alg-lXKhU="SIM-SEQXS01" cb-alg-q="0" cb-alg-xnT="DISABLED" cb-algorithm-id="008" cb-classname="AutomaticWindowAlgorithm" cb-function-name="PERMISSIVEWINDOW" id="8b">
<rect cb-classname="GraphicRectangleEntity" class="annotation" fill="white" height="110" id="8m" width="250" x="2080" y="480"/>
<text baseline-shift="0%" cb-classname="GraphicTextEntity" class="annotation" fill="#000000" font-family="MS Shell Dlg 2" font-size="18" id="86" x="2090" y="510">
SEQ STEPS
</text>
<text baseline-shift="0%" cb-classname="GraphicTextEntity" class="annotation" fill="#000000" font-family="MS Shell Dlg 2" id="8I" x="2090" y="550">
DISABLE
</text>
<text baseline-shift="0%" cb-classname="GraphicTextEntity" class="annotation" fill="#000000" font-family="MS Shell Dlg 2" id="9K" x="2090" y="580">
PASS 1
</text>
<text baseline-shift="0%" cb-classname="GraphicTextEntity" class="annotation" fill="#000000" font-family="MS Shell Dlg 2" id="9S" text-anchor="end" x="2320" y="580">
PASS 2
</text>
<line cb-classname="GraphicLineEntity" class="annotation" id="9N" x1="2080" x2="2330" y1="520" y2="520"/>
<g cb-classname="ControlPin" cb-pin-name="G2-S4Z-6eU" id="93">
<line cb-classname="GraphicLineEntity" class="signalline" id="9v" x1="2060" x2="2080" y1="540" y2="540"/>
<polygon cb-classname="GraphicPolygonEntity" class="signal" id="9p" points="2080,540 2069,534 2069,545"/>
<g cb-classname="DynamicText" cb-source="PO-Y6e-c9Ts" id="9b">
<text cb-classname="GraphicTextEntity" class="signal" id="9m" text-anchor="end" x="2065" y="537"/>
</g>
</g>
<g cb-classname="ControlPin" cb-pin-name="SR-KlR-Dvl" id="96">
<line cb-classname="GraphicLineEntity" class="signalline" id="9I" x1="2060" x2="2080" y1="570" y2="570"/>
<polygon cb-classname="GraphicPolygonEntity" class="signal" id="1Ks" points="2080,570 2069,564 2069,575"/>
<g cb-classname="DynamicText" cb-source="I4-nDv-tpNO" id="1KM">
<text cb-classname="GraphicTextEntity" class="signal" id="1KH" text-anchor="end" x="2065" y="567"/>
</g>
</g>
<g cb-classname="ControlPin" cb-pin-name="kF-Myi-fS8" id="1KZ">
<line cb-classname="GraphicLineEntity" class="signalline" id="1Kp" x1="2350" x2="2330" y1="570" y2="570"/>
<polygon cb-classname="GraphicPolygonEntity" class="signal" id="1Kj" points="2330,570 2340,575 2340,564"/>
<g cb-classname="DynamicText" cb-source="G2-M0D-XKhU" id="1Kl">
<text cb-classname="GraphicTextEntity" class="signal" id="1K8" text-anchor="start" x="2344" y="567"/>
</g>
</g>
<g cb-classname="GraphicShape" id="53p">
<g cb-classname="DynamicText" cb-labeled="true" cb-source="G2-S4Z-FeWPD" id="53j">
<text cb-classname="GraphicTextEntity" class="algorithm" id="53l" text-anchor="start" x="2100" y="450"/>
</g>
</g>
</g>
<g cb-alg-JS4q="1" cb-alg-bTT="SIM-SEQ1_PASS02" cb-alg-zHIZ="69" cb-algorithm-id="009" cb-classname="ControlAlgorithm" cb-function-name="DVALGEN" cb-modify-id="00000001" id="1Kv">
<rect cb-classname="GraphicRectangleEntity" class="algorithm" height="60" id="1Ko" width="100" x="650" y="1550"/>
<text baseline-shift="-50%" cb-classname="GraphicTextEntity" class="algorithm" font-size="18" id="1Ss" text-anchor="middle" x="700" y="1567">
DVAL
</text>
<text baseline-shift="-50%" cb-classname="GraphicTextEntity" class="algorithm" font-size="18" id="1SM" text-anchor="middle" x="700" y="1593">
GEN
</text>
<g cb-classname="ControlPin" cb-pin-name="Nu-W5W-nvd" id="1SH">
<line cb-classname="GraphicLineEntity" class="signalline" id="1SZ" x1="750" x2="770" y1="1580" y2="1580"/>
<g cb-classname="DynamicText" cb-source="I4-nDv-tpNO" class="signal" id="1Sp">
<text baseline-shift="5%" cb-classname="GraphicTextEntity" class="signal" fill="black" font-style="normal" font-weight="normal" id="1Sj" text-decoration="normal" x="764" y="1570"/>
</g>
<g cb-classname="SignalSegment" id="1Sl">
<g cb-classname="SignalSegment" id="1S8">
<line cb-classname="GraphicLineEntity" class="signalline" id="1Sv" stroke="#1e12bf" stroke-dasharray="5,4" x1="1960" x2="1960" y1="1580" y2="1450"/>
<g cb-classname="SignalSegment" id="1So">
<line cb-classname="GraphicLineEntity" class="signalline" id="1Ns" stroke="#1e12bf" stroke-dasharray="5,4" x1="1960" x2="2060" y1="1450" y2="1450"/>
<g cb-classname="SignalConnection" cb-graphic-line="$120$" cb-input-pin="$esH$" id="1NM"/>
</g>
<line cb-classname="GraphicLineEntity" class="signalline" id="1NH" stroke="#1e12bf" stroke-dasharray="5,4" x1="1960" x2="2970" y1="1580" y2="1580"/>
<g cb-classname="SignalConnection" cb-graphic-line="$122$" cb-input-pin="$EDz$" id="1NZ"/>
<ellipse cb-classname="GraphicEllipseEntity" class="signal" cx="1960" cy="1580" fill="#1e12bf" id="1Np" rx="5" ry="5" stroke="#1e12bf" stroke-dasharray="5,4"/>
</g>
<line cb-classname="GraphicLineEntity" class="signalline" id="1Nj" stroke="#1e12bf" stroke-dasharray="5,4" x1="770" x2="1960" y1="1580" y2="1580"/>
</g>
</g>
<g cb-classname="GraphicShape" id="1Nl">
<g cb-classname="DynamicText" cb-labeled="false" cb-source="I4-9JL-w63" id="1N8">
<text cb-classname="GraphicTextEntity" class="algorithm" id="1Nv" text-anchor="start" x="280" y="1610"/>
</g>
</g>
</g>
<g cb-alg-BDIY1="TITLE4" cb-alg-BDIY7="TITLE5" cb-alg-BDIY8="TITLE6" cb-alg-BDIYB="TITLE7" cb-alg-BDIYf="TITLE8" cb-alg-BDIYl="PASS CONDITION - 通过条件" cb-alg-BDIYm="DISABLE CONDITION -禁用条件" cb-alg-BDIYo="TITLE3" cb-alg-BDIYr="SEQUENCE" cb-alg-C="0" cb-alg-D="0" cb-alg-EGh="DISABLED" cb-alg-qmO="$108$cb-alg-out$" cb-alg-qmaded="DISABLED" cb-alg-quqv1="NORMAL" cb-alg-quqv7="NORMAL" cb-alg-quqv8="NORMAL" cb-alg-quqvB="NORMAL" cb-alg-quqvf="NORMAL" cb-alg-quqvl="NORMAL" cb-alg-quqvm="NORMAL" cb-alg-quqvo="NORMAL" cb-alg-yktYi="850" cb-alg-ymzCe="SIM-SEQ1XS02" cb-algorithm-id="00A" cb-classname="AutomaticWindowAlgorithm" cb-function-name="PERMISSIVEWINDOW" id="1No">
<rect cb-classname="GraphicRectangleEntity" class="annotation" fill="white" height="110" id="13s" width="250" x="2080" y="1360"/>
<text baseline-shift="0%" cb-classname="GraphicTextEntity" class="annotation" fill="#000000" font-family="MS Shell Dlg 2" font-size="18" id="13M" x="2090" y="1390">
SEQ STEPS
</text>
<text baseline-shift="0%" cb-classname="GraphicTextEntity" class="annotation" fill="#000000" font-family="MS Shell Dlg 2" id="13H" x="2090" y="1430">
DISABLE
</text>
<text baseline-shift="0%" cb-classname="GraphicTextEntity" class="annotation" fill="#000000" font-family="MS Shell Dlg 2" id="13Z" x="2090" y="1460">
PASS 1
</text>
<text baseline-shift="0%" cb-classname="GraphicTextEntity" class="annotation" fill="#000000" font-family="MS Shell Dlg 2" id="13p" text-anchor="end" x="2320" y="1460">
PASS 2
</text>
<line cb-classname="GraphicLineEntity" class="annotation" id="13j" x1="2080" x2="2330" y1="1400" y2="1400"/>
<g cb-classname="ControlPin" cb-pin-name="Ry-4k7-kKP" id="13l">
<line cb-classname="GraphicLineEntity" class="signalline" id="138" x1="2060" x2="2080" y1="1420" y2="1420"/>
<polygon cb-classname="GraphicPolygonEntity" class="signal" id="13v" points="2080,1420 2069,1414 2069,1425"/>
<g cb-classname="DynamicText" cb-source="iH-SkK-2wkb" id="13o">
<text cb-classname="GraphicTextEntity" class="signal" id="1vs" text-anchor="end" x="2065" y="1417"/>
</g>
</g>
<g cb-classname="ControlPin" cb-pin-name="yT-zOO-zYj" id="1vM">
<line cb-classname="GraphicLineEntity" class="signalline" id="1vH" x1="2060" x2="2080" y1="1450" y2="1450"/>
<polygon cb-classname="GraphicPolygonEntity" class="signal" id="1vZ" points="2080,1450 2069,1444 2069,1455"/>
<g cb-classname="DynamicText" cb-source="FE-FHh-p4dq" id="1vp">
<text cb-classname="GraphicTextEntity" class="signal" id="1vj" text-anchor="end" x="2065" y="1447"/>
</g>
</g>
<g cb-classname="ControlPin" cb-pin-name="87-IiF-r6t" id="1vl">
<line cb-classname="GraphicLineEntity" class="signalline" id="1v8" x1="2350" x2="2330" y1="1450" y2="1450"/>
<polygon cb-classname="GraphicPolygonEntity" class="signal" id="1vv" points="2330,1450 2340,1455 2340,1444"/>
<g cb-classname="DynamicText" cb-source="Ry-7r6-mzCe" id="1vo">
<text cb-classname="GraphicTextEntity" class="signal" id="1ps" text-anchor="start" x="2344" y="1447"/>
</g>
</g>
<g cb-classname="GraphicShape" id="538">
<g cb-classname="DynamicText" cb-labeled="true" cb-source="PO-oAG-ymzCe" id="53v">
<text cb-classname="GraphicTextEntity" class="algorithm" id="53o" text-anchor="start" x="2100" y="1330"/>
</g>
</g>
</g>
<g cb-alg-Q4kn="1" cb-alg-TpN="SIM-SEQ1_PASS03_OUT" cb-alg-oAG="SIM-SEQ1_PASS03" cb-alg-x6K7="69" cb-algorithm-id="00C" cb-classname="ControlAlgorithm" cb-function-name="DVALGEN" cb-modify-id="00000001" id="1pM">
<rect cb-classname="GraphicRectangleEntity" class="algorithm" height="60" id="1pH" width="100" x="650" y="2350"/>
<text baseline-shift="-50%" cb-classname="GraphicTextEntity" class="algorithm" font-size="18" id="1pZ" text-anchor="middle" x="700" y="2367">
DVAL
</text>
<text baseline-shift="-50%" cb-classname="GraphicTextEntity" class="algorithm" font-size="18" id="1pp" text-anchor="middle" x="700" y="2393">
GEN
</text>
<g cb-classname="ControlPin" cb-pin-name="kF-Myi-Kaz" id="1pj">
<line cb-classname="GraphicLineEntity" class="signalline" id="1pl" x1="750" x2="770" y1="2380" y2="2380"/>
<g cb-classname="DynamicText" cb-source="FE-FHh-p4dq" class="signal" id="1p8">
<text baseline-shift="5%" cb-classname="GraphicTextEntity" class="signal" fill="black" font-style="normal" font-weight="normal" id="1pv" text-decoration="normal" x="764" y="2370"/>
</g>
<g cb-classname="SignalSegment" id="1po">
<g cb-classname="SignalSegment" id="1bs">
<line cb-classname="GraphicLineEntity" class="signalline" id="1bM" stroke="#1e12bf" stroke-dasharray="5,4" x1="1960" x2="1960" y1="2380" y2="2250"/>
<g cb-classname="SignalSegment" id="1bH">
<line cb-classname="GraphicLineEntity" class="signalline" id="1bZ" stroke="#1e12bf" stroke-dasharray="5,4" x1="1960" x2="2060" y1="2250" y2="2250"/>
<g cb-classname="SignalConnection" cb-graphic-line="$163$" cb-input-pin="$9RC$" id="1bp"/>
</g>
<line cb-classname="GraphicLineEntity" class="signalline" id="1bj" stroke="#1e12bf" stroke-dasharray="5,4" x1="1960" x2="2970" y1="2380" y2="2380"/>
<g cb-classname="SignalConnection" cb-graphic-line="$165$" cb-input-pin="$U8g$" id="1bl"/>
<ellipse cb-classname="GraphicEllipseEntity" class="signal" cx="1960" cy="2380" fill="#1e12bf" id="1b8" rx="5" ry="5" stroke="#1e12bf" stroke-dasharray="5,4"/>
</g>
<line cb-classname="GraphicLineEntity" class="signalline" id="1bv" stroke="#1e12bf" stroke-dasharray="5,4" x1="770" x2="1960" y1="2380" y2="2380"/>
</g>
</g>
<g cb-classname="GraphicShape" id="1bo">
<g cb-classname="DynamicText" cb-labeled="false" cb-source="FE-bTT-oAG" id="1ms">
<text cb-classname="GraphicTextEntity" class="algorithm" id="1mM" text-anchor="start" x="280" y="2410"/>
</g>
</g>
</g>
<g cb-alg-DFe="$151$cb-alg-out$" cb-alg-DbPe="SIM-SEQ1_XS03" cb-alg-R9ST="161" cb-alg-RX5R="TEST STR STEP 3" cb-alg-RX5RE="03" cb-alg-auVB-o0uWs="0" cb-alg-auVB-o1Ee="1" cb-alg-auVB-oDk8="0" cb-alg-auVB-oNKv4="0" cb-alg-auVB-oNKv6="0" cb-alg-auVB-oNKv8="0" cb-alg-auVB-oNKvG="0" cb-alg-auVB-oNKvh="0" cb-alg-auVB-oNKvi="0" cb-alg-auVB-oNKvo="0" cb-alg-auVB-oNKvt="0" cb-alg-auVB-oSQW5="0" cb-alg-auVB-oX="AUXSCSTEP2" cb-alg-auVB-oig04="0" cb-alg-auVB-oig06="0" cb-alg-auVB-oig0G="0" cb-alg-auVB-oig0h="0" cb-alg-auVB-oig0i="0" cb-alg-auVB-oig0o="0" cb-alg-auVB-oig0t="0" cb-alg-auVB-onTFc="0" cb-alg-auVB-xyElB="0" cb-alg-auVM-o0uWs="0" cb-alg-auVM-o1Ee="1" cb-alg-auVM-oDk8="0" cb-alg-auVM-oNKv4="0" cb-alg-auVM-oNKv6="0" cb-alg-auVM-oNKv8="0" cb-alg-auVM-oNKvG="0" cb-alg-auVM-oNKvh="0" cb-alg-auVM-oNKvi="0" cb-alg-auVM-oNKvo="0" cb-alg-auVM-oNKvt="0" cb-alg-auVM-oSQW5="0" cb-alg-auVM-oX="AUXSCSTEP2" cb-alg-auVM-oig04="0" cb-alg-auVM-oig06="0" cb-alg-auVM-oig0G="0" cb-alg-auVM-oig0h="0" cb-alg-auVM-oig0i="0" cb-alg-auVM-oig0o="0" cb-alg-auVM-oig0t="0" cb-alg-auVM-onTFc="0" cb-alg-auVM-xyElB="0" cb-alg-auVN-C8g0="9" cb-alg-auVN-C8uWs="0.000000" cb-alg-auVN-C9g0="9" cb-alg-auVN-C9uWs="0.000000" cb-alg-auVN-CFN="1" cb-alg-auVN-CjN="11" cb-alg-auVN-Ckg0="9" cb-alg-auVN-CkuWs="0.000000" cb-alg-auVN-Cy1e="0" cb-alg-auVN-Czg0="7" cb-alg-auVN-CzuWs="0.000000" cb-alg-auVN-arBq="0" cb-alg-auVN-oX="AUXSCSTEP1" cb-alg-auVW-o0uWs="0" cb-alg-auVW-o1Ee="1" cb-alg-auVW-oDk8="0" cb-alg-auVW-oNKv4="0" cb-alg-auVW-oNKv6="0" cb-alg-auVW-oNKv8="0" cb-alg-auVW-oNKvG="0" cb-alg-auVW-oNKvh="0" cb-alg-auVW-oNKvi="0" cb-alg-auVW-oNKvo="0" cb-alg-auVW-oNKvt="0" cb-alg-auVW-oSQW5="0" cb-alg-auVW-oX="AUXSCSTEP2" cb-alg-auVW-oig04="0" cb-alg-auVW-oig06="0" cb-alg-auVW-oig0G="0" cb-alg-auVW-oig0h="0" cb-alg-auVW-oig0i="0" cb-alg-auVW-oig0o="0" cb-alg-auVW-oig0t="0" cb-alg-auVW-onTFc="0" cb-alg-auVW-xyElB="0" cb-alg-auVX-o0uWs="0" cb-alg-auVX-o1Ee="1" cb-alg-auVX-oDk8="0" cb-alg-auVX-oNKv4="0" cb-alg-auVX-oNKv6="0" cb-alg-auVX-oNKv8="0" cb-alg-auVX-oNKvG="0" cb-alg-auVX-oNKvh="0" cb-alg-auVX-oNKvi="0" cb-alg-auVX-oNKvo="0" cb-alg-auVX-oNKvt="0" cb-alg-auVX-oSQW5="0" cb-alg-auVX-oX="AUXSCSTEP2" cb-alg-auVX-oig04="0" cb-alg-auVX-oig06="0" cb-alg-auVX-oig0G="0" cb-alg-auVX-oig0h="0" cb-alg-auVX-oig0i="0" cb-alg-auVX-oig0o="0" cb-alg-auVX-oig0t="0" cb-alg-auVX-onTFc="0" cb-alg-auVX-xyElB="0" cb-alg-auVi-o0uWs="0" cb-alg-auVi-o1Ee="1" cb-alg-auVi-oDk8="0" cb-alg-auVi-oNKv4="0" cb-alg-auVi-oNKv6="0" cb-alg-auVi-oNKv8="0" cb-alg-auVi-oNKvG="0" cb-alg-auVi-oNKvh="0" cb-alg-auVi-oNKvi="0" cb-alg-auVi-oNKvo="0" cb-alg-auVi-oNKvt="0" cb-alg-auVi-oSQW5="0" cb-alg-auVi-oX="AUXSCSTEP2" cb-alg-auVi-oig04="0" cb-alg-auVi-oig06="0" cb-alg-auVi-oig0G="0" cb-alg-auVi-oig0h="0" cb-alg-auVi-oig0i="0" cb-alg-auVi-oig0o="0" cb-alg-auVi-oig0t="0" cb-alg-auVi-onTFc="0" cb-alg-auVi-xyElB="0" cb-alg-auVr-o0uWs="0" cb-alg-auVr-o1Ee="1" cb-alg-auVr-oDk8="0" cb-alg-auVr-oNKv4="0" cb-alg-auVr-oNKv6="0" cb-alg-auVr-oNKv8="0" cb-alg-auVr-oNKvG="0" cb-alg-auVr-oNKvh="0" cb-alg-auVr-oNKvi="0" cb-alg-auVr-oNKvo="0" cb-alg-auVr-oNKvt="0" cb-alg-auVr-oSQW5="0" cb-alg-auVr-oX="AUXSCSTEP2" cb-alg-auVr-oig04="0" cb-alg-auVr-oig06="0" cb-alg-auVr-oig0G="0" cb-alg-auVr-oig0h="0" cb-alg-auVr-oig0i="0" cb-alg-auVr-oig0o="0" cb-alg-auVr-oig0t="0" cb-alg-auVr-onTFc="0" cb-alg-auVr-xyElB="0" cb-alg-auVs-o0uWs="0" cb-alg-auVs-o1Ee="1" cb-alg-auVs-oDk8="0" cb-alg-auVs-oNKv4="0" cb-alg-auVs-oNKv6="0" cb-alg-auVs-oNKv8="0" cb-alg-auVs-oNKvG="0" cb-alg-auVs-oNKvh="0" cb-alg-auVs-oNKvi="0" cb-alg-auVs-oNKvo="0" cb-alg-auVs-oNKvt="0" cb-alg-auVs-oSQW5="0" cb-alg-auVs-oX="AUXSCSTEP2" cb-alg-auVs-oig04="0" cb-alg-auVs-oig06="0" cb-alg-auVs-oig0G="0" cb-alg-auVs-oig0h="0" cb-alg-auVs-oig0i="0" cb-alg-auVs-oig0o="0" cb-alg-auVs-oig0t="0" cb-alg-auVs-onTFc="0" cb-alg-auVs-xyElB="0" cb-alg-auVu-o0uWs="0" cb-alg-auVu-o1Ee="1" cb-alg-auVu-oDk8="0" cb-alg-auVu-oNKv4="0" cb-alg-auVu-oNKv6="0" cb-alg-auVu-oNKv8="0" cb-alg-auVu-oNKvG="0" cb-alg-auVu-oNKvh="0" cb-alg-auVu-oNKvi="0" cb-alg-auVu-oNKvo="0" cb-alg-auVu-oNKvt="0" cb-alg-auVu-oSQW5="0" cb-alg-auVu-oX="AUXSCSTEP2" cb-alg-auVu-oig04="0" cb-alg-auVu-oig06="0" cb-alg-auVu-oig0G="0" cb-alg-auVu-oig0h="0" cb-alg-auVu-oig0i="0" cb-alg-auVu-oig0o="0" cb-alg-auVu-oig0t="0" cb-alg-auVu-onTFc="0" cb-alg-auVu-xyElB="0" cb-alg-aw2="SIM-SEQ1XS03" cb-alg-oinU="3" cb-algorithm-id="003" cb-classname="ControlAlgorithm" cb-function-name="SCSTEP" cb-modify-id="00000001" id="1mH">
<rect cb-classname="GraphicRectangleEntity" class="annotation" fill="none" height="120" id="1mZ" stroke-width="2" width="500" x="3000" y="2280"/>
<g cb-classname="ControlPin" cb-pin-name="PO-oAG-EGziy" id="1mp">
<line cb-classname="GraphicLineEntity" class="signalline" id="1mj" x1="2970" x2="3000" y1="2300" y2="2300"/>
<polygon cb-classname="GraphicPolygonEntity" class="signal" id="1ml" points="3000,2300 2989,2294 2989,2305"/>
<g cb-classname="DynamicText" cb-source="Nu-0qm-vTsP" id="1m8">
<text cb-classname="GraphicTextEntity" class="signal" id="1mv" text-anchor="end" x="2985" y="2297"/>
</g>
</g>
<g cb-classname="ControlPin" cb-pin-name="I4-9JL-d31X" id="1mo">
<line cb-classname="GraphicLineEntity" class="signalline" id="16s" x1="2970" x2="3000" y1="2340" y2="2340"/>
<polygon cb-classname="GraphicPolygonEntity" class="signal" id="16M" points="3000,2340 2989,2334 2989,2345"/>
<g cb-classname="DynamicText" cb-source="cR-K93-Dojz" id="16H">
<text cb-classname="GraphicTextEntity" class="signal" id="16Z" text-anchor="end" x="2985" y="2337"/>
</g>
</g>
<g cb-classname="ControlPin" cb-pin-name="G2-S4Z-0TU" id="16p">
<line cb-classname="GraphicLineEntity" class="signalline" id="16j" x1="2970" x2="3000" y1="2380" y2="2380"/>
<polygon cb-classname="GraphicPolygonEntity" class="signal" id="16l" points="3000,2380 2989,2374 2989,2385"/>
<g cb-classname="DynamicText" cb-source="PO-Y6e-c9Ts" id="168">
<text cb-classname="GraphicTextEntity" class="signal" id="16v" text-anchor="end" x="2985" y="2377"/>
</g>
</g>
<g cb-classname="ControlPin" cb-pin-name="SR-KlR-pdL7J" id="16o">
<line cb-classname="GraphicLineEntity" class="signalline" id="1Is" x1="3040" x2="3040" y1="2420" y2="2400"/>
<polygon cb-classname="GraphicPolygonEntity" class="signal" id="1IM" points="3040,2400 3034,2410 3045,2410"/>
<g cb-classname="DynamicText" cb-source="I4-nDv-tpNO" id="1IH">
<text cb-classname="GraphicTextEntity" class="signal" id="1IZ" text-anchor="end" transform="translate(3037,2414)rotate(-90)"/>
</g>
</g>
<g cb-classname="ControlPin" cb-pin-name="kF-Myi-42N" id="1Ip">
<line cb-classname="GraphicLineEntity" class="signalline" id="1Ij" x1="3040" x2="3040" y1="2280" y2="2260"/>
<g cb-classname="DynamicText" cb-source="FE-FHh-p4dq" id="1Il">
<text cb-classname="GraphicTextEntity" class="signal" id="1I8" text-anchor="start" transform="translate(3037,2265)rotate(-90)"/>
</g>
<g cb-classname="SignalSegment" id="1Iv">
<line cb-classname="GraphicLineEntity" class="signalline" id="1Io" x1="3040" x2="3040" y1="2260" y2="1620"/>
<g cb-classname="SignalConnection" cb-graphic-line="$199$" cb-input-pin="$irh$" id="2Ks"/>
</g>
</g>
<g cb-classname="ControlPin" cb-pin-name="Ry-4k7-oz8q" id="2KM">
<line cb-classname="GraphicLineEntity" class="signalline" id="2KH" x1="3500" x2="3520" y1="2380" y2="2380"/>
<g cb-classname="DynamicText" cb-source="Nu-0qm-vTsP" id="2KZ">
<text cb-classname="GraphicTextEntity" class="signal" id="2Kp" text-anchor="start" x="3514" y="2377"/>
</g>
<g cb-classname="SignalSegment" id="2Kj">
<line cb-classname="GraphicLineEntity" class="signalline" id="2Kl" stroke="#1e12bf" stroke-dasharray="5,4" x1="3520" x2="4730" y1="2380" y2="2380"/>
<g cb-classname="SignalConnection" cb-graphic-line="$206$" cb-input-pin="$g8J$" id="2K8"/>
</g>
</g>
<g cb-classname="GraphicShape" id="2Kv">
<g cb-classname="DynamicText" cb-labeled="false" cb-source="FE-bTT-x1Ey" id="2Ko">
<text baseline-shift="0%" cb-classname="GraphicTextEntity" class="algorithm" id="2Ss" text-anchor="start" x="3080" y="2270"/>
</g>
</g>
<g cb-classname="GraphicShape" id="2SM">
<rect cb-classname="GraphicRectangleEntity" class="annotation" fill="white" height="40" id="2SH" width="80" x="3000" y="2360"/>
<rect cb-classname="GraphicRectangleEntity" class="annotation" fill="white" height="40" id="2SZ" width="80" x="3000" y="2280"/>
<rect cb-classname="GraphicRectangleEntity" class="annotation" fill="white" height="40" id="2Sp" width="170" x="3080" y="2280"/>
<text baseline-shift="0%" cb-classname="GraphicTextEntity" class="annotation" fill="#000000" font-family="MS Shell Dlg 2" font-size="14" id="2Sj" x="3020" y="2385">
SSID
</text>
<text baseline-shift="0%" cb-classname="GraphicTextEntity" class="annotation" fill="#000000" font-family="MS Shell Dlg 2" font-size="14" id="2Sl" x="3025" y="2305">
ALG
</text>
<rect cb-classname="GraphicRectangleEntity" class="annotation" fill="white" height="40" id="2S8" width="150" x="3000" y="2320"/>
<rect cb-classname="GraphicRectangleEntity" class="annotation" fill="white" height="40" id="2Sv" width="350" x="3150" y="2320"/>
<text baseline-shift="0%" cb-classname="GraphicTextEntity" class="annotation" fill="#000000" font-family="MS Shell Dlg 2" font-size="14" id="2So" x="3045" y="2350">
SCStep
</text>
<rect cb-classname="GraphicRectangleEntity" class="annotation" fill="white" height="40" id="2Ns" width="85" x="3415" y="2360"/>
<rect cb-classname="GraphicRectangleEntity" class="annotation" fill="white" height="40" id="2NM" width="335" x="3080" y="2360"/>
<text baseline-shift="0%" cb-classname="GraphicTextEntity" class="annotation" fill="#000000" font-family="MS Shell Dlg 2" font-size="14" id="2NH" x="3425" y="2385">
STEP
</text>
<rect cb-classname="GraphicRectangleEntity" class="annotation" fill="white" height="40" id="2NZ" width="125" x="3250" y="2280"/>
<text baseline-shift="0%" cb-classname="GraphicTextEntity" class="annotation" fill="#000000" font-family="MS Shell Dlg 2" font-size="14" id="2Np" x="3255" y="2305">
TM=
</text>
<rect cb-classname="GraphicRectangleEntity" class="annotation" fill="white" height="40" id="2Nj" width="125" x="3375" y="2280"/>
<text baseline-shift="0%" cb-classname="GraphicTextEntity" class="annotation" fill="#000000" font-family="MS Shell Dlg 2" font-size="14" id="2Nl" x="3380" y="2305">
TW=
</text>
</g>
<g cb-classname="GraphicShape" id="2N8">
<g cb-classname="DynamicText" cb-labeled="false" cb-source="SR-KlR-zOO" id="2Nv">
<text baseline-shift="-50%" cb-classname="GraphicTextEntity" class="algorithm" font-size="18" id="2No" text-anchor="end" x="3490" y="2335"/>
</g>
</g>
<g cb-classname="GraphicShape" id="23s">
<g cb-classname="DynamicText" cb-labeled="false" cb-source="I4-9JL-7P7JV" id="23M">
<text cb-classname="GraphicTextEntity" class="algorithm" font-size="14" id="23H" text-anchor="start" x="3470" y="2385"/>
</g>
</g>
<g cb-classname="GraphicShape" id="23Z">
<g cb-classname="DynamicText" cb-labeled="false" cb-source="cR-aw2-6GaO-B8w" id="23p">
<text cb-classname="GraphicTextEntity" class="algorithm" font-size="14" id="23j" text-anchor="start" x="3300" y="2305"/>
</g>
</g>
<g cb-classname="GraphicShape" id="23l">
<g cb-classname="DynamicText" cb-labeled="false" cb-source="87-IiF-KnDw-YMd" id="238">
<text cb-classname="GraphicTextEntity" class="algorithm" font-size="14" id="23v" text-anchor="start" x="3425" y="2305"/>
</g>
</g>
</g>
<g cb-alg-5eMY="2" cb-alg-5fOxz="$172$cb-alg-alg$" cb-alg-K06F="161" cb-alg-KmKN="TEST STR STEP 2" cb-alg-KmKNk="02" cb-alg-S4Z="SIM-SEQ1XS02" cb-alg-SVk0-Bvxiw="0" cb-alg-SVk0-K6="AUXSCSTEP2" cb-alg-SVk0-KBMH3="0" cb-alg-SVk0-KBMH5="0" cb-alg-SVk0-KBMH8="0" cb-alg-SVk0-KBMHO="0" cb-alg-SVk0-KBMHQ="0" cb-alg-SVk0-KBMHS="0" cb-alg-SVk0-KBMHb="0" cb-alg-SVk0-KBMHg="0" cb-alg-SVk0-KDv9J="0" cb-alg-SVk0-KR5C="0" cb-alg-SVk0-KVSkK="0" cb-alg-SVk0-Keg9s="0" cb-alg-SVk0-Kqxo="0" cb-alg-SVk0-Kydn3="0" cb-alg-SVk0-Kydn5="0" cb-alg-SVk0-Kydn8="0" cb-alg-SVk0-KydnO="0" cb-alg-SVk0-KydnQ="0" cb-alg-SVk0-KydnS="0" cb-alg-SVk0-Kydnb="0" cb-alg-SVk2-Bvxiw="0" cb-alg-SVk2-K6="AUXSCSTEP2" cb-alg-SVk2-KBMH3="0" cb-alg-SVk2-KBMH5="0" cb-alg-SVk2-KBMH8="0" cb-alg-SVk2-KBMHO="0" cb-alg-SVk2-KBMHQ="0" cb-alg-SVk2-KBMHS="0" cb-alg-SVk2-KBMHb="0" cb-alg-SVk2-KBMHg="0" cb-alg-SVk2-KDv9J="0" cb-alg-SVk2-KR5C="0" cb-alg-SVk2-KVSkK="0" cb-alg-SVk2-Keg9s="0" cb-alg-SVk2-Kqxo="0" cb-alg-SVk2-Kydn3="0" cb-alg-SVk2-Kydn5="0" cb-alg-SVk2-Kydn8="0" cb-alg-SVk2-KydnO="0" cb-alg-SVk2-KydnQ="0" cb-alg-SVk2-KydnS="0" cb-alg-SVk2-Kydnb="0" cb-alg-SVk9-K6="AUXSCSTEP1" cb-alg-SVk9-N5dn="9" cb-alg-SVk9-N5g9s="0" cb-alg-SVk9-NIB="1" cb-alg-SVk9-NUdn="7" cb-alg-SVk9-NUg9s="0" cb-alg-SVk9-Nfdn="9" cb-alg-SVk9-Nfg9s="0" cb-alg-SVk9-NhB="11" cb-alg-SVk9-Nudn="9" cb-alg-SVk9-Nug9s="0" cb-alg-SVk9-Nvyo="0" cb-alg-SVk9-d3ED="0" cb-alg-SVkA-Bvxiw="0" cb-alg-SVkA-K6="AUXSCSTEP2" cb-alg-SVkA-KBMH3="0" cb-alg-SVkA-KBMH5="0" cb-alg-SVkA-KBMH8="0" cb-alg-SVkA-KBMHO="0" cb-alg-SVkA-KBMHQ="0" cb-alg-SVkA-KBMHS="0" cb-alg-SVkA-KBMHb="0" cb-alg-SVkA-KBMHg="0" cb-alg-SVkA-KDv9J="0" cb-alg-SVkA-KR5C="0" cb-alg-SVkA-KVSkK="0" cb-alg-SVkA-Keg9s="0" cb-alg-SVkA-Kqxo="0" cb-alg-SVkA-Kydn3="0" cb-alg-SVkA-Kydn5="0" cb-alg-SVkA-Kydn8="0" cb-alg-SVkA-KydnO="0" cb-alg-SVkA-KydnQ="0" cb-alg-SVkA-KydnS="0" cb-alg-SVkA-Kydnb="0" cb-alg-SVkD-Bvxiw="0" cb-alg-SVkD-K6="AUXSCSTEP2" cb-alg-SVkD-KBMH3="0" cb-alg-SVkD-KBMH5="0" cb-alg-SVkD-KBMH8="0" cb-alg-SVkD-KBMHO="0" cb-alg-SVkD-KBMHQ="0" cb-alg-SVkD-KBMHS="0" cb-alg-SVkD-KBMHb="0" cb-alg-SVkD-KBMHg="0" cb-alg-SVkD-KDv9J="0" cb-alg-SVkD-KR5C="0" cb-alg-SVkD-KVSkK="0" cb-alg-SVkD-Keg9s="0" cb-alg-SVkD-Kqxo="0" cb-alg-SVkD-Kydn3="0" cb-alg-SVkD-Kydn5="0" cb-alg-SVkD-Kydn8="0" cb-alg-SVkD-KydnO="0" cb-alg-SVkD-KydnQ="0" cb-alg-SVkD-KydnS="0" cb-alg-SVkD-Kydnb="0" cb-alg-SVkJ-Bvxiw="0" cb-alg-SVkJ-K6="AUXSCSTEP2" cb-alg-SVkJ-KBMH3="0" cb-alg-SVkJ-KBMH5="0" cb-alg-SVkJ-KBMH8="0" cb-alg-SVkJ-KBMHO="0" cb-alg-SVkJ-KBMHQ="0" cb-alg-SVkJ-KBMHS="0" cb-alg-SVkJ-KBMHb="0" cb-alg-SVkJ-KBMHg="0" cb-alg-SVkJ-KDv9J="0" cb-alg-SVkJ-KR5C="0" cb-alg-SVkJ-KVSkK="0" cb-alg-SVkJ-Keg9s="0" cb-alg-SVkJ-Kqxo="0" cb-alg-SVkJ-Kydn3="0" cb-alg-SVkJ-Kydn5="0" cb-alg-SVkJ-Kydn8="0" cb-alg-SVkJ-KydnO="0" cb-alg-SVkJ-KydnQ="0" cb-alg-SVkJ-KydnS="0" cb-alg-SVkJ-Kydnb="0" cb-alg-SVkL-Bvxiw="0" cb-alg-SVkL-K6="AUXSCSTEP2" cb-alg-SVkL-KBMH3="0" cb-alg-SVkL-KBMH5="0" cb-alg-SVkL-KBMH8="0" cb-alg-SVkL-KBMHO="0" cb-alg-SVkL-KBMHQ="0" cb-alg-SVkL-KBMHS="0" cb-alg-SVkL-KBMHb="0" cb-alg-SVkL-KBMHg="0" cb-alg-SVkL-KDv9J="0" cb-alg-SVkL-KR5C="0" cb-alg-SVkL-KVSkK="0" cb-alg-SVkL-Keg9s="0" cb-alg-SVkL-Kqxo="0" cb-alg-SVkL-Kydn3="0" cb-alg-SVkL-Kydn5="0" cb-alg-SVkL-Kydn8="0" cb-alg-SVkL-KydnO="0" cb-alg-SVkL-KydnQ="0" cb-alg-SVkL-KydnS="0" cb-alg-SVkL-Kydnb="0" cb-alg-SVkh-Bvxiw="0" cb-alg-SVkh-K6="AUXSCSTEP2" cb-alg-SVkh-KBMH3="0" cb-alg-SVkh-KBMH5="0" cb-alg-SVkh-KBMH8="0" cb-alg-SVkh-KBMHO="0" cb-alg-SVkh-KBMHQ="0" cb-alg-SVkh-KBMHS="0" cb-alg-SVkh-KBMHb="0" cb-alg-SVkh-KBMHg="0" cb-alg-SVkh-KDv9J="0" cb-alg-SVkh-KR5C="0" cb-alg-SVkh-KVSkK="0" cb-alg-SVkh-Keg9s="0" cb-alg-SVkh-Kqxo="0" cb-alg-SVkh-Kydn3="0" cb-alg-SVkh-Kydn5="0" cb-alg-SVkh-Kydn8="0" cb-alg-SVkh-KydnO="0" cb-alg-SVkh-KydnQ="0" cb-alg-SVkh-KydnS="0" cb-alg-SVkh-Kydnb="0" cb-alg-SVkj-Bvxiw="0" cb-alg-SVkj-K6="AUXSCSTEP2" cb-alg-SVkj-KBMH3="0" cb-alg-SVkj-KBMH5="0" cb-alg-SVkj-KBMH8="0" cb-alg-SVkj-KBMHO="0" cb-alg-SVkj-KBMHQ="0" cb-alg-SVkj-KBMHS="0" cb-alg-SVkj-KBMHb="0" cb-alg-SVkj-KBMHg="0" cb-alg-SVkj-KDv9J="0" cb-alg-SVkj-KR5C="0" cb-alg-SVkj-KVSkK="0" cb-alg-SVkj-Keg9s="0" cb-alg-SVkj-Kqxo="0" cb-alg-SVkj-Kydn3="0" cb-alg-SVkj-Kydn5="0" cb-alg-SVkj-Kydn8="0" cb-alg-SVkj-KydnO="0" cb-alg-SVkj-KydnQ="0" cb-alg-SVkj-KydnS="0" cb-alg-SVkj-Kydnb="0" cb-alg-oISC="SIM-SEQ1_XS02" cb-alg-oUH="$108$cb-alg-out$" cb-algorithm-id="002" cb-classname="ControlAlgorithm" cb-function-name="SCSTEP" cb-modify-id="00000001" id="23o">
<rect cb-classname="GraphicRectangleEntity" class="annotation" fill="none" height="120" id="2vs" stroke-width="2" width="500" x="3000" y="1480"/>
<g cb-classname="ControlPin" cb-pin-name="SR-KlR-tdTz6" id="2vM">
<line cb-classname="GraphicLineEntity" class="signalline" id="2vH" x1="2970" x2="3000" y1="1500" y2="1500"/>
<polygon cb-classname="GraphicPolygonEntity" class="signal" id="2vZ" points="3000,1500 2989,1494 2989,1505"/>
<g cb-classname="DynamicText" cb-source="I4-nDv-tpNO" id="2vp">
<text cb-classname="GraphicTextEntity" class="signal" id="2vj" text-anchor="end" x="2985" y="1497"/>
</g>
</g>
<g cb-classname="ControlPin" cb-pin-name="kF-Myi-aHYx" id="2vl">
<line cb-classname="GraphicLineEntity" class="signalline" id="2v8" x1="2970" x2="3000" y1="1540" y2="1540"/>
<polygon cb-classname="GraphicPolygonEntity" class="signal" id="2vv" points="3000,1540 2989,1534 2989,1545"/>
<g cb-classname="DynamicText" cb-source="G2-M0D-XKhU" id="2vo">
<text cb-classname="GraphicTextEntity" class="signal" id="2ps" text-anchor="end" x="2985" y="1537"/>
</g>
</g>
<g cb-classname="ControlPin" cb-pin-name="c0-6EW-eSw" id="2pM">
<line cb-classname="GraphicLineEntity" class="signalline" id="2pH" x1="2970" x2="3000" y1="1580" y2="1580"/>
<polygon cb-classname="GraphicPolygonEntity" class="signal" id="2pZ" points="3000,1580 2989,1574 2989,1585"/>
<g cb-classname="DynamicText" cb-source="SR-TFc-KMgc" id="2pp">
<text cb-classname="GraphicTextEntity" class="signal" id="2pj" text-anchor="end" x="2985" y="1577"/>
</g>
</g>
<g cb-classname="ControlPin" cb-pin-name="iH-MiV-HGz1L" id="2pl">
<line cb-classname="GraphicLineEntity" class="signalline" id="2p8" x1="3040" x2="3040" y1="1620" y2="1600"/>
<polygon cb-classname="GraphicPolygonEntity" class="signal" id="2pv" points="3040,1600 3034,1610 3045,1610"/>
<g cb-classname="DynamicText" cb-source="kF-7Lt-YdQZ" id="2po">
<text cb-classname="GraphicTextEntity" class="signal" id="2bs" text-anchor="end" transform="translate(3037,1614)rotate(-90)"/>
</g>
</g>
<g cb-classname="ControlPin" cb-pin-name="FE-bTT-oAG" id="2bM">
<line cb-classname="GraphicLineEntity" class="signalline" id="2bH" x1="3040" x2="3040" y1="1480" y2="1460"/>
<g cb-classname="DynamicText" cb-source="87-UOp-eWPD" id="2bZ">
<text cb-classname="GraphicTextEntity" class="signal" id="2bp" text-anchor="start" transform="translate(3037,1465)rotate(-90)"/>
</g>
<g cb-classname="SignalSegment" id="2bj">
<g cb-classname="SignalConnection" cb-graphic-line="$267$" cb-input-pin="$CA8$" id="2bl"/>
<line cb-classname="GraphicLineEntity" class="signalline" id="2b8" x1="3040" x2="3040" y1="1460" y2="740"/>
</g>
</g>
<g cb-classname="ControlPin" cb-pin-name="Nu-W5W-YTIU" id="2bv">
<line cb-classname="GraphicLineEntity" class="signalline" id="2bo" x1="3500" x2="3520" y1="1580" y2="1580"/>
<g cb-classname="DynamicText" cb-source="I4-nDv-tpNO" id="2ms">
<text cb-classname="GraphicTextEntity" class="signal" id="2mM" text-anchor="start" x="3514" y="1577"/>
</g>
<g cb-classname="SignalSegment" id="2mH">
<g cb-classname="SignalConnection" cb-graphic-line="$274$" cb-input-pin="$vpv$" id="2mZ"/>
<line cb-classname="GraphicLineEntity" class="signalline" id="2mp" stroke="#1e12bf" stroke-dasharray="5,4" x1="3520" x2="4730" y1="1580" y2="1580"/>
</g>
</g>
<g cb-classname="GraphicShape" id="2mj">
<g cb-classname="DynamicText" cb-labeled="false" cb-source="87-IiF-Bqxu" id="2ml">
<text baseline-shift="0%" cb-classname="GraphicTextEntity" class="algorithm" id="2m8" text-anchor="start" x="3080" y="1470"/>
</g>
</g>
<g cb-classname="GraphicShape" id="2mv">
<rect cb-classname="GraphicRectangleEntity" class="annotation" fill="white" height="40" id="2mo" width="80" x="3000" y="1560"/>
<rect cb-classname="GraphicRectangleEntity" class="annotation" fill="white" height="40" id="26s" width="80" x="3000" y="1480"/>
<rect cb-classname="GraphicRectangleEntity" class="annotation" fill="white" height="40" id="26M" width="170" x="3080" y="1480"/>
<text baseline-shift="0%" cb-classname="GraphicTextEntity" class="annotation" fill="#000000" font-family="MS Shell Dlg 2" font-size="14" id="26H" x="3020" y="1585">
SSID
</text>
<text baseline-shift="0%" cb-classname="GraphicTextEntity" class="annotation" fill="#000000" font-family="MS Shell Dlg 2" font-size="14" id="26Z" x="3025" y="1505">
ALG
</text>
<rect cb-classname="GraphicRectangleEntity" class="annotation" fill="white" height="40" id="26p" width="150" x="3000" y="1520"/>
<rect cb-classname="GraphicRectangleEntity" class="annotation" fill="white" height="40" id="26j" width="350" x="3150" y="1520"/>
<text baseline-shift="0%" cb-classname="GraphicTextEntity" class="annotation" fill="#000000" font-family="MS Shell Dlg 2" font-size="14" id="26l" x="3045" y="1550">
SCStep
</text>
<rect cb-classname="GraphicRectangleEntity" class="annotation" fill="white" height="40" id="268" width="85" x="3415" y="1560"/>
<rect cb-classname="GraphicRectangleEntity" class="annotation" fill="white" height="40" id="26v" width="335" x="3080" y="1560"/>
<text baseline-shift="0%" cb-classname="GraphicTextEntity" class="annotation" fill="#000000" font-family="MS Shell Dlg 2" font-size="14" id="26o" x="3425" y="1585">
STEP
</text>
<rect cb-classname="GraphicRectangleEntity" class="annotation" fill="white" height="40" id="2Is" width="125" x="3250" y="1480"/>
<text baseline-shift="0%" cb-classname="GraphicTextEntity" class="annotation" fill="#000000" font-family="MS Shell Dlg 2" font-size="14" id="2IM" x="3255" y="1505">
TM=
</text>
<rect cb-classname="GraphicRectangleEntity" class="annotation" fill="white" height="40" id="2IH" width="125" x="3375" y="1480"/>
<text baseline-shift="0%" cb-classname="GraphicTextEntity" class="annotation" fill="#000000" font-family="MS Shell Dlg 2" font-size="14" id="2IZ" x="3380" y="1505">
TW=
</text>
</g>
<g cb-classname="GraphicShape" id="2Ip">
<g cb-classname="DynamicText" cb-labeled="false" cb-source="iH-MiV-Tll" id="2Ij">
<text baseline-shift="-50%" cb-classname="GraphicTextEntity" class="algorithm" font-size="18" id="2Il" text-anchor="end" x="3490" y="1535"/>
</g>
</g>
<g cb-classname="GraphicShape" id="2I8">
<g cb-classname="DynamicText" cb-labeled="false" cb-source="kF-Myi-1OcpG" id="2Iv">
<text cb-classname="GraphicTextEntity" class="algorithm" font-size="14" id="2Io" text-anchor="start" x="3470" y="1585"/>
</g>
</g>
<g cb-classname="GraphicShape" id="3Ks">
<g cb-classname="DynamicText" cb-labeled="false" cb-source="G2-S4Z-4QYo-wCq" id="3KM">
<text cb-classname="GraphicTextEntity" class="algorithm" font-size="14" id="3KH" text-anchor="start" x="3300" y="1505"/>
</g>
</g>
<g cb-classname="GraphicShape" id="3KZ">
<g cb-classname="DynamicText" cb-labeled="false" cb-source="PO-oAG-MBIP-dIa" id="3Kp">
<text cb-classname="GraphicTextEntity" class="algorithm" font-size="14" id="3Kj" text-anchor="start" x="3425" y="1505"/>
</g>
</g>
</g>
<g cb-alg-6EW="SIM-SEQXS01" cb-alg-6Ga8-EHpOq="0" cb-alg-6Ga8-MDpY="1" cb-alg-6Ga8-MGhR2="0" cb-alg-6Ga8-MIoMy="0" cb-alg-6Ga8-MLJ5="0" cb-alg-6Ga8-MQz41="0" cb-alg-6Ga8-MQz47="0" cb-alg-6Ga8-MQz48="0" cb-alg-6Ga8-MQz4B="0" cb-alg-6Ga8-MQz4f="0" cb-alg-6Ga8-MQz4l="0" cb-alg-6Ga8-MQz4m="0" cb-alg-6Ga8-MQz4o="0" cb-alg-6Ga8-Mm="AUXSCSTEP2" cb-alg-6Ga8-MoFMQ="0" cb-alg-6Ga8-Muq71="0" cb-alg-6Ga8-Muq77="0" cb-alg-6Ga8-Muq78="0" cb-alg-6Ga8-Muq7B="0" cb-alg-6Ga8-Muq7l="0" cb-alg-6Ga8-Muq7m="0" cb-alg-6Ga8-Muq7o="0" cb-alg-6Ga9-EHpOq="0" cb-alg-6Ga9-MDpY="1" cb-alg-6Ga9-MGhR2="0" cb-alg-6Ga9-MIoMy="0" cb-alg-6Ga9-MLJ5="0" cb-alg-6Ga9-MQz41="0" cb-alg-6Ga9-MQz47="0" cb-alg-6Ga9-MQz48="0" cb-alg-6Ga9-MQz4B="0" cb-alg-6Ga9-MQz4f="0" cb-alg-6Ga9-MQz4l="0" cb-alg-6Ga9-MQz4m="0" cb-alg-6Ga9-MQz4o="0" cb-alg-6Ga9-Mm="AUXSCSTEP2" cb-alg-6Ga9-MoFMQ="0" cb-alg-6Ga9-Muq71="0" cb-alg-6Ga9-Muq77="0" cb-alg-6Ga9-Muq78="0" cb-alg-6Ga9-Muq7B="0" cb-alg-6Ga9-Muq7l="0" cb-alg-6Ga9-Muq7m="0" cb-alg-6Ga9-Muq7o="0" cb-alg-6GaA-EHpOq="0" cb-alg-6GaA-MDpY="1" cb-alg-6GaA-MGhR2="0" cb-alg-6GaA-MIoMy="0" cb-alg-6GaA-MLJ5="0" cb-alg-6GaA-MQz41="0" cb-alg-6GaA-MQz47="0" cb-alg-6GaA-MQz48="0" cb-alg-6GaA-MQz4B="0" cb-alg-6GaA-MQz4f="0" cb-alg-6GaA-MQz4l="0" cb-alg-6GaA-MQz4m="0" cb-alg-6GaA-MQz4o="0" cb-alg-6GaA-Mm="AUXSCSTEP2" cb-alg-6GaA-MoFMQ="0" cb-alg-6GaA-Muq71="0" cb-alg-6GaA-Muq77="0" cb-alg-6GaA-Muq78="0" cb-alg-6GaA-Muq7B="0" cb-alg-6GaA-Muq7l="0" cb-alg-6GaA-Muq7m="0" cb-alg-6GaA-Muq7o="0" cb-alg-6GaO-B8w="11" cb-alg-6GaO-BHkY="0" cb-alg-6GaO-BJFMQ="0.000000" cb-alg-6GaO-BJq7="9" cb-alg-6GaO-BRw="1" cb-alg-6GaO-BgFMQ="0.000000" cb-alg-6GaO-Bgq7="9" cb-alg-6GaO-BtFMQ="0.000000" cb-alg-6GaO-Btq7="9" cb-alg-6GaO-BwFMQ="0.000000" cb-alg-6GaO-Bwq7="7" cb-alg-6GaO-Mm="AUXSCSTEP1" cb-alg-6GaO-Pfts="0" cb-alg-6GaR-EHpOq="0" cb-alg-6GaR-MDpY="1" cb-alg-6GaR-MGhR2="0" cb-alg-6GaR-MIoMy="0" cb-alg-6GaR-MLJ5="0" cb-alg-6GaR-MQz41="0" cb-alg-6GaR-MQz47="0" cb-alg-6GaR-MQz48="0" cb-alg-6GaR-MQz4B="0" cb-alg-6GaR-MQz4f="0" cb-alg-6GaR-MQz4l="0" cb-alg-6GaR-MQz4m="0" cb-alg-6GaR-MQz4o="0" cb-alg-6GaR-Mm="AUXSCSTEP2" cb-alg-6GaR-MoFMQ="0" cb-alg-6GaR-Muq71="0" cb-alg-6GaR-Muq77="0" cb-alg-6GaR-Muq78="0" cb-alg-6GaR-Muq7B="0" cb-alg-6GaR-Muq7l="0" cb-alg-6GaR-Muq7m="0" cb-alg-6GaR-Muq7o="0" cb-alg-6GaV-EHpOq="0" cb-alg-6GaV-MDpY="1" cb-alg-6GaV-MGhR2="0" cb-alg-6GaV-MIoMy="0" cb-alg-6GaV-MLJ5="0" cb-alg-6GaV-MQz41="0" cb-alg-6GaV-MQz47="0" cb-alg-6GaV-MQz48="0" cb-alg-6GaV-MQz4B="0" cb-alg-6GaV-MQz4f="0" cb-alg-6GaV-MQz4l="0" cb-alg-6GaV-MQz4m="0" cb-alg-6GaV-MQz4o="0" cb-alg-6GaV-Mm="AUXSCSTEP2" cb-alg-6GaV-MoFMQ="0" cb-alg-6GaV-Muq71="0" cb-alg-6GaV-Muq77="0" cb-alg-6GaV-Muq78="0" cb-alg-6GaV-Muq7B="0" cb-alg-6GaV-Muq7l="0" cb-alg-6GaV-Muq7m="0" cb-alg-6GaV-Muq7o="0" cb-alg-6Gaj-EHpOq="0" cb-alg-6Gaj-MDpY="1" cb-alg-6Gaj-MGhR2="0" cb-alg-6Gaj-MIoMy="0" cb-alg-6Gaj-MLJ5="0" cb-alg-6Gaj-MQz41="0" cb-alg-6Gaj-MQz47="0" cb-alg-6Gaj-MQz48="0" cb-alg-6Gaj-MQz4B="0" cb-alg-6Gaj-MQz4f="0" cb-alg-6Gaj-MQz4l="0" cb-alg-6Gaj-MQz4m="0" cb-alg-6Gaj-MQz4o="0" cb-alg-6Gaj-Mm="AUXSCSTEP2" cb-alg-6Gaj-MoFMQ="0" cb-alg-6Gaj-Muq71="0" cb-alg-6Gaj-Muq77="0" cb-alg-6Gaj-Muq78="0" cb-alg-6Gaj-Muq7B="0" cb-alg-6Gaj-Muq7l="0" cb-alg-6Gaj-Muq7m="0" cb-alg-6Gaj-Muq7o="0" cb-alg-6Gal-EHpOq="0" cb-alg-6Gal-MDpY="1" cb-alg-6Gal-MGhR2="0" cb-alg-6Gal-MIoMy="0" cb-alg-6Gal-MLJ5="0" cb-alg-6Gal-MQz41="0" cb-alg-6Gal-MQz47="0" cb-alg-6Gal-MQz48="0" cb-alg-6Gal-MQz4B="0" cb-alg-6Gal-MQz4f="0" cb-alg-6Gal-MQz4l="0" cb-alg-6Gal-MQz4m="0" cb-alg-6Gal-MQz4o="0" cb-alg-6Gal-Mm="AUXSCSTEP2" cb-alg-6Gal-MoFMQ="0" cb-alg-6Gal-Muq71="0" cb-alg-6Gal-Muq77="0" cb-alg-6Gal-Muq78="0" cb-alg-6Gal-Muq7B="0" cb-alg-6Gal-Muq7l="0" cb-alg-6Gal-Muq7m="0" cb-alg-6Gal-Muq7o="0" cb-alg-6Gap-EHpOq="0" cb-alg-6Gap-MDpY="1" cb-alg-6Gap-MGhR2="0" cb-alg-6Gap-MIoMy="0" cb-alg-6Gap-MLJ5="0" cb-alg-6Gap-MQz41="0" cb-alg-6Gap-MQz47="0" cb-alg-6Gap-MQz48="0" cb-alg-6Gap-MQz4B="0" cb-alg-6Gap-MQz4f="0" cb-alg-6Gap-MQz4l="0" cb-alg-6Gap-MQz4m="0" cb-alg-6Gap-MQz4o="0" cb-alg-6Gap-Mm="AUXSCSTEP2" cb-alg-6Gap-MoFMQ="0" cb-alg-6Gap-Muq71="0" cb-alg-6Gap-Muq77="0" cb-alg-6Gap-Muq78="0" cb-alg-6Gap-Muq7B="0" cb-alg-6Gap-Muq7l="0" cb-alg-6Gap-Muq7m="0" cb-alg-6Gap-Muq7o="0" cb-alg-GYz="$543$cb-alg-out$" cb-alg-GoiN="SIM-SEQ1_XS01" cb-alg-KC1T="1" cb-alg-Ks6BU="$239$cb-alg-alg$" cb-alg-Q64G="161" cb-alg-QHnI="TEST STR STEP 1" cb-alg-QHnI5="01" cb-algorithm-id="001" cb-classname="ControlAlgorithm" cb-function-name="SCSTEP" cb-modify-id="00000001" id="3Kl">
<rect cb-classname="GraphicRectangleEntity" class="annotation" fill="none" height="120" id="3K8" stroke-width="2" width="500" x="3000" y="600"/>
<g cb-classname="ControlPin" cb-pin-name="iH-MiV-ZGpC2" id="3Kv">
<line cb-classname="GraphicLineEntity" class="signalline" id="3Ko" x1="2970" x2="3000" y1="620" y2="620"/>
<polygon cb-classname="GraphicPolygonEntity" class="signal" id="3Ss" points="3000,620 2989,614 2989,625"/>
<g cb-classname="DynamicText" cb-source="kF-7Lt-YdQZ" id="3SM">
<text cb-classname="GraphicTextEntity" class="signal" id="3SH" text-anchor="end" x="2985" y="617"/>
</g>
</g>
<g cb-classname="ControlPin" cb-pin-name="FE-bTT-CyB8" id="3SZ">
<line cb-classname="GraphicLineEntity" class="signalline" id="3Sp" x1="2970" x2="3000" y1="660" y2="660"/>
<polygon cb-classname="GraphicPolygonEntity" class="signal" id="3Sj" points="3000,660 2989,654 2989,665"/>
<g cb-classname="DynamicText" cb-source="c0-d6X-6M8H" id="3Sl">
<text cb-classname="GraphicTextEntity" class="signal" id="3S8" text-anchor="end" x="2985" y="657"/>
</g>
</g>
<g cb-classname="ControlPin" cb-pin-name="Ry-4k7-ohP" id="3Sv">
<line cb-classname="GraphicLineEntity" class="signalline" id="3So" x1="2970" x2="3000" y1="700" y2="700"/>
<polygon cb-classname="GraphicPolygonEntity" class="signal" id="3Ns" points="3000,700 2989,694 2989,705"/>
<g cb-classname="DynamicText" cb-source="iH-SkK-2wkb" id="3NM">
<text cb-classname="GraphicTextEntity" class="signal" id="3NH" text-anchor="end" x="2985" y="697"/>
</g>
</g>
<g cb-classname="ControlPin" cb-pin-name="yT-zOO-074Yf" id="3NZ">
<line cb-classname="GraphicLineEntity" class="signalline" id="3Np" x1="3040" x2="3040" y1="740" y2="720"/>
<polygon cb-classname="GraphicPolygonEntity" class="signal" id="3Nj" points="3040,720 3034,730 3045,730"/>
<g cb-classname="DynamicText" cb-source="FE-FHh-p4dq" id="3Nl">
<text cb-classname="GraphicTextEntity" class="signal" id="3N8" text-anchor="end" transform="translate(3037,734)rotate(-90)"/>
</g>
</g>
<g cb-classname="ControlPin" cb-pin-name="87-IiF-KlR" id="3Nv">
<line cb-classname="GraphicLineEntity" class="signalline" id="3No" x1="3040" x2="3040" y1="600" y2="580"/>
<g cb-classname="DynamicText" cb-source="PO-Y6e-c9Ts" id="33s">
<text cb-classname="GraphicTextEntity" class="signal" id="33M" text-anchor="start" transform="translate(3037,585)rotate(-90)"/>
</g>
<g cb-classname="SignalSegment" id="33H">
<line cb-classname="GraphicLineEntity" class="signalline" id="33Z" x1="3040" x2="3040" y1="580" y2="300"/>
<g cb-classname="SignalSegment" id="33p">
<line cb-classname="GraphicLineEntity" class="signalline" id="53H" x1="3040" x2="4730" y1="300" y2="300"/>
<g cb-classname="SignalConnection" cb-graphic-line="$532$" cb-input-pin="$pHN$" id="53Z"/>
</g>
</g>
</g>
<g cb-classname="ControlPin" cb-pin-name="kF-Myi-adqJ" id="338">
<line cb-classname="GraphicLineEntity" class="signalline" id="33v" x1="3500" x2="3520" y1="700" y2="700"/>
<g cb-classname="DynamicText" cb-source="FE-FHh-p4dq" id="33o">
<text cb-classname="GraphicTextEntity" class="signal" id="3vs" text-anchor="start" x="3514" y="697"/>
</g>
<g cb-classname="SignalSegment" id="3vM">
<g cb-classname="SignalConnection" cb-graphic-line="$343$" cb-input-pin="$mrx$" id="3vH"/>
<line cb-classname="GraphicLineEntity" class="signalline" id="3vZ" stroke="#1e12bf" stroke-dasharray="5,4" x1="3520" x2="4380" y1="700" y2="700"/>
</g>
</g>
<g cb-classname="GraphicShape" id="3vp">
<g cb-classname="DynamicText" cb-labeled="false" cb-source="SR-KlR-tsHI" id="3vj">
<text baseline-shift="0%" cb-classname="GraphicTextEntity" class="algorithm" id="3vl" text-anchor="start" x="3080" y="590"/>
</g>
</g>
<g cb-classname="GraphicShape" id="3v8">
<rect cb-classname="GraphicRectangleEntity" class="annotation" fill="white" height="40" id="3vv" width="80" x="3000" y="680"/>
<rect cb-classname="GraphicRectangleEntity" class="annotation" fill="white" height="40" id="3vo" width="80" x="3000" y="600"/>
<rect cb-classname="GraphicRectangleEntity" class="annotation" fill="white" height="40" id="3ps" width="170" x="3080" y="600"/>
<text baseline-shift="0%" cb-classname="GraphicTextEntity" class="annotation" fill="#000000" font-family="MS Shell Dlg 2" font-size="14" id="3pM" x="3020" y="705">
SSID
</text>
<text baseline-shift="0%" cb-classname="GraphicTextEntity" class="annotation" fill="#000000" font-family="MS Shell Dlg 2" font-size="14" id="3pH" x="3025" y="625">
ALG
</text>
<rect cb-classname="GraphicRectangleEntity" class="annotation" fill="white" height="40" id="3pZ" width="150" x="3000" y="640"/>
<rect cb-classname="GraphicRectangleEntity" class="annotation" fill="white" height="40" id="3pp" width="350" x="3150" y="640"/>
<text baseline-shift="0%" cb-classname="GraphicTextEntity" class="annotation" fill="#000000" font-family="MS Shell Dlg 2" font-size="14" id="3pj" x="3045" y="670">
SCStep
</text>
<rect cb-classname="GraphicRectangleEntity" class="annotation" fill="white" height="40" id="3pl" width="85" x="3415" y="680"/>
<rect cb-classname="GraphicRectangleEntity" class="annotation" fill="white" height="40" id="3p8" width="335" x="3080" y="680"/>
<text baseline-shift="0%" cb-classname="GraphicTextEntity" class="annotation" fill="#000000" font-family="MS Shell Dlg 2" font-size="14" id="3pv" x="3425" y="705">
STEP
</text>
<rect cb-classname="GraphicRectangleEntity" class="annotation" fill="white" height="40" id="3po" width="125" x="3250" y="600"/>
<text baseline-shift="0%" cb-classname="GraphicTextEntity" class="annotation" fill="#000000" font-family="MS Shell Dlg 2" font-size="14" id="3bs" x="3255" y="625">
TM=
</text>
<rect cb-classname="GraphicRectangleEntity" class="annotation" fill="white" height="40" id="3bM" width="125" x="3375" y="600"/>
<text baseline-shift="0%" cb-classname="GraphicTextEntity" class="annotation" fill="#000000" font-family="MS Shell Dlg 2" font-size="14" id="3bH" x="3380" y="625">
TW=
</text>
</g>
<g cb-classname="GraphicShape" id="3bZ">
<g cb-classname="DynamicText" cb-labeled="false" cb-source="cR-aw2-6EW" id="3bp">
<text baseline-shift="-50%" cb-classname="GraphicTextEntity" class="algorithm" font-size="18" id="3bj" text-anchor="end" x="3490" y="655"/>
</g>
</g>
<g cb-classname="GraphicShape" id="3bl">
<g cb-classname="DynamicText" cb-labeled="false" cb-source="87-IiF-BqxuO" id="3b8">
<text cb-classname="GraphicTextEntity" class="algorithm" font-size="14" id="3bv" text-anchor="start" x="3470" y="705"/>
</g>
</g>
<g cb-classname="GraphicShape" id="3bo">
<g cb-classname="DynamicText" cb-labeled="false" cb-source="Ry-4k7-9oqm-UNm" id="3ms">
<text cb-classname="GraphicTextEntity" class="algorithm" font-size="14" id="3mM" text-anchor="start" x="3300" y="625"/>
</g>
</g>
<g cb-classname="GraphicShape" id="3mH">
<g cb-classname="DynamicText" cb-labeled="false" cb-source="iH-MiV-TuGO-zoU" id="3mZ">
<text cb-classname="GraphicTextEntity" class="algorithm" font-size="14" id="3mp" text-anchor="start" x="3425" y="625"/>
</g>
</g>
</g>
<g cb-alg-Fc="$306$cb-alg-tact$" cb-algorithm-id="005" cb-classname="ExternalPointInterface" cb-function-name="OUTPUT" id="3mj">
<ellipse cb-classname="GraphicEllipseEntity" class="algorithm" cx="4790" cy="700" id="3ml" rx="40" ry="40"/>
<rect cb-classname="GraphicRectangleEntity" class="algorithm" height="80" id="3m8" width="30" x="4830" y="660"/>
<line cb-classname="GraphicLineEntity" class="algorithm" id="3mv" x1="4830" x2="4860" y1="700" y2="700"/>
<g cb-classname="ControlPin" cb-pin-name="G2-S4Z-6e" id="3mo">
<line cb-classname="GraphicLineEntity" class="signalline" id="36s" x1="4380" x2="4750" y1="700" y2="700"/>
<polygon cb-classname="GraphicPolygonEntity" class="signal" id="36M" points="4750,700 4739,694 4739,705"/>
</g>
<g cb-classname="PointStatusIndicator" cb-indicator-type="highway" cb-source="PO-oAG-qm" id="36H" visibility="hidden">
<line cb-classname="GraphicLineEntity" class="algorithmline" id="36Z" x1="4750" x2="4790" y1="700" y2="660"/>
<line cb-classname="GraphicLineEntity" class="algorithmline" id="36p" x1="4790" x2="4830" y1="660" y2="700"/>
<line cb-classname="GraphicLineEntity" class="algorithmline" id="36j" x1="4830" x2="4790" y1="700" y2="740"/>
<line cb-classname="GraphicLineEntity" class="algorithmline" id="36l" x1="4790" x2="4750" y1="740" y2="700"/>
</g>
<g cb-classname="PointStatusIndicator" cb-indicator-type="hardware" cb-source="I4-9JL-OW" id="368" visibility="hidden">
<text cb-classname="GraphicTextEntity" class="algorithm" fill="#000000" font-family="Arial" font-size="20" id="36v" x="4780" y="710">
H
</text>
</g>
<g cb-classname="PointStatusIndicator" cb-indicator-type="alarm" cb-source="kF-Myi-fS" id="36o" visibility="hidden">
<text cb-classname="GraphicTextEntity" class="algorithm" fill="#000000" font-family="Arial" font-size="20" id="3Is" x="4837" y="728">
A
</text>
</g>
<g cb-classname="PointStatusIndicator" cb-indicator-type="ingraphic" cb-source="FE-bTT-6X" id="3IM" visibility="hidden">
<text cb-classname="GraphicTextEntity" class="algorithm" fill="#000000" font-family="Arial" font-size="20" id="3IH" x="4836" y="689">
G
</text>
</g>
<g cb-classname="DynamicText" cb-labeled="false" cb-pin-name="dG" cb-source="87-IiF-r6" class="algorithm" id="3IZ" text-anchor="end">
<text baseline-shift="-100%" cb-classname="GraphicTextEntity" class="algorithm" fill="black" font-family="MS Shell Dlg" font-size="20" font-style="normal" font-weight="normal" id="3Ip" text-anchor="end" text-decoration="normal" x="4730" y="660"/>
</g>
<g baseline-shift="-100%" cb-anchor-x="4730" cb-anchor-y="700" cb-classname="PointReferences" cb-max-width="400" cb-originator="false" cb-source="PO-oAG-qm" class="signal" id="3Ij" text-anchor="end">
<text baseline-shift="-100%" cb-classname="GraphicTextEntity" class="algorithm" id="3Il" text-anchor="end" x="4730" y="700">
-
</text>
</g>
<g baseline-shift="-100%" cb-anchor-x="4880" cb-anchor-y="660" cb-classname="PointDescription" cb-content="extended" cb-labeled="false" cb-max-width="460" cb-source="SR-KlR-Dv" class="algorithm" id="3I8" text-anchor="start">
<text baseline-shift="-100%" cb-classname="GraphicTextEntity" class="algorithm" id="3Iv" text-anchor="start" x="4880" y="660">
SIM SEQ Typical
</text>
</g>
</g>
<g cb-alg-0D="$306$cb-alg-alg$" cb-algorithm-id="00E" cb-classname="ExternalPointInterface" cb-function-name="OUTPUT" id="5Ks">
<ellipse cb-classname="GraphicEllipseEntity" class="algorithm" cx="4790" cy="300" id="5KM" rx="40" ry="40"/>
<rect cb-classname="GraphicRectangleEntity" class="algorithm" height="80" id="5KH" width="30" x="4830" y="260"/>
<line cb-classname="GraphicLineEntity" class="algorithm" id="5KZ" x1="4830" x2="4860" y1="300" y2="300"/>
<g cb-classname="PointStatusIndicator" cb-indicator-type="highway" cb-source="I4-9JL-OW" id="5Kp" visibility="hidden">
<line cb-classname="GraphicLineEntity" class="algorithmline" id="5Kj" x1="4750" x2="4790" y1="300" y2="260"/>
<line cb-classname="GraphicLineEntity" class="algorithmline" id="5Kl" x1="4790" x2="4830" y1="260" y2="300"/>
<line cb-classname="GraphicLineEntity" class="algorithmline" id="5K8" x1="4830" x2="4790" y1="300" y2="340"/>
<line cb-classname="GraphicLineEntity" class="algorithmline" id="5Kv" x1="4790" x2="4750" y1="340" y2="300"/>
</g>
<g cb-classname="PointStatusIndicator" cb-indicator-type="hardware" cb-source="G2-S4Z-6e" id="5Ko" visibility="hidden">
<line cb-classname="GraphicLineEntity" class="algorithmline" id="5Ss" x1="4830" x2="4750" y1="260" y2="260"/>
<line cb-classname="GraphicLineEntity" class="algorithmline" id="5SM" x1="4750" x2="4750" y1="260" y2="340"/>
<line cb-classname="GraphicLineEntity" class="algorithmline" id="5SH" x1="4750" x2="4830" y1="340" y2="340"/>
</g>
<g cb-classname="PointStatusIndicator" cb-indicator-type="alarm" cb-source="Ry-4k7-kK" id="5SZ" visibility="hidden">
<text cb-classname="GraphicTextEntity" class="algorithm" fill="#000000" font-family="Arial" font-size="20" id="5Sp" x="4837" y="289">
A
</text>
</g>
<g cb-classname="PointStatusIndicator" cb-indicator-type="ingraphic" cb-source="Nu-W5W-R2" id="5Sj" visibility="hidden">
<text cb-classname="GraphicTextEntity" class="algorithm" fill="#000000" font-family="Arial" font-size="20" id="5Sl" x="4835" y="330">
G
</text>
</g>
<g cb-classname="DynamicText" cb-labeled="false" cb-pin-name="XT" cb-source="I4-9JL-OW" class="algorithm" id="5S8" text-anchor="end">
<text baseline-shift="0%" cb-classname="GraphicTextEntity" class="algorithm" fill="black" font-family="Arial" font-size="20" font-style="normal" font-weight="normal" id="5Sv" text-anchor="end" text-decoration="normal" x="4727" y="279"/>
</g>
<g baseline-shift="-100%" cb-anchor-x="4728" cb-anchor-y="316" cb-classname="PointReferences" cb-max-width="240" cb-originator="false" cb-source="kF-Myi-fS" class="signal" id="5So" text-anchor="end">
<text baseline-shift="-100%" cb-classname="GraphicTextEntity" class="algorithm" id="5Ns" text-anchor="end" x="4728" y="316">
2/H-SEQ-EDEV
</text>
</g>
<g baseline-shift="-50%" cb-anchor-x="4881" cb-anchor-y="298" cb-classname="PointDescription" cb-content="extended" cb-labeled="false" cb-max-width="240" cb-source="G2-S4Z-6e" class="algorithm" id="5NH" text-anchor="start">
<text baseline-shift="-50%" cb-classname="GraphicTextEntity" class="algorithm" id="5NZ" text-anchor="start" x="4881" y="298">
SIM SEQ Typical
</text>
</g>
<g cb-classname="ControlPin" cb-pin-name="PO-oAG-qm" id="5Nj">
<line cb-classname="GraphicLineEntity" class="signalline" id="5Nl" x1="4730" x2="4750" y1="300" y2="300"/>
<polygon cb-classname="GraphicPolygonEntity" class="signal" id="5N8" points="4750,300 4739,294 4739,305"/>
</g>
</g>
<g cb-alg-6X="$239$cb-alg-tact$" cb-algorithm-id="006" cb-classname="ExternalPointInterface" cb-function-name="OUTPUT" id="4Np">
<ellipse cb-classname="GraphicEllipseEntity" class="algorithm" cx="4790" cy="1580" id="4Nj" rx="40" ry="40"/>
<rect cb-classname="GraphicRectangleEntity" class="algorithm" height="80" id="4Nl" width="30" x="4830" y="1540"/>
<line cb-classname="GraphicLineEntity" class="algorithm" id="4N8" x1="4830" x2="4860" y1="1580" y2="1580"/>
<g cb-classname="PointStatusIndicator" cb-indicator-type="highway" cb-source="kF-Myi-fS" id="4Nv" visibility="hidden">
<line cb-classname="GraphicLineEntity" class="algorithmline" id="4No" x1="4750" x2="4790" y1="1580" y2="1540"/>
<line cb-classname="GraphicLineEntity" class="algorithmline" id="43s" x1="4790" x2="4830" y1="1540" y2="1580"/>
<line cb-classname="GraphicLineEntity" class="algorithmline" id="43M" x1="4830" x2="4790" y1="1580" y2="1620"/>
<line cb-classname="GraphicLineEntity" class="algorithmline" id="43H" x1="4790" x2="4750" y1="1620" y2="1580"/>
</g>
<g cb-classname="PointStatusIndicator" cb-indicator-type="hardware" cb-source="c0-6EW-Fc" id="43Z" visibility="hidden">
<line cb-classname="GraphicLineEntity" class="algorithmline" id="43p" x1="4830" x2="4750" y1="1540" y2="1540"/>
<line cb-classname="GraphicLineEntity" class="algorithmline" id="43j" x1="4750" x2="4750" y1="1540" y2="1620"/>
<line cb-classname="GraphicLineEntity" class="algorithmline" id="43l" x1="4750" x2="4830" y1="1620" y2="1620"/>
</g>
<g cb-classname="PointStatusIndicator" cb-indicator-type="alarm" cb-source="Nu-W5W-R2" id="438" visibility="hidden">
<text cb-classname="GraphicTextEntity" class="algorithm" fill="#000000" font-family="Arial" font-size="20" id="43v" x="4837" y="1569">
A
</text>
</g>
<g cb-classname="PointStatusIndicator" cb-indicator-type="ingraphic" cb-source="I4-9JL-OW" id="43o" visibility="hidden">
<text cb-classname="GraphicTextEntity" class="algorithm" fill="#000000" font-family="Arial" font-size="20" id="4vs" x="4835" y="1610">
G
</text>
</g>
<g cb-classname="DynamicText" cb-labeled="false" cb-pin-name="pO" cb-source="kF-Myi-fS" class="algorithm" id="4vM" text-anchor="end">
<text baseline-shift="0%" cb-classname="GraphicTextEntity" class="algorithm" fill="black" font-family="Arial" font-size="20" font-style="normal" font-weight="normal" id="4vH" text-anchor="end" text-decoration="normal" x="4727" y="1559"/>
</g>
<g baseline-shift="-100%" cb-anchor-x="4728" cb-anchor-y="1596" cb-classname="PointReferences" cb-max-width="240" cb-originator="false" cb-source="FE-bTT-6X" class="signal" id="4vZ" text-anchor="end">
<text baseline-shift="-100%" cb-classname="GraphicTextEntity" class="algorithm" id="4vp" text-anchor="end" x="4728" y="1596">
-
</text>
</g>
<g baseline-shift="-50%" cb-anchor-x="4881" cb-anchor-y="1578" cb-classname="PointDescription" cb-content="extended" cb-labeled="false" cb-max-width="240" cb-source="87-IiF-r6" class="algorithm" id="4vj" text-anchor="start">
<text baseline-shift="-50%" cb-classname="GraphicTextEntity" class="algorithm" id="4vl" text-anchor="start" x="4881" y="1578">
SIM SEQ Typical
</text>
</g>
<g cb-classname="ControlPin" cb-pin-name="Ry-4k7-kK" id="4vv">
<line cb-classname="GraphicLineEntity" class="signalline" id="4vo" x1="4730" x2="4750" y1="1580" y2="1580"/>
<polygon cb-classname="GraphicPolygonEntity" class="signal" id="4ps" points="4750,1580 4739,1574 4739,1585"/>
</g>
</g>
<g cb-alg-6e="$172$cb-alg-tact$" cb-algorithm-id="007" cb-classname="ExternalPointInterface" cb-function-name="OUTPUT" id="4pM">
<ellipse cb-classname="GraphicEllipseEntity" class="algorithm" cx="4790" cy="2380" id="4pH" rx="40" ry="40"/>
<rect cb-classname="GraphicRectangleEntity" class="algorithm" height="80" id="4pZ" width="30" x="4830" y="2340"/>
<line cb-classname="GraphicLineEntity" class="algorithm" id="4pp" x1="4830" x2="4860" y1="2380" y2="2380"/>
<g cb-classname="PointStatusIndicator" cb-indicator-type="highway" cb-source="cR-aw2-Op" id="4pj" visibility="hidden">
<line cb-classname="GraphicLineEntity" class="algorithmline" id="4pl" x1="4750" x2="4790" y1="2380" y2="2340"/>
<line cb-classname="GraphicLineEntity" class="algorithmline" id="4p8" x1="4790" x2="4830" y1="2340" y2="2380"/>
<line cb-classname="GraphicLineEntity" class="algorithmline" id="4pv" x1="4830" x2="4790" y1="2380" y2="2420"/>
<line cb-classname="GraphicLineEntity" class="algorithmline" id="4po" x1="4790" x2="4750" y1="2420" y2="2380"/>
</g>
<g cb-classname="PointStatusIndicator" cb-indicator-type="hardware" cb-source="PO-oAG-qm" id="4bs" visibility="hidden">
<line cb-classname="GraphicLineEntity" class="algorithmline" id="4bM" x1="4830" x2="4750" y1="2340" y2="2340"/>
<line cb-classname="GraphicLineEntity" class="algorithmline" id="4bH" x1="4750" x2="4750" y1="2340" y2="2420"/>
<line cb-classname="GraphicLineEntity" class="algorithmline" id="4bZ" x1="4750" x2="4830" y1="2420" y2="2420"/>
</g>
<g cb-classname="PointStatusIndicator" cb-indicator-type="alarm" cb-source="iH-MiV-Lt" id="4bp" visibility="hidden">
<text cb-classname="GraphicTextEntity" class="algorithm" fill="#000000" font-family="Arial" font-size="20" id="4bj" x="4837" y="2369">
A
</text>
</g>
<g cb-classname="PointStatusIndicator" cb-indicator-type="ingraphic" cb-source="yT-zOO-zY" id="4bl" visibility="hidden">
<text cb-classname="GraphicTextEntity" class="algorithm" fill="#000000" font-family="Arial" font-size="20" id="4b8" x="4835" y="2410">
G
</text>
</g>
<g cb-classname="DynamicText" cb-labeled="false" cb-pin-name="IH" cb-source="cR-aw2-Op" class="algorithm" id="4bv" text-anchor="end">
<text baseline-shift="0%" cb-classname="GraphicTextEntity" class="algorithm" fill="black" font-family="Arial" font-size="20" font-style="normal" font-weight="normal" id="4bo" text-anchor="end" text-decoration="normal" x="4727" y="2359"/>
</g>
<g baseline-shift="-100%" cb-anchor-x="4728" cb-anchor-y="2396" cb-classname="PointReferences" cb-max-width="240" cb-originator="false" cb-source="G2-S4Z-6e" class="signal" id="4ms" text-anchor="end">
<text baseline-shift="-100%" cb-classname="GraphicTextEntity" class="algorithm" id="4mM" text-anchor="end" x="4728" y="2396">
-
</text>
</g>
<g baseline-shift="-50%" cb-anchor-x="4881" cb-anchor-y="2378" cb-classname="PointDescription" cb-content="extended" cb-labeled="false" cb-max-width="240" cb-source="c0-6EW-Fc" class="algorithm" id="4mH" text-anchor="start">
<text baseline-shift="-50%" cb-classname="GraphicTextEntity" class="algorithm" id="4mZ" text-anchor="start" x="4881" y="2378">
SIM SEQ Typical
</text>
</g>
<g cb-classname="ControlPin" cb-pin-name="SR-KlR-Dv" id="4mj">
<line cb-classname="GraphicLineEntity" class="signalline" id="4ml" x1="4730" x2="4750" y1="2380" y2="2380"/>
<polygon cb-classname="GraphicPolygonEntity" class="signal" id="4m8" points="4750,2380 4739,2374 4739,2385"/>
</g>
</g>
<g cb-alg-16M8H="SIM-SEQ1XS03" cb-alg-1FEoL="850" cb-alg-BVS="DISABLED" cb-alg-NqDo3="TITLE3" cb-alg-NqDo5="TITLE6" cb-alg-NqDo8="TITLE7" cb-alg-NqDoO="PASS CONDITION - 通过条件" cb-alg-NqDoQ="TITLE5" cb-alg-NqDoS="TITLE4" cb-alg-NqDob="DISABLE CONDITION -禁用条件" cb-alg-NqDog="TITLE8" cb-alg-NqDox="SEQUENCE" cb-alg-q="0" cb-alg-r6i="$151$cb-alg-out$" cb-alg-r6kGHY="DISABLED" cb-alg-rydm3="NORMAL" cb-alg-rydm5="NORMAL" cb-alg-rydm8="NORMAL" cb-alg-rydmO="NORMAL" cb-alg-rydmQ="NORMAL" cb-alg-rydmS="NORMAL" cb-alg-rydmb="NORMAL" cb-alg-rydmg="NORMAL" cb-alg-s="0" cb-algorithm-id="00D" cb-classname="AutomaticWindowAlgorithm" cb-function-name="PERMISSIVEWINDOW" id="4mv">
<rect cb-classname="GraphicRectangleEntity" class="annotation" fill="white" height="110" id="4mo" width="250" x="2080" y="2160"/>
<text baseline-shift="0%" cb-classname="GraphicTextEntity" class="annotation" fill="#000000" font-family="MS Shell Dlg 2" font-size="18" id="46s" x="2090" y="2190">
SEQ STEPS
</text>
<text baseline-shift="0%" cb-classname="GraphicTextEntity" class="annotation" fill="#000000" font-family="MS Shell Dlg 2" id="46M" x="2090" y="2230">
DISABLE
</text>
<text baseline-shift="0%" cb-classname="GraphicTextEntity" class="annotation" fill="#000000" font-family="MS Shell Dlg 2" id="46H" x="2090" y="2260">
PASS 1
</text>
<text baseline-shift="0%" cb-classname="GraphicTextEntity" class="annotation" fill="#000000" font-family="MS Shell Dlg 2" id="46Z" text-anchor="end" x="2320" y="2260">
PASS 2
</text>
<line cb-classname="GraphicLineEntity" class="annotation" id="46p" x1="2080" x2="2330" y1="2200" y2="2200"/>
<g cb-classname="ControlPin" cb-pin-name="c0-6EW-Fcw" id="46j">
<line cb-classname="GraphicLineEntity" class="signalline" id="46l" x1="2060" x2="2080" y1="2220" y2="2220"/>
<polygon cb-classname="GraphicPolygonEntity" class="signal" id="468" points="2080,2220 2069,2214 2069,2225"/>
<g cb-classname="DynamicText" cb-source="SR-TFc-KMgc" id="46v">
<text cb-classname="GraphicTextEntity" class="signal" id="46o" text-anchor="end" x="2065" y="2217"/>
</g>
</g>
<g cb-classname="ControlPin" cb-pin-name="iH-MiV-Ltq" id="4Is">
<line cb-classname="GraphicLineEntity" class="signalline" id="4IM" x1="2060" x2="2080" y1="2250" y2="2250"/>
<polygon cb-classname="GraphicPolygonEntity" class="signal" id="4IH" points="2080,2250 2069,2244 2069,2255"/>
<g cb-classname="DynamicText" cb-source="kF-7Lt-YdQZ" id="4IZ">
<text cb-classname="GraphicTextEntity" class="signal" id="4Ip" text-anchor="end" x="2065" y="2247"/>
</g>
</g>
<g cb-classname="ControlPin" cb-pin-name="FE-bTT-6XV" id="4Ij">
<line cb-classname="GraphicLineEntity" class="signalline" id="4Il" x1="2350" x2="2330" y1="2250" y2="2250"/>
<polygon cb-classname="GraphicPolygonEntity" class="signal" id="4I8" points="2330,2250 2340,2255 2340,2244"/>
<g cb-classname="DynamicText" cb-source="c0-d6X-6M8H" id="4Iv">
<text cb-classname="GraphicTextEntity" class="signal" id="4Io" text-anchor="start" x="2344" y="2247"/>
</g>
</g>
<g cb-classname="GraphicShape" id="5vs">
<g cb-classname="DynamicText" cb-labeled="true" cb-source="Nu-W5W-D2wkb" id="5vM">
<text cb-classname="GraphicTextEntity" class="algorithm" id="5vH" text-anchor="start" x="2100" y="2140"/>
</g>
</g>
</g>
</g>
<g cb-classname="IncludeDocument" cb-modify-time="12/03/2019 14:33:51" cb-objectname="frame" id="5">
<text cb-classname="GraphicTextEntity" class="frame" font-size="50" id="6" x="3660" y="3146">
HERA
</text>
<g baseline-shift="-50%" cb-classname="DynamicText" cb-source="SR-Bvdn-RZ" class="frame" id="7">
<text cb-classname="GraphicTextEntity" class="frame" fill="black" font-family="arial" font-size="25" font-style="normal" font-weight="normal" id="8" text-decoration="normal" x="4715" y="3325">
2
</text>
</g>
<g baseline-shift="-50%" cb-classname="DynamicText" cb-source="iH-EHq7-OB" class="frame" id="9" text-anchor="middle">
<text cb-classname="GraphicTextEntity" class="frame" fill="black" font-family="arial" font-size="48" font-style="normal" font-weight="normal" id="1K" text-anchor="middle" text-decoration="normal" x="4900" y="3320">
2
</text>
</g>
<g baseline-shift="-50%" cb-classname="DynamicText" cb-source="yT-wMHM-fD" class="frame" id="1S" text-anchor="middle">
<text cb-classname="GraphicTextEntity" class="frame" fill="black" font-family="arial" font-size="48" font-style="normal" font-weight="normal" id="1N" text-anchor="middle" text-decoration="normal" x="5067" y="3324">
2
</text>
</g>
<g cb-classname="DynamicText" cb-source="cR-o2nmG-0re5D" class="frame" id="13">
<text cb-classname="GraphicTextEntity" class="frame" fill="black" font-family="arial" font-size="48" font-style="normal" font-weight="normal" id="1v" text-decoration="normal" x="3660" y="3224">
SEQUENCE STARTUP TESTING
</text>
</g>
<g baseline-shift="-50%" cb-classname="DynamicText" cb-source="G2-5jMH0-6v82sQ" class="frame" id="1p" text-anchor="middle">
<text cb-classname="GraphicTextEntity" class="frame" fill="black" font-family="arial" font-size="48" font-style="normal" font-weight="normal" id="1b" text-anchor="middle" text-decoration="normal" x="5270" y="3324">
H-SEQ-STP
</text>
</g>
<g baseline-shift="0%" cb-classname="DynamicText" cb-source="c0-FHNrVqfK" class="frame" id="1m" text-anchor="middle">
<text cb-classname="GraphicTextEntity" class="frame" fill="black" font-family="arial" font-size="36" font-style="normal" font-weight="normal" id="16" text-anchor="middle" text-decoration="normal" x="5270" y="3150">
A
</text>
</g>
<g baseline-shift="0%" cb-classname="DynamicText" cb-source="Ry-yzBqGDn2-UfMo" class="frame" id="1I" text-anchor="middle">
<text cb-classname="GraphicTextEntity" class="frame" fill="black" font-family="arial" font-size="20" font-style="normal" font-weight="normal" id="2K" text-anchor="middle" text-decoration="normal" x="5270" y="3230">

</text>
</g>
<g baseline-shift="-50%" cb-classname="DynamicText" cb-source="Nu-qcWDvec3" class="frame" id="2S" text-anchor="end">
<text cb-classname="GraphicTextEntity" class="frame" fill="black" font-family="arial" font-size="26" font-style="normal" font-weight="normal" id="2N" text-anchor="end" text-decoration="normal" x="4500" y="3420">

</text>
</g>
<g baseline-shift="-50%" cb-classname="DynamicText" cb-source="I4-HHaLcIbH" class="frame" id="23" text-anchor="end">
<text cb-classname="GraphicTextEntity" class="frame" fill="black" font-family="arial" font-size="26" font-style="normal" font-weight="normal" id="2v" text-anchor="end" text-decoration="normal" x="5353" y="3420">

</text>
</g>
<g cb-classname="GraphicShape" cb-tag="BORDER" id="2p">
<line cb-classname="GraphicLineEntity" class="frameline" id="2b" x1="40" x2="40" y1="40" y2="3460"/>
<line cb-classname="GraphicLineEntity" class="frameline" id="2m" x1="40" x2="5380" y1="3460" y2="3460"/>
<line cb-classname="GraphicLineEntity" class="frameline" id="26" x1="5380" x2="5380" y1="3460" y2="40"/>
<line cb-classname="GraphicLineEntity" class="frameline" id="2I" x1="5380" x2="40" y1="40" y2="40"/>
<line cb-classname="GraphicLineEntity" class="frame" id="3K" x1="5430" x2="5440" y1="3510" y2="3510"/>
</g>
<g cb-classname="GraphicShape" cb-tag="TITLE BOX" id="3S">
<line cb-classname="GraphicLineEntity" class="frameline" id="3N" x1="2340" x2="2340" y1="3080" y2="3460"/>
<line cb-classname="GraphicLineEntity" class="frameline" id="33" x1="2340" x2="5380" y1="3080" y2="3080"/>
<line cb-classname="GraphicLineEntity" class="frameline" id="3v" x1="3650" x2="3650" y1="3460" y2="3080"/>
<line cb-classname="GraphicLineEntity" class="frameline" id="3p" x1="3650" x2="5380" y1="3240" y2="3240"/>
<line cb-classname="GraphicLineEntity" class="frameline" id="3b" x1="3650" x2="5380" y1="3390" y2="3390"/>
<line cb-classname="GraphicLineEntity" class="frameline" id="3m" x1="3650" x2="5380" y1="3160" y2="3160"/>
<line cb-classname="GraphicLineEntity" class="frameline" id="36" x1="3650" x2="4520" y1="3320" y2="3320"/>
<line cb-classname="GraphicLineEntity" class="frameline" id="3I" x1="4520" x2="5380" y1="3290" y2="3290"/>
<line cb-classname="GraphicLineEntity" class="frameline" id="4K" x1="4520" x2="5380" y1="3240" y2="3240"/>
<line cb-classname="GraphicLineEntity" class="frameline" id="4S" x1="4520" x2="4520" y1="3240" y2="3460"/>
<line cb-classname="GraphicLineEntity" class="frameline" id="4N" x1="4810" x2="4810" y1="3240" y2="3390"/>
<line cb-classname="GraphicLineEntity" class="frameline" id="43" x1="4990" x2="4990" y1="3240" y2="3390"/>
<line cb-classname="GraphicLineEntity" class="frameline" id="4v" x1="5150" x2="5150" y1="3080" y2="3390"/>
</g>
<g cb-classname="GraphicShape" cb-tag="TEXT LABELS" id="4p">
<text baseline-shift="-50%" cb-classname="GraphicTextEntity" class="frame" font-size="25" id="4b" text-anchor="middle" x="4890" y="3252">
Drop
</text>
<text baseline-shift="-50%" cb-classname="GraphicTextEntity" class="frame" font-size="25" id="4m" text-anchor="middle" x="5075" y="3252">
Task
</text>
<text baseline-shift="-50%" cb-classname="GraphicTextEntity" class="frame" font-size="25" id="46" text-anchor="middle" x="5265" y="3252">
Sheet
</text>
<text cb-classname="GraphicTextEntity" class="frame" font-size="25" id="4I" x="5152" y="3107">
Rev.
</text>
<text cb-classname="GraphicTextEntity" class="frame" font-size="25" id="5K" x="3653" y="3418">
Engineer
</text>
<text cb-classname="GraphicTextEntity" class="frame" font-size="25" id="5S" x="4528" y="3419">
Approved
</text>
<text cb-classname="GraphicTextEntity" class="frame" font-size="25" id="5N" x="5152" y="3187">
Date
</text>
<text baseline-shift="-50%" cb-classname="GraphicTextEntity" class="frame" font-size="25" id="53" text-anchor="middle" x="4660" y="3252">
Drawing Number
</text>
<text baseline-shift="-50%" cb-classname="GraphicTextEntity" class="frame" font-size="25" id="5v" text-anchor="middle" x="4680" y="3325">
CTL
</text>
</g>
<text baseline-shift="-50%" cb-classname="GraphicTextEntity" class="frame" font-size="48" id="5p" text-anchor="middle" x="3000" y="3100">
EMERSON PROCESS MANAGEMENT
</text>
<g baseline-shift="-100%" cb-anchor-x="2360" cb-anchor-y="3140" cb-classname="GroupText" cb-max-width="1260" fill="black" id="5b">
<text baseline-shift="-100%" cb-classname="GraphicTextEntity" class="frame" fill="black" font-family="arial" font-size="22" font-weight="normal" id="5m" text-anchor="start" text-decoration="normal" x="2360" y="3140">
THIS DOCUMENT CONTAINS INFORMATION PROPRIETARY TO EMERSON PROCESS
</text>
<text baseline-shift="-100%" cb-classname="GraphicTextEntity" class="frame" fill="black" font-family="arial" font-size="22" font-weight="normal" id="56" text-anchor="start" text-decoration="normal" x="2360" y="3176">
MANAGEMENT POWER &amp; WATER SOLUTIONS, INC. IT IS SUBMITTED IN CONFIDENCE AND
</text>
<text baseline-shift="-100%" cb-classname="GraphicTextEntity" class="frame" fill="black" font-family="arial" font-size="22" font-weight="normal" id="5I" text-anchor="start" text-decoration="normal" x="2360" y="3212">
TRUST, IS TO BE USED BY YOU SOLELY FOR THE PURPOSES FOR WHICH IT IS
</text>
<text baseline-shift="-100%" cb-classname="GraphicTextEntity" class="frame" fill="black" font-family="arial" font-size="22" font-weight="normal" id="6K" text-anchor="start" text-decoration="normal" x="2360" y="3248">
FURNISHED AND IS TO BE RETURNED UPON REQUEST. THIS DOCUMENT AND ANY
</text>
<text baseline-shift="-100%" cb-classname="GraphicTextEntity" class="frame" fill="black" font-family="arial" font-size="22" font-weight="normal" id="6S" text-anchor="start" text-decoration="normal" x="2360" y="3284">
OTHER INFORMATION PROVIDED TO YOU IS NOT TO BE REPRODUCED, TRANSMITTED,
</text>
<text baseline-shift="-100%" cb-classname="GraphicTextEntity" class="frame" fill="black" font-family="arial" font-size="22" font-weight="normal" id="6N" text-anchor="start" text-decoration="normal" x="2360" y="3320">
DISCLOSED, OR USED OTHERWISE IN WHOLE OR IN PART WITHOUT THE PRIOR
</text>
<text baseline-shift="-100%" cb-classname="GraphicTextEntity" class="frame" fill="black" font-family="arial" font-size="22" font-weight="normal" id="63" text-anchor="start" text-decoration="normal" x="2360" y="3356">
WRITTEN AUTHORIZATION OF EMERSON PROCESS MANAGEMENT POWER &amp; WATER
</text>
<text baseline-shift="-100%" cb-classname="GraphicTextEntity" class="frame" fill="black" font-family="arial" font-size="22" font-weight="normal" id="6v" text-anchor="start" text-decoration="normal" x="2360" y="3392">
SOLUTIONS,INC.
</text>
</g>
</g>
</svg>