<?xml version="1.0" ?><svg cb-auto-time="03/04/2020 15:15:52" cb-classname="ControlFunction" cb-create-time="01/07/2020" cb-drop-id="12" cb-filename="Z:\OVATION\NET0\UNIT0\CONTROLFUNCTIONS\01B3.svg" cb-function-id="01B3" cb-key="525511234244" cb-modified-timestamp="1587026817" cb-modify-id="00000001" cb-path="Z:/OVATION/NET0/UNIT0/CONTROLFUNCTIONS" cb-revision="A" cb-sheet-number="123499" cb-sheet-title="POV1202 block FG quenc. wat.util. - LOG" cb-snap-grid="10" cb-task-id="3" height="3522" id="1" width="5450" xmlns="http://www.w3.org/2000/svg">
<style cb-classname="EntityStyle" id="2" type="text/css">
	.algorithm { fill: white; stroke: black; stroke-width: 3 }
	.algorithm-function { fill: black; stroke: none }
	.algorithm-functionline { fill: none; stroke: black; stroke-linecap: round; stroke-width: 3 }
	.algorithm-name { fill: black; stroke: none }
	.algorithm-nameline { fill: none; stroke: black; stroke-linecap: round; stroke-width: 3 }
	.algorithm-sequence { fill: black; stroke: none; visibility: hidden }
	.algorithm-sequenceline { fill: none; stroke: black; stroke-linecap: round; stroke-width: 3; visibility: hidden }
	.algorithmline { fill: none; stroke: black; stroke-linecap: round; stroke-width: 3 }
	.annotation { fill: black; stroke: none }
	.annotationline { fill: none; stroke: black; stroke-linecap: round; stroke-width: 3 }
	.description { fill: black; stroke: none }
	.descriptionline { fill: none; stroke: black; stroke-linecap: round; stroke-width: 3 }
	.frame { fill: black; stroke: none }
	.frameline { fill: none; stroke: black; stroke-linecap: round; stroke-width: 3 }
	.signal { fill: black; stroke: none }
	.signalline { fill: none; stroke: black; stroke-linecap: round; stroke-width: 3 }
	text.algorithm { fill: black; font-family: Arial; font-size: 22; stroke: none }
	text.algorithm-function { fill: black; font-family: Arial; font-size: 22; stroke: none }
	text.algorithm-name { fill: black; font-family: Arial; font-size: 22; stroke: none }
	text.algorithm-sequence { fill: black; font-family: Arial; font-size: 22; stroke: none; visibility: hidden }
	text.annotation { fill: black; font-family: Arial; font-size: 22; stroke: none }
	text.description { fill: black; font-family: Arial; font-size: 28; stroke: none }
	text.frame { fill: black; font-family: Arial; font-size: 18; stroke: none }
	text.signal { fill: black; font-family: Arial; font-size: 12; stroke: none }
</style>
<g cb-classname="NamedObject" cb-objectname="Comments" id="3"/>
<g cb-classname="AlgorithmContainer" cb-objectname="Algorithms" id="4">
<g cb-alg-T0x5="NO" cb-alg-Ten="QUENCH_T_NEBUL_SEQ_SAUTO" cb-algorithm-id="02C" cb-classname="ExternalPointInterface" cb-function-name="INPUT" id="1mn">
<ellipse cb-classname="GraphicEllipseEntity" class="algorithm" cx="550" cy="290" id="1mV" rx="40" ry="40"/>
<rect cb-classname="GraphicRectangleEntity" class="algorithm" height="80" id="1ml" width="30" x="480" y="250"/>
<line cb-classname="GraphicLineEntity" class="algorithm" id="1mu" x1="480" x2="510" y1="290" y2="290"/>
<g cb-classname="PointStatusIndicator" cb-indicator-type="Highway" cb-source="76-lqD-N1u" id="1mK" visibility="hidden">
<line cb-classname="GraphicLineEntity" class="algorithmline" id="1mF" x1="510" x2="550" y1="290" y2="250"/>
<line cb-classname="GraphicLineEntity" class="algorithmline" id="1mh" x1="550" x2="590" y1="250" y2="290"/>
<line cb-classname="GraphicLineEntity" class="algorithmline" id="1wO" x1="590" x2="550" y1="290" y2="330"/>
<line cb-classname="GraphicLineEntity" class="algorithmline" id="1w4" x1="550" x2="510" y1="330" y2="290"/>
</g>
<g cb-classname="PointStatusIndicator" cb-indicator-type="hardware" cb-source="EU-zj3-ez3" id="1wC" visibility="hidden">
<line cb-classname="GraphicLineEntity" class="algorithmline" id="1wn" x1="510" x2="590" y1="250" y2="250"/>
<line cb-classname="GraphicLineEntity" class="algorithmline" id="1wV" x1="590" x2="590" y1="250" y2="330"/>
<line cb-classname="GraphicLineEntity" class="algorithmline" id="1wl" x1="590" x2="510" y1="330" y2="330"/>
</g>
<g cb-classname="PointStatusIndicator" cb-indicator-type="alarm" cb-source="98-UiW-3L6" id="1wu" visibility="hidden">
<text cb-classname="GraphicTextEntity" class="algorithm" fill="#000000" font-family="arial" font-size="20" id="1wK" x="487" y="279">
A
</text>
</g>
<g cb-classname="PointStatusIndicator" cb-indicator-type="ingraphic" cb-source="H1-nCL-tNk" id="1wF" visibility="hidden">
<text cb-classname="GraphicTextEntity" class="algorithm" fill="#000000" font-family="Arial" font-size="20" id="1wh" x="485" y="319">
G
</text>
</g>
<g baseline-shift="-50%" cb-anchor-x="462" cb-anchor-y="284" cb-classname="PointDescription" cb-content="extended" cb-labeled="false" cb-max-width="240" cb-source="76-lqD-N1u" class="algorithm" id="1CO" text-anchor="end">
<text baseline-shift="-50%" cb-classname="GraphicTextEntity" class="algorithm" id="1C4" text-anchor="end" x="462" y="249">
Quench tower
</text>
<text baseline-shift="-50%" cb-classname="GraphicTextEntity" class="algorithm" id="2BlU" text-anchor="end" x="462" y="285">
nebulization
</text>
<text baseline-shift="-50%" cb-classname="GraphicTextEntity" class="algorithm" id="2BlJ" text-anchor="end" x="462" y="321">
sequence
</text>
</g>
<g cb-classname="DynamicText" cb-labeled="false" cb-pin-name="R7y" cb-source="ij-4wo-Ten" class="algorithm" id="1CC" text-anchor="start">
<text baseline-shift="0%" cb-classname="GraphicTextEntity" class="algorithm" fill="black" font-family="Arial" font-size="20" font-style="normal" font-weight="normal" id="1Cn" text-anchor="start" text-decoration="normal" x="610" y="270"/>
</g>
<g baseline-shift="-100%" cb-anchor-x="610" cb-anchor-y="300" cb-classname="PointReferences" cb-max-width="230" cb-originator="true" cb-source="Wp-1IZ-sBY" class="signal" id="1CV" text-anchor="start">
<text baseline-shift="-100%" cb-classname="GraphicTextEntity" class="algorithm" id="1Cl" text-anchor="start" x="610" y="300">
12/1248220
</text>
</g>
<g cb-classname="ControlPin" cb-pin-name="o0-en9-dZJ" id="1Cu">
<line cb-classname="GraphicLineEntity" class="signalline" id="1CK" x1="590" x2="610" y1="290" y2="290"/>
<g cb-classname="SignalSegment" cb-start-x="1890" cb-start-y="410" id="1CF">
<g cb-classname="SignalConnection" cb-graphic-line="$1836$" cb-input-pin="$i8I$" id="1Qnc"/>
<line cb-classname="GraphicLineEntity" class="signalline" id="1QnO" stroke="#1e12bf" stroke-dasharray="5,4" x1="610" x2="4180" y1="290" y2="290"/>
</g>
</g>
</g>
<g cb-alg-sBY="P30POV1202_XU[1]" cb-alg-xO8="$153$cb-alg-out$" cb-algorithm-id="00F" cb-classname="FastBooleanAlgorithm" cb-function-name="OR" id="1Q4">
<ellipse cb-classname="GraphicEllipseEntity" class="algorithm" cx="4240" cy="330" id="1QC" rx="40" ry="40"/>
<text baseline-shift="-50%" cb-classname="GraphicTextEntity" class="algorithm" id="1Qn" text-anchor="middle" x="4240" y="329">
OR
</text>
<line cb-classname="GraphicLineEntity" class="algorithmline" id="1QV" x1="4200" x2="4200" y1="270" y2="390"/>
<g cb-classname="ControlPin" cb-pin-name="ij-4wo-rBC" id="1Ql">
<line cb-classname="GraphicLineEntity" class="signalline" id="1Qu" x1="4180" x2="4200" y1="290" y2="290"/>
<polygon cb-classname="GraphicPolygonEntity" class="signal" id="1QK" points="4200,290 4189,286 4189,294"/>
<g cb-classname="DynamicText" cb-source="EU-PrB-OwL0" class="signal" id="1QF" text-anchor="end">
<text baseline-shift="5%" cb-classname="GraphicTextEntity" class="signal" fill="black" font-style="normal" font-weight="normal" id="1Qh" text-anchor="end" text-decoration="normal" x="4199" y="284"/>
</g>
</g>
<g cb-classname="ControlPin" cb-pin-name="tD-J55-GcY" id="1NO">
<line cb-classname="GraphicLineEntity" class="signalline" id="1N4" x1="4280" x2="4300" y1="330" y2="330"/>
<g cb-classname="DynamicText" cb-source="98-Y0B-l8e5" class="signal" id="1NC">
<text baseline-shift="5%" cb-classname="GraphicTextEntity" class="signal" fill="black" font-style="normal" font-weight="normal" id="1Nn" text-decoration="normal" x="4294" y="321"/>
</g>
<g cb-classname="SignalSegment" id="1NV">
<g cb-classname="SignalConnection" cb-graphic-line="$1966$" cb-input-pin="$QMq$" id="1Nuc"/>
<line cb-classname="GraphicLineEntity" class="signalline" id="1NuO" stroke="#1e12bf" stroke-dasharray="5,4" x1="4300" x2="4890" y1="330" y2="330"/>
</g>
</g>
<g cb-classname="ControlPin" cb-pin-name="NA-mbp-BN1" id="1NK">
<line cb-classname="GraphicLineEntity" class="signalline" id="1NF" x1="4180" x2="4200" y1="370" y2="370"/>
<polygon cb-classname="GraphicPolygonEntity" class="signal" id="1Nh" points="4200,370 4189,366 4189,374"/>
<g cb-classname="DynamicText" cb-source="Wp-nBN-rUkr" class="signal" id="2HO" text-anchor="end">
<text baseline-shift="5%" cb-classname="GraphicTextEntity" class="signal" fill="black" font-style="normal" font-weight="normal" id="2H4" text-anchor="end" text-decoration="normal" x="4198" y="364"/>
</g>
</g>
<g cb-classname="ControlPin" cb-pin-name="o0-en9-0Bm" id="2HC">
<line cb-classname="GraphicLineEntity" class="signalline" id="2Hn" x1="4180" x2="4200" y1="330" y2="330"/>
<polygon cb-classname="GraphicPolygonEntity" class="signal" id="2HV" points="4200,330 4189,326 4189,334"/>
<g cb-classname="DynamicText" cb-source="98-Y0B-l8e5" class="signal" id="2Hl" text-anchor="end">
<text baseline-shift="5%" cb-classname="GraphicTextEntity" class="signal" fill="black" font-style="normal" font-weight="normal" id="2Hu" text-anchor="end" text-decoration="normal" x="4198" y="324"/>
</g>
</g>
</g>
<g cb-alg-xO="$181$cb-alg-out$" cb-algorithm-id="001" cb-classname="ExternalPointInterface" cb-function-name="OUTPUT" id="2HK">
<ellipse cb-classname="GraphicEllipseEntity" class="algorithm" cx="4950" cy="330" id="2HF" rx="40" ry="40"/>
<rect cb-classname="GraphicRectangleEntity" class="algorithm" height="80" id="2Hh" width="30" x="4990" y="290"/>
<line cb-classname="GraphicLineEntity" class="algorithm" id="2BO" x1="4990" x2="5020" y1="330" y2="330"/>
<g cb-classname="PointStatusIndicator" cb-indicator-type="highway" cb-source="ij-4wo-rB" id="2B4" visibility="hidden">
<line cb-classname="GraphicLineEntity" class="algorithmline" id="2BC" x1="4910" x2="4950" y1="330" y2="290"/>
<line cb-classname="GraphicLineEntity" class="algorithmline" id="2Bn" x1="4950" x2="4990" y1="290" y2="330"/>
<line cb-classname="GraphicLineEntity" class="algorithmline" id="2BV" x1="4990" x2="4950" y1="330" y2="370"/>
<line cb-classname="GraphicLineEntity" class="algorithmline" id="2Bl" x1="4950" x2="4910" y1="370" y2="330"/>
</g>
<g cb-classname="PointStatusIndicator" cb-indicator-type="hardware" cb-source="tD-J55-gT" id="2Bu" visibility="hidden">
<line cb-classname="GraphicLineEntity" class="algorithmline" id="2BK" x1="4990" x2="4910" y1="290" y2="290"/>
<line cb-classname="GraphicLineEntity" class="algorithmline" id="2BF" x1="4910" x2="4910" y1="290" y2="370"/>
<line cb-classname="GraphicLineEntity" class="algorithmline" id="2Bh" x1="4910" x2="4990" y1="370" y2="370"/>
</g>
<g cb-classname="PointStatusIndicator" cb-indicator-type="alarm" cb-source="H1-nCL-NO" id="25O" visibility="hidden">
<text cb-classname="GraphicTextEntity" class="algorithm" fill="#000000" font-family="Arial" font-size="20" id="254" x="4997" y="319">
A
</text>
</g>
<g cb-classname="PointStatusIndicator" cb-indicator-type="ingraphic" cb-source="76-lqD-uk" id="25C" visibility="hidden">
<text cb-classname="GraphicTextEntity" class="algorithm" fill="#000000" font-family="Arial" font-size="20" id="25n" x="4995" y="360">
G
</text>
</g>
<g cb-classname="DynamicText" cb-labeled="false" cb-pin-name="dK" cb-source="ij-4wo-rB" class="algorithm" id="25V" text-anchor="end">
<text baseline-shift="0%" cb-classname="GraphicTextEntity" class="algorithm" fill="black" font-family="Arial" font-size="20" font-style="normal" font-weight="normal" id="25l" text-anchor="end" text-decoration="normal" x="4887" y="309"/>
</g>
<g baseline-shift="-100%" cb-anchor-x="4888" cb-anchor-y="346" cb-classname="PointReferences" cb-max-width="240" cb-originator="false" cb-source="Wp-1IZ-xO" class="signal" id="25u" text-anchor="end">
<text baseline-shift="-100%" cb-classname="GraphicTextEntity" class="algorithm" id="25K" text-anchor="end" x="4888" y="346">
12/123500
</text>
</g>
<g baseline-shift="-50%" cb-anchor-x="5041" cb-anchor-y="328" cb-classname="PointDescription" cb-content="extended" cb-labeled="false" cb-max-width="240" cb-source="o0-en9-0B" class="algorithm" id="25F" text-anchor="start">
<text baseline-shift="-50%" cb-classname="GraphicTextEntity" class="algorithm" id="25h" text-anchor="start" x="5041" y="276">
vlv. POV1202
</text>
<text baseline-shift="-50%" cb-classname="GraphicTextEntity" class="algorithm" id="2BnM" text-anchor="start" x="5041" y="312">
block FG quenc.
</text>
<text baseline-shift="-50%" cb-classname="GraphicTextEntity" class="algorithm" id="2BlH" text-anchor="start" x="5041" y="348">
wat.util.
</text>
<text baseline-shift="-50%" cb-classname="GraphicTextEntity" class="algorithm" id="25lH" text-anchor="start" x="5041" y="384">
(REQA)
</text>
</g>
<g cb-classname="ControlPin" cb-pin-name="98-UiW-Wn" id="2r4">
<line cb-classname="GraphicLineEntity" class="signalline" id="2rC" x1="4890" x2="4910" y1="330" y2="330"/>
<polygon cb-classname="GraphicPolygonEntity" class="signal" id="2rn" points="4910,330 4899,324 4899,335"/>
</g>
</g>
<g cb-alg-T3X="QUENCH_T_NEBUL_SEQ_XS02" cb-alg-TUbg="NO" cb-algorithm-id="032" cb-classname="ExternalPointInterface" cb-function-name="INPUT" id="6NO">
<ellipse cb-classname="GraphicEllipseEntity" class="algorithm" cx="550" cy="1310" id="6N4" rx="40" ry="40"/>
<rect cb-classname="GraphicRectangleEntity" class="algorithm" height="80" id="6NC" width="30" x="480" y="1270"/>
<line cb-classname="GraphicLineEntity" class="algorithm" id="6Nn" x1="480" x2="510" y1="1310" y2="1310"/>
<g cb-classname="PointStatusIndicator" cb-indicator-type="Highway" cb-source="Wp-1IZ-sBY" id="6NV" visibility="hidden">
<line cb-classname="GraphicLineEntity" class="algorithmline" id="6Nl" x1="510" x2="550" y1="1310" y2="1270"/>
<line cb-classname="GraphicLineEntity" class="algorithmline" id="6Nu" x1="550" x2="590" y1="1270" y2="1310"/>
<line cb-classname="GraphicLineEntity" class="algorithmline" id="6NK" x1="590" x2="550" y1="1310" y2="1350"/>
<line cb-classname="GraphicLineEntity" class="algorithmline" id="6NF" x1="550" x2="510" y1="1350" y2="1310"/>
</g>
<g cb-classname="PointStatusIndicator" cb-indicator-type="hardware" cb-source="98-UiW-3L6" id="6Nh" visibility="hidden">
<line cb-classname="GraphicLineEntity" class="algorithmline" id="7HO" x1="510" x2="590" y1="1270" y2="1270"/>
<line cb-classname="GraphicLineEntity" class="algorithmline" id="7H4" x1="590" x2="590" y1="1270" y2="1350"/>
<line cb-classname="GraphicLineEntity" class="algorithmline" id="7HC" x1="590" x2="510" y1="1350" y2="1350"/>
</g>
<g cb-classname="PointStatusIndicator" cb-indicator-type="alarm" cb-source="76-lqD-N1u" id="7Hn" visibility="hidden">
<text cb-classname="GraphicTextEntity" class="algorithm" fill="#000000" font-family="arial" font-size="20" id="7HV" x="487" y="1299">
A
</text>
</g>
<g cb-classname="PointStatusIndicator" cb-indicator-type="ingraphic" cb-source="ij-4wo-Ten" id="7Hl" visibility="hidden">
<text cb-classname="GraphicTextEntity" class="algorithm" fill="#000000" font-family="Arial" font-size="20" id="7Hu" x="485" y="1339">
G
</text>
</g>
<g baseline-shift="-50%" cb-anchor-x="462" cb-anchor-y="1304" cb-classname="PointDescription" cb-content="extended" cb-labeled="false" cb-max-width="240" cb-source="Wp-1IZ-sBY" class="algorithm" id="7HK" text-anchor="end">
<text baseline-shift="-50%" cb-classname="GraphicTextEntity" class="algorithm" id="7HF" text-anchor="end" x="462" y="1269">
Quench tower
</text>
<text baseline-shift="-50%" cb-classname="GraphicTextEntity" class="algorithm" id="2Bhe" text-anchor="end" x="462" y="1305">
nebulization
</text>
<text baseline-shift="-50%" cb-classname="GraphicTextEntity" class="algorithm" id="2BhO" text-anchor="end" x="462" y="1341">
sequence
</text>
</g>
<g cb-classname="DynamicText" cb-labeled="false" cb-pin-name="V3T" cb-source="o0-en9-dZJ" class="algorithm" id="7Hh" text-anchor="start">
<text baseline-shift="0%" cb-classname="GraphicTextEntity" class="algorithm" fill="black" font-family="Arial" font-size="20" font-style="normal" font-weight="normal" id="7BO" text-anchor="start" text-decoration="normal" x="610" y="1290"/>
</g>
<g baseline-shift="-100%" cb-anchor-x="610" cb-anchor-y="1320" cb-classname="PointReferences" cb-max-width="230" cb-originator="true" cb-source="Zt-dcg-EAc" class="signal" id="7B4" text-anchor="start">
<text baseline-shift="-100%" cb-classname="GraphicTextEntity" class="algorithm" id="7BC" text-anchor="start" x="610" y="1320">
12/1248221
</text>
</g>
<g cb-classname="ControlPin" cb-pin-name="4g-wO9-Ooc" id="7Bn">
<line cb-classname="GraphicLineEntity" class="signalline" id="7BV" x1="590" x2="610" y1="1310" y2="1310"/>
<g cb-classname="SignalSegment" cb-start-x="1890" cb-start-y="1790" id="7Bl">
<line cb-classname="GraphicLineEntity" class="signalline" id="7Bu" stroke="#1e12bf" stroke-dasharray="5,4" x1="610" x2="3780" y1="1310" y2="1310"/>
<g cb-classname="SignalSegment" id="7BK">
<line cb-classname="GraphicLineEntity" class="signalline" id="1Nno" stroke="#1e12bf" stroke-dasharray="5,4" x1="3780" x2="4180" y1="1310" y2="1310"/>
<g cb-classname="SignalConnection" cb-graphic-line="$1930$" cb-input-pin="$Vf4$" id="1NnM"/>
<line cb-classname="GraphicLineEntity" class="signalline" id="1CuJ" stroke="#1e12bf" stroke-dasharray="5,4" x1="3780" x2="3780" y1="1310" y2="3000"/>
<g cb-classname="SignalSegment" id="75C">
<g cb-classname="SignalConnection" cb-graphic-line="$1766$" cb-input-pin="$FPsD$" id="1Cuc"/>
<line cb-classname="GraphicLineEntity" class="signalline" id="1CuO" stroke="#1e12bf" stroke-dasharray="5,4" x1="3780" x2="4170" y1="3000" y2="3000"/>
</g>
<ellipse cb-classname="GraphicEllipseEntity" class="signal" cx="3780" cy="1310" fill="#1e12bf" id="1NnK" rx="5" ry="5" stroke="#1e12bf" stroke-dasharray="5,4"/>
</g>
</g>
</g>
</g>
<g cb-alg-Ten="P30POV1202_XU[7]" cb-alg-rBC="$690$cb-alg-out$" cb-algorithm-id="014" cb-classname="FastBooleanAlgorithm" cb-function-name="OR" id="75l">
<ellipse cb-classname="GraphicEllipseEntity" class="algorithm" cx="4240" cy="1350" id="75u" rx="40" ry="40"/>
<text baseline-shift="-50%" cb-classname="GraphicTextEntity" class="algorithm" id="75K" text-anchor="middle" x="4240" y="1349">
OR
</text>
<line cb-classname="GraphicLineEntity" class="algorithmline" id="75F" x1="4200" x2="4200" y1="1290" y2="1410"/>
<g cb-classname="ControlPin" cb-pin-name="76-lqD-uka" id="75h">
<line cb-classname="GraphicLineEntity" class="signalline" id="7rO" x1="4180" x2="4200" y1="1310" y2="1310"/>
<polygon cb-classname="GraphicPolygonEntity" class="signal" id="7r4" points="4200,1310 4189,1306 4189,1314"/>
<g cb-classname="DynamicText" cb-source="zD-luk-Bdah" class="signal" id="7rC" text-anchor="end">
<text baseline-shift="5%" cb-classname="GraphicTextEntity" class="signal" fill="black" font-style="normal" font-weight="normal" id="7rn" text-anchor="end" text-decoration="normal" x="4199" y="1304"/>
</g>
</g>
<g cb-classname="ControlPin" cb-pin-name="EU-zj3-ez3" id="7rV">
<line cb-classname="GraphicLineEntity" class="signalline" id="7rl" x1="4280" x2="4300" y1="1350" y2="1350"/>
<g cb-classname="DynamicText" cb-source="tD-OxO-B51I" class="signal" id="7ru">
<text baseline-shift="5%" cb-classname="GraphicTextEntity" class="signal" fill="black" font-style="normal" font-weight="normal" id="7rK" text-decoration="normal" x="4294" y="1341"/>
</g>
<g cb-classname="SignalSegment" id="7rF">
<g cb-classname="SignalConnection" cb-graphic-line="$1988$" cb-input-pin="$CKe$" id="1NFH"/>
<line cb-classname="GraphicLineEntity" class="signalline" id="1NFT" stroke="#1e12bf" stroke-dasharray="5,4" x1="4300" x2="4890" y1="1350" y2="1350"/>
</g>
</g>
<g cb-classname="ControlPin" cb-pin-name="cJ-t15-2Sf" id="7d4">
<line cb-classname="GraphicLineEntity" class="signalline" id="7dC" x1="4180" x2="4200" y1="1390" y2="1390"/>
<polygon cb-classname="GraphicPolygonEntity" class="signal" id="7dn" points="4200,1390 4189,1386 4189,1394"/>
<g cb-classname="DynamicText" cb-source="ij-12S-NJSp" class="signal" id="7dV" text-anchor="end">
<text baseline-shift="5%" cb-classname="GraphicTextEntity" class="signal" fill="black" font-style="normal" font-weight="normal" id="7dl" text-anchor="end" text-decoration="normal" x="4198" y="1384"/>
</g>
</g>
<g cb-classname="ControlPin" cb-pin-name="Wp-1IZ-xOr" id="7du">
<line cb-classname="GraphicLineEntity" class="signalline" id="7dK" x1="4180" x2="4200" y1="1350" y2="1350"/>
<polygon cb-classname="GraphicPolygonEntity" class="signal" id="7dF" points="4200,1350 4189,1346 4189,1354"/>
<g cb-classname="DynamicText" cb-source="tD-OxO-B51I" class="signal" id="7dh" text-anchor="end">
<text baseline-shift="5%" cb-classname="GraphicTextEntity" class="signal" fill="black" font-style="normal" font-weight="normal" id="7mO" text-anchor="end" text-decoration="normal" x="4198" y="1344"/>
</g>
</g>
</g>
<g cb-alg-rB="$725$cb-alg-out$" cb-algorithm-id="015" cb-classname="ExternalPointInterface" cb-function-name="OUTPUT" id="7m4">
<ellipse cb-classname="GraphicEllipseEntity" class="algorithm" cx="4950" cy="1350" id="7mC" rx="40" ry="40"/>
<rect cb-classname="GraphicRectangleEntity" class="algorithm" height="80" id="7mn" width="30" x="4990" y="1310"/>
<line cb-classname="GraphicLineEntity" class="algorithm" id="7mV" x1="4990" x2="5020" y1="1350" y2="1350"/>
<g cb-classname="PointStatusIndicator" cb-indicator-type="highway" cb-source="76-lqD-uk" id="7ml" visibility="hidden">
<line cb-classname="GraphicLineEntity" class="algorithmline" id="7mu" x1="4910" x2="4950" y1="1350" y2="1310"/>
<line cb-classname="GraphicLineEntity" class="algorithmline" id="7mK" x1="4950" x2="4990" y1="1310" y2="1350"/>
<line cb-classname="GraphicLineEntity" class="algorithmline" id="7mF" x1="4990" x2="4950" y1="1350" y2="1390"/>
<line cb-classname="GraphicLineEntity" class="algorithmline" id="7mh" x1="4950" x2="4910" y1="1390" y2="1350"/>
</g>
<g cb-classname="PointStatusIndicator" cb-indicator-type="hardware" cb-source="EU-zj3-0W" id="7wO" visibility="hidden">
<line cb-classname="GraphicLineEntity" class="algorithmline" id="7w4" x1="4990" x2="4910" y1="1310" y2="1310"/>
<line cb-classname="GraphicLineEntity" class="algorithmline" id="7wC" x1="4910" x2="4910" y1="1310" y2="1390"/>
<line cb-classname="GraphicLineEntity" class="algorithmline" id="7wn" x1="4910" x2="4990" y1="1390" y2="1390"/>
</g>
<g cb-classname="PointStatusIndicator" cb-indicator-type="alarm" cb-source="98-UiW-Wn" id="7wV" visibility="hidden">
<text cb-classname="GraphicTextEntity" class="algorithm" fill="#000000" font-family="Arial" font-size="20" id="7wl" x="4997" y="1339">
A
</text>
</g>
<g cb-classname="PointStatusIndicator" cb-indicator-type="ingraphic" cb-source="H1-nCL-NO" id="7wu" visibility="hidden">
<text cb-classname="GraphicTextEntity" class="algorithm" fill="#000000" font-family="Arial" font-size="20" id="7wK" x="4995" y="1380">
G
</text>
</g>
<g cb-classname="DynamicText" cb-labeled="false" cb-pin-name="gM" cb-source="76-lqD-uk" class="algorithm" id="7wF" text-anchor="end">
<text baseline-shift="0%" cb-classname="GraphicTextEntity" class="algorithm" fill="black" font-family="Arial" font-size="20" font-style="normal" font-weight="normal" id="7wh" text-anchor="end" text-decoration="normal" x="4887" y="1329"/>
</g>
<g baseline-shift="-100%" cb-anchor-x="4888" cb-anchor-y="1366" cb-classname="PointReferences" cb-max-width="240" cb-originator="false" cb-source="ij-4wo-rB" class="signal" id="7CO" text-anchor="end">
<text baseline-shift="-100%" cb-classname="GraphicTextEntity" class="algorithm" id="7C4" text-anchor="end" x="4888" y="1366">
12/123500
</text>
</g>
<g baseline-shift="-50%" cb-anchor-x="5041" cb-anchor-y="1348" cb-classname="PointDescription" cb-content="extended" cb-labeled="false" cb-max-width="240" cb-source="Wp-1IZ-xO" class="algorithm" id="7CC" text-anchor="start">
<text baseline-shift="-50%" cb-classname="GraphicTextEntity" class="algorithm" id="7Cn" text-anchor="start" x="5041" y="1296">
vlv. POV1202
</text>
<text baseline-shift="-50%" cb-classname="GraphicTextEntity" class="algorithm" id="2Bnc" text-anchor="start" x="5041" y="1332">
block FG quenc.
</text>
<text baseline-shift="-50%" cb-classname="GraphicTextEntity" class="algorithm" id="25OM" text-anchor="start" x="5041" y="1368">
wat.util.
</text>
<text baseline-shift="-50%" cb-classname="GraphicTextEntity" class="algorithm" id="25ue" text-anchor="start" x="5041" y="1404">
(AUTR)
</text>
</g>
<g cb-classname="ControlPin" cb-pin-name="tD-J55-gT" id="7Cl">
<line cb-classname="GraphicLineEntity" class="signalline" id="7Cu" x1="4890" x2="4910" y1="1350" y2="1350"/>
<polygon cb-classname="GraphicPolygonEntity" class="signal" id="7CK" points="4910,1350 4899,1344 4899,1355"/>
</g>
</g>
<g cb-alg-sh29="NO" cb-alg-szN="QUENCH_T_NEBUL_SEQ_XS51" cb-algorithm-id="025" cb-classname="ExternalPointInterface" cb-function-name="INPUT" id="1wCM">
<ellipse cb-classname="GraphicEllipseEntity" class="algorithm" cx="550" cy="2670" id="1wCK" rx="40" ry="40"/>
<rect cb-classname="GraphicRectangleEntity" class="algorithm" height="80" id="1wCU" width="30" x="480" y="2630"/>
<line cb-classname="GraphicLineEntity" class="algorithm" id="1wCJ" x1="480" x2="510" y1="2670" y2="2670"/>
<g cb-classname="PointStatusIndicator" cb-indicator-type="Highway" cb-source="cJ-t15-H2q" id="1wCe" visibility="hidden">
<line cb-classname="GraphicLineEntity" class="algorithmline" id="1wCO" x1="510" x2="550" y1="2670" y2="2630"/>
<line cb-classname="GraphicLineEntity" class="algorithmline" id="1wCc" x1="550" x2="590" y1="2630" y2="2670"/>
<line cb-classname="GraphicLineEntity" class="algorithmline" id="1wCT" x1="590" x2="550" y1="2670" y2="2710"/>
<line cb-classname="GraphicLineEntity" class="algorithmline" id="1wCH" x1="550" x2="510" y1="2710" y2="2670"/>
</g>
<g cb-classname="PointStatusIndicator" cb-indicator-type="hardware" cb-source="Wp-1IZ-sBY" id="1wno" visibility="hidden">
<line cb-classname="GraphicLineEntity" class="algorithmline" id="1wnM" x1="510" x2="590" y1="2630" y2="2630"/>
<line cb-classname="GraphicLineEntity" class="algorithmline" id="1wnK" x1="590" x2="590" y1="2630" y2="2710"/>
<line cb-classname="GraphicLineEntity" class="algorithmline" id="1wnU" x1="590" x2="510" y1="2710" y2="2710"/>
</g>
<g cb-classname="PointStatusIndicator" cb-indicator-type="alarm" cb-source="Zt-dcg-EAc" id="1wnJ" visibility="hidden">
<text cb-classname="GraphicTextEntity" class="algorithm" fill="#000000" font-family="arial" font-size="20" id="1wne" x="487" y="2659">
A
</text>
</g>
<g cb-classname="PointStatusIndicator" cb-indicator-type="ingraphic" cb-source="4g-wO9-Ooc" id="1wnO" visibility="hidden">
<text cb-classname="GraphicTextEntity" class="algorithm" fill="#000000" font-family="Arial" font-size="20" id="1wnc" x="485" y="2699">
G
</text>
</g>
<g baseline-shift="-50%" cb-anchor-x="462" cb-anchor-y="2664" cb-classname="PointDescription" cb-content="extended" cb-labeled="false" cb-max-width="240" cb-source="cJ-t15-H2q" class="algorithm" id="1wnT" text-anchor="end">
<text baseline-shift="-50%" cb-classname="GraphicTextEntity" class="algorithm" id="1wnH" text-anchor="end" x="462" y="2629">
Quench tower
</text>
<text baseline-shift="-50%" cb-classname="GraphicTextEntity" class="algorithm" id="25lM" text-anchor="end" x="462" y="2665">
nebulization
</text>
<text baseline-shift="-50%" cb-classname="GraphicTextEntity" class="algorithm" id="25lK" text-anchor="end" x="462" y="2701">
sequence
</text>
</g>
<g cb-classname="DynamicText" cb-labeled="false" cb-pin-name="LGL" cb-source="zD-LCl-L4r" class="algorithm" id="1wVK" text-anchor="start">
<text baseline-shift="0%" cb-classname="GraphicTextEntity" class="algorithm" fill="black" font-family="Arial" font-size="20" font-style="normal" font-weight="normal" id="1wVU" text-anchor="start" text-decoration="normal" x="610" y="2650"/>
</g>
<g baseline-shift="-100%" cb-anchor-x="610" cb-anchor-y="2680" cb-classname="PointReferences" cb-max-width="230" cb-originator="true" cb-source="EU-zj3-ez3" class="signal" id="1wVJ" text-anchor="start">
<text baseline-shift="-100%" cb-classname="GraphicTextEntity" class="algorithm" id="1wVe" text-anchor="start" x="610" y="2680">
12/1248222
</text>
</g>
<g cb-classname="ControlPin" cb-pin-name="98-UiW-3L6" id="1wVT">
<line cb-classname="GraphicLineEntity" class="signalline" id="1wVH" x1="590" x2="610" y1="2670" y2="2670"/>
<g cb-classname="SignalSegment" cb-start-x="1890" cb-start-y="2020" id="1wlo">
<line cb-classname="GraphicLineEntity" class="signalline" id="25KJ" stroke="#1e12bf" stroke-dasharray="5,4" x1="610" x2="3720" y1="2670" y2="2670"/>
<g cb-classname="SignalSegment" id="25Ke">
<line cb-classname="GraphicLineEntity" class="signalline" id="25KO" stroke="#1e12bf" stroke-dasharray="5,4" x1="3720" x2="3720" y1="2670" y2="3020"/>
<g cb-classname="SignalSegment" id="25Kc">
<line cb-classname="GraphicLineEntity" class="signalline" id="25KT" stroke="#1e12bf" stroke-dasharray="5,4" x1="3720" x2="4170" y1="3020" y2="3020"/>
<g cb-classname="SignalConnection" cb-graphic-line="$2278$" cb-input-pin="$inmj$" id="25KH"/>
</g>
<line cb-classname="GraphicLineEntity" class="signalline" id="1NlO" stroke="#1e12bf" stroke-dasharray="5,4" x1="3720" x2="4180" y1="2670" y2="2670"/>
<g cb-classname="SignalConnection" cb-graphic-line="$1956$" cb-input-pin="$fv5H$" id="1Nlc"/>
<ellipse cb-classname="GraphicEllipseEntity" class="signal" cx="3720" cy="2670" fill="#1e12bf" id="25Fo" rx="5" ry="5" stroke="#1e12bf" stroke-dasharray="5,4"/>
</g>
</g>
</g>
</g>
<g cb-alg-3dmOA="P30POV1202_EDEV" cb-alg-3scA6="850" cb-alg-B="100" cb-alg-F="50" cb-alg-GUM="DISABLED" cb-alg-XeNAE="PERMISSIVE CLOSE  - 允许关" cb-alg-XeNAI="NO POWER - 没有动力" cb-alg-XeNAP="NOT READY - 未备妥" cb-alg-XeNAQ="FORCING CLOSE - 紧急关" cb-alg-XeNAX="AUTO OPEN - 自动开" cb-alg-XeNAd="PERMISSIVE OPEN - 允许开" cb-alg-XeNAh="AUTO CLOSE - 自动关" cb-alg-XeNAm="INFO M2V TYP  WINDOW" cb-alg-XeNAq="FORCING OPEN - 紧急开" cb-alg-bd9="$690$cb-alg-out$" cb-alg-bdWfAA="DISABLED" cb-alg-bdk="$1621$cb-alg-out$" cb-alg-bzXtE="NORMAL" cb-alg-bzXtI="INVERT" cb-alg-bzXtP="NORMAL" cb-alg-bzXtQ="INVERT" cb-alg-bzXtX="NORMAL" cb-alg-bzXtd="NORMAL" cb-alg-bzXth="NORMAL" cb-alg-bzXtq="INVERT" cb-algorithm-id="016" cb-classname="AutomaticWindowAlgorithm" cb-function-name="PERMISSIVEWINDOW" id="1Buo">
<rect cb-classname="GraphicRectangleEntity" class="algorithm" height="190" id="1BuM" width="130" x="4200" y="2850"/>
<text baseline-shift="0%" cb-classname="GraphicTextEntity" class="annotation" fill="#000000" font-family="MS Shell Dlg 2" font-size="8" id="1BuK" x="4210" y="2880">
EMRR
</text>
<text baseline-shift="0%" cb-classname="GraphicTextEntity" class="annotation" fill="#000000" font-family="MS Shell Dlg 2" font-size="8" id="1BuU" x="4210" y="2900">
PERR
</text>
<text baseline-shift="0%" cb-classname="GraphicTextEntity" class="annotation" fill="#000000" font-family="MS Shell Dlg 2" font-size="8" id="1BuJ" x="4210" y="2920">
EMRL
</text>
<text baseline-shift="0%" cb-classname="GraphicTextEntity" class="annotation" fill="#000000" font-family="MS Shell Dlg 2" font-size="8" id="1Bue" x="4210" y="2940">
PERL
</text>
<text baseline-shift="0%" cb-classname="GraphicTextEntity" class="annotation" fill="#000000" font-family="MS Shell Dlg 2" font-size="12" id="1BuO" x="4290" y="2870">
INFO
</text>
<text baseline-shift="0%" cb-classname="GraphicTextEntity" class="annotation" fill="#000000" font-family="MS Shell Dlg 2" font-size="12" id="1Buc" x="4260" y="2890">
M2V
</text>
<text baseline-shift="0%" cb-classname="GraphicTextEntity" class="annotation" fill="#000000" font-family="MS Shell Dlg 2" font-size="12" id="1BuT" x="4260" y="2910">
WINDOW
</text>
<g cb-classname="GraphicShape" id="1BuH">
<g cb-classname="DynamicText" cb-labeled="false" cb-source="cJ-t15-5SzGj" id="1BKo">
<text cb-classname="GraphicTextEntity" class="algorithm" id="1BKM" text-anchor="start" x="4200" y="3070"/>
</g>
</g>
<text baseline-shift="0%" cb-classname="GraphicTextEntity" class="annotation" fill="#000000" font-family="MS Shell Dlg 2" font-size="8" id="1BKK" x="4210" y="3000">
AUTR
</text>
<text baseline-shift="0%" cb-classname="GraphicTextEntity" class="annotation" fill="#000000" font-family="MS Shell Dlg 2" font-size="8" id="1BKU" x="4210" y="3020">
AUTL
</text>
<g cb-classname="ControlPin" cb-pin-name="zD-LCl-2rF" id="1BKJ">
<line cb-classname="GraphicLineEntity" class="signalline" id="1BKe" x1="4170" x2="4200" y1="2880" y2="2880"/>
<polygon cb-classname="GraphicPolygonEntity" class="signal" id="1BKO" points="4200,2880 4189,2874 4189,2885"/>
<g cb-classname="DynamicText" cb-source="o0-62r-Wn4m" id="1BKc">
<text cb-classname="GraphicTextEntity" class="signal" id="1BKT" text-anchor="end" x="4185" y="2877"/>
</g>
</g>
<g cb-classname="ControlPin" cb-pin-name="Zt-dcg-Wlr" id="1BKH">
<line cb-classname="GraphicLineEntity" class="signalline" id="1BFo" x1="4170" x2="4200" y1="2900" y2="2900"/>
<polygon cb-classname="GraphicPolygonEntity" class="signal" id="1BFM" points="4200,2900 4189,2894 4189,2905"/>
<g cb-classname="DynamicText" cb-source="H1-9Wl-iCKw" id="1BFK">
<text cb-classname="GraphicTextEntity" class="signal" id="1BFU" text-anchor="end" x="4185" y="2897"/>
</g>
</g>
<g cb-classname="ControlPin" cb-pin-name="76-lqD-ukA" id="1BFJ">
<line cb-classname="GraphicLineEntity" class="signalline" id="1BFe" x1="4170" x2="4200" y1="2920" y2="2920"/>
<polygon cb-classname="GraphicPolygonEntity" class="signal" id="1BFO" points="4200,2920 4189,2914 4189,2925"/>
<g cb-classname="DynamicText" cb-source="zD-luk-Bdah" id="1BFc">
<text cb-classname="GraphicTextEntity" class="signal" id="1BFT" text-anchor="end" x="4185" y="2917"/>
</g>
</g>
<g cb-classname="ControlPin" cb-pin-name="EU-zj3-0W1" id="1BFH">
<line cb-classname="GraphicLineEntity" class="signalline" id="1Bho" x1="4170" x2="4200" y1="2940" y2="2940"/>
<polygon cb-classname="GraphicPolygonEntity" class="signal" id="1BhM" points="4200,2940 4189,2934 4189,2945"/>
<g cb-classname="DynamicText" cb-source="Zt-70W-TSoc" id="1BhK">
<text cb-classname="GraphicTextEntity" class="signal" id="1BhU" text-anchor="end" x="4185" y="2937"/>
</g>
</g>
<g cb-classname="ControlPin" cb-pin-name="4g-wO9-vi8" id="1BhJ">
<line cb-classname="GraphicLineEntity" class="signalline" id="1Bhe" x1="4170" x2="4200" y1="2960" y2="2960"/>
<polygon cb-classname="GraphicPolygonEntity" class="signal" id="1BhO" points="4200,2960 4189,2954 4189,2965"/>
<g cb-classname="DynamicText" cb-source="76-yst-SzGj" id="1Bhc">
<text cb-classname="GraphicTextEntity" class="signal" id="1BhT" text-anchor="end" x="4185" y="2957"/>
</g>
</g>
<g cb-classname="ControlPin" cb-pin-name="ij-4wo-rBZ" id="1BhH">
<line cb-classname="GraphicLineEntity" class="signalline" id="15Oo" x1="4170" x2="4200" y1="2980" y2="2980"/>
<polygon cb-classname="GraphicPolygonEntity" class="signal" id="15OM" points="4200,2980 4189,2974 4189,2985"/>
<g cb-classname="DynamicText" cb-source="EU-PrB-OwL0" id="15OK">
<text cb-classname="GraphicTextEntity" class="signal" id="15OU" text-anchor="end" x="4185" y="2977"/>
</g>
</g>
<g cb-classname="ControlPin" cb-pin-name="tD-J55-gT6" id="15OJ">
<line cb-classname="GraphicLineEntity" class="signalline" id="15Oe" x1="4170" x2="4200" y1="3000" y2="3000"/>
<polygon cb-classname="GraphicPolygonEntity" class="signal" id="15OO" points="4200,3000 4189,2994 4189,3005"/>
<g cb-classname="DynamicText" cb-source="4g-3gT-nyFc" id="15Oc">
<text cb-classname="GraphicTextEntity" class="signal" id="15OT" text-anchor="end" x="4185" y="2997"/>
</g>
</g>
<g cb-classname="ControlPin" cb-pin-name="cJ-t15-2SF" id="15OH">
<line cb-classname="GraphicLineEntity" class="signalline" id="154o" x1="4170" x2="4200" y1="3020" y2="3020"/>
<polygon cb-classname="GraphicPolygonEntity" class="signal" id="154M" points="4200,3020 4189,3014 4189,3025"/>
<g cb-classname="DynamicText" cb-source="ij-12S-NJSp" id="154K">
<text cb-classname="GraphicTextEntity" class="signal" id="154U" text-anchor="end" x="4185" y="3017"/>
</g>
</g>
<text baseline-shift="0%" cb-classname="GraphicTextEntity" class="annotation" fill="#000000" font-family="MS Shell Dlg 2" font-size="8" id="2BOK" x="4210" y="2980">
DRDY
</text>
</g>
<g cb-alg-a6h="P30POV1202_XU[15]" cb-alg-ef0="$1621$cb-alg-out$" cb-algorithm-id="028" cb-classname="FastBooleanAlgorithm" cb-function-name="OR" id="1wlU">
<ellipse cb-classname="GraphicEllipseEntity" class="algorithm" cx="4240" cy="2710" id="1wlJ" rx="40" ry="40"/>
<text baseline-shift="-50%" cb-classname="GraphicTextEntity" class="algorithm" id="1wle" text-anchor="middle" x="4240" y="2709">
OR
</text>
<line cb-classname="GraphicLineEntity" class="algorithmline" id="1wlO" x1="4200" x2="4200" y1="2650" y2="2770"/>
<g cb-classname="ControlPin" cb-pin-name="EU-zj3-0Wu" id="1wlc">
<line cb-classname="GraphicLineEntity" class="signalline" id="1wlT" x1="4180" x2="4200" y1="2670" y2="2670"/>
<polygon cb-classname="GraphicPolygonEntity" class="signal" id="1wlH" points="4200,2670 4189,2666 4189,2674"/>
<g cb-classname="DynamicText" cb-source="Zt-70W-TSoc" class="signal" id="1wuo" text-anchor="end">
<text baseline-shift="5%" cb-classname="GraphicTextEntity" class="signal" fill="black" font-style="normal" font-weight="normal" id="1wuM" text-anchor="end" text-decoration="normal" x="4199" y="2664"/>
</g>
</g>
<g cb-classname="ControlPin" cb-pin-name="4g-wO9-Ooc" id="1wuK">
<line cb-classname="GraphicLineEntity" class="signalline" id="1wuU" x1="4280" x2="4300" y1="2710" y2="2710"/>
<g cb-classname="DynamicText" cb-source="cJ-gsY-x1rk" class="signal" id="1wuJ">
<text baseline-shift="5%" cb-classname="GraphicTextEntity" class="signal" fill="black" font-style="normal" font-weight="normal" id="1wue" text-decoration="normal" x="4294" y="2701"/>
</g>
<g cb-classname="SignalSegment" id="1wuO">
<g cb-classname="SignalConnection" cb-graphic-line="$1994$" cb-input-pin="$qVRA$" id="1Nhe"/>
<line cb-classname="GraphicLineEntity" class="signalline" id="1NhJ" stroke="#1e12bf" stroke-dasharray="5,4" x1="4300" x2="4890" y1="2710" y2="2710"/>
</g>
</g>
<g cb-classname="ControlPin" cb-pin-name="Wp-1IZ-xOP" id="1wuH">
<line cb-classname="GraphicLineEntity" class="signalline" id="1wKo" x1="4180" x2="4200" y1="2750" y2="2750"/>
<polygon cb-classname="GraphicPolygonEntity" class="signal" id="1wKM" points="4200,2750 4189,2746 4189,2754"/>
<g cb-classname="DynamicText" cb-source="tD-OxO-B51I" class="signal" id="1wKK" text-anchor="end">
<text baseline-shift="5%" cb-classname="GraphicTextEntity" class="signal" fill="black" font-style="normal" font-weight="normal" id="1wKU" text-anchor="end" text-decoration="normal" x="4198" y="2744"/>
</g>
</g>
<g cb-classname="ControlPin" cb-pin-name="98-UiW-WnG" id="1wKJ">
<line cb-classname="GraphicLineEntity" class="signalline" id="1wKe" x1="4180" x2="4200" y1="2710" y2="2710"/>
<polygon cb-classname="GraphicPolygonEntity" class="signal" id="1wKO" points="4200,2710 4189,2706 4189,2714"/>
<g cb-classname="DynamicText" cb-source="cJ-gsY-x1rk" class="signal" id="1wKc" text-anchor="end">
<text baseline-shift="5%" cb-classname="GraphicTextEntity" class="signal" fill="black" font-style="normal" font-weight="normal" id="1wKT" text-anchor="end" text-decoration="normal" x="4198" y="2704"/>
</g>
</g>
</g>
<g cb-alg-ef="$1653$cb-alg-out$" cb-algorithm-id="029" cb-classname="ExternalPointInterface" cb-function-name="OUTPUT" id="1wKH">
<ellipse cb-classname="GraphicEllipseEntity" class="algorithm" cx="4950" cy="2710" id="1wFo" rx="40" ry="40"/>
<rect cb-classname="GraphicRectangleEntity" class="algorithm" height="80" id="1wFM" width="30" x="4990" y="2670"/>
<line cb-classname="GraphicLineEntity" class="algorithm" id="1wFK" x1="4990" x2="5020" y1="2710" y2="2710"/>
<g cb-classname="PointStatusIndicator" cb-indicator-type="highway" cb-source="EU-zj3-0W" id="1wFU" visibility="hidden">
<line cb-classname="GraphicLineEntity" class="algorithmline" id="1wFJ" x1="4910" x2="4950" y1="2710" y2="2670"/>
<line cb-classname="GraphicLineEntity" class="algorithmline" id="1wFe" x1="4950" x2="4990" y1="2670" y2="2710"/>
<line cb-classname="GraphicLineEntity" class="algorithmline" id="1wFO" x1="4990" x2="4950" y1="2710" y2="2750"/>
<line cb-classname="GraphicLineEntity" class="algorithmline" id="1wFc" x1="4950" x2="4910" y1="2750" y2="2710"/>
</g>
<g cb-classname="PointStatusIndicator" cb-indicator-type="hardware" cb-source="4g-wO9-vi" id="1wFT" visibility="hidden">
<line cb-classname="GraphicLineEntity" class="algorithmline" id="1wFH" x1="4990" x2="4910" y1="2670" y2="2670"/>
<line cb-classname="GraphicLineEntity" class="algorithmline" id="1who" x1="4910" x2="4910" y1="2670" y2="2750"/>
<line cb-classname="GraphicLineEntity" class="algorithmline" id="1whM" x1="4910" x2="4990" y1="2750" y2="2750"/>
</g>
<g cb-classname="PointStatusIndicator" cb-indicator-type="alarm" cb-source="NA-mbp-BN" id="1whK" visibility="hidden">
<text cb-classname="GraphicTextEntity" class="algorithm" fill="#000000" font-family="Arial" font-size="20" id="1whU" x="4997" y="2699">
A
</text>
</g>
<g cb-classname="PointStatusIndicator" cb-indicator-type="ingraphic" cb-source="zD-LCl-2r" id="1whJ" visibility="hidden">
<text cb-classname="GraphicTextEntity" class="algorithm" fill="#000000" font-family="Arial" font-size="20" id="1whe" x="4995" y="2740">
G
</text>
</g>
<g cb-classname="DynamicText" cb-labeled="false" cb-pin-name="Tn" cb-source="EU-zj3-0W" class="algorithm" id="1whO" text-anchor="end">
<text baseline-shift="0%" cb-classname="GraphicTextEntity" class="algorithm" fill="black" font-family="Arial" font-size="20" font-style="normal" font-weight="normal" id="1whc" text-anchor="end" text-decoration="normal" x="4887" y="2689"/>
</g>
<g baseline-shift="-100%" cb-anchor-x="4888" cb-anchor-y="2726" cb-classname="PointReferences" cb-max-width="240" cb-originator="false" cb-source="tD-J55-gT" class="signal" id="1whT" text-anchor="end">
<text baseline-shift="-100%" cb-classname="GraphicTextEntity" class="algorithm" id="1whH" text-anchor="end" x="4888" y="2726">
12/123500
</text>
</g>
<g baseline-shift="-50%" cb-anchor-x="5041" cb-anchor-y="2708" cb-classname="PointDescription" cb-content="extended" cb-labeled="false" cb-max-width="240" cb-source="98-UiW-Wn" class="algorithm" id="1COo" text-anchor="start">
<text baseline-shift="-50%" cb-classname="GraphicTextEntity" class="algorithm" id="1COM" text-anchor="start" x="5041" y="2656">
vlv. POV1202
</text>
<text baseline-shift="-50%" cb-classname="GraphicTextEntity" class="algorithm" id="2BVe" text-anchor="start" x="5041" y="2692">
block FG quenc.
</text>
<text baseline-shift="-50%" cb-classname="GraphicTextEntity" class="algorithm" id="25lc" text-anchor="start" x="5041" y="2728">
wat.util.
</text>
<text baseline-shift="-50%" cb-classname="GraphicTextEntity" class="algorithm" id="25KU" text-anchor="start" x="5041" y="2764">
(AUTL)
</text>
</g>
<g cb-classname="ControlPin" cb-pin-name="cJ-t15-2S" id="1COU">
<line cb-classname="GraphicLineEntity" class="signalline" id="1COJ" x1="4890" x2="4910" y1="2710" y2="2710"/>
<polygon cb-classname="GraphicPolygonEntity" class="signal" id="1COe" points="4910,2710 4899,2704 4899,2715"/>
</g>
</g>
</g>
<g cb-classname="IncludeDocument" cb-modify-time="12/03/2019 14:33:51" cb-objectname="frame" id="5">
<text cb-classname="GraphicTextEntity" class="frame" font-size="50" id="6" x="3660" y="3146">
HERA
</text>
<g baseline-shift="-50%" cb-classname="DynamicText" cb-source="o0-30sY-gK" class="frame" id="7">
<text cb-classname="GraphicTextEntity" class="frame" fill="black" font-family="arial" font-size="25" font-style="normal" font-weight="normal" id="8" text-decoration="normal" x="4715" y="3325">
12
</text>
</g>
<g baseline-shift="-50%" cb-classname="DynamicText" cb-source="Zt-Tbd9-W6" class="frame" id="9" text-anchor="middle">
<text cb-classname="GraphicTextEntity" class="frame" fill="black" font-family="arial" font-size="48" font-style="normal" font-weight="normal" id="1H" text-anchor="middle" text-decoration="normal" x="4900" y="3320">
12
</text>
</g>
<g baseline-shift="-50%" cb-classname="DynamicText" cb-source="4g-Ynjs-Nk" class="frame" id="1B" text-anchor="middle">
<text cb-classname="GraphicTextEntity" class="frame" fill="black" font-family="arial" font-size="48" font-style="normal" font-weight="normal" id="15" text-anchor="middle" text-decoration="normal" x="5067" y="3324">
3
</text>
</g>
<g cb-classname="DynamicText" cb-source="cJ-4PFN9-qrN5p" class="frame" id="1r">
<text cb-classname="GraphicTextEntity" class="frame" fill="black" font-family="arial" font-size="48" font-style="normal" font-weight="normal" id="1d" text-decoration="normal" x="3660" y="3224">
POV1202 block FG quenc. wat.util. - LOG
</text>
</g>
<g baseline-shift="-50%" cb-classname="DynamicText" cb-source="NA-TFAlq-B4aZrR" class="frame" id="1m" text-anchor="middle">
<text cb-classname="GraphicTextEntity" class="frame" fill="black" font-family="arial" font-size="48" font-style="normal" font-weight="normal" id="1w" text-anchor="middle" text-decoration="normal" x="5270" y="3324">
123499
</text>
</g>
<g baseline-shift="0%" cb-classname="DynamicText" cb-source="zD-gldruxeW" class="frame" id="1C" text-anchor="middle">
<text cb-classname="GraphicTextEntity" class="frame" fill="black" font-family="arial" font-size="36" font-style="normal" font-weight="normal" id="1Q" text-anchor="middle" text-decoration="normal" x="5270" y="3150">
A
</text>
</g>
<g baseline-shift="0%" cb-classname="DynamicText" cb-source="EU-hkTxC0GT-cNFc" class="frame" id="1N" text-anchor="middle">
<text cb-classname="GraphicTextEntity" class="frame" fill="black" font-family="arial" font-size="20" font-style="normal" font-weight="normal" id="2H" text-anchor="middle" text-decoration="normal" x="5270" y="3230">

</text>
</g>
<g baseline-shift="-50%" cb-classname="DynamicText" cb-source="tD-jr50B0m4" class="frame" id="2B" text-anchor="end">
<text cb-classname="GraphicTextEntity" class="frame" fill="black" font-family="arial" font-size="26" font-style="normal" font-weight="normal" id="25" text-anchor="end" text-decoration="normal" x="4500" y="3420">

</text>
</g>
<g baseline-shift="-50%" cb-classname="DynamicText" cb-source="98-bhkWmNc0" class="frame" id="2r" text-anchor="end">
<text cb-classname="GraphicTextEntity" class="frame" fill="black" font-family="arial" font-size="26" font-style="normal" font-weight="normal" id="2d" text-anchor="end" text-decoration="normal" x="5353" y="3420">

</text>
</g>
<g cb-classname="GraphicShape" cb-tag="BORDER" id="2m">
<line cb-classname="GraphicLineEntity" class="frameline" id="2w" x1="40" x2="40" y1="40" y2="3460"/>
<line cb-classname="GraphicLineEntity" class="frameline" id="2C" x1="40" x2="5380" y1="3460" y2="3460"/>
<line cb-classname="GraphicLineEntity" class="frameline" id="2Q" x1="5380" x2="5380" y1="3460" y2="40"/>
<line cb-classname="GraphicLineEntity" class="frameline" id="2N" x1="5380" x2="40" y1="40" y2="40"/>
<line cb-classname="GraphicLineEntity" class="frame" id="3H" x1="5430" x2="5440" y1="3510" y2="3510"/>
</g>
<g cb-classname="GraphicShape" cb-tag="TITLE BOX" id="3B">
<line cb-classname="GraphicLineEntity" class="frameline" id="35" x1="2340" x2="2340" y1="3080" y2="3460"/>
<line cb-classname="GraphicLineEntity" class="frameline" id="3r" x1="2340" x2="5380" y1="3080" y2="3080"/>
<line cb-classname="GraphicLineEntity" class="frameline" id="3d" x1="3650" x2="3650" y1="3460" y2="3080"/>
<line cb-classname="GraphicLineEntity" class="frameline" id="3m" x1="3650" x2="5380" y1="3240" y2="3240"/>
<line cb-classname="GraphicLineEntity" class="frameline" id="3w" x1="3650" x2="5380" y1="3390" y2="3390"/>
<line cb-classname="GraphicLineEntity" class="frameline" id="3C" x1="3650" x2="5380" y1="3160" y2="3160"/>
<line cb-classname="GraphicLineEntity" class="frameline" id="3Q" x1="3650" x2="4520" y1="3320" y2="3320"/>
<line cb-classname="GraphicLineEntity" class="frameline" id="3N" x1="4520" x2="5380" y1="3290" y2="3290"/>
<line cb-classname="GraphicLineEntity" class="frameline" id="4H" x1="4520" x2="5380" y1="3240" y2="3240"/>
<line cb-classname="GraphicLineEntity" class="frameline" id="4B" x1="4520" x2="4520" y1="3240" y2="3460"/>
<line cb-classname="GraphicLineEntity" class="frameline" id="45" x1="4810" x2="4810" y1="3240" y2="3390"/>
<line cb-classname="GraphicLineEntity" class="frameline" id="4r" x1="4990" x2="4990" y1="3240" y2="3390"/>
<line cb-classname="GraphicLineEntity" class="frameline" id="4d" x1="5150" x2="5150" y1="3080" y2="3390"/>
</g>
<g cb-classname="GraphicShape" cb-tag="TEXT LABELS" id="4m">
<text baseline-shift="-50%" cb-classname="GraphicTextEntity" class="frame" font-size="25" id="4w" text-anchor="middle" x="4890" y="3252">
Drop
</text>
<text baseline-shift="-50%" cb-classname="GraphicTextEntity" class="frame" font-size="25" id="4C" text-anchor="middle" x="5075" y="3252">
Task
</text>
<text baseline-shift="-50%" cb-classname="GraphicTextEntity" class="frame" font-size="25" id="4Q" text-anchor="middle" x="5265" y="3252">
Sheet
</text>
<text cb-classname="GraphicTextEntity" class="frame" font-size="25" id="4N" x="5152" y="3107">
Rev.
</text>
<text cb-classname="GraphicTextEntity" class="frame" font-size="25" id="5H" x="3653" y="3418">
Engineer
</text>
<text cb-classname="GraphicTextEntity" class="frame" font-size="25" id="5B" x="4528" y="3419">
Approved
</text>
<text cb-classname="GraphicTextEntity" class="frame" font-size="25" id="55" x="5152" y="3187">
Date
</text>
<text baseline-shift="-50%" cb-classname="GraphicTextEntity" class="frame" font-size="25" id="5r" text-anchor="middle" x="4660" y="3252">
Drawing Number
</text>
<text baseline-shift="-50%" cb-classname="GraphicTextEntity" class="frame" font-size="25" id="5d" text-anchor="middle" x="4680" y="3325">
CTL
</text>
</g>
<text baseline-shift="-50%" cb-classname="GraphicTextEntity" class="frame" font-size="48" id="5m" text-anchor="middle" x="3000" y="3100">
EMERSON PROCESS MANAGEMENT
</text>
<g baseline-shift="-100%" cb-anchor-x="2360" cb-anchor-y="3140" cb-classname="GroupText" cb-max-width="1260" fill="black" id="5w">
<text baseline-shift="-100%" cb-classname="GraphicTextEntity" class="frame" fill="black" font-family="arial" font-size="22" font-weight="normal" id="5C" text-anchor="start" text-decoration="normal" x="2360" y="3140">
THIS DOCUMENT CONTAINS INFORMATION PROPRIETARY TO EMERSON PROCESS
</text>
<text baseline-shift="-100%" cb-classname="GraphicTextEntity" class="frame" fill="black" font-family="arial" font-size="22" font-weight="normal" id="5Q" text-anchor="start" text-decoration="normal" x="2360" y="3176">
MANAGEMENT POWER &amp; WATER SOLUTIONS, INC. IT IS SUBMITTED IN CONFIDENCE AND
</text>
<text baseline-shift="-100%" cb-classname="GraphicTextEntity" class="frame" fill="black" font-family="arial" font-size="22" font-weight="normal" id="5N" text-anchor="start" text-decoration="normal" x="2360" y="3212">
TRUST, IS TO BE USED BY YOU SOLELY FOR THE PURPOSES FOR WHICH IT IS
</text>
<text baseline-shift="-100%" cb-classname="GraphicTextEntity" class="frame" fill="black" font-family="arial" font-size="22" font-weight="normal" id="6H" text-anchor="start" text-decoration="normal" x="2360" y="3248">
FURNISHED AND IS TO BE RETURNED UPON REQUEST. THIS DOCUMENT AND ANY
</text>
<text baseline-shift="-100%" cb-classname="GraphicTextEntity" class="frame" fill="black" font-family="arial" font-size="22" font-weight="normal" id="6B" text-anchor="start" text-decoration="normal" x="2360" y="3284">
OTHER INFORMATION PROVIDED TO YOU IS NOT TO BE REPRODUCED, TRANSMITTED,
</text>
<text baseline-shift="-100%" cb-classname="GraphicTextEntity" class="frame" fill="black" font-family="arial" font-size="22" font-weight="normal" id="65" text-anchor="start" text-decoration="normal" x="2360" y="3320">
DISCLOSED, OR USED OTHERWISE IN WHOLE OR IN PART WITHOUT THE PRIOR
</text>
<text baseline-shift="-100%" cb-classname="GraphicTextEntity" class="frame" fill="black" font-family="arial" font-size="22" font-weight="normal" id="6r" text-anchor="start" text-decoration="normal" x="2360" y="3356">
WRITTEN AUTHORIZATION OF EMERSON PROCESS MANAGEMENT POWER &amp; WATER
</text>
<text baseline-shift="-100%" cb-classname="GraphicTextEntity" class="frame" fill="black" font-family="arial" font-size="22" font-weight="normal" id="6d" text-anchor="start" text-decoration="normal" x="2360" y="3392">
SOLUTIONS,INC.
</text>
</g>
</g>
</svg>