<?xml version="1.0" ?><svg cb-auto-time="03/17/2020 11:08:31" cb-classname="ControlFunction" cb-create-time="01/07/2020" cb-drop-id="12" cb-filename="Z:\OVATION\NET0\UNIT0\CONTROLFUNCTIONS\01B8.svg" cb-function-id="01B8" cb-key="332152551123" cb-modified-timestamp="1587026798" cb-modify-id="00000001" cb-path="Z:/OVATION/NET0/UNIT0/CONTROLFUNCTIONS" cb-revision="A" cb-sheet-number="123459" cb-sheet-title="POV1102A extract. dolomia silos SL1100A - LOG" cb-snap-grid="10" cb-task-id="3" height="3522" id="1" width="5450" xmlns="http://www.w3.org/2000/svg">
<style cb-classname="EntityStyle" id="2" type="text/css">
	.algorithm { fill: white; stroke: black; stroke-width: 3 }
	.algorithm-function { fill: black; stroke: none }
	.algorithm-functionline { fill: none; stroke: black; stroke-linecap: round; stroke-width: 3 }
	.algorithm-name { fill: black; stroke: none }
	.algorithm-nameline { fill: none; stroke: black; stroke-linecap: round; stroke-width: 3 }
	.algorithm-sequence { fill: black; stroke: none; visibility: hidden }
	.algorithm-sequenceline { fill: none; stroke: black; stroke-linecap: round; stroke-width: 3; visibility: hidden }
	.algorithmline { fill: none; stroke: black; stroke-linecap: round; stroke-width: 3 }
	.annotation { fill: black; stroke: none }
	.annotationline { fill: none; stroke: black; stroke-linecap: round; stroke-width: 3 }
	.description { fill: black; stroke: none }
	.descriptionline { fill: none; stroke: black; stroke-linecap: round; stroke-width: 3 }
	.frame { fill: black; stroke: none }
	.frameline { fill: none; stroke: black; stroke-linecap: round; stroke-width: 3 }
	.signal { fill: black; stroke: none }
	.signalline { fill: none; stroke: black; stroke-linecap: round; stroke-width: 3 }
	text.algorithm { fill: black; font-family: Arial; font-size: 22; stroke: none }
	text.algorithm-function { fill: black; font-family: Arial; font-size: 22; stroke: none }
	text.algorithm-name { fill: black; font-family: Arial; font-size: 22; stroke: none }
	text.algorithm-sequence { fill: black; font-family: Arial; font-size: 22; stroke: none; visibility: hidden }
	text.annotation { fill: black; font-family: Arial; font-size: 22; stroke: none }
	text.description { fill: black; font-family: Arial; font-size: 28; stroke: none }
	text.frame { fill: black; font-family: Arial; font-size: 18; stroke: none }
	text.signal { fill: black; font-family: Arial; font-size: 12; stroke: none }
</style>
<g cb-classname="NamedObject" cb-objectname="Comments" id="3"/>
<g cb-classname="AlgorithmContainer" cb-objectname="Algorithms" id="4">
<g cb-alg-aIy="LA_DOLOMITE_DO_SEQ_SAUTO" cb-alg-ayiN="NO" cb-algorithm-id="02C" cb-classname="ExternalPointInterface" cb-function-name="INPUT" id="1rW">
<ellipse cb-classname="GraphicEllipseEntity" class="algorithm" cx="550" cy="290" id="1rQ" rx="40" ry="40"/>
<rect cb-classname="GraphicRectangleEntity" class="algorithm" height="80" id="1rx" width="30" x="480" y="250"/>
<line cb-classname="GraphicLineEntity" class="algorithm" id="1rk" x1="480" x2="510" y1="290" y2="290"/>
<g cb-classname="PointStatusIndicator" cb-indicator-type="Highway" cb-source="Jf-pLP-uHK" id="1rd" visibility="hidden">
<line cb-classname="GraphicLineEntity" class="algorithmline" id="1rb" x1="510" x2="550" y1="290" y2="250"/>
<line cb-classname="GraphicLineEntity" class="algorithmline" id="1rX" x1="550" x2="590" y1="250" y2="290"/>
<line cb-classname="GraphicLineEntity" class="algorithmline" id="1jK" x1="590" x2="550" y1="290" y2="330"/>
<line cb-classname="GraphicLineEntity" class="algorithmline" id="1jD" x1="550" x2="510" y1="330" y2="290"/>
</g>
<g cb-classname="PointStatusIndicator" cb-indicator-type="hardware" cb-source="oF-kLL-KWN" id="1j2" visibility="hidden">
<line cb-classname="GraphicLineEntity" class="algorithmline" id="1jW" x1="510" x2="590" y1="250" y2="250"/>
<line cb-classname="GraphicLineEntity" class="algorithmline" id="1jQ" x1="590" x2="590" y1="250" y2="330"/>
<line cb-classname="GraphicLineEntity" class="algorithmline" id="1jx" x1="590" x2="510" y1="330" y2="330"/>
</g>
<g cb-classname="PointStatusIndicator" cb-indicator-type="alarm" cb-source="Uq-Jlo-8LQ" id="1jk" visibility="hidden">
<text cb-classname="GraphicTextEntity" class="algorithm" fill="#000000" font-family="arial" font-size="20" id="1jd" x="487" y="279">
A
</text>
</g>
<g cb-classname="PointStatusIndicator" cb-indicator-type="ingraphic" cb-source="z3-gii-yZL" id="1jb" visibility="hidden">
<text cb-classname="GraphicTextEntity" class="algorithm" fill="#000000" font-family="Arial" font-size="20" id="1jX" x="485" y="319">
G
</text>
</g>
<g baseline-shift="-50%" cb-anchor-x="462" cb-anchor-y="284" cb-classname="PointDescription" cb-content="extended" cb-labeled="false" cb-max-width="240" cb-source="Jf-pLP-uHK" class="algorithm" id="1cK" text-anchor="end">
<text baseline-shift="-50%" cb-classname="GraphicTextEntity" class="algorithm" id="1cD" text-anchor="end" x="462" y="249">
Line A Dolomite
</text>
<text baseline-shift="-50%" cb-classname="GraphicTextEntity" class="algorithm" id="2QxO" text-anchor="end" x="462" y="285">
Dosage Activation
</text>
<text baseline-shift="-50%" cb-classname="GraphicTextEntity" class="algorithm" id="2QxX" text-anchor="end" x="462" y="321">
Seq
</text>
</g>
<g cb-classname="DynamicText" cb-labeled="false" cb-pin-name="L2h" cb-source="qx-jlZ-aIy" class="algorithm" id="1c2" text-anchor="start">
<text baseline-shift="0%" cb-classname="GraphicTextEntity" class="algorithm" fill="black" font-family="Arial" font-size="20" font-style="normal" font-weight="normal" id="1cW" text-anchor="start" text-decoration="normal" x="610" y="270"/>
</g>
<g baseline-shift="-100%" cb-anchor-x="610" cb-anchor-y="300" cb-classname="PointReferences" cb-max-width="230" cb-originator="true" cb-source="GN-UOO-CyV" class="signal" id="1cQ" text-anchor="start">
<text baseline-shift="-100%" cb-classname="GraphicTextEntity" class="algorithm" id="1cx" text-anchor="start" x="610" y="300">
12/1248730
</text>
</g>
<g cb-classname="ControlPin" cb-pin-name="sV-T5T-eIG" id="1ck">
<line cb-classname="GraphicLineEntity" class="signalline" id="1cd" x1="590" x2="610" y1="290" y2="290"/>
<g cb-classname="SignalSegment" cb-start-x="1890" cb-start-y="410" id="1cb">
<g cb-classname="SignalConnection" cb-graphic-line="$1836$" cb-input-pin="$Oev$" id="1qWa"/>
<line cb-classname="GraphicLineEntity" class="signalline" id="1qW7" stroke="#1e12bf" stroke-dasharray="5,4" x1="610" x2="4180" y1="290" y2="290"/>
</g>
</g>
</g>
<g cb-alg-CyV="A19POV1102A_XU[1]" cb-alg-i59="$153$cb-alg-out$" cb-algorithm-id="00F" cb-classname="FastBooleanAlgorithm" cb-function-name="OR" id="1qD">
<ellipse cb-classname="GraphicEllipseEntity" class="algorithm" cx="4240" cy="330" id="1q2" rx="40" ry="40"/>
<text baseline-shift="-50%" cb-classname="GraphicTextEntity" class="algorithm" id="1qW" text-anchor="middle" x="4240" y="329">
OR
</text>
<line cb-classname="GraphicLineEntity" class="algorithmline" id="1qQ" x1="4200" x2="4200" y1="270" y2="390"/>
<g cb-classname="ControlPin" cb-pin-name="qx-jlZ-zHY" id="1qx">
<line cb-classname="GraphicLineEntity" class="signalline" id="1qk" x1="4180" x2="4200" y1="290" y2="290"/>
<polygon cb-classname="GraphicPolygonEntity" class="signal" id="1qd" points="4200,290 4189,286 4189,294"/>
<g cb-classname="DynamicText" cb-source="oF-mzH-56Sj" class="signal" id="1qb" text-anchor="end">
<text baseline-shift="5%" cb-classname="GraphicTextEntity" class="signal" fill="black" font-style="normal" font-weight="normal" id="1qX" text-anchor="end" text-decoration="normal" x="4199" y="284"/>
</g>
</g>
<g cb-classname="ControlPin" cb-pin-name="Y6-XWN-FBL" id="16K">
<line cb-classname="GraphicLineEntity" class="signalline" id="16D" x1="4280" x2="4300" y1="330" y2="330"/>
<g cb-classname="DynamicText" cb-source="Uq-0OM-9u5C" class="signal" id="162">
<text baseline-shift="5%" cb-classname="GraphicTextEntity" class="signal" fill="black" font-style="normal" font-weight="normal" id="16W" text-decoration="normal" x="4294" y="321"/>
</g>
<g cb-classname="SignalSegment" id="16Q">
<g cb-classname="SignalConnection" cb-graphic-line="$1966$" cb-input-pin="$yBh$" id="16ka"/>
<line cb-classname="GraphicLineEntity" class="signalline" id="16k7" stroke="#1e12bf" stroke-dasharray="5,4" x1="4300" x2="4890" y1="330" y2="330"/>
</g>
</g>
<g cb-classname="ControlPin" cb-pin-name="oY-quw-VsV" id="16d">
<line cb-classname="GraphicLineEntity" class="signalline" id="16b" x1="4180" x2="4200" y1="370" y2="370"/>
<polygon cb-classname="GraphicPolygonEntity" class="signal" id="16X" points="4200,370 4189,366 4189,374"/>
<g cb-classname="DynamicText" cb-source="GN-iVs-pJux" class="signal" id="2AK" text-anchor="end">
<text baseline-shift="5%" cb-classname="GraphicTextEntity" class="signal" fill="black" font-style="normal" font-weight="normal" id="2AD" text-anchor="end" text-decoration="normal" x="4198" y="364"/>
</g>
</g>
<g cb-classname="ControlPin" cb-pin-name="sV-T5T-OMz" id="2A2">
<line cb-classname="GraphicLineEntity" class="signalline" id="2AW" x1="4180" x2="4200" y1="330" y2="330"/>
<polygon cb-classname="GraphicPolygonEntity" class="signal" id="2AQ" points="4200,330 4189,326 4189,334"/>
<g cb-classname="DynamicText" cb-source="Uq-0OM-9u5C" class="signal" id="2Ax" text-anchor="end">
<text baseline-shift="5%" cb-classname="GraphicTextEntity" class="signal" fill="black" font-style="normal" font-weight="normal" id="2Ak" text-anchor="end" text-decoration="normal" x="4198" y="324"/>
</g>
</g>
</g>
<g cb-alg-i5="$181$cb-alg-out$" cb-algorithm-id="001" cb-classname="ExternalPointInterface" cb-function-name="OUTPUT" id="2Ad">
<ellipse cb-classname="GraphicEllipseEntity" class="algorithm" cx="4950" cy="330" id="2Ab" rx="40" ry="40"/>
<rect cb-classname="GraphicRectangleEntity" class="algorithm" height="80" id="2AX" width="30" x="4990" y="290"/>
<line cb-classname="GraphicLineEntity" class="algorithm" id="2QK" x1="4990" x2="5020" y1="330" y2="330"/>
<g cb-classname="PointStatusIndicator" cb-indicator-type="highway" cb-source="qx-jlZ-zH" id="2QD" visibility="hidden">
<line cb-classname="GraphicLineEntity" class="algorithmline" id="2Q2" x1="4910" x2="4950" y1="330" y2="290"/>
<line cb-classname="GraphicLineEntity" class="algorithmline" id="2QW" x1="4950" x2="4990" y1="290" y2="330"/>
<line cb-classname="GraphicLineEntity" class="algorithmline" id="2QQ" x1="4990" x2="4950" y1="330" y2="370"/>
<line cb-classname="GraphicLineEntity" class="algorithmline" id="2Qx" x1="4950" x2="4910" y1="370" y2="330"/>
</g>
<g cb-classname="PointStatusIndicator" cb-indicator-type="hardware" cb-source="Y6-XWN-fD" id="2Qk" visibility="hidden">
<line cb-classname="GraphicLineEntity" class="algorithmline" id="2Qd" x1="4990" x2="4910" y1="290" y2="290"/>
<line cb-classname="GraphicLineEntity" class="algorithmline" id="2Qb" x1="4910" x2="4910" y1="290" y2="370"/>
<line cb-classname="GraphicLineEntity" class="algorithmline" id="2QX" x1="4910" x2="4990" y1="370" y2="370"/>
</g>
<g cb-classname="PointStatusIndicator" cb-indicator-type="alarm" cb-source="z3-gii-KN" id="2YK" visibility="hidden">
<text cb-classname="GraphicTextEntity" class="algorithm" fill="#000000" font-family="Arial" font-size="20" id="2YD" x="4997" y="319">
A
</text>
</g>
<g cb-classname="PointStatusIndicator" cb-indicator-type="ingraphic" cb-source="Jf-pLP-1N" id="2Y2" visibility="hidden">
<text cb-classname="GraphicTextEntity" class="algorithm" fill="#000000" font-family="Arial" font-size="20" id="2YW" x="4995" y="360">
G
</text>
</g>
<g cb-classname="DynamicText" cb-labeled="false" cb-pin-name="5h" cb-source="qx-jlZ-zH" class="algorithm" id="2YQ" text-anchor="end">
<text baseline-shift="0%" cb-classname="GraphicTextEntity" class="algorithm" fill="black" font-family="Arial" font-size="20" font-style="normal" font-weight="normal" id="2Yx" text-anchor="end" text-decoration="normal" x="4887" y="309"/>
</g>
<g baseline-shift="-100%" cb-anchor-x="4888" cb-anchor-y="346" cb-classname="PointReferences" cb-max-width="240" cb-originator="false" cb-source="GN-UOO-i5" class="signal" id="2Yk" text-anchor="end">
<text baseline-shift="-100%" cb-classname="GraphicTextEntity" class="algorithm" id="2Yd" text-anchor="end" x="4888" y="346">
12/123460
</text>
</g>
<g baseline-shift="-50%" cb-anchor-x="5041" cb-anchor-y="328" cb-classname="PointDescription" cb-content="extended" cb-labeled="false" cb-max-width="240" cb-source="sV-T5T-OM" class="algorithm" id="2Yb" text-anchor="start">
<text baseline-shift="-50%" cb-classname="GraphicTextEntity" class="algorithm" id="2YX" text-anchor="start" x="5041" y="276">
vlv. POV1102A
</text>
<text baseline-shift="-50%" cb-classname="GraphicTextEntity" class="algorithm" id="2QWR" text-anchor="start" x="5041" y="312">
extract. dolomia
</text>
<text baseline-shift="-50%" cb-classname="GraphicTextEntity" class="algorithm" id="2Qxb" text-anchor="start" x="5041" y="348">
silos SL1100A
</text>
<text baseline-shift="-50%" cb-classname="GraphicTextEntity" class="algorithm" id="2Yxb" text-anchor="start" x="5041" y="384">
(REQA)
</text>
</g>
<g cb-classname="ControlPin" cb-pin-name="Uq-Jlo-jq" id="2LD">
<line cb-classname="GraphicLineEntity" class="signalline" id="2L2" x1="4890" x2="4910" y1="330" y2="330"/>
<polygon cb-classname="GraphicPolygonEntity" class="signal" id="2LW" points="4910,330 4899,324 4899,335"/>
</g>
</g>
<g cb-alg-IBm6="NO" cb-alg-Ild="LA_DOLOMITE_DO_SEQ_XS04" cb-algorithm-id="032" cb-classname="ExternalPointInterface" cb-function-name="INPUT" id="66K">
<ellipse cb-classname="GraphicEllipseEntity" class="algorithm" cx="550" cy="1310" id="66D" rx="40" ry="40"/>
<rect cb-classname="GraphicRectangleEntity" class="algorithm" height="80" id="662" width="30" x="480" y="1270"/>
<line cb-classname="GraphicLineEntity" class="algorithm" id="66W" x1="480" x2="510" y1="1310" y2="1310"/>
<g cb-classname="PointStatusIndicator" cb-indicator-type="Highway" cb-source="GN-UOO-CyV" id="66Q" visibility="hidden">
<line cb-classname="GraphicLineEntity" class="algorithmline" id="66x" x1="510" x2="550" y1="1310" y2="1270"/>
<line cb-classname="GraphicLineEntity" class="algorithmline" id="66k" x1="550" x2="590" y1="1270" y2="1310"/>
<line cb-classname="GraphicLineEntity" class="algorithmline" id="66d" x1="590" x2="550" y1="1310" y2="1350"/>
<line cb-classname="GraphicLineEntity" class="algorithmline" id="66b" x1="550" x2="510" y1="1350" y2="1310"/>
</g>
<g cb-classname="PointStatusIndicator" cb-indicator-type="hardware" cb-source="Uq-Jlo-8LQ" id="66X" visibility="hidden">
<line cb-classname="GraphicLineEntity" class="algorithmline" id="7AK" x1="510" x2="590" y1="1270" y2="1270"/>
<line cb-classname="GraphicLineEntity" class="algorithmline" id="7AD" x1="590" x2="590" y1="1270" y2="1350"/>
<line cb-classname="GraphicLineEntity" class="algorithmline" id="7A2" x1="590" x2="510" y1="1350" y2="1350"/>
</g>
<g cb-classname="PointStatusIndicator" cb-indicator-type="alarm" cb-source="Jf-pLP-uHK" id="7AW" visibility="hidden">
<text cb-classname="GraphicTextEntity" class="algorithm" fill="#000000" font-family="arial" font-size="20" id="7AQ" x="487" y="1299">
A
</text>
</g>
<g cb-classname="PointStatusIndicator" cb-indicator-type="ingraphic" cb-source="qx-jlZ-aIy" id="7Ax" visibility="hidden">
<text cb-classname="GraphicTextEntity" class="algorithm" fill="#000000" font-family="Arial" font-size="20" id="7Ak" x="485" y="1339">
G
</text>
</g>
<g baseline-shift="-50%" cb-anchor-x="462" cb-anchor-y="1304" cb-classname="PointDescription" cb-content="extended" cb-labeled="false" cb-max-width="240" cb-source="GN-UOO-CyV" class="algorithm" id="7Ad" text-anchor="end">
<text baseline-shift="-50%" cb-classname="GraphicTextEntity" class="algorithm" id="7Ab" text-anchor="end" x="462" y="1269">
Line A Dolomite
</text>
<text baseline-shift="-50%" cb-classname="GraphicTextEntity" class="algorithm" id="2QXw" text-anchor="end" x="462" y="1305">
Dosage Activation
</text>
<text baseline-shift="-50%" cb-classname="GraphicTextEntity" class="algorithm" id="2QX7" text-anchor="end" x="462" y="1341">
Seq
</text>
</g>
<g cb-classname="DynamicText" cb-labeled="false" cb-pin-name="NyD" cb-source="sV-T5T-eIG" class="algorithm" id="7AX" text-anchor="start">
<text baseline-shift="0%" cb-classname="GraphicTextEntity" class="algorithm" fill="black" font-family="Arial" font-size="20" font-style="normal" font-weight="normal" id="7QK" text-anchor="start" text-decoration="normal" x="610" y="1290"/>
</g>
<g baseline-shift="-100%" cb-anchor-x="610" cb-anchor-y="1320" cb-classname="PointReferences" cb-max-width="230" cb-originator="true" cb-source="vw-UkU-yRd" class="signal" id="7QD" text-anchor="start">
<text baseline-shift="-100%" cb-classname="GraphicTextEntity" class="algorithm" id="7Q2" text-anchor="start" x="610" y="1320">
12/1248731
</text>
</g>
<g cb-classname="ControlPin" cb-pin-name="QA-6cX-TkB" id="7QW">
<line cb-classname="GraphicLineEntity" class="signalline" id="7QQ" x1="590" x2="610" y1="1310" y2="1310"/>
<g cb-classname="SignalSegment" cb-start-x="1890" cb-start-y="1790" id="7Qx">
<line cb-classname="GraphicLineEntity" class="signalline" id="7Qk" stroke="#1e12bf" stroke-dasharray="5,4" x1="610" x2="3780" y1="1310" y2="1310"/>
<g cb-classname="SignalSegment" id="7Qd">
<line cb-classname="GraphicLineEntity" class="signalline" id="16Wi" stroke="#1e12bf" stroke-dasharray="5,4" x1="3780" x2="4180" y1="1310" y2="1310"/>
<g cb-classname="SignalConnection" cb-graphic-line="$1930$" cb-input-pin="$Dy8$" id="16WR"/>
<line cb-classname="GraphicLineEntity" class="signalline" id="1ckX" stroke="#1e12bf" stroke-dasharray="5,4" x1="3780" x2="3780" y1="1310" y2="3000"/>
<g cb-classname="SignalSegment" id="7Y2">
<g cb-classname="SignalConnection" cb-graphic-line="$1766$" cb-input-pin="$S8iq$" id="1cka"/>
<line cb-classname="GraphicLineEntity" class="signalline" id="1ck7" stroke="#1e12bf" stroke-dasharray="5,4" x1="3780" x2="4170" y1="3000" y2="3000"/>
</g>
<ellipse cb-classname="GraphicEllipseEntity" class="signal" cx="3780" cy="1310" fill="#1e12bf" id="16Wv" rx="5" ry="5" stroke="#1e12bf" stroke-dasharray="5,4"/>
</g>
</g>
</g>
</g>
<g cb-alg-aIy="A19POV1102A_XU[7]" cb-alg-zHY="$690$cb-alg-out$" cb-algorithm-id="014" cb-classname="FastBooleanAlgorithm" cb-function-name="OR" id="7Yx">
<ellipse cb-classname="GraphicEllipseEntity" class="algorithm" cx="4240" cy="1350" id="7Yk" rx="40" ry="40"/>
<text baseline-shift="-50%" cb-classname="GraphicTextEntity" class="algorithm" id="7Yd" text-anchor="middle" x="4240" y="1349">
OR
</text>
<line cb-classname="GraphicLineEntity" class="algorithmline" id="7Yb" x1="4200" x2="4200" y1="1290" y2="1410"/>
<g cb-classname="ControlPin" cb-pin-name="Jf-pLP-1N3" id="7YX">
<line cb-classname="GraphicLineEntity" class="signalline" id="7LK" x1="4180" x2="4200" y1="1310" y2="1310"/>
<polygon cb-classname="GraphicPolygonEntity" class="signal" id="7LD" points="4200,1310 4189,1306 4189,1314"/>
<g cb-classname="DynamicText" cb-source="ak-91N-HUIf" class="signal" id="7L2" text-anchor="end">
<text baseline-shift="5%" cb-classname="GraphicTextEntity" class="signal" fill="black" font-style="normal" font-weight="normal" id="7LW" text-anchor="end" text-decoration="normal" x="4199" y="1304"/>
</g>
</g>
<g cb-classname="ControlPin" cb-pin-name="oF-kLL-KWN" id="7LQ">
<line cb-classname="GraphicLineEntity" class="signalline" id="7Lx" x1="4280" x2="4300" y1="1350" y2="1350"/>
<g cb-classname="DynamicText" cb-source="Y6-di5-MP1e" class="signal" id="7Lk">
<text baseline-shift="5%" cb-classname="GraphicTextEntity" class="signal" fill="black" font-style="normal" font-weight="normal" id="7Ld" text-decoration="normal" x="4294" y="1341"/>
</g>
<g cb-classname="SignalSegment" id="7Lb">
<g cb-classname="SignalConnection" cb-graphic-line="$1988$" cb-input-pin="$cdw$" id="16bb"/>
<line cb-classname="GraphicLineEntity" class="signalline" id="16bT" stroke="#1e12bf" stroke-dasharray="5,4" x1="4300" x2="4890" y1="1350" y2="1350"/>
</g>
</g>
<g cb-classname="ControlPin" cb-pin-name="GN-UOO-i5R" id="7zk">
<line cb-classname="GraphicLineEntity" class="signalline" id="7zd" x1="4180" x2="4200" y1="1350" y2="1350"/>
<polygon cb-classname="GraphicPolygonEntity" class="signal" id="7zb" points="4200,1350 4189,1346 4189,1354"/>
<g cb-classname="DynamicText" cb-source="Y6-di5-MP1e" class="signal" id="7zX" text-anchor="end">
<text baseline-shift="5%" cb-classname="GraphicTextEntity" class="signal" fill="black" font-style="normal" font-weight="normal" id="7rK" text-anchor="end" text-decoration="normal" x="4198" y="1344"/>
</g>
</g>
</g>
<g cb-alg-zH="$725$cb-alg-out$" cb-algorithm-id="015" cb-classname="ExternalPointInterface" cb-function-name="OUTPUT" id="7rD">
<ellipse cb-classname="GraphicEllipseEntity" class="algorithm" cx="4950" cy="1350" id="7r2" rx="40" ry="40"/>
<rect cb-classname="GraphicRectangleEntity" class="algorithm" height="80" id="7rW" width="30" x="4990" y="1310"/>
<line cb-classname="GraphicLineEntity" class="algorithm" id="7rQ" x1="4990" x2="5020" y1="1350" y2="1350"/>
<g cb-classname="PointStatusIndicator" cb-indicator-type="highway" cb-source="Jf-pLP-1N" id="7rx" visibility="hidden">
<line cb-classname="GraphicLineEntity" class="algorithmline" id="7rk" x1="4910" x2="4950" y1="1350" y2="1310"/>
<line cb-classname="GraphicLineEntity" class="algorithmline" id="7rd" x1="4950" x2="4990" y1="1310" y2="1350"/>
<line cb-classname="GraphicLineEntity" class="algorithmline" id="7rb" x1="4990" x2="4950" y1="1350" y2="1390"/>
<line cb-classname="GraphicLineEntity" class="algorithmline" id="7rX" x1="4950" x2="4910" y1="1390" y2="1350"/>
</g>
<g cb-classname="PointStatusIndicator" cb-indicator-type="hardware" cb-source="oF-kLL-gh" id="7jK" visibility="hidden">
<line cb-classname="GraphicLineEntity" class="algorithmline" id="7jD" x1="4990" x2="4910" y1="1310" y2="1310"/>
<line cb-classname="GraphicLineEntity" class="algorithmline" id="7j2" x1="4910" x2="4910" y1="1310" y2="1390"/>
<line cb-classname="GraphicLineEntity" class="algorithmline" id="7jW" x1="4910" x2="4990" y1="1390" y2="1390"/>
</g>
<g cb-classname="PointStatusIndicator" cb-indicator-type="alarm" cb-source="Uq-Jlo-jq" id="7jQ" visibility="hidden">
<text cb-classname="GraphicTextEntity" class="algorithm" fill="#000000" font-family="Arial" font-size="20" id="7jx" x="4997" y="1339">
A
</text>
</g>
<g cb-classname="PointStatusIndicator" cb-indicator-type="ingraphic" cb-source="z3-gii-KN" id="7jk" visibility="hidden">
<text cb-classname="GraphicTextEntity" class="algorithm" fill="#000000" font-family="Arial" font-size="20" id="7jd" x="4995" y="1380">
G
</text>
</g>
<g cb-classname="DynamicText" cb-labeled="false" cb-pin-name="Vg" cb-source="Jf-pLP-1N" class="algorithm" id="7jb" text-anchor="end">
<text baseline-shift="0%" cb-classname="GraphicTextEntity" class="algorithm" fill="black" font-family="Arial" font-size="20" font-style="normal" font-weight="normal" id="7jX" text-anchor="end" text-decoration="normal" x="4887" y="1329"/>
</g>
<g baseline-shift="-100%" cb-anchor-x="4888" cb-anchor-y="1366" cb-classname="PointReferences" cb-max-width="240" cb-originator="false" cb-source="qx-jlZ-zH" class="signal" id="7cK" text-anchor="end">
<text baseline-shift="-100%" cb-classname="GraphicTextEntity" class="algorithm" id="7cD" text-anchor="end" x="4888" y="1366">
12/123460
</text>
</g>
<g baseline-shift="-50%" cb-anchor-x="5041" cb-anchor-y="1348" cb-classname="PointDescription" cb-content="extended" cb-labeled="false" cb-max-width="240" cb-source="GN-UOO-i5" class="algorithm" id="7c2" text-anchor="start">
<text baseline-shift="-50%" cb-classname="GraphicTextEntity" class="algorithm" id="7cW" text-anchor="start" x="5041" y="1296">
vlv. POV1102A
</text>
<text baseline-shift="-50%" cb-classname="GraphicTextEntity" class="algorithm" id="2QWa" text-anchor="start" x="5041" y="1332">
extract. dolomia
</text>
<text baseline-shift="-50%" cb-classname="GraphicTextEntity" class="algorithm" id="2YKR" text-anchor="start" x="5041" y="1368">
silos SL1100A
</text>
<text baseline-shift="-50%" cb-classname="GraphicTextEntity" class="algorithm" id="2Ykw" text-anchor="start" x="5041" y="1404">
(AUTR)
</text>
</g>
<g cb-classname="ControlPin" cb-pin-name="Y6-XWN-fD" id="7cx">
<line cb-classname="GraphicLineEntity" class="signalline" id="7ck" x1="4890" x2="4910" y1="1350" y2="1350"/>
<polygon cb-classname="GraphicPolygonEntity" class="signal" id="7cd" points="4910,1350 4899,1344 4899,1355"/>
</g>
</g>
<g cb-alg-cDiT="NO" cb-alg-cm4="LA_DOLOMITE_DO_SEQ_XS52" cb-algorithm-id="025" cb-classname="ExternalPointInterface" cb-function-name="INPUT" id="1j2R">
<ellipse cb-classname="GraphicEllipseEntity" class="algorithm" cx="550" cy="2670" id="1j2v" rx="40" ry="40"/>
<rect cb-classname="GraphicRectangleEntity" class="algorithm" height="80" id="1j2O" width="30" x="480" y="2630"/>
<line cb-classname="GraphicLineEntity" class="algorithm" id="1j2X" x1="480" x2="510" y1="2670" y2="2670"/>
<g cb-classname="PointStatusIndicator" cb-indicator-type="Highway" cb-source="cN-eii-th7" id="1j2w" visibility="hidden">
<line cb-classname="GraphicLineEntity" class="algorithmline" id="1j27" x1="510" x2="550" y1="2670" y2="2630"/>
<line cb-classname="GraphicLineEntity" class="algorithmline" id="1j2a" x1="550" x2="590" y1="2630" y2="2670"/>
<line cb-classname="GraphicLineEntity" class="algorithmline" id="1j2T" x1="590" x2="550" y1="2670" y2="2710"/>
<line cb-classname="GraphicLineEntity" class="algorithmline" id="1j2b" x1="550" x2="510" y1="2710" y2="2670"/>
</g>
<g cb-classname="PointStatusIndicator" cb-indicator-type="hardware" cb-source="GN-UOO-CyV" id="1jWi" visibility="hidden">
<line cb-classname="GraphicLineEntity" class="algorithmline" id="1jWR" x1="510" x2="590" y1="2630" y2="2630"/>
<line cb-classname="GraphicLineEntity" class="algorithmline" id="1jWv" x1="590" x2="590" y1="2630" y2="2710"/>
<line cb-classname="GraphicLineEntity" class="algorithmline" id="1jWO" x1="590" x2="510" y1="2710" y2="2710"/>
</g>
<g cb-classname="PointStatusIndicator" cb-indicator-type="alarm" cb-source="vw-UkU-yRd" id="1jWX" visibility="hidden">
<text cb-classname="GraphicTextEntity" class="algorithm" fill="#000000" font-family="arial" font-size="20" id="1jWw" x="487" y="2659">
A
</text>
</g>
<g cb-classname="PointStatusIndicator" cb-indicator-type="ingraphic" cb-source="QA-6cX-TkB" id="1jW7" visibility="hidden">
<text cb-classname="GraphicTextEntity" class="algorithm" fill="#000000" font-family="Arial" font-size="20" id="1jWa" x="485" y="2699">
G
</text>
</g>
<g baseline-shift="-50%" cb-anchor-x="462" cb-anchor-y="2664" cb-classname="PointDescription" cb-content="extended" cb-labeled="false" cb-max-width="240" cb-source="cN-eii-th7" class="algorithm" id="1jWT" text-anchor="end">
<text baseline-shift="-50%" cb-classname="GraphicTextEntity" class="algorithm" id="1jWb" text-anchor="end" x="462" y="2629">
Line A Dolomite
</text>
<text baseline-shift="-50%" cb-classname="GraphicTextEntity" class="algorithm" id="2YxR" text-anchor="end" x="462" y="2665">
Dosage
</text>
<text baseline-shift="-50%" cb-classname="GraphicTextEntity" class="algorithm" id="2Yxv" text-anchor="end" x="462" y="2701">
Deactivation Seq
</text>
</g>
<g cb-classname="DynamicText" cb-labeled="false" cb-pin-name="8zJ" cb-source="ak-bez-7Hm" class="algorithm" id="1jQv" text-anchor="start">
<text baseline-shift="0%" cb-classname="GraphicTextEntity" class="algorithm" fill="black" font-family="Arial" font-size="20" font-style="normal" font-weight="normal" id="1jQO" text-anchor="start" text-decoration="normal" x="610" y="2650"/>
</g>
<g baseline-shift="-100%" cb-anchor-x="610" cb-anchor-y="2680" cb-classname="PointReferences" cb-max-width="230" cb-originator="true" cb-source="oF-kLL-KWN" class="signal" id="1jQX" text-anchor="start">
<text baseline-shift="-100%" cb-classname="GraphicTextEntity" class="algorithm" id="1jQw" text-anchor="start" x="610" y="2680">
12/1248735
</text>
</g>
<g cb-classname="ControlPin" cb-pin-name="Uq-Jlo-8LQ" id="1jQT">
<line cb-classname="GraphicLineEntity" class="signalline" id="1jQb" x1="590" x2="610" y1="2670" y2="2670"/>
<g cb-classname="SignalSegment" cb-start-x="1890" cb-start-y="2020" id="1jxi">
<line cb-classname="GraphicLineEntity" class="signalline" id="2Ydw" stroke="#1e12bf" stroke-dasharray="5,4" x1="610" x2="3760" y1="2670" y2="2670"/>
<g cb-classname="SignalSegment" id="2Yd7">
<line cb-classname="GraphicLineEntity" class="signalline" id="2Yda" stroke="#1e12bf" stroke-dasharray="5,4" x1="3760" x2="3760" y1="2670" y2="3020"/>
<g cb-classname="SignalSegment" id="2YdT">
<line cb-classname="GraphicLineEntity" class="signalline" id="2Ydb" stroke="#1e12bf" stroke-dasharray="5,4" x1="3760" x2="4170" y1="3020" y2="3020"/>
<g cb-classname="SignalConnection" cb-graphic-line="$2279$" cb-input-pin="$32Ox$" id="2Ybi"/>
</g>
<line cb-classname="GraphicLineEntity" class="signalline" id="16x7" stroke="#1e12bf" stroke-dasharray="5,4" x1="3760" x2="4180" y1="2670" y2="2670"/>
<g cb-classname="SignalConnection" cb-graphic-line="$1956$" cb-input-pin="$Hiho$" id="16xa"/>
<ellipse cb-classname="GraphicEllipseEntity" class="signal" cx="3760" cy="2670" fill="#1e12bf" id="2YbR" rx="5" ry="5" stroke="#1e12bf" stroke-dasharray="5,4"/>
</g>
</g>
</g>
</g>
<g cb-alg-C="100" cb-alg-J="50" cb-alg-P5qdB="A19POV1102A_EDEV" cb-alg-PmcOk="850" cb-alg-WF0="DISABLED" cb-alg-d4mO2="PERMISSIVE OPEN - 允许开" cb-alg-d4mO5="PERMISSIVE CLOSE  - 允许关" cb-alg-d4mOJ="FORCING CLOSE - 紧急关" cb-alg-d4mOO="NOT READY - 未备妥" cb-alg-d4mOd="AUTO CLOSE - 自动关" cb-alg-d4mOe="INFO M2V TYP  WINDOW" cb-alg-d4mOh="FORCING OPEN - 紧急开" cb-alg-d4mOo="AUTO OPEN - 自动开" cb-alg-d4mOv="NO POWER - 没有动力" cb-alg-m56="$1621$cb-alg-out$" cb-alg-m5GUBz="DISABLED" cb-alg-m5p="$690$cb-alg-out$" cb-alg-ma2w2="NORMAL" cb-alg-ma2w5="NORMAL" cb-alg-ma2wJ="INVERT" cb-alg-ma2wO="NORMAL" cb-alg-ma2wd="NORMAL" cb-alg-ma2wh="INVERT" cb-alg-ma2wo="NORMAL" cb-alg-ma2wv="INVERT" cb-algorithm-id="016" cb-classname="AutomaticWindowAlgorithm" cb-function-name="PERMISSIVEWINDOW" id="1Qki">
<rect cb-classname="GraphicRectangleEntity" class="algorithm" height="190" id="1QkR" width="130" x="4200" y="2850"/>
<text baseline-shift="0%" cb-classname="GraphicTextEntity" class="annotation" fill="#000000" font-family="MS Shell Dlg 2" font-size="8" id="1Qkv" x="4210" y="2880">
EMRR
</text>
<text baseline-shift="0%" cb-classname="GraphicTextEntity" class="annotation" fill="#000000" font-family="MS Shell Dlg 2" font-size="8" id="1QkO" x="4210" y="2900">
PERR
</text>
<text baseline-shift="0%" cb-classname="GraphicTextEntity" class="annotation" fill="#000000" font-family="MS Shell Dlg 2" font-size="8" id="1QkX" x="4210" y="2920">
EMRL
</text>
<text baseline-shift="0%" cb-classname="GraphicTextEntity" class="annotation" fill="#000000" font-family="MS Shell Dlg 2" font-size="8" id="1Qkw" x="4210" y="2940">
PERL
</text>
<text baseline-shift="0%" cb-classname="GraphicTextEntity" class="annotation" fill="#000000" font-family="MS Shell Dlg 2" font-size="12" id="1Qk7" x="4290" y="2870">
INFO
</text>
<text baseline-shift="0%" cb-classname="GraphicTextEntity" class="annotation" fill="#000000" font-family="MS Shell Dlg 2" font-size="12" id="1Qka" x="4260" y="2890">
M2V
</text>
<text baseline-shift="0%" cb-classname="GraphicTextEntity" class="annotation" fill="#000000" font-family="MS Shell Dlg 2" font-size="12" id="1QkT" x="4260" y="2910">
WINDOW
</text>
<g cb-classname="GraphicShape" id="1Qkb">
<g cb-classname="DynamicText" cb-labeled="false" cb-source="cN-eii-KdkiZ" id="1Qdi">
<text cb-classname="GraphicTextEntity" class="algorithm" id="1QdR" text-anchor="start" x="4200" y="3070"/>
</g>
</g>
<text baseline-shift="0%" cb-classname="GraphicTextEntity" class="annotation" fill="#000000" font-family="MS Shell Dlg 2" font-size="8" id="1Qdv" x="4210" y="3000">
AUTR
</text>
<text baseline-shift="0%" cb-classname="GraphicTextEntity" class="annotation" fill="#000000" font-family="MS Shell Dlg 2" font-size="8" id="1QdO" x="4210" y="3020">
AUTL
</text>
<g cb-classname="ControlPin" cb-pin-name="ak-bez-ipS" id="1QdX">
<line cb-classname="GraphicLineEntity" class="signalline" id="1Qdw" x1="4170" x2="4200" y1="2880" y2="2880"/>
<polygon cb-classname="GraphicPolygonEntity" class="signal" id="1Qd7" points="4200,2880 4189,2874 4189,2885"/>
<g cb-classname="DynamicText" cb-source="sV-Mip-hg0J" id="1Qda">
<text cb-classname="GraphicTextEntity" class="signal" id="1QdT" text-anchor="end" x="4185" y="2877"/>
</g>
</g>
<g cb-classname="ControlPin" cb-pin-name="vw-UkU-f9I" id="1Qdb">
<line cb-classname="GraphicLineEntity" class="signalline" id="1Qbi" x1="4170" x2="4200" y1="2900" y2="2900"/>
<polygon cb-classname="GraphicPolygonEntity" class="signal" id="1QbR" points="4200,2900 4189,2894 4189,2905"/>
<g cb-classname="DynamicText" cb-source="z3-Bf9-X0ax" id="1Qbv">
<text cb-classname="GraphicTextEntity" class="signal" id="1QbO" text-anchor="end" x="4185" y="2897"/>
</g>
</g>
<g cb-classname="ControlPin" cb-pin-name="Jf-pLP-1NZ" id="1QbX">
<line cb-classname="GraphicLineEntity" class="signalline" id="1Qbw" x1="4170" x2="4200" y1="2920" y2="2920"/>
<polygon cb-classname="GraphicPolygonEntity" class="signal" id="1Qb7" points="4200,2920 4189,2914 4189,2925"/>
<g cb-classname="DynamicText" cb-source="ak-91N-HUIf" id="1Qba">
<text cb-classname="GraphicTextEntity" class="signal" id="1QbT" text-anchor="end" x="4185" y="2917"/>
</g>
</g>
<g cb-classname="ControlPin" cb-pin-name="oF-kLL-ght" id="1Qbb">
<line cb-classname="GraphicLineEntity" class="signalline" id="1QXi" x1="4170" x2="4200" y1="2940" y2="2940"/>
<polygon cb-classname="GraphicPolygonEntity" class="signal" id="1QXR" points="4200,2940 4189,2934 4189,2945"/>
<g cb-classname="DynamicText" cb-source="vw-Pgh-DaNx" id="1QXv">
<text cb-classname="GraphicTextEntity" class="signal" id="1QXO" text-anchor="end" x="4185" y="2937"/>
</g>
</g>
<g cb-classname="ControlPin" cb-pin-name="QA-6cX-JXG" id="1QXX">
<line cb-classname="GraphicLineEntity" class="signalline" id="1QXw" x1="4170" x2="4200" y1="2960" y2="2960"/>
<polygon cb-classname="GraphicPolygonEntity" class="signal" id="1QX7" points="4200,2960 4189,2954 4189,2965"/>
<g cb-classname="DynamicText" cb-source="Jf-H4w-dkiZ" id="1QXa">
<text cb-classname="GraphicTextEntity" class="signal" id="1QXT" text-anchor="end" x="4185" y="2957"/>
</g>
</g>
<g cb-classname="ControlPin" cb-pin-name="qx-jlZ-zHX" id="1QXb">
<line cb-classname="GraphicLineEntity" class="signalline" id="1YKi" x1="4170" x2="4200" y1="2980" y2="2980"/>
<polygon cb-classname="GraphicPolygonEntity" class="signal" id="1YKR" points="4200,2980 4189,2974 4189,2985"/>
<g cb-classname="DynamicText" cb-source="oF-mzH-56Sj" id="1YKv">
<text cb-classname="GraphicTextEntity" class="signal" id="1YKO" text-anchor="end" x="4185" y="2977"/>
</g>
</g>
<g cb-classname="ControlPin" cb-pin-name="Y6-XWN-fDP" id="1YKX">
<line cb-classname="GraphicLineEntity" class="signalline" id="1YKw" x1="4170" x2="4200" y1="3000" y2="3000"/>
<polygon cb-classname="GraphicPolygonEntity" class="signal" id="1YK7" points="4200,3000 4189,2994 4189,3005"/>
<g cb-classname="DynamicText" cb-source="QA-vfD-qAD4" id="1YKa">
<text cb-classname="GraphicTextEntity" class="signal" id="1YKT" text-anchor="end" x="4185" y="2997"/>
</g>
</g>
<g cb-classname="ControlPin" cb-pin-name="cN-eii-Id8" id="1YKb">
<line cb-classname="GraphicLineEntity" class="signalline" id="1YDi" x1="4170" x2="4200" y1="3020" y2="3020"/>
<polygon cb-classname="GraphicPolygonEntity" class="signal" id="1YDR" points="4200,3020 4189,3014 4189,3025"/>
<g cb-classname="DynamicText" cb-source="qx-aId-sXfY" id="1YDv">
<text cb-classname="GraphicTextEntity" class="signal" id="1YDO" text-anchor="end" x="4185" y="3017"/>
</g>
</g>
<text baseline-shift="0%" cb-classname="GraphicTextEntity" class="annotation" fill="#000000" font-family="MS Shell Dlg 2" font-size="8" id="2QKv" x="4210" y="2980">
DRDY
</text>
</g>
<g cb-alg-C8R="A19POV1102A_XU[15]" cb-alg-JVI="$1621$cb-alg-out$" cb-algorithm-id="028" cb-classname="FastBooleanAlgorithm" cb-function-name="OR" id="1jxO">
<ellipse cb-classname="GraphicEllipseEntity" class="algorithm" cx="4240" cy="2710" id="1jxX" rx="40" ry="40"/>
<text baseline-shift="-50%" cb-classname="GraphicTextEntity" class="algorithm" id="1jxw" text-anchor="middle" x="4240" y="2709">
OR
</text>
<line cb-classname="GraphicLineEntity" class="algorithmline" id="1jx7" x1="4200" x2="4200" y1="2650" y2="2770"/>
<g cb-classname="ControlPin" cb-pin-name="oF-kLL-ghG" id="1jxa">
<line cb-classname="GraphicLineEntity" class="signalline" id="1jxT" x1="4180" x2="4200" y1="2670" y2="2670"/>
<polygon cb-classname="GraphicPolygonEntity" class="signal" id="1jxb" points="4200,2670 4189,2666 4189,2674"/>
<g cb-classname="DynamicText" cb-source="vw-Pgh-DaNx" class="signal" id="1jki" text-anchor="end">
<text baseline-shift="5%" cb-classname="GraphicTextEntity" class="signal" fill="black" font-style="normal" font-weight="normal" id="1jkR" text-anchor="end" text-decoration="normal" x="4199" y="2664"/>
</g>
</g>
<g cb-classname="ControlPin" cb-pin-name="QA-6cX-TkB" id="1jkv">
<line cb-classname="GraphicLineEntity" class="signalline" id="1jkO" x1="4280" x2="4300" y1="2710" y2="2710"/>
<g cb-classname="DynamicText" cb-source="cN-zmD-6UqB" class="signal" id="1jkX">
<text baseline-shift="5%" cb-classname="GraphicTextEntity" class="signal" fill="black" font-style="normal" font-weight="normal" id="1jkw" text-decoration="normal" x="4294" y="2701"/>
</g>
<g cb-classname="SignalSegment" id="1jk7">
<g cb-classname="SignalConnection" cb-graphic-line="$1994$" cb-input-pin="$hDLZ$" id="16Xw"/>
<line cb-classname="GraphicLineEntity" class="signalline" id="16XX" stroke="#1e12bf" stroke-dasharray="5,4" x1="4300" x2="4890" y1="2710" y2="2710"/>
</g>
</g>
<g cb-classname="ControlPin" cb-pin-name="GN-UOO-i58" id="1jkb">
<line cb-classname="GraphicLineEntity" class="signalline" id="1jdi" x1="4180" x2="4200" y1="2750" y2="2750"/>
<polygon cb-classname="GraphicPolygonEntity" class="signal" id="1jdR" points="4200,2750 4189,2746 4189,2754"/>
<g cb-classname="DynamicText" cb-source="Y6-di5-MP1e" class="signal" id="1jdv" text-anchor="end">
<text baseline-shift="5%" cb-classname="GraphicTextEntity" class="signal" fill="black" font-style="normal" font-weight="normal" id="1jdO" text-anchor="end" text-decoration="normal" x="4198" y="2744"/>
</g>
</g>
<g cb-classname="ControlPin" cb-pin-name="Uq-Jlo-jqO" id="1jdX">
<line cb-classname="GraphicLineEntity" class="signalline" id="1jdw" x1="4180" x2="4200" y1="2710" y2="2710"/>
<polygon cb-classname="GraphicPolygonEntity" class="signal" id="1jd7" points="4200,2710 4189,2706 4189,2714"/>
<g cb-classname="DynamicText" cb-source="cN-zmD-6UqB" class="signal" id="1jda" text-anchor="end">
<text baseline-shift="5%" cb-classname="GraphicTextEntity" class="signal" fill="black" font-style="normal" font-weight="normal" id="1jdT" text-anchor="end" text-decoration="normal" x="4198" y="2704"/>
</g>
</g>
</g>
<g cb-alg-JV="$1653$cb-alg-out$" cb-algorithm-id="029" cb-classname="ExternalPointInterface" cb-function-name="OUTPUT" id="1jdb">
<ellipse cb-classname="GraphicEllipseEntity" class="algorithm" cx="4950" cy="2710" id="1jbi" rx="40" ry="40"/>
<rect cb-classname="GraphicRectangleEntity" class="algorithm" height="80" id="1jbR" width="30" x="4990" y="2670"/>
<line cb-classname="GraphicLineEntity" class="algorithm" id="1jbv" x1="4990" x2="5020" y1="2710" y2="2710"/>
<g cb-classname="PointStatusIndicator" cb-indicator-type="highway" cb-source="oF-kLL-gh" id="1jbO" visibility="hidden">
<line cb-classname="GraphicLineEntity" class="algorithmline" id="1jbX" x1="4910" x2="4950" y1="2710" y2="2670"/>
<line cb-classname="GraphicLineEntity" class="algorithmline" id="1jbw" x1="4950" x2="4990" y1="2670" y2="2710"/>
<line cb-classname="GraphicLineEntity" class="algorithmline" id="1jb7" x1="4990" x2="4950" y1="2710" y2="2750"/>
<line cb-classname="GraphicLineEntity" class="algorithmline" id="1jba" x1="4950" x2="4910" y1="2750" y2="2710"/>
</g>
<g cb-classname="PointStatusIndicator" cb-indicator-type="hardware" cb-source="QA-6cX-JX" id="1jbT" visibility="hidden">
<line cb-classname="GraphicLineEntity" class="algorithmline" id="1jbb" x1="4990" x2="4910" y1="2670" y2="2670"/>
<line cb-classname="GraphicLineEntity" class="algorithmline" id="1jXi" x1="4910" x2="4910" y1="2670" y2="2750"/>
<line cb-classname="GraphicLineEntity" class="algorithmline" id="1jXR" x1="4910" x2="4990" y1="2750" y2="2750"/>
</g>
<g cb-classname="PointStatusIndicator" cb-indicator-type="alarm" cb-source="oY-quw-Vs" id="1jXv" visibility="hidden">
<text cb-classname="GraphicTextEntity" class="algorithm" fill="#000000" font-family="Arial" font-size="20" id="1jXO" x="4997" y="2699">
A
</text>
</g>
<g cb-classname="PointStatusIndicator" cb-indicator-type="ingraphic" cb-source="ak-bez-ip" id="1jXX" visibility="hidden">
<text cb-classname="GraphicTextEntity" class="algorithm" fill="#000000" font-family="Arial" font-size="20" id="1jXw" x="4995" y="2740">
G
</text>
</g>
<g cb-classname="DynamicText" cb-labeled="false" cb-pin-name="hY" cb-source="oF-kLL-gh" class="algorithm" id="1jX7" text-anchor="end">
<text baseline-shift="0%" cb-classname="GraphicTextEntity" class="algorithm" fill="black" font-family="Arial" font-size="20" font-style="normal" font-weight="normal" id="1jXa" text-anchor="end" text-decoration="normal" x="4887" y="2689"/>
</g>
<g baseline-shift="-100%" cb-anchor-x="4888" cb-anchor-y="2726" cb-classname="PointReferences" cb-max-width="240" cb-originator="false" cb-source="Y6-XWN-fD" class="signal" id="1jXT" text-anchor="end">
<text baseline-shift="-100%" cb-classname="GraphicTextEntity" class="algorithm" id="1jXb" text-anchor="end" x="4888" y="2726">
12/123460
</text>
</g>
<g baseline-shift="-50%" cb-anchor-x="5041" cb-anchor-y="2708" cb-classname="PointDescription" cb-content="extended" cb-labeled="false" cb-max-width="240" cb-source="Uq-Jlo-jq" class="algorithm" id="1cKi" text-anchor="start">
<text baseline-shift="-50%" cb-classname="GraphicTextEntity" class="algorithm" id="1cKR" text-anchor="start" x="5041" y="2656">
vlv. POV1102A
</text>
<text baseline-shift="-50%" cb-classname="GraphicTextEntity" class="algorithm" id="2QQw" text-anchor="start" x="5041" y="2692">
extract. dolomia
</text>
<text baseline-shift="-50%" cb-classname="GraphicTextEntity" class="algorithm" id="2Yxa" text-anchor="start" x="5041" y="2728">
silos SL1100A
</text>
<text baseline-shift="-50%" cb-classname="GraphicTextEntity" class="algorithm" id="2YdO" text-anchor="start" x="5041" y="2764">
(AUTL)
</text>
</g>
<g cb-classname="ControlPin" cb-pin-name="cN-eii-Id" id="1cKO">
<line cb-classname="GraphicLineEntity" class="signalline" id="1cKX" x1="4890" x2="4910" y1="2710" y2="2710"/>
<polygon cb-classname="GraphicPolygonEntity" class="signal" id="1cKw" points="4910,2710 4899,2704 4899,2715"/>
</g>
</g>
</g>
<g cb-classname="IncludeDocument" cb-modify-time="12/03/2019 14:33:51" cb-objectname="frame" id="5">
<text cb-classname="GraphicTextEntity" class="frame" font-size="50" id="6" x="3660" y="3146">
HERA
</text>
<g baseline-shift="-50%" cb-classname="DynamicText" cb-source="sV-YyC0-fl" class="frame" id="7">
<text cb-classname="GraphicTextEntity" class="frame" fill="black" font-family="arial" font-size="25" font-style="normal" font-weight="normal" id="8" text-decoration="normal" x="4715" y="3325">
12
</text>
</g>
<g baseline-shift="-50%" cb-classname="DynamicText" cb-source="vw-NseB-jK" class="frame" id="9" text-anchor="middle">
<text cb-classname="GraphicTextEntity" class="frame" fill="black" font-family="arial" font-size="48" font-style="normal" font-weight="normal" id="1A" text-anchor="middle" text-decoration="normal" x="4900" y="3320">
12
</text>
</g>
<g baseline-shift="-50%" cb-classname="DynamicText" cb-source="QA-Vg7y-Ke" class="frame" id="1Q" text-anchor="middle">
<text cb-classname="GraphicTextEntity" class="frame" fill="black" font-family="arial" font-size="48" font-style="normal" font-weight="normal" id="1Y" text-anchor="middle" text-decoration="normal" x="5067" y="3324">
3
</text>
</g>
<g cb-classname="DynamicText" cb-source="cN-reTCZ-7z4WY" class="frame" id="1L">
<text cb-classname="GraphicTextEntity" class="frame" fill="black" font-family="arial" font-size="48" font-style="normal" font-weight="normal" id="1z" text-decoration="normal" x="3660" y="3224">
POV1102A extract. dolomia silos SL1100A - LOG
</text>
</g>
<g baseline-shift="-50%" cb-classname="DynamicText" cb-source="oY-nkBo7-HHI4x3" class="frame" id="1r" text-anchor="middle">
<text cb-classname="GraphicTextEntity" class="frame" fill="black" font-family="arial" font-size="48" font-style="normal" font-weight="normal" id="1j" text-anchor="middle" text-decoration="normal" x="5270" y="3324">
123459
</text>
</g>
<g baseline-shift="0%" cb-classname="DynamicText" cb-source="ak-Soez2iKh" class="frame" id="1c" text-anchor="middle">
<text cb-classname="GraphicTextEntity" class="frame" fill="black" font-family="arial" font-size="36" font-style="normal" font-weight="normal" id="1q" text-anchor="middle" text-decoration="normal" x="5270" y="3150">
A
</text>
</g>
<g baseline-shift="0%" cb-classname="DynamicText" cb-source="oF-WB1irOFD-dKD4" class="frame" id="16" text-anchor="middle">
<text cb-classname="GraphicTextEntity" class="frame" fill="black" font-family="arial" font-size="20" font-style="normal" font-weight="normal" id="2A" text-anchor="middle" text-decoration="normal" x="5270" y="3230">

</text>
</g>
<g baseline-shift="-50%" cb-classname="DynamicText" cb-source="Y6-ZpNOMjJ4" class="frame" id="2Q" text-anchor="end">
<text cb-classname="GraphicTextEntity" class="frame" fill="black" font-family="arial" font-size="26" font-style="normal" font-weight="normal" id="2Y" text-anchor="end" text-decoration="normal" x="4500" y="3420">

</text>
</g>
<g baseline-shift="-50%" cb-classname="DynamicText" cb-source="Uq-sflfJFx6" class="frame" id="2L" text-anchor="end">
<text cb-classname="GraphicTextEntity" class="frame" fill="black" font-family="arial" font-size="26" font-style="normal" font-weight="normal" id="2z" text-anchor="end" text-decoration="normal" x="5353" y="3420">

</text>
</g>
<g cb-classname="GraphicShape" cb-tag="BORDER" id="2r">
<line cb-classname="GraphicLineEntity" class="frameline" id="2j" x1="40" x2="40" y1="40" y2="3460"/>
<line cb-classname="GraphicLineEntity" class="frameline" id="2c" x1="40" x2="5380" y1="3460" y2="3460"/>
<line cb-classname="GraphicLineEntity" class="frameline" id="2q" x1="5380" x2="5380" y1="3460" y2="40"/>
<line cb-classname="GraphicLineEntity" class="frameline" id="26" x1="5380" x2="40" y1="40" y2="40"/>
<line cb-classname="GraphicLineEntity" class="frame" id="3A" x1="5430" x2="5440" y1="3510" y2="3510"/>
</g>
<g cb-classname="GraphicShape" cb-tag="TITLE BOX" id="3Q">
<line cb-classname="GraphicLineEntity" class="frameline" id="3Y" x1="2340" x2="2340" y1="3080" y2="3460"/>
<line cb-classname="GraphicLineEntity" class="frameline" id="3L" x1="2340" x2="5380" y1="3080" y2="3080"/>
<line cb-classname="GraphicLineEntity" class="frameline" id="3z" x1="3650" x2="3650" y1="3460" y2="3080"/>
<line cb-classname="GraphicLineEntity" class="frameline" id="3r" x1="3650" x2="5380" y1="3240" y2="3240"/>
<line cb-classname="GraphicLineEntity" class="frameline" id="3j" x1="3650" x2="5380" y1="3390" y2="3390"/>
<line cb-classname="GraphicLineEntity" class="frameline" id="3c" x1="3650" x2="5380" y1="3160" y2="3160"/>
<line cb-classname="GraphicLineEntity" class="frameline" id="3q" x1="3650" x2="4520" y1="3320" y2="3320"/>
<line cb-classname="GraphicLineEntity" class="frameline" id="36" x1="4520" x2="5380" y1="3290" y2="3290"/>
<line cb-classname="GraphicLineEntity" class="frameline" id="4A" x1="4520" x2="5380" y1="3240" y2="3240"/>
<line cb-classname="GraphicLineEntity" class="frameline" id="4Q" x1="4520" x2="4520" y1="3240" y2="3460"/>
<line cb-classname="GraphicLineEntity" class="frameline" id="4Y" x1="4810" x2="4810" y1="3240" y2="3390"/>
<line cb-classname="GraphicLineEntity" class="frameline" id="4L" x1="4990" x2="4990" y1="3240" y2="3390"/>
<line cb-classname="GraphicLineEntity" class="frameline" id="4z" x1="5150" x2="5150" y1="3080" y2="3390"/>
</g>
<g cb-classname="GraphicShape" cb-tag="TEXT LABELS" id="4r">
<text baseline-shift="-50%" cb-classname="GraphicTextEntity" class="frame" font-size="25" id="4j" text-anchor="middle" x="4890" y="3252">
Drop
</text>
<text baseline-shift="-50%" cb-classname="GraphicTextEntity" class="frame" font-size="25" id="4c" text-anchor="middle" x="5075" y="3252">
Task
</text>
<text baseline-shift="-50%" cb-classname="GraphicTextEntity" class="frame" font-size="25" id="4q" text-anchor="middle" x="5265" y="3252">
Sheet
</text>
<text cb-classname="GraphicTextEntity" class="frame" font-size="25" id="46" x="5152" y="3107">
Rev.
</text>
<text cb-classname="GraphicTextEntity" class="frame" font-size="25" id="5A" x="3653" y="3418">
Engineer
</text>
<text cb-classname="GraphicTextEntity" class="frame" font-size="25" id="5Q" x="4528" y="3419">
Approved
</text>
<text cb-classname="GraphicTextEntity" class="frame" font-size="25" id="5Y" x="5152" y="3187">
Date
</text>
<text baseline-shift="-50%" cb-classname="GraphicTextEntity" class="frame" font-size="25" id="5L" text-anchor="middle" x="4660" y="3252">
Drawing Number
</text>
<text baseline-shift="-50%" cb-classname="GraphicTextEntity" class="frame" font-size="25" id="5z" text-anchor="middle" x="4680" y="3325">
CTL
</text>
</g>
<text baseline-shift="-50%" cb-classname="GraphicTextEntity" class="frame" font-size="48" id="5r" text-anchor="middle" x="3000" y="3100">
EMERSON PROCESS MANAGEMENT
</text>
<g baseline-shift="-100%" cb-anchor-x="2360" cb-anchor-y="3140" cb-classname="GroupText" cb-max-width="1260" fill="black" id="5j">
<text baseline-shift="-100%" cb-classname="GraphicTextEntity" class="frame" fill="black" font-family="arial" font-size="22" font-weight="normal" id="5c" text-anchor="start" text-decoration="normal" x="2360" y="3140">
THIS DOCUMENT CONTAINS INFORMATION PROPRIETARY TO EMERSON PROCESS
</text>
<text baseline-shift="-100%" cb-classname="GraphicTextEntity" class="frame" fill="black" font-family="arial" font-size="22" font-weight="normal" id="5q" text-anchor="start" text-decoration="normal" x="2360" y="3176">
MANAGEMENT POWER &amp; WATER SOLUTIONS, INC. IT IS SUBMITTED IN CONFIDENCE AND
</text>
<text baseline-shift="-100%" cb-classname="GraphicTextEntity" class="frame" fill="black" font-family="arial" font-size="22" font-weight="normal" id="56" text-anchor="start" text-decoration="normal" x="2360" y="3212">
TRUST, IS TO BE USED BY YOU SOLELY FOR THE PURPOSES FOR WHICH IT IS
</text>
<text baseline-shift="-100%" cb-classname="GraphicTextEntity" class="frame" fill="black" font-family="arial" font-size="22" font-weight="normal" id="6A" text-anchor="start" text-decoration="normal" x="2360" y="3248">
FURNISHED AND IS TO BE RETURNED UPON REQUEST. THIS DOCUMENT AND ANY
</text>
<text baseline-shift="-100%" cb-classname="GraphicTextEntity" class="frame" fill="black" font-family="arial" font-size="22" font-weight="normal" id="6Q" text-anchor="start" text-decoration="normal" x="2360" y="3284">
OTHER INFORMATION PROVIDED TO YOU IS NOT TO BE REPRODUCED, TRANSMITTED,
</text>
<text baseline-shift="-100%" cb-classname="GraphicTextEntity" class="frame" fill="black" font-family="arial" font-size="22" font-weight="normal" id="6Y" text-anchor="start" text-decoration="normal" x="2360" y="3320">
DISCLOSED, OR USED OTHERWISE IN WHOLE OR IN PART WITHOUT THE PRIOR
</text>
<text baseline-shift="-100%" cb-classname="GraphicTextEntity" class="frame" fill="black" font-family="arial" font-size="22" font-weight="normal" id="6L" text-anchor="start" text-decoration="normal" x="2360" y="3356">
WRITTEN AUTHORIZATION OF EMERSON PROCESS MANAGEMENT POWER &amp; WATER
</text>
<text baseline-shift="-100%" cb-classname="GraphicTextEntity" class="frame" fill="black" font-family="arial" font-size="22" font-weight="normal" id="6z" text-anchor="start" text-decoration="normal" x="2360" y="3392">
SOLUTIONS,INC.
</text>
</g>
</g>
</svg>