<?xml version="1.0" ?><svg cb-auto-time="04/29/2020 21:34:42" cb-classname="ControlFunction" cb-create-time="01/07/2020" cb-drop-id="12" cb-filename="Z:\OVATION\NET0\UNIT0\ControlFunctions\01D1.svg" cb-function-id="01D1" cb-key="511234244332" cb-modified-timestamp="1587026881" cb-modify-id="00000001" cb-path="Z:/OVATION/NET0/UNIT0/ControlFunctions" cb-revision="A" cb-sheet-number="123649" cb-sheet-title="POV1152 extract. dust silos SL1150 - LOG" cb-snap-grid="10" cb-task-id="3" height="3522" id="1" width="5450" xmlns="http://www.w3.org/2000/svg">
<style cb-classname="EntityStyle" id="2" type="text/css">
	.algorithm { fill: white; stroke: black; stroke-width: 3 }
	.algorithm-function { fill: black; stroke: none }
	.algorithm-functionline { fill: none; stroke: black; stroke-linecap: round; stroke-width: 3 }
	.algorithm-name { fill: black; stroke: none }
	.algorithm-nameline { fill: none; stroke: black; stroke-linecap: round; stroke-width: 3 }
	.algorithm-sequence { fill: black; stroke: none; visibility: hidden }
	.algorithm-sequenceline { fill: none; stroke: black; stroke-linecap: round; stroke-width: 3; visibility: hidden }
	.algorithmline { fill: none; stroke: black; stroke-linecap: round; stroke-width: 3 }
	.annotation { fill: black; stroke: none }
	.annotationline { fill: none; stroke: black; stroke-linecap: round; stroke-width: 3 }
	.description { fill: black; stroke: none }
	.descriptionline { fill: none; stroke: black; stroke-linecap: round; stroke-width: 3 }
	.frame { fill: black; stroke: none }
	.frameline { fill: none; stroke: black; stroke-linecap: round; stroke-width: 3 }
	.signal { fill: black; stroke: none }
	.signalline { fill: none; stroke: black; stroke-linecap: round; stroke-width: 3 }
	text.algorithm { fill: black; font-family: Arial; font-size: 22; stroke: none }
	text.algorithm-function { fill: black; font-family: Arial; font-size: 22; stroke: none }
	text.algorithm-name { fill: black; font-family: Arial; font-size: 22; stroke: none }
	text.algorithm-sequence { fill: black; font-family: Arial; font-size: 22; stroke: none; visibility: hidden }
	text.annotation { fill: black; font-family: Arial; font-size: 22; stroke: none }
	text.description { fill: black; font-family: Arial; font-size: 28; stroke: none }
	text.frame { fill: black; font-family: Arial; font-size: 18; stroke: none }
	text.signal { fill: black; font-family: Arial; font-size: 12; stroke: none }
</style>
<g cb-classname="NamedObject" cb-objectname="Comments" id="3"/>
<g cb-classname="AlgorithmContainer" cb-objectname="Algorithms" id="4">
<g cb-alg-X4v="P82SL1100_DISC_SEQ_SAUTO" cb-alg-XBpq="NO" cb-algorithm-id="02C" cb-classname="ExternalPointInterface" cb-function-name="INPUT" id="1va">
<ellipse cb-classname="GraphicEllipseEntity" class="algorithm" cx="550" cy="290" id="1vy" rx="40" ry="40"/>
<rect cb-classname="GraphicRectangleEntity" class="algorithm" height="80" id="1v2" width="30" x="480" y="250"/>
<line cb-classname="GraphicLineEntity" class="algorithm" id="1vN" x1="480" x2="510" y1="290" y2="290"/>
<g cb-classname="PointStatusIndicator" cb-indicator-type="Highway" cb-source="ND-IgF-l14" id="1vG" visibility="hidden">
<line cb-classname="GraphicLineEntity" class="algorithmline" id="1vn" x1="510" x2="550" y1="290" y2="250"/>
<line cb-classname="GraphicLineEntity" class="algorithmline" id="1vM" x1="550" x2="590" y1="250" y2="290"/>
<line cb-classname="GraphicLineEntity" class="algorithmline" id="1h0" x1="590" x2="550" y1="290" y2="330"/>
<line cb-classname="GraphicLineEntity" class="algorithmline" id="1hm" x1="550" x2="510" y1="330" y2="290"/>
</g>
<g cb-classname="PointStatusIndicator" cb-indicator-type="hardware" cb-source="SY-anp-Zxo" id="1hl" visibility="hidden">
<line cb-classname="GraphicLineEntity" class="algorithmline" id="1ha" x1="510" x2="590" y1="250" y2="250"/>
<line cb-classname="GraphicLineEntity" class="algorithmline" id="1hy" x1="590" x2="590" y1="250" y2="330"/>
<line cb-classname="GraphicLineEntity" class="algorithmline" id="1h2" x1="590" x2="510" y1="330" y2="330"/>
</g>
<g cb-classname="PointStatusIndicator" cb-indicator-type="alarm" cb-source="Ud-QhF-DrG" id="1hN" visibility="hidden">
<text cb-classname="GraphicTextEntity" class="algorithm" fill="#000000" font-family="arial" font-size="20" id="1hG" x="487" y="279">
A
</text>
</g>
<g cb-classname="PointStatusIndicator" cb-indicator-type="ingraphic" cb-source="EX-iH5-3z0" id="1hn" visibility="hidden">
<text cb-classname="GraphicTextEntity" class="algorithm" fill="#000000" font-family="Arial" font-size="20" id="1hM" x="485" y="319">
G
</text>
</g>
<g baseline-shift="-50%" cb-anchor-x="462" cb-anchor-y="284" cb-classname="PointDescription" cb-content="extended" cb-labeled="false" cb-max-width="240" cb-source="ND-IgF-l14" class="algorithm" id="1g0" text-anchor="end">
<text baseline-shift="-50%" cb-classname="GraphicTextEntity" class="algorithm" id="1gm" text-anchor="end" x="462" y="214">
P82SL1100
</text>
<text baseline-shift="-50%" cb-classname="GraphicTextEntity" class="algorithm" id="2K2M" text-anchor="end" x="462" y="250">
SOLID RESIDUE
</text>
<text baseline-shift="-50%" cb-classname="GraphicTextEntity" class="algorithm" id="2K2z" text-anchor="end" x="462" y="286">
SILO
</text>
<text baseline-shift="-50%" cb-classname="GraphicTextEntity" class="algorithm" id="2WG9" text-anchor="end" x="462" y="322">
DISCHARGE
</text>
<text baseline-shift="-50%" cb-classname="GraphicTextEntity" class="algorithm" id="2WGK" text-anchor="end" x="462" y="358">
CYCLE
</text>
</g>
<g cb-classname="DynamicText" cb-labeled="false" cb-pin-name="6EU" cb-source="VD-rtt-X4v" class="algorithm" id="1gl" text-anchor="start">
<text baseline-shift="0%" cb-classname="GraphicTextEntity" class="algorithm" fill="black" font-family="Arial" font-size="20" font-style="normal" font-weight="normal" id="1ga" text-anchor="start" text-decoration="normal" x="610" y="270"/>
</g>
<g baseline-shift="-100%" cb-anchor-x="610" cb-anchor-y="300" cb-classname="PointReferences" cb-max-width="230" cb-originator="true" cb-source="hz-CxF-ovo" class="signal" id="1gy" text-anchor="start">
<text baseline-shift="-100%" cb-classname="GraphicTextEntity" class="algorithm" id="1g2" text-anchor="start" x="610" y="300">
12/1248920
</text>
</g>
<g cb-classname="ControlPin" cb-pin-name="3u-fRw-ghA" id="1gN">
<line cb-classname="GraphicLineEntity" class="signalline" id="1gG" x1="590" x2="610" y1="290" y2="290"/>
<g cb-classname="SignalSegment" cb-start-x="1890" cb-start-y="410" id="1gn">
<g cb-classname="SignalConnection" cb-graphic-line="$1836$" cb-input-pin="$5Ck$" id="1say"/>
<line cb-classname="GraphicLineEntity" class="signalline" id="1saw" stroke="#1e12bf" stroke-dasharray="5,4" x1="610" x2="4180" y1="290" y2="290"/>
</g>
</g>
</g>
<g cb-alg-ovo="P82POV1152_XU[1]" cb-alg-pxn="$153$cb-alg-out$" cb-algorithm-id="00F" cb-classname="FastBooleanAlgorithm" cb-function-name="OR" id="1sm">
<ellipse cb-classname="GraphicEllipseEntity" class="algorithm" cx="4240" cy="330" id="1sl" rx="40" ry="40"/>
<text baseline-shift="-50%" cb-classname="GraphicTextEntity" class="algorithm" id="1sa" text-anchor="middle" x="4240" y="329">
OR
</text>
<line cb-classname="GraphicLineEntity" class="algorithmline" id="1sy" x1="4200" x2="4200" y1="270" y2="390"/>
<g cb-classname="ControlPin" cb-pin-name="VD-rtt-awe" id="1s2">
<line cb-classname="GraphicLineEntity" class="signalline" id="1sN" x1="4180" x2="4200" y1="290" y2="290"/>
<polygon cb-classname="GraphicPolygonEntity" class="signal" id="1sG" points="4200,290 4189,286 4189,294"/>
<g cb-classname="DynamicText" cb-source="SY-Faw-xUTo" class="signal" id="1sn" text-anchor="end">
<text baseline-shift="5%" cb-classname="GraphicTextEntity" class="signal" fill="black" font-style="normal" font-weight="normal" id="1sM" text-anchor="end" text-decoration="normal" x="4199" y="284"/>
</g>
</g>
<g cb-classname="ControlPin" cb-pin-name="I8-95q-3Lt" id="1I0">
<line cb-classname="GraphicLineEntity" class="signalline" id="1Im" x1="4280" x2="4300" y1="330" y2="330"/>
<g cb-classname="DynamicText" cb-source="Ud-9qM-8jdG" class="signal" id="1Il">
<text baseline-shift="5%" cb-classname="GraphicTextEntity" class="signal" fill="black" font-style="normal" font-weight="normal" id="1Ia" text-decoration="normal" x="4294" y="321"/>
</g>
<g cb-classname="SignalSegment" id="1Iy">
<g cb-classname="SignalConnection" cb-graphic-line="$1966$" cb-input-pin="$xpT$" id="1INy"/>
<line cb-classname="GraphicLineEntity" class="signalline" id="1INw" stroke="#1e12bf" stroke-dasharray="5,4" x1="4300" x2="4890" y1="330" y2="330"/>
</g>
</g>
<g cb-classname="ControlPin" cb-pin-name="3u-fRw-qMG" id="28l">
<line cb-classname="GraphicLineEntity" class="signalline" id="28a" x1="4180" x2="4200" y1="330" y2="330"/>
<polygon cb-classname="GraphicPolygonEntity" class="signal" id="28y" points="4200,330 4189,326 4189,334"/>
<g cb-classname="DynamicText" cb-source="Ud-9qM-8jdG" class="signal" id="282" text-anchor="end">
<text baseline-shift="5%" cb-classname="GraphicTextEntity" class="signal" fill="black" font-style="normal" font-weight="normal" id="28N" text-anchor="end" text-decoration="normal" x="4198" y="324"/>
</g>
</g>
</g>
<g cb-alg-px="$181$cb-alg-out$" cb-algorithm-id="001" cb-classname="ExternalPointInterface" cb-function-name="OUTPUT" id="28G">
<ellipse cb-classname="GraphicEllipseEntity" class="algorithm" cx="4950" cy="330" id="28n" rx="40" ry="40"/>
<rect cb-classname="GraphicRectangleEntity" class="algorithm" height="80" id="28M" width="30" x="4990" y="290"/>
<line cb-classname="GraphicLineEntity" class="algorithm" id="2K0" x1="4990" x2="5020" y1="330" y2="330"/>
<g cb-classname="PointStatusIndicator" cb-indicator-type="highway" cb-source="VD-rtt-aw" id="2Km" visibility="hidden">
<line cb-classname="GraphicLineEntity" class="algorithmline" id="2Kl" x1="4910" x2="4950" y1="330" y2="290"/>
<line cb-classname="GraphicLineEntity" class="algorithmline" id="2Ka" x1="4950" x2="4990" y1="290" y2="330"/>
<line cb-classname="GraphicLineEntity" class="algorithmline" id="2Ky" x1="4990" x2="4950" y1="330" y2="370"/>
<line cb-classname="GraphicLineEntity" class="algorithmline" id="2K2" x1="4950" x2="4910" y1="370" y2="330"/>
</g>
<g cb-classname="PointStatusIndicator" cb-indicator-type="hardware" cb-source="I8-95q-qp" id="2KN" visibility="hidden">
<line cb-classname="GraphicLineEntity" class="algorithmline" id="2KG" x1="4990" x2="4910" y1="290" y2="290"/>
<line cb-classname="GraphicLineEntity" class="algorithmline" id="2Kn" x1="4910" x2="4910" y1="290" y2="370"/>
<line cb-classname="GraphicLineEntity" class="algorithmline" id="2KM" x1="4910" x2="4990" y1="370" y2="370"/>
</g>
<g cb-classname="PointStatusIndicator" cb-indicator-type="alarm" cb-source="EX-iH5-CM" id="2W0" visibility="hidden">
<text cb-classname="GraphicTextEntity" class="algorithm" fill="#000000" font-family="Arial" font-size="20" id="2Wm" x="4997" y="319">
A
</text>
</g>
<g cb-classname="PointStatusIndicator" cb-indicator-type="ingraphic" cb-source="ND-IgF-3Q" id="2Wl" visibility="hidden">
<text cb-classname="GraphicTextEntity" class="algorithm" fill="#000000" font-family="Arial" font-size="20" id="2Wa" x="4995" y="360">
G
</text>
</g>
<g cb-classname="DynamicText" cb-labeled="false" cb-pin-name="ry" cb-source="VD-rtt-aw" class="algorithm" id="2Wy" text-anchor="end">
<text baseline-shift="0%" cb-classname="GraphicTextEntity" class="algorithm" fill="black" font-family="Arial" font-size="20" font-style="normal" font-weight="normal" id="2W2" text-anchor="end" text-decoration="normal" x="4887" y="309"/>
</g>
<g baseline-shift="-100%" cb-anchor-x="4888" cb-anchor-y="346" cb-classname="PointReferences" cb-max-width="240" cb-originator="false" cb-source="hz-CxF-px" class="signal" id="2WN" text-anchor="end">
<text baseline-shift="-100%" cb-classname="GraphicTextEntity" class="algorithm" id="2WG" text-anchor="end" x="4888" y="346">
12/123650
</text>
</g>
<g baseline-shift="-50%" cb-anchor-x="5041" cb-anchor-y="328" cb-classname="PointDescription" cb-content="extended" cb-labeled="false" cb-max-width="240" cb-source="3u-fRw-qM" class="algorithm" id="2Wn" text-anchor="start">
<text baseline-shift="-50%" cb-classname="GraphicTextEntity" class="algorithm" id="2WM" text-anchor="start" x="5041" y="276">
vlv. POV1152
</text>
<text baseline-shift="-50%" cb-classname="GraphicTextEntity" class="algorithm" id="2Kav" text-anchor="start" x="5041" y="312">
extract. dust silos
</text>
<text baseline-shift="-50%" cb-classname="GraphicTextEntity" class="algorithm" id="2K2K" text-anchor="start" x="5041" y="348">
SL1150
</text>
<text baseline-shift="-50%" cb-classname="GraphicTextEntity" class="algorithm" id="2W2K" text-anchor="start" x="5041" y="384">
(REQA)
</text>
</g>
<g cb-classname="ControlPin" cb-pin-name="Ud-QhF-RO" id="2Rm">
<line cb-classname="GraphicLineEntity" class="signalline" id="2Rl" x1="4890" x2="4910" y1="330" y2="330"/>
<polygon cb-classname="GraphicPolygonEntity" class="signal" id="2Ra" points="4910,330 4899,324 4899,335"/>
</g>
</g>
<g cb-alg-GAo="P82SL1100_DISC_SEQ_XS06" cb-alg-GCpG="NO" cb-algorithm-id="032" cb-classname="ExternalPointInterface" cb-function-name="INPUT" id="6I0">
<ellipse cb-classname="GraphicEllipseEntity" class="algorithm" cx="550" cy="1310" id="6Im" rx="40" ry="40"/>
<rect cb-classname="GraphicRectangleEntity" class="algorithm" height="80" id="6Il" width="30" x="480" y="1270"/>
<line cb-classname="GraphicLineEntity" class="algorithm" id="6Ia" x1="480" x2="510" y1="1310" y2="1310"/>
<g cb-classname="PointStatusIndicator" cb-indicator-type="Highway" cb-source="hz-CxF-ovo" id="6Iy" visibility="hidden">
<line cb-classname="GraphicLineEntity" class="algorithmline" id="6I2" x1="510" x2="550" y1="1310" y2="1270"/>
<line cb-classname="GraphicLineEntity" class="algorithmline" id="6IN" x1="550" x2="590" y1="1270" y2="1310"/>
<line cb-classname="GraphicLineEntity" class="algorithmline" id="6IG" x1="590" x2="550" y1="1310" y2="1350"/>
<line cb-classname="GraphicLineEntity" class="algorithmline" id="6In" x1="550" x2="510" y1="1350" y2="1310"/>
</g>
<g cb-classname="PointStatusIndicator" cb-indicator-type="hardware" cb-source="Ud-QhF-DrG" id="6IM" visibility="hidden">
<line cb-classname="GraphicLineEntity" class="algorithmline" id="780" x1="510" x2="590" y1="1270" y2="1270"/>
<line cb-classname="GraphicLineEntity" class="algorithmline" id="78m" x1="590" x2="590" y1="1270" y2="1350"/>
<line cb-classname="GraphicLineEntity" class="algorithmline" id="78l" x1="590" x2="510" y1="1350" y2="1350"/>
</g>
<g cb-classname="PointStatusIndicator" cb-indicator-type="alarm" cb-source="ND-IgF-l14" id="78a" visibility="hidden">
<text cb-classname="GraphicTextEntity" class="algorithm" fill="#000000" font-family="arial" font-size="20" id="78y" x="487" y="1299">
A
</text>
</g>
<g cb-classname="PointStatusIndicator" cb-indicator-type="ingraphic" cb-source="VD-rtt-X4v" id="782" visibility="hidden">
<text cb-classname="GraphicTextEntity" class="algorithm" fill="#000000" font-family="Arial" font-size="20" id="78N" x="485" y="1339">
G
</text>
</g>
<g baseline-shift="-50%" cb-anchor-x="462" cb-anchor-y="1304" cb-classname="PointDescription" cb-content="extended" cb-labeled="false" cb-max-width="240" cb-source="hz-CxF-ovo" class="algorithm" id="78G" text-anchor="end">
<text baseline-shift="-50%" cb-classname="GraphicTextEntity" class="algorithm" id="78n" text-anchor="end" x="462" y="1234">
P82SL1100
</text>
<text baseline-shift="-50%" cb-classname="GraphicTextEntity" class="algorithm" id="2KMT" text-anchor="end" x="462" y="1270">
SOLID RESIDUE
</text>
<text baseline-shift="-50%" cb-classname="GraphicTextEntity" class="algorithm" id="2KMw" text-anchor="end" x="462" y="1306">
SILO
</text>
<text baseline-shift="-50%" cb-classname="GraphicTextEntity" class="algorithm" id="2WGz" text-anchor="end" x="462" y="1342">
DISCHARGE
</text>
<text baseline-shift="-50%" cb-classname="GraphicTextEntity" class="algorithm" id="2WGT" text-anchor="end" x="462" y="1378">
CYCLE
</text>
</g>
<g cb-classname="DynamicText" cb-labeled="false" cb-pin-name="dff" cb-source="3u-fRw-ghA" class="algorithm" id="78M" text-anchor="start">
<text baseline-shift="0%" cb-classname="GraphicTextEntity" class="algorithm" fill="black" font-family="Arial" font-size="20" font-style="normal" font-weight="normal" id="7K0" text-anchor="start" text-decoration="normal" x="610" y="1290"/>
</g>
<g baseline-shift="-100%" cb-anchor-x="610" cb-anchor-y="1320" cb-classname="PointReferences" cb-max-width="230" cb-originator="true" cb-source="Bj-JsO-SJm" class="signal" id="7Km" text-anchor="start">
<text baseline-shift="-100%" cb-classname="GraphicTextEntity" class="algorithm" id="7Kl" text-anchor="start" x="610" y="1320">
12/1248922
</text>
</g>
<g cb-classname="ControlPin" cb-pin-name="I8-U5Z-6Y6" id="7Ka">
<line cb-classname="GraphicLineEntity" class="signalline" id="7Ky" x1="590" x2="610" y1="1310" y2="1310"/>
<g cb-classname="SignalSegment" cb-start-x="1890" cb-start-y="1790" id="7K2">
<line cb-classname="GraphicLineEntity" class="signalline" id="7KN" stroke="#1e12bf" stroke-dasharray="5,4" x1="610" x2="3780" y1="1310" y2="1310"/>
<g cb-classname="SignalSegment" id="7KG">
<line cb-classname="GraphicLineEntity" class="signalline" id="1Ia1" stroke="#1e12bf" stroke-dasharray="5,4" x1="3780" x2="4180" y1="1310" y2="1310"/>
<g cb-classname="SignalConnection" cb-graphic-line="$1930$" cb-input-pin="$hnH$" id="1Iav"/>
<line cb-classname="GraphicLineEntity" class="signalline" id="1gNz" stroke="#1e12bf" stroke-dasharray="5,4" x1="3780" x2="3780" y1="1310" y2="3000"/>
<g cb-classname="SignalSegment" id="7Wl">
<g cb-classname="SignalConnection" cb-graphic-line="$1766$" cb-input-pin="$G5eg$" id="1gNy"/>
<line cb-classname="GraphicLineEntity" class="signalline" id="1gNw" stroke="#1e12bf" stroke-dasharray="5,4" x1="3780" x2="4170" y1="3000" y2="3000"/>
</g>
<ellipse cb-classname="GraphicEllipseEntity" class="signal" cx="3780" cy="1310" fill="#1e12bf" id="1Ia8" rx="5" ry="5" stroke="#1e12bf" stroke-dasharray="5,4"/>
</g>
</g>
</g>
</g>
<g cb-alg-X4v="P82POV1152_XU[7]" cb-alg-awe="$690$cb-alg-out$" cb-algorithm-id="014" cb-classname="FastBooleanAlgorithm" cb-function-name="OR" id="7W2">
<ellipse cb-classname="GraphicEllipseEntity" class="algorithm" cx="4240" cy="1350" id="7WN" rx="40" ry="40"/>
<text baseline-shift="-50%" cb-classname="GraphicTextEntity" class="algorithm" id="7WG" text-anchor="middle" x="4240" y="1349">
OR
</text>
<line cb-classname="GraphicLineEntity" class="algorithmline" id="7Wn" x1="4200" x2="4200" y1="1290" y2="1410"/>
<g cb-classname="ControlPin" cb-pin-name="ND-IgF-3Qi" id="7WM">
<line cb-classname="GraphicLineEntity" class="signalline" id="7R0" x1="4180" x2="4200" y1="1310" y2="1310"/>
<polygon cb-classname="GraphicPolygonEntity" class="signal" id="7Rm" points="4200,1310 4189,1306 4189,1314"/>
<g cb-classname="DynamicText" cb-source="Cw-b3Q-wJIA" class="signal" id="7Rl" text-anchor="end">
<text baseline-shift="5%" cb-classname="GraphicTextEntity" class="signal" fill="black" font-style="normal" font-weight="normal" id="7Ra" text-anchor="end" text-decoration="normal" x="4199" y="1304"/>
</g>
</g>
<g cb-classname="ControlPin" cb-pin-name="SY-anp-Zxo" id="7Ry">
<line cb-classname="GraphicLineEntity" class="signalline" id="7R2" x1="4280" x2="4300" y1="1350" y2="1350"/>
<g cb-classname="DynamicText" cb-source="I8-Kpx-MlBC" class="signal" id="7RN">
<text baseline-shift="5%" cb-classname="GraphicTextEntity" class="signal" fill="black" font-style="normal" font-weight="normal" id="7RG" text-decoration="normal" x="4294" y="1341"/>
</g>
<g cb-classname="SignalSegment" id="7Rn">
<g cb-classname="SignalConnection" cb-graphic-line="$1988$" cb-input-pin="$gGT$" id="1InK"/>
<line cb-classname="GraphicLineEntity" class="signalline" id="1In9" stroke="#1e12bf" stroke-dasharray="5,4" x1="4300" x2="4890" y1="1350" y2="1350"/>
</g>
</g>
<g cb-classname="ControlPin" cb-pin-name="cT-H8l-M7n" id="7Bm">
<line cb-classname="GraphicLineEntity" class="signalline" id="7Bl" x1="4180" x2="4200" y1="1390" y2="1390"/>
<polygon cb-classname="GraphicPolygonEntity" class="signal" id="7Ba" points="4200,1390 4189,1386 4189,1394"/>
<g cb-classname="DynamicText" cb-source="VD-mM7-p9nK" class="signal" id="7By" text-anchor="end">
<text baseline-shift="5%" cb-classname="GraphicTextEntity" class="signal" fill="black" font-style="normal" font-weight="normal" id="7B2" text-anchor="end" text-decoration="normal" x="4198" y="1384"/>
</g>
</g>
<g cb-classname="ControlPin" cb-pin-name="hz-CxF-pxJ" id="7BN">
<line cb-classname="GraphicLineEntity" class="signalline" id="7BG" x1="4180" x2="4200" y1="1350" y2="1350"/>
<polygon cb-classname="GraphicPolygonEntity" class="signal" id="7Bn" points="4200,1350 4189,1346 4189,1354"/>
<g cb-classname="DynamicText" cb-source="I8-Kpx-MlBC" class="signal" id="7BM" text-anchor="end">
<text baseline-shift="5%" cb-classname="GraphicTextEntity" class="signal" fill="black" font-style="normal" font-weight="normal" id="7v0" text-anchor="end" text-decoration="normal" x="4198" y="1344"/>
</g>
</g>
</g>
<g cb-alg-aw="$725$cb-alg-out$" cb-algorithm-id="015" cb-classname="ExternalPointInterface" cb-function-name="OUTPUT" id="7vm">
<ellipse cb-classname="GraphicEllipseEntity" class="algorithm" cx="4950" cy="1350" id="7vl" rx="40" ry="40"/>
<rect cb-classname="GraphicRectangleEntity" class="algorithm" height="80" id="7va" width="30" x="4990" y="1310"/>
<line cb-classname="GraphicLineEntity" class="algorithm" id="7vy" x1="4990" x2="5020" y1="1350" y2="1350"/>
<g cb-classname="PointStatusIndicator" cb-indicator-type="highway" cb-source="ND-IgF-3Q" id="7v2" visibility="hidden">
<line cb-classname="GraphicLineEntity" class="algorithmline" id="7vN" x1="4910" x2="4950" y1="1350" y2="1310"/>
<line cb-classname="GraphicLineEntity" class="algorithmline" id="7vG" x1="4950" x2="4990" y1="1310" y2="1350"/>
<line cb-classname="GraphicLineEntity" class="algorithmline" id="7vn" x1="4990" x2="4950" y1="1350" y2="1390"/>
<line cb-classname="GraphicLineEntity" class="algorithmline" id="7vM" x1="4950" x2="4910" y1="1390" y2="1350"/>
</g>
<g cb-classname="PointStatusIndicator" cb-indicator-type="hardware" cb-source="SY-anp-EL" id="7h0" visibility="hidden">
<line cb-classname="GraphicLineEntity" class="algorithmline" id="7hm" x1="4990" x2="4910" y1="1310" y2="1310"/>
<line cb-classname="GraphicLineEntity" class="algorithmline" id="7hl" x1="4910" x2="4910" y1="1310" y2="1390"/>
<line cb-classname="GraphicLineEntity" class="algorithmline" id="7ha" x1="4910" x2="4990" y1="1390" y2="1390"/>
</g>
<g cb-classname="PointStatusIndicator" cb-indicator-type="alarm" cb-source="Ud-QhF-RO" id="7hy" visibility="hidden">
<text cb-classname="GraphicTextEntity" class="algorithm" fill="#000000" font-family="Arial" font-size="20" id="7h2" x="4997" y="1339">
A
</text>
</g>
<g cb-classname="PointStatusIndicator" cb-indicator-type="ingraphic" cb-source="EX-iH5-CM" id="7hN" visibility="hidden">
<text cb-classname="GraphicTextEntity" class="algorithm" fill="#000000" font-family="Arial" font-size="20" id="7hG" x="4995" y="1380">
G
</text>
</g>
<g cb-classname="DynamicText" cb-labeled="false" cb-pin-name="JS" cb-source="ND-IgF-3Q" class="algorithm" id="7hn" text-anchor="end">
<text baseline-shift="0%" cb-classname="GraphicTextEntity" class="algorithm" fill="black" font-family="Arial" font-size="20" font-style="normal" font-weight="normal" id="7hM" text-anchor="end" text-decoration="normal" x="4887" y="1329"/>
</g>
<g baseline-shift="-100%" cb-anchor-x="4888" cb-anchor-y="1366" cb-classname="PointReferences" cb-max-width="240" cb-originator="false" cb-source="VD-rtt-aw" class="signal" id="7g0" text-anchor="end">
<text baseline-shift="-100%" cb-classname="GraphicTextEntity" class="algorithm" id="7gm" text-anchor="end" x="4888" y="1366">
12/123650
</text>
</g>
<g baseline-shift="-50%" cb-anchor-x="5041" cb-anchor-y="1348" cb-classname="PointDescription" cb-content="extended" cb-labeled="false" cb-max-width="240" cb-source="hz-CxF-px" class="algorithm" id="7gl" text-anchor="start">
<text baseline-shift="-50%" cb-classname="GraphicTextEntity" class="algorithm" id="7ga" text-anchor="start" x="5041" y="1296">
vlv. POV1152
</text>
<text baseline-shift="-50%" cb-classname="GraphicTextEntity" class="algorithm" id="2Kay" text-anchor="start" x="5041" y="1332">
extract. dust silos
</text>
<text baseline-shift="-50%" cb-classname="GraphicTextEntity" class="algorithm" id="2W0v" text-anchor="start" x="5041" y="1368">
SL1150
</text>
<text baseline-shift="-50%" cb-classname="GraphicTextEntity" class="algorithm" id="2WNT" text-anchor="start" x="5041" y="1404">
(AUTR)
</text>
</g>
<g cb-classname="ControlPin" cb-pin-name="I8-95q-qp" id="7g2">
<line cb-classname="GraphicLineEntity" class="signalline" id="7gN" x1="4890" x2="4910" y1="1350" y2="1350"/>
<polygon cb-classname="GraphicPolygonEntity" class="signal" id="7gG" points="4910,1350 4899,1344 4899,1355"/>
</g>
</g>
<g cb-alg-97Uw="NO" cb-alg-9hm="P82SL1100_DISC_SEQ_XS14" cb-algorithm-id="025" cb-classname="ExternalPointInterface" cb-function-name="INPUT" id="1hlv">
<ellipse cb-classname="GraphicEllipseEntity" class="algorithm" cx="550" cy="2670" id="1hl8" rx="40" ry="40"/>
<rect cb-classname="GraphicRectangleEntity" class="algorithm" height="80" id="1hlM" width="30" x="480" y="2630"/>
<line cb-classname="GraphicLineEntity" class="algorithm" id="1hlz" x1="480" x2="510" y1="2670" y2="2670"/>
<g cb-classname="PointStatusIndicator" cb-indicator-type="Highway" cb-source="cT-H8l-eJh" id="1hlT" visibility="hidden">
<line cb-classname="GraphicLineEntity" class="algorithmline" id="1hlw" x1="510" x2="550" y1="2670" y2="2630"/>
<line cb-classname="GraphicLineEntity" class="algorithmline" id="1hly" x1="550" x2="590" y1="2630" y2="2670"/>
<line cb-classname="GraphicLineEntity" class="algorithmline" id="1hl9" x1="590" x2="550" y1="2670" y2="2710"/>
<line cb-classname="GraphicLineEntity" class="algorithmline" id="1hlK" x1="550" x2="510" y1="2710" y2="2670"/>
</g>
<g cb-classname="PointStatusIndicator" cb-indicator-type="hardware" cb-source="hz-CxF-ovo" id="1ha1" visibility="hidden">
<line cb-classname="GraphicLineEntity" class="algorithmline" id="1hav" x1="510" x2="590" y1="2630" y2="2630"/>
<line cb-classname="GraphicLineEntity" class="algorithmline" id="1ha8" x1="590" x2="590" y1="2630" y2="2710"/>
<line cb-classname="GraphicLineEntity" class="algorithmline" id="1haM" x1="590" x2="510" y1="2710" y2="2710"/>
</g>
<g cb-classname="PointStatusIndicator" cb-indicator-type="alarm" cb-source="Bj-JsO-SJm" id="1haz" visibility="hidden">
<text cb-classname="GraphicTextEntity" class="algorithm" fill="#000000" font-family="arial" font-size="20" id="1haT" x="487" y="2659">
A
</text>
</g>
<g cb-classname="PointStatusIndicator" cb-indicator-type="ingraphic" cb-source="I8-U5Z-6Y6" id="1haw" visibility="hidden">
<text cb-classname="GraphicTextEntity" class="algorithm" fill="#000000" font-family="Arial" font-size="20" id="1hay" x="485" y="2699">
G
</text>
</g>
<g baseline-shift="-50%" cb-anchor-x="462" cb-anchor-y="2664" cb-classname="PointDescription" cb-content="extended" cb-labeled="false" cb-max-width="240" cb-source="cT-H8l-eJh" class="algorithm" id="1ha9" text-anchor="end">
<text baseline-shift="-50%" cb-classname="GraphicTextEntity" class="algorithm" id="1haK" text-anchor="end" x="462" y="2594">
P82SL1100
</text>
<text baseline-shift="-50%" cb-classname="GraphicTextEntity" class="algorithm" id="2W2v" text-anchor="end" x="462" y="2630">
SOLID RESIDUE
</text>
<text baseline-shift="-50%" cb-classname="GraphicTextEntity" class="algorithm" id="2W28" text-anchor="end" x="462" y="2666">
SILO
</text>
<text baseline-shift="-50%" cb-classname="GraphicTextEntity" class="algorithm" id="2WGw" text-anchor="end" x="462" y="2702">
DISCHARGE
</text>
<text baseline-shift="-50%" cb-classname="GraphicTextEntity" class="algorithm" id="2WGy" text-anchor="end" x="462" y="2738">
CYCLE
</text>
</g>
<g cb-classname="DynamicText" cb-labeled="false" cb-pin-name="A4w" cb-source="Cw-NjL-kRF" class="algorithm" id="1hy8" text-anchor="start">
<text baseline-shift="0%" cb-classname="GraphicTextEntity" class="algorithm" fill="black" font-family="Arial" font-size="20" font-style="normal" font-weight="normal" id="1hyM" text-anchor="start" text-decoration="normal" x="610" y="2650"/>
</g>
<g baseline-shift="-100%" cb-anchor-x="610" cb-anchor-y="2680" cb-classname="PointReferences" cb-max-width="230" cb-originator="true" cb-source="SY-anp-Zxo" class="signal" id="1hyz" text-anchor="start">
<text baseline-shift="-100%" cb-classname="GraphicTextEntity" class="algorithm" id="1hyT" text-anchor="start" x="610" y="2680">
12/1248923
</text>
</g>
<g cb-classname="ControlPin" cb-pin-name="Ud-QhF-DrG" id="1hy9">
<line cb-classname="GraphicLineEntity" class="signalline" id="1hyK" x1="590" x2="610" y1="2670" y2="2670"/>
<g cb-classname="SignalSegment" cb-start-x="1890" cb-start-y="2020" id="1h21">
<line cb-classname="GraphicLineEntity" class="signalline" id="2Wn1" stroke="#1e12bf" stroke-dasharray="5,4" x1="610" x2="3740" y1="2670" y2="2670"/>
<g cb-classname="SignalSegment" id="2Wnv">
<line cb-classname="GraphicLineEntity" class="signalline" id="2Wn8" stroke="#1e12bf" stroke-dasharray="5,4" x1="3740" x2="3740" y1="2670" y2="3020"/>
<g cb-classname="SignalSegment" id="2WnM">
<line cb-classname="GraphicLineEntity" class="signalline" id="2Wnz" stroke="#1e12bf" stroke-dasharray="5,4" x1="3740" x2="4170" y1="3020" y2="3020"/>
<g cb-classname="SignalConnection" cb-graphic-line="$2284$" cb-input-pin="$lsHC$" id="2WnT"/>
</g>
<line cb-classname="GraphicLineEntity" class="signalline" id="1I2w" stroke="#1e12bf" stroke-dasharray="5,4" x1="3740" x2="4180" y1="2670" y2="2670"/>
<g cb-classname="SignalConnection" cb-graphic-line="$1956$" cb-input-pin="$WkQa$" id="1I2y"/>
<ellipse cb-classname="GraphicEllipseEntity" class="signal" cx="3740" cy="2670" fill="#1e12bf" id="2Wnw" rx="5" ry="5" stroke="#1e12bf" stroke-dasharray="5,4"/>
</g>
</g>
</g>
</g>
<g cb-alg-Gv6="DISABLED" cb-alg-d="50" cb-alg-ooff8="AUTO CLOSE - 自动关" cb-alg-ooffE="AUTO OPEN - 自动开" cb-alg-ooffT="FORCING OPEN - 紧急开" cb-alg-ooffX="INFO M2V TYP  WINDOW" cb-alg-oofff="PERMISSIVE CLOSE  - 允许关" cb-alg-ooffj="PERMISSIVE OPEN - 允许开" cb-alg-ooffk="NO POWER - 没有动力" cb-alg-ooffp="FORCING CLOSE - 紧急关" cb-alg-ooffr="NOT READY - 未备妥" cb-alg-pC0k8="NORMAL" cb-alg-pC0kE="NORMAL" cb-alg-pC0kT="INVERT" cb-alg-pC0kf="NORMAL" cb-alg-pC0kj="NORMAL" cb-alg-pC0kk="INVERT" cb-alg-pC0kp="INVERT" cb-alg-pC0kr="NORMAL" cb-alg-piO="$1621$cb-alg-out$" cb-alg-pih5ZE="DISABLED" cb-alg-piv="$690$cb-alg-out$" cb-alg-q="100" cb-alg-ueFfz="850" cb-alg-uiqOZ="P82POV1152_EDEV" cb-algorithm-id="016" cb-classname="AutomaticWindowAlgorithm" cb-function-name="PERMISSIVEWINDOW" id="1KN1">
<rect cb-classname="GraphicRectangleEntity" class="algorithm" height="190" id="1KNv" width="130" x="4200" y="2850"/>
<text baseline-shift="0%" cb-classname="GraphicTextEntity" class="annotation" fill="#000000" font-family="MS Shell Dlg 2" font-size="8" id="1KN8" x="4210" y="2880">
EMRR
</text>
<text baseline-shift="0%" cb-classname="GraphicTextEntity" class="annotation" fill="#000000" font-family="MS Shell Dlg 2" font-size="8" id="1KNM" x="4210" y="2900">
PERR
</text>
<text baseline-shift="0%" cb-classname="GraphicTextEntity" class="annotation" fill="#000000" font-family="MS Shell Dlg 2" font-size="8" id="1KNz" x="4210" y="2920">
EMRL
</text>
<text baseline-shift="0%" cb-classname="GraphicTextEntity" class="annotation" fill="#000000" font-family="MS Shell Dlg 2" font-size="8" id="1KNT" x="4210" y="2940">
PERL
</text>
<text baseline-shift="0%" cb-classname="GraphicTextEntity" class="annotation" fill="#000000" font-family="MS Shell Dlg 2" font-size="12" id="1KNw" x="4290" y="2870">
INFO
</text>
<text baseline-shift="0%" cb-classname="GraphicTextEntity" class="annotation" fill="#000000" font-family="MS Shell Dlg 2" font-size="12" id="1KNy" x="4260" y="2890">
M2V
</text>
<text baseline-shift="0%" cb-classname="GraphicTextEntity" class="annotation" fill="#000000" font-family="MS Shell Dlg 2" font-size="12" id="1KN9" x="4260" y="2910">
WINDOW
</text>
<g cb-classname="GraphicShape" id="1KNK">
<g cb-classname="DynamicText" cb-labeled="false" cb-source="cT-H8l-R7aAQ" id="1KG1">
<text cb-classname="GraphicTextEntity" class="algorithm" id="1KGv" text-anchor="start" x="4200" y="3070"/>
</g>
</g>
<text baseline-shift="0%" cb-classname="GraphicTextEntity" class="annotation" fill="#000000" font-family="MS Shell Dlg 2" font-size="8" id="1KG8" x="4210" y="3000">
AUTR
</text>
<text baseline-shift="0%" cb-classname="GraphicTextEntity" class="annotation" fill="#000000" font-family="MS Shell Dlg 2" font-size="8" id="1KGM" x="4210" y="3020">
AUTL
</text>
<g cb-classname="ControlPin" cb-pin-name="Cw-NjL-UTG" id="1KGz">
<line cb-classname="GraphicLineEntity" class="signalline" id="1KGT" x1="4170" x2="4200" y1="2880" y2="2880"/>
<polygon cb-classname="GraphicPolygonEntity" class="signal" id="1KGw" points="4200,2880 4189,2874 4189,2885"/>
<g cb-classname="DynamicText" cb-source="3u-bUT-LifA" id="1KGy">
<text cb-classname="GraphicTextEntity" class="signal" id="1KG9" text-anchor="end" x="4185" y="2877"/>
</g>
</g>
<g cb-classname="ControlPin" cb-pin-name="Bj-JsO-38v" id="1KGK">
<line cb-classname="GraphicLineEntity" class="signalline" id="1Kn1" x1="4170" x2="4200" y1="2900" y2="2900"/>
<polygon cb-classname="GraphicPolygonEntity" class="signal" id="1Knv" points="4200,2900 4189,2894 4189,2905"/>
<g cb-classname="DynamicText" cb-source="EX-r38-ian9" id="1Kn8">
<text cb-classname="GraphicTextEntity" class="signal" id="1KnM" text-anchor="end" x="4185" y="2897"/>
</g>
</g>
<g cb-classname="ControlPin" cb-pin-name="ND-IgF-3Qr" id="1Knz">
<line cb-classname="GraphicLineEntity" class="signalline" id="1KnT" x1="4170" x2="4200" y1="2920" y2="2920"/>
<polygon cb-classname="GraphicPolygonEntity" class="signal" id="1Knw" points="4200,2920 4189,2914 4189,2925"/>
<g cb-classname="DynamicText" cb-source="Cw-b3Q-wJIA" id="1Kny">
<text cb-classname="GraphicTextEntity" class="signal" id="1Kn9" text-anchor="end" x="4185" y="2917"/>
</g>
</g>
<g cb-classname="ControlPin" cb-pin-name="SY-anp-ELW" id="1KnK">
<line cb-classname="GraphicLineEntity" class="signalline" id="1KM1" x1="4170" x2="4200" y1="2940" y2="2940"/>
<polygon cb-classname="GraphicPolygonEntity" class="signal" id="1KMv" points="4200,2940 4189,2934 4189,2945"/>
<g cb-classname="DynamicText" cb-source="Bj-qEL-py9S" id="1KM8">
<text cb-classname="GraphicTextEntity" class="signal" id="1KMM" text-anchor="end" x="4185" y="2937"/>
</g>
</g>
<g cb-classname="ControlPin" cb-pin-name="I8-U5Z-Aiy" id="1KMz">
<line cb-classname="GraphicLineEntity" class="signalline" id="1KMT" x1="4170" x2="4200" y1="2960" y2="2960"/>
<polygon cb-classname="GraphicPolygonEntity" class="signal" id="1KMw" points="4200,2960 4189,2954 4189,2965"/>
<g cb-classname="DynamicText" cb-source="ND-Buk-7aAQ" id="1KMy">
<text cb-classname="GraphicTextEntity" class="signal" id="1KM9" text-anchor="end" x="4185" y="2957"/>
</g>
</g>
<g cb-classname="ControlPin" cb-pin-name="VD-rtt-awI" id="1KMK">
<line cb-classname="GraphicLineEntity" class="signalline" id="1W01" x1="4170" x2="4200" y1="2980" y2="2980"/>
<polygon cb-classname="GraphicPolygonEntity" class="signal" id="1W0v" points="4200,2980 4189,2974 4189,2985"/>
<g cb-classname="DynamicText" cb-source="SY-Faw-xUTo" id="1W08">
<text cb-classname="GraphicTextEntity" class="signal" id="1W0M" text-anchor="end" x="4185" y="2977"/>
</g>
</g>
<g cb-classname="ControlPin" cb-pin-name="I8-95q-qpd" id="1W0z">
<line cb-classname="GraphicLineEntity" class="signalline" id="1W0T" x1="4170" x2="4200" y1="3000" y2="3000"/>
<polygon cb-classname="GraphicPolygonEntity" class="signal" id="1W0w" points="4200,3000 4189,2994 4189,3005"/>
<g cb-classname="DynamicText" cb-source="I8-Nqp-OBco" id="1W0y">
<text cb-classname="GraphicTextEntity" class="signal" id="1W09" text-anchor="end" x="4185" y="2997"/>
</g>
</g>
<g cb-classname="ControlPin" cb-pin-name="cT-H8l-M7N" id="1W0K">
<line cb-classname="GraphicLineEntity" class="signalline" id="1Wm1" x1="4170" x2="4200" y1="3020" y2="3020"/>
<polygon cb-classname="GraphicPolygonEntity" class="signal" id="1Wmv" points="4200,3020 4189,3014 4189,3025"/>
<g cb-classname="DynamicText" cb-source="VD-mM7-p9nK" id="1Wm8">
<text cb-classname="GraphicTextEntity" class="signal" id="1WmM" text-anchor="end" x="4185" y="3017"/>
</g>
</g>
<text baseline-shift="0%" cb-classname="GraphicTextEntity" class="annotation" fill="#000000" font-family="MS Shell Dlg 2" font-size="8" id="2K08" x="4210" y="2980">
DRDY
</text>
</g>
<g cb-alg-dWR="P82POV1152_XU[15]" cb-alg-p7F="$1621$cb-alg-out$" cb-algorithm-id="028" cb-classname="FastBooleanAlgorithm" cb-function-name="OR" id="1h2M">
<ellipse cb-classname="GraphicEllipseEntity" class="algorithm" cx="4240" cy="2710" id="1h2z" rx="40" ry="40"/>
<text baseline-shift="-50%" cb-classname="GraphicTextEntity" class="algorithm" id="1h2T" text-anchor="middle" x="4240" y="2709">
OR
</text>
<line cb-classname="GraphicLineEntity" class="algorithmline" id="1h2w" x1="4200" x2="4200" y1="2650" y2="2770"/>
<g cb-classname="ControlPin" cb-pin-name="SY-anp-ELd" id="1h2y">
<line cb-classname="GraphicLineEntity" class="signalline" id="1h29" x1="4180" x2="4200" y1="2670" y2="2670"/>
<polygon cb-classname="GraphicPolygonEntity" class="signal" id="1h2K" points="4200,2670 4189,2666 4189,2674"/>
<g cb-classname="DynamicText" cb-source="Bj-qEL-py9S" class="signal" id="1hN1" text-anchor="end">
<text baseline-shift="5%" cb-classname="GraphicTextEntity" class="signal" fill="black" font-style="normal" font-weight="normal" id="1hNv" text-anchor="end" text-decoration="normal" x="4199" y="2664"/>
</g>
</g>
<g cb-classname="ControlPin" cb-pin-name="I8-U5Z-6Y6" id="1hN8">
<line cb-classname="GraphicLineEntity" class="signalline" id="1hNM" x1="4280" x2="4300" y1="2710" y2="2710"/>
<g cb-classname="DynamicText" cb-source="cT-Leb-HCmO" class="signal" id="1hNz">
<text baseline-shift="5%" cb-classname="GraphicTextEntity" class="signal" fill="black" font-style="normal" font-weight="normal" id="1hNT" text-decoration="normal" x="4294" y="2701"/>
</g>
<g cb-classname="SignalSegment" id="1hNw">
<g cb-classname="SignalConnection" cb-graphic-line="$1994$" cb-input-pin="$ThZr$" id="1IMT"/>
<line cb-classname="GraphicLineEntity" class="signalline" id="1IMz" stroke="#1e12bf" stroke-dasharray="5,4" x1="4300" x2="4890" y1="2710" y2="2710"/>
</g>
</g>
<g cb-classname="ControlPin" cb-pin-name="hz-CxF-px5" id="1hNK">
<line cb-classname="GraphicLineEntity" class="signalline" id="1hG1" x1="4180" x2="4200" y1="2750" y2="2750"/>
<polygon cb-classname="GraphicPolygonEntity" class="signal" id="1hGv" points="4200,2750 4189,2746 4189,2754"/>
<g cb-classname="DynamicText" cb-source="I8-Kpx-MlBC" class="signal" id="1hG8" text-anchor="end">
<text baseline-shift="5%" cb-classname="GraphicTextEntity" class="signal" fill="black" font-style="normal" font-weight="normal" id="1hGM" text-anchor="end" text-decoration="normal" x="4198" y="2744"/>
</g>
</g>
<g cb-classname="ControlPin" cb-pin-name="Ud-QhF-ROq" id="1hGz">
<line cb-classname="GraphicLineEntity" class="signalline" id="1hGT" x1="4180" x2="4200" y1="2710" y2="2710"/>
<polygon cb-classname="GraphicPolygonEntity" class="signal" id="1hGw" points="4200,2710 4189,2706 4189,2714"/>
<g cb-classname="DynamicText" cb-source="cT-Leb-HCmO" class="signal" id="1hGy" text-anchor="end">
<text baseline-shift="5%" cb-classname="GraphicTextEntity" class="signal" fill="black" font-style="normal" font-weight="normal" id="1hG9" text-anchor="end" text-decoration="normal" x="4198" y="2704"/>
</g>
</g>
</g>
<g cb-alg-p7="$1653$cb-alg-out$" cb-algorithm-id="029" cb-classname="ExternalPointInterface" cb-function-name="OUTPUT" id="1hGK">
<ellipse cb-classname="GraphicEllipseEntity" class="algorithm" cx="4950" cy="2710" id="1hn1" rx="40" ry="40"/>
<rect cb-classname="GraphicRectangleEntity" class="algorithm" height="80" id="1hnv" width="30" x="4990" y="2670"/>
<line cb-classname="GraphicLineEntity" class="algorithm" id="1hn8" x1="4990" x2="5020" y1="2710" y2="2710"/>
<g cb-classname="PointStatusIndicator" cb-indicator-type="highway" cb-source="SY-anp-EL" id="1hnM" visibility="hidden">
<line cb-classname="GraphicLineEntity" class="algorithmline" id="1hnz" x1="4910" x2="4950" y1="2710" y2="2670"/>
<line cb-classname="GraphicLineEntity" class="algorithmline" id="1hnT" x1="4950" x2="4990" y1="2670" y2="2710"/>
<line cb-classname="GraphicLineEntity" class="algorithmline" id="1hnw" x1="4990" x2="4950" y1="2710" y2="2750"/>
<line cb-classname="GraphicLineEntity" class="algorithmline" id="1hny" x1="4950" x2="4910" y1="2750" y2="2710"/>
</g>
<g cb-classname="PointStatusIndicator" cb-indicator-type="hardware" cb-source="I8-U5Z-Ai" id="1hn9" visibility="hidden">
<line cb-classname="GraphicLineEntity" class="algorithmline" id="1hnK" x1="4990" x2="4910" y1="2670" y2="2670"/>
<line cb-classname="GraphicLineEntity" class="algorithmline" id="1hM1" x1="4910" x2="4910" y1="2670" y2="2750"/>
<line cb-classname="GraphicLineEntity" class="algorithmline" id="1hMv" x1="4910" x2="4990" y1="2750" y2="2750"/>
</g>
<g cb-classname="PointStatusIndicator" cb-indicator-type="alarm" cb-source="xS-qx6-Ip" id="1hM8" visibility="hidden">
<text cb-classname="GraphicTextEntity" class="algorithm" fill="#000000" font-family="Arial" font-size="20" id="1hMM" x="4997" y="2699">
A
</text>
</g>
<g cb-classname="PointStatusIndicator" cb-indicator-type="ingraphic" cb-source="Cw-NjL-UT" id="1hMz" visibility="hidden">
<text cb-classname="GraphicTextEntity" class="algorithm" fill="#000000" font-family="Arial" font-size="20" id="1hMT" x="4995" y="2740">
G
</text>
</g>
<g cb-classname="DynamicText" cb-labeled="false" cb-pin-name="cx" cb-source="SY-anp-EL" class="algorithm" id="1hMw" text-anchor="end">
<text baseline-shift="0%" cb-classname="GraphicTextEntity" class="algorithm" fill="black" font-family="Arial" font-size="20" font-style="normal" font-weight="normal" id="1hMy" text-anchor="end" text-decoration="normal" x="4887" y="2689"/>
</g>
<g baseline-shift="-100%" cb-anchor-x="4888" cb-anchor-y="2726" cb-classname="PointReferences" cb-max-width="240" cb-originator="false" cb-source="I8-95q-qp" class="signal" id="1hM9" text-anchor="end">
<text baseline-shift="-100%" cb-classname="GraphicTextEntity" class="algorithm" id="1hMK" text-anchor="end" x="4888" y="2726">
12/123650
</text>
</g>
<g baseline-shift="-50%" cb-anchor-x="5041" cb-anchor-y="2708" cb-classname="PointDescription" cb-content="extended" cb-labeled="false" cb-max-width="240" cb-source="Ud-QhF-RO" class="algorithm" id="1g01" text-anchor="start">
<text baseline-shift="-50%" cb-classname="GraphicTextEntity" class="algorithm" id="1g0v" text-anchor="start" x="5041" y="2656">
vlv. POV1152
</text>
<text baseline-shift="-50%" cb-classname="GraphicTextEntity" class="algorithm" id="2KyT" text-anchor="start" x="5041" y="2692">
extract. dust silos
</text>
<text baseline-shift="-50%" cb-classname="GraphicTextEntity" class="algorithm" id="2W2y" text-anchor="start" x="5041" y="2728">
SL1150
</text>
<text baseline-shift="-50%" cb-classname="GraphicTextEntity" class="algorithm" id="2WGM" text-anchor="start" x="5041" y="2764">
(AUTL)
</text>
</g>
<g cb-classname="ControlPin" cb-pin-name="cT-H8l-M7" id="1g0M">
<line cb-classname="GraphicLineEntity" class="signalline" id="1g0z" x1="4890" x2="4910" y1="2710" y2="2710"/>
<polygon cb-classname="GraphicPolygonEntity" class="signal" id="1g0T" points="4910,2710 4899,2704 4899,2715"/>
</g>
</g>
</g>
<g cb-classname="IncludeDocument" cb-modify-time="12/03/2019 14:33:51" cb-objectname="frame" id="5">
<text cb-classname="GraphicTextEntity" class="frame" font-size="50" id="6" x="3660" y="3146">
HERA
</text>
<g baseline-shift="-50%" cb-classname="DynamicText" cb-source="3u-tBo9-qC" class="frame" id="7">
<text cb-classname="GraphicTextEntity" class="frame" fill="black" font-family="arial" font-size="25" font-style="normal" font-weight="normal" id="8" text-decoration="normal" x="4715" y="3325">
12
</text>
</g>
<g baseline-shift="-50%" cb-classname="DynamicText" cb-source="Bj-g1gr-Rh" class="frame" id="9" text-anchor="middle">
<text cb-classname="GraphicTextEntity" class="frame" fill="black" font-family="arial" font-size="48" font-style="normal" font-weight="normal" id="18" text-anchor="middle" text-decoration="normal" x="4900" y="3320">
12
</text>
</g>
<g baseline-shift="-50%" cb-classname="DynamicText" cb-source="I8-oidL-CO" class="frame" id="1K" text-anchor="middle">
<text cb-classname="GraphicTextEntity" class="frame" fill="black" font-family="arial" font-size="48" font-style="normal" font-weight="normal" id="1W" text-anchor="middle" text-decoration="normal" x="5067" y="3324">
3
</text>
</g>
<g cb-classname="DynamicText" cb-source="cT-aVRMK-ham5K" class="frame" id="1R">
<text cb-classname="GraphicTextEntity" class="frame" fill="black" font-family="arial" font-size="48" font-style="normal" font-weight="normal" id="1B" text-decoration="normal" x="3660" y="3224">
POV1152 extract. dust silos SL1150 - LOG
</text>
</g>
<g baseline-shift="-50%" cb-classname="DynamicText" cb-source="xS-7qZKh-wRIV7E" class="frame" id="1v" text-anchor="middle">
<text cb-classname="GraphicTextEntity" class="frame" fill="black" font-family="arial" font-size="48" font-style="normal" font-weight="normal" id="1h" text-anchor="middle" text-decoration="normal" x="5270" y="3324">
123649
</text>
</g>
<g baseline-shift="0%" cb-classname="DynamicText" cb-source="Cw-UKvaMpZL" class="frame" id="1g" text-anchor="middle">
<text cb-classname="GraphicTextEntity" class="frame" fill="black" font-family="arial" font-size="36" font-style="normal" font-weight="normal" id="1s" text-anchor="middle" text-decoration="normal" x="5270" y="3150">
A
</text>
</g>
<g baseline-shift="0%" cb-classname="DynamicText" cb-source="SY-dOVpiq3p-mCco" class="frame" id="1I" text-anchor="middle">
<text cb-classname="GraphicTextEntity" class="frame" fill="black" font-family="arial" font-size="20" font-style="normal" font-weight="normal" id="28" text-anchor="middle" text-decoration="normal" x="5270" y="3230">

</text>
</g>
<g baseline-shift="-50%" cb-classname="DynamicText" cb-source="I8-QTqqMoAY" class="frame" id="2K" text-anchor="end">
<text cb-classname="GraphicTextEntity" class="frame" fill="black" font-family="arial" font-size="26" font-style="normal" font-weight="normal" id="2W" text-anchor="end" text-decoration="normal" x="4500" y="3420">

</text>
</g>
<g baseline-shift="-50%" cb-classname="DynamicText" cb-source="Ud-1AA3A0Se" class="frame" id="2R" text-anchor="end">
<text cb-classname="GraphicTextEntity" class="frame" fill="black" font-family="arial" font-size="26" font-style="normal" font-weight="normal" id="2B" text-anchor="end" text-decoration="normal" x="5353" y="3420">

</text>
</g>
<g cb-classname="GraphicShape" cb-tag="BORDER" id="2v">
<line cb-classname="GraphicLineEntity" class="frameline" id="2h" x1="40" x2="40" y1="40" y2="3460"/>
<line cb-classname="GraphicLineEntity" class="frameline" id="2g" x1="40" x2="5380" y1="3460" y2="3460"/>
<line cb-classname="GraphicLineEntity" class="frameline" id="2s" x1="5380" x2="5380" y1="3460" y2="40"/>
<line cb-classname="GraphicLineEntity" class="frameline" id="2I" x1="5380" x2="40" y1="40" y2="40"/>
<line cb-classname="GraphicLineEntity" class="frame" id="38" x1="5430" x2="5440" y1="3510" y2="3510"/>
</g>
<g cb-classname="GraphicShape" cb-tag="TITLE BOX" id="3K">
<line cb-classname="GraphicLineEntity" class="frameline" id="3W" x1="2340" x2="2340" y1="3080" y2="3460"/>
<line cb-classname="GraphicLineEntity" class="frameline" id="3R" x1="2340" x2="5380" y1="3080" y2="3080"/>
<line cb-classname="GraphicLineEntity" class="frameline" id="3B" x1="3650" x2="3650" y1="3460" y2="3080"/>
<line cb-classname="GraphicLineEntity" class="frameline" id="3v" x1="3650" x2="5380" y1="3240" y2="3240"/>
<line cb-classname="GraphicLineEntity" class="frameline" id="3h" x1="3650" x2="5380" y1="3390" y2="3390"/>
<line cb-classname="GraphicLineEntity" class="frameline" id="3g" x1="3650" x2="5380" y1="3160" y2="3160"/>
<line cb-classname="GraphicLineEntity" class="frameline" id="3s" x1="3650" x2="4520" y1="3320" y2="3320"/>
<line cb-classname="GraphicLineEntity" class="frameline" id="3I" x1="4520" x2="5380" y1="3290" y2="3290"/>
<line cb-classname="GraphicLineEntity" class="frameline" id="48" x1="4520" x2="5380" y1="3240" y2="3240"/>
<line cb-classname="GraphicLineEntity" class="frameline" id="4K" x1="4520" x2="4520" y1="3240" y2="3460"/>
<line cb-classname="GraphicLineEntity" class="frameline" id="4W" x1="4810" x2="4810" y1="3240" y2="3390"/>
<line cb-classname="GraphicLineEntity" class="frameline" id="4R" x1="4990" x2="4990" y1="3240" y2="3390"/>
<line cb-classname="GraphicLineEntity" class="frameline" id="4B" x1="5150" x2="5150" y1="3080" y2="3390"/>
</g>
<g cb-classname="GraphicShape" cb-tag="TEXT LABELS" id="4v">
<text baseline-shift="-50%" cb-classname="GraphicTextEntity" class="frame" font-size="25" id="4h" text-anchor="middle" x="4890" y="3252">
Drop
</text>
<text baseline-shift="-50%" cb-classname="GraphicTextEntity" class="frame" font-size="25" id="4g" text-anchor="middle" x="5075" y="3252">
Task
</text>
<text baseline-shift="-50%" cb-classname="GraphicTextEntity" class="frame" font-size="25" id="4s" text-anchor="middle" x="5265" y="3252">
Sheet
</text>
<text cb-classname="GraphicTextEntity" class="frame" font-size="25" id="4I" x="5152" y="3107">
Rev.
</text>
<text cb-classname="GraphicTextEntity" class="frame" font-size="25" id="58" x="3653" y="3418">
Engineer
</text>
<text cb-classname="GraphicTextEntity" class="frame" font-size="25" id="5K" x="4528" y="3419">
Approved
</text>
<text cb-classname="GraphicTextEntity" class="frame" font-size="25" id="5W" x="5152" y="3187">
Date
</text>
<text baseline-shift="-50%" cb-classname="GraphicTextEntity" class="frame" font-size="25" id="5R" text-anchor="middle" x="4660" y="3252">
Drawing Number
</text>
<text baseline-shift="-50%" cb-classname="GraphicTextEntity" class="frame" font-size="25" id="5B" text-anchor="middle" x="4680" y="3325">
CTL
</text>
</g>
<text baseline-shift="-50%" cb-classname="GraphicTextEntity" class="frame" font-size="48" id="5v" text-anchor="middle" x="3000" y="3100">
EMERSON PROCESS MANAGEMENT
</text>
<g baseline-shift="-100%" cb-anchor-x="2360" cb-anchor-y="3140" cb-classname="GroupText" cb-max-width="1260" fill="black" id="5h">
<text baseline-shift="-100%" cb-classname="GraphicTextEntity" class="frame" fill="black" font-family="arial" font-size="22" font-weight="normal" id="5g" text-anchor="start" text-decoration="normal" x="2360" y="3140">
THIS DOCUMENT CONTAINS INFORMATION PROPRIETARY TO EMERSON PROCESS
</text>
<text baseline-shift="-100%" cb-classname="GraphicTextEntity" class="frame" fill="black" font-family="arial" font-size="22" font-weight="normal" id="5s" text-anchor="start" text-decoration="normal" x="2360" y="3176">
MANAGEMENT POWER &amp; WATER SOLUTIONS, INC. IT IS SUBMITTED IN CONFIDENCE AND
</text>
<text baseline-shift="-100%" cb-classname="GraphicTextEntity" class="frame" fill="black" font-family="arial" font-size="22" font-weight="normal" id="5I" text-anchor="start" text-decoration="normal" x="2360" y="3212">
TRUST, IS TO BE USED BY YOU SOLELY FOR THE PURPOSES FOR WHICH IT IS
</text>
<text baseline-shift="-100%" cb-classname="GraphicTextEntity" class="frame" fill="black" font-family="arial" font-size="22" font-weight="normal" id="68" text-anchor="start" text-decoration="normal" x="2360" y="3248">
FURNISHED AND IS TO BE RETURNED UPON REQUEST. THIS DOCUMENT AND ANY
</text>
<text baseline-shift="-100%" cb-classname="GraphicTextEntity" class="frame" fill="black" font-family="arial" font-size="22" font-weight="normal" id="6K" text-anchor="start" text-decoration="normal" x="2360" y="3284">
OTHER INFORMATION PROVIDED TO YOU IS NOT TO BE REPRODUCED, TRANSMITTED,
</text>
<text baseline-shift="-100%" cb-classname="GraphicTextEntity" class="frame" fill="black" font-family="arial" font-size="22" font-weight="normal" id="6W" text-anchor="start" text-decoration="normal" x="2360" y="3320">
DISCLOSED, OR USED OTHERWISE IN WHOLE OR IN PART WITHOUT THE PRIOR
</text>
<text baseline-shift="-100%" cb-classname="GraphicTextEntity" class="frame" fill="black" font-family="arial" font-size="22" font-weight="normal" id="6R" text-anchor="start" text-decoration="normal" x="2360" y="3356">
WRITTEN AUTHORIZATION OF EMERSON PROCESS MANAGEMENT POWER &amp; WATER
</text>
<text baseline-shift="-100%" cb-classname="GraphicTextEntity" class="frame" fill="black" font-family="arial" font-size="22" font-weight="normal" id="6B" text-anchor="start" text-decoration="normal" x="2360" y="3392">
SOLUTIONS,INC.
</text>
</g>
</g>
</svg>