<?xml version="1.0" ?><svg cb-auto-time="01/29/2020 14:22:52" cb-classname="ControlFunction" cb-create-time="01/29/2020" cb-drop-id="12" cb-filename="Z:\OVATION\NET0\UNIT0\CONTROLFUNCTIONS\0234.svg" cb-function-id="0234" cb-key="321525511234" cb-modified-timestamp="1587026915" cb-modify-id="00000001" cb-path="Z:/OVATION/NET0/UNIT0/CONTROLFUNCTIONS" cb-revision="A" cb-sheet-number="123720" cb-sheet-title="Quench Heaters start/stop" cb-snap-grid="10" cb-task-id="3" height="3522" id="1" width="5450" xmlns="http://www.w3.org/2000/svg">
<style cb-classname="EntityStyle" id="2" type="text/css">
	.algorithm { fill: white; stroke: black; stroke-width: 3 }
	.algorithm-function { fill: black; stroke: none }
	.algorithm-functionline { fill: none; stroke: black; stroke-linecap: round; stroke-width: 3 }
	.algorithm-name { fill: black; stroke: none }
	.algorithm-nameline { fill: none; stroke: black; stroke-linecap: round; stroke-width: 3 }
	.algorithm-sequence { fill: black; stroke: none; visibility: hidden }
	.algorithm-sequenceline { fill: none; stroke: black; stroke-linecap: round; stroke-width: 3; visibility: hidden }
	.algorithmline { fill: none; stroke: black; stroke-linecap: round; stroke-width: 3 }
	.annotation { fill: black; stroke: none }
	.annotationline { fill: none; stroke: black; stroke-linecap: round; stroke-width: 3 }
	.frame { fill: black; stroke: none }
	.frameline { fill: none; stroke: black; stroke-linecap: round; stroke-width: 3 }
	.signal { fill: black; stroke: none }
	.signalline { fill: none; stroke: black; stroke-linecap: round; stroke-width: 3 }
	text.algorithm { fill: black; font-family: Arial; font-size: 22; stroke: none }
	text.algorithm-function { fill: black; font-family: Arial; font-size: 22; stroke: none }
	text.algorithm-name { fill: black; font-family: Arial; font-size: 22; stroke: none }
	text.algorithm-sequence { fill: black; font-family: Arial; font-size: 22; stroke: none; visibility: hidden }
	text.annotation { fill: black; font-family: Arial; font-size: 22; stroke: none }
	text.frame { fill: black; font-family: Arial; font-size: 18; stroke: none }
	text.signal { fill: black; font-family: Arial; font-size: 12; stroke: none }
</style>
<g cb-classname="NamedObject" cb-objectname="Comments" id="3"/>
<g cb-classname="AlgorithmContainer" cb-objectname="Algorithms" id="4">
<g cb-alg-oBx9="NO" cb-alg-otS="P30TSL1220" cb-algorithm-id="001" cb-classname="ExternalPointInterface" cb-function-name="INPUT" id="6p">
<ellipse cb-classname="GraphicEllipseEntity" class="algorithm" cx="620" cy="430" id="6b" rx="40" ry="40"/>
<rect cb-classname="GraphicRectangleEntity" class="algorithm" height="80" id="6m" width="30" x="550" y="390"/>
<line cb-classname="GraphicLineEntity" class="algorithm" id="66" x1="550" x2="580" y1="430" y2="430"/>
<g cb-classname="PointStatusIndicator" cb-indicator-type="Highway" cb-source="c0-6EW-3vo" id="6I" visibility="hidden">
<line cb-classname="GraphicLineEntity" class="algorithmline" id="7K" x1="580" x2="620" y1="430" y2="390"/>
<line cb-classname="GraphicLineEntity" class="algorithmline" id="7S" x1="620" x2="660" y1="390" y2="430"/>
<line cb-classname="GraphicLineEntity" class="algorithmline" id="7N" x1="660" x2="620" y1="430" y2="470"/>
<line cb-classname="GraphicLineEntity" class="algorithmline" id="73" x1="620" x2="580" y1="470" y2="430"/>
</g>
<g cb-classname="PointStatusIndicator" cb-indicator-type="hardware" cb-source="iH-MiV-9uU" id="7v" visibility="visible">
<line cb-classname="GraphicLineEntity" class="algorithmline" id="7p" x1="580" x2="660" y1="390" y2="390"/>
<line cb-classname="GraphicLineEntity" class="algorithmline" id="7b" x1="660" x2="660" y1="390" y2="470"/>
<line cb-classname="GraphicLineEntity" class="algorithmline" id="7m" x1="660" x2="580" y1="470" y2="470"/>
</g>
<g cb-classname="PointStatusIndicator" cb-indicator-type="alarm" cb-source="cR-aw2-JG0" id="76" visibility="hidden">
<text cb-classname="GraphicTextEntity" class="algorithm" fill="#000000" font-family="arial" font-size="20" id="7I" x="557" y="419">
A
</text>
</g>
<g cb-classname="PointStatusIndicator" cb-indicator-type="ingraphic" cb-source="G2-S4Z-rQe" id="8K" visibility="hidden">
<text cb-classname="GraphicTextEntity" class="algorithm" fill="#000000" font-family="Arial" font-size="20" id="8S" x="555" y="459">
G
</text>
</g>
<g baseline-shift="-50%" cb-anchor-x="532" cb-anchor-y="424" cb-classname="PointDescription" cb-content="extended" cb-labeled="false" cb-max-width="230" cb-source="c0-6EW-3vo" class="algorithm" id="8N" text-anchor="end">
<text baseline-shift="-50%" cb-classname="GraphicTextEntity" class="algorithm" id="83" text-anchor="end" x="532" y="372">
temp. L TSL1220
</text>
<text baseline-shift="-50%" cb-classname="GraphicTextEntity" class="algorithm" id="8v" text-anchor="end" x="532" y="408">
FG quenc.
</text>
<text baseline-shift="-50%" cb-classname="GraphicTextEntity" class="algorithm" id="8p" text-anchor="end" x="532" y="444">
ambient air
</text>
<text baseline-shift="-50%" cb-classname="GraphicTextEntity" class="algorithm" id="3Ns" text-anchor="end" x="532" y="480">
(nL - !L)
</text>
</g>
<g cb-classname="DynamicText" cb-labeled="false" cb-pin-name="dOD" cb-source="Nu-W5W-nvd" class="algorithm" id="8b" text-anchor="start">
<text baseline-shift="0%" cb-classname="GraphicTextEntity" class="algorithm" fill="black" font-family="Arial" font-size="20" font-style="normal" font-weight="normal" id="8m" text-anchor="start" text-decoration="normal" x="680" y="410"/>
</g>
<g baseline-shift="-100%" cb-anchor-x="680" cb-anchor-y="430" cb-classname="PointReferences" cb-max-width="230" cb-originator="true" cb-source="I4-9JL-E9a" class="signal" id="86" text-anchor="start">
<text baseline-shift="-100%" cb-classname="GraphicTextEntity" class="algorithm" id="8I" text-anchor="start" x="680" y="430">
-
</text>
</g>
<g cb-classname="ControlPin" cb-pin-name="cR-aw2-JG0" id="9S">
<line cb-classname="GraphicLineEntity" class="signalline" id="9N" x1="660" x2="680" y1="430" y2="430"/>
<g cb-classname="SignalSegment" id="13o">
<line cb-classname="GraphicLineEntity" class="signalline" id="3SZ" stroke="#1e12bf" stroke-dasharray="5,4" x1="680" x2="910" y1="430" y2="430"/>
<g cb-classname="SignalSegment" id="3Sp">
<line cb-classname="GraphicLineEntity" class="signalline" id="3Sj" stroke="#1e12bf" stroke-dasharray="5,4" x1="910" x2="910" y1="430" y2="630"/>
<g cb-classname="SignalSegment" id="3Sl">
<line cb-classname="GraphicLineEntity" class="signalline" id="3S8" stroke="#1e12bf" stroke-dasharray="5,4" x1="910" x2="1060" y1="630" y2="630"/>
<g cb-classname="SignalConnection" cb-graphic-line="$317$" cb-input-pin="$E08$" id="3Sv"/>
</g>
<line cb-classname="GraphicLineEntity" class="signalline" id="3Kj" stroke="#1e12bf" stroke-dasharray="5,4" x1="910" x2="1540" y1="430" y2="430"/>
<g cb-classname="SignalConnection" cb-graphic-line="$305$" cb-input-pin="$9kp$" id="3Kl"/>
<ellipse cb-classname="GraphicEllipseEntity" class="signal" cx="910" cy="430" fill="#1e12bf" id="3So" rx="5" ry="5" stroke="#1e12bf" stroke-dasharray="5,4"/>
</g>
</g>
</g>
</g>
<g cb-alg-7SfM="1" cb-alg-93N="$65$cb-alg-out$" cb-alg-VFe="P30TSL1220_OFF" cb-alg-iSZZ="30" cb-alg-zHIZ="96" cb-algorithm-id="003" cb-classname="ControlAlgorithm" cb-function-name="ONDELAY" cb-modify-id="00000001" id="1NM">
<rect cb-classname="GraphicRectangleEntity" class="algorithm" height="40" id="1NH" width="90" x="1560" y="410"/>
<text baseline-shift="-50%" cb-classname="GraphicTextEntity" class="algorithm" font-size="22" id="1NZ" text-anchor="middle" x="1575" y="423">
t
</text>
<line cb-classname="GraphicLineEntity" class="algorithm" id="1Np" x1="1590" x2="1620" y1="440" y2="440"/>
<line cb-classname="GraphicLineEntity" class="algorithm" id="1Nj" x1="1620" x2="1620" y1="420" y2="440"/>
<line cb-classname="GraphicLineEntity" class="algorithm" id="1Nl" x1="1620" x2="1640" y1="420" y2="420"/>
<g cb-classname="ControlPin" cb-pin-name="I4-9JL-OWO" id="1N8">
<line cb-classname="GraphicLineEntity" class="signalline" id="1Nv" x1="1540" x2="1560" y1="430" y2="430"/>
<polygon cb-classname="GraphicPolygonEntity" class="signal" id="1No" points="1560,430 1549,426 1549,434"/>
<g cb-classname="DynamicText" cb-source="cR-K93-Dojz" class="signal" id="13s" text-anchor="end">
<text baseline-shift="5%" cb-classname="GraphicTextEntity" class="signal" fill="black" font-style="normal" font-weight="normal" id="13M" text-anchor="end" text-decoration="normal" x="1540" y="426"/>
</g>
</g>
<g cb-classname="ControlPin" cb-pin-name="G2-S4Z-rQe" id="13H">
<line cb-classname="GraphicLineEntity" class="signalline" id="13Z" x1="1650" x2="1670" y1="430" y2="430"/>
<g cb-classname="DynamicText" cb-source="c0-d6X-6M8H" class="signal" id="13p" text-anchor="start">
<text cb-classname="GraphicTextEntity" class="signal" fill="black" font-style="normal" font-weight="normal" id="13j" text-anchor="start" text-decoration="normal" x="1664" y="427"/>
</g>
<g cb-classname="SignalSegment" id="1mH">
<g cb-classname="SignalConnection" cb-graphic-line="$307$" cb-input-pin="$OrL$" id="3Kv"/>
<line cb-classname="GraphicLineEntity" class="signalline" id="3K8" stroke="#1e12bf" stroke-dasharray="5,4" x1="1670" x2="2260" y1="430" y2="430"/>
</g>
</g>
<g cb-classname="GraphicShape" id="13l">
<g cb-classname="DynamicText" cb-labeled="true" cb-source="SR-KlR-wMQi" class="algorithm" id="138" text-anchor="start">
<text cb-classname="GraphicTextEntity" class="algorithm" fill="black" font-family="MS Shell Dlg" font-size="22" font-style="normal" font-weight="normal" id="13v" text-anchor="start" text-decoration="normal" x="1560" y="403"/>
</g>
</g>
</g>
<g cb-alg-cJ="$121$cb-alg-out$" cb-algorithm-id="002" cb-classname="ExternalPointInterface" cb-function-name="OUTPUT" id="1vp">
<ellipse cb-classname="GraphicEllipseEntity" class="algorithm" cx="2320" cy="430" id="1vj" rx="40" ry="40"/>
<rect cb-classname="GraphicRectangleEntity" class="algorithm" height="80" id="1vl" width="30" x="2360" y="390"/>
<line cb-classname="GraphicLineEntity" class="algorithm" id="1v8" x1="2360" x2="2390" y1="430" y2="430"/>
<g cb-classname="PointStatusIndicator" cb-indicator-type="highway" cb-source="PO-oAG-qm" id="1vv" visibility="hidden">
<line cb-classname="GraphicLineEntity" class="algorithmline" id="1vo" x1="2280" x2="2320" y1="430" y2="390"/>
<line cb-classname="GraphicLineEntity" class="algorithmline" id="1ps" x1="2320" x2="2360" y1="390" y2="430"/>
<line cb-classname="GraphicLineEntity" class="algorithmline" id="1pM" x1="2360" x2="2320" y1="430" y2="470"/>
<line cb-classname="GraphicLineEntity" class="algorithmline" id="1pH" x1="2320" x2="2280" y1="470" y2="430"/>
</g>
<g cb-classname="PointStatusIndicator" cb-indicator-type="hardware" cb-source="I4-9JL-OW" id="1pZ" visibility="hidden">
<line cb-classname="GraphicLineEntity" class="algorithmline" id="1pp" x1="2360" x2="2280" y1="390" y2="390"/>
<line cb-classname="GraphicLineEntity" class="algorithmline" id="1pj" x1="2280" x2="2280" y1="390" y2="470"/>
<line cb-classname="GraphicLineEntity" class="algorithmline" id="1pl" x1="2280" x2="2360" y1="470" y2="470"/>
</g>
<g cb-classname="PointStatusIndicator" cb-indicator-type="alarm" cb-source="FE-bTT-6X" id="1p8" visibility="hidden">
<text cb-classname="GraphicTextEntity" class="algorithm" fill="#000000" font-family="Arial" font-size="20" id="1pv" x="2367" y="419">
A
</text>
</g>
<g cb-classname="PointStatusIndicator" cb-indicator-type="ingraphic" cb-source="87-IiF-r6" id="1po" visibility="hidden">
<text cb-classname="GraphicTextEntity" class="algorithm" fill="#000000" font-family="Arial" font-size="20" id="1bs" x="2365" y="460">
G
</text>
</g>
<g cb-classname="DynamicText" cb-labeled="false" cb-pin-name="hS" cb-source="PO-oAG-qm" class="algorithm" id="1bM" text-anchor="end">
<text baseline-shift="0%" cb-classname="GraphicTextEntity" class="algorithm" fill="black" font-family="Arial" font-size="20" font-style="normal" font-weight="normal" id="1bH" text-anchor="end" text-decoration="normal" x="2257" y="409"/>
</g>
<g baseline-shift="-100%" cb-anchor-x="2258" cb-anchor-y="446" cb-classname="PointReferences" cb-max-width="240" cb-originator="false" cb-source="SR-KlR-Dv" class="signal" id="1bZ" text-anchor="end">
<text baseline-shift="-100%" cb-classname="GraphicTextEntity" class="algorithm" id="1bp" text-anchor="end" x="2258" y="446">
12/124519
</text>
<text baseline-shift="-100%" cb-classname="GraphicTextEntity" class="algorithm" id="3NM" text-anchor="end" x="2258" y="482">
12/124529
</text>
<text baseline-shift="-100%" cb-classname="GraphicTextEntity" class="algorithm" id="3NH" text-anchor="end" x="2258" y="518">
12/124539
</text>
<text baseline-shift="-100%" cb-classname="GraphicTextEntity" class="algorithm" id="3NZ" text-anchor="end" x="2258" y="554">
12/124549
</text>
<text baseline-shift="-100%" cb-classname="GraphicTextEntity" class="algorithm" id="3Np" text-anchor="end" x="2258" y="590">
12/124559
</text>
<text baseline-shift="-100%" cb-classname="GraphicTextEntity" class="algorithm" id="3Nj" text-anchor="end" x="2258" y="626">
12/124569
</text>
<text baseline-shift="-100%" cb-classname="GraphicTextEntity" class="algorithm" id="3Nl" text-anchor="end" x="2258" y="662">
12/124579
</text>
<text baseline-shift="-100%" cb-classname="GraphicTextEntity" class="algorithm" id="3N8" text-anchor="end" x="2258" y="698">
12/124589
</text>
</g>
<g baseline-shift="-50%" cb-anchor-x="2411" cb-anchor-y="428" cb-classname="PointDescription" cb-content="extended" cb-labeled="false" cb-max-width="240" cb-source="I4-9JL-OW" class="algorithm" id="1bl" text-anchor="start">
<text baseline-shift="-50%" cb-classname="GraphicTextEntity" class="algorithm" id="1b8" text-anchor="start" x="2411" y="411">
TSL1220 OFF
</text>
<text baseline-shift="-50%" cb-classname="GraphicTextEntity" class="algorithm" id="1bv" text-anchor="start" x="2411" y="447">
heaters
</text>
</g>
<g cb-classname="ControlPin" cb-pin-name="cR-aw2-Op" id="1bo">
<line cb-classname="GraphicLineEntity" class="signalline" id="1ms" x1="2260" x2="2280" y1="430" y2="430"/>
<polygon cb-classname="GraphicPolygonEntity" class="signal" id="1mM" points="2280,430 2269,424 2269,435"/>
</g>
</g>
<g cb-alg-6eU="$65$cb-alg-out$" cb-algorithm-id="006" cb-classname="FastBooleanAlgorithm" cb-function-name="NOT" cb-modify-id="00000001" id="23s">
<rect cb-classname="GraphicRectangleEntity" class="algorithm" height="40" id="23M" width="40" x="1080" y="610"/>
<text baseline-shift="-50%" cb-classname="GraphicTextEntity" class="algorithm" font-size="28" id="23H" text-anchor="middle" x="1099" y="622">
N
</text>
<g cb-classname="ControlPin" cb-pin-name="kF-Myi-fSZ" id="23Z">
<line cb-classname="GraphicLineEntity" class="signalline" id="23p" x1="1060" x2="1080" y1="630" y2="630"/>
<polygon cb-classname="GraphicPolygonEntity" class="signal" id="23j" points="1080,630 1069,626 1069,634"/>
<g cb-classname="DynamicText" cb-source="G2-M0D-XKhU" class="signal" id="23l" text-anchor="end">
<text baseline-shift="5%" cb-classname="GraphicTextEntity" class="signal" fill="black" font-style="normal" font-weight="normal" id="238" text-anchor="end" text-decoration="normal" x="1075" y="622"/>
</g>
</g>
<g cb-classname="ControlPin" cb-pin-name="c0-6EW-3vo" id="23v">
<line cb-classname="GraphicLineEntity" class="signalline" id="23o" x1="1120" x2="1140" y1="630" y2="630"/>
<g cb-classname="DynamicText" cb-source="Ry-7r6-mzCe" class="signal" id="2vs">
<text baseline-shift="5%" cb-classname="GraphicTextEntity" class="signal" fill="black" font-style="normal" font-weight="normal" id="2vM" text-decoration="normal" x="1132" y="622"/>
</g>
<g cb-classname="SignalSegment" id="2bs">
<g cb-classname="SignalConnection" cb-graphic-line="$309$" cb-input-pin="$o4Q$" id="3Ss"/>
<line cb-classname="GraphicLineEntity" class="signalline" id="3Ko" stroke="#1e12bf" stroke-dasharray="5,4" x1="1140" x2="1540" y1="630" y2="630"/>
</g>
</g>
</g>
<g cb-alg-BFMW="96" cb-alg-HWxD="1" cb-alg-NWsW="30" cb-alg-gnB="P30TSL1220_ON" cb-alg-r6o="$230$cb-alg-out$" cb-algorithm-id="004" cb-classname="ControlAlgorithm" cb-function-name="ONDELAY" cb-modify-id="00000001" id="1mo">
<rect cb-classname="GraphicRectangleEntity" class="algorithm" height="40" id="16s" width="90" x="1560" y="610"/>
<text baseline-shift="-50%" cb-classname="GraphicTextEntity" class="algorithm" font-size="22" id="16M" text-anchor="middle" x="1575" y="623">
t
</text>
<line cb-classname="GraphicLineEntity" class="algorithm" id="16H" x1="1590" x2="1620" y1="640" y2="640"/>
<line cb-classname="GraphicLineEntity" class="algorithm" id="16Z" x1="1620" x2="1620" y1="620" y2="640"/>
<line cb-classname="GraphicLineEntity" class="algorithm" id="16p" x1="1620" x2="1640" y1="620" y2="620"/>
<g cb-classname="ControlPin" cb-pin-name="87-IiF-r6o" id="16j">
<line cb-classname="GraphicLineEntity" class="signalline" id="16l" x1="1540" x2="1560" y1="630" y2="630"/>
<polygon cb-classname="GraphicPolygonEntity" class="signal" id="168" points="1560,630 1549,626 1549,634"/>
<g cb-classname="DynamicText" cb-source="Ry-7r6-mzCe" class="signal" id="16v" text-anchor="end">
<text baseline-shift="5%" cb-classname="GraphicTextEntity" class="signal" fill="black" font-style="normal" font-weight="normal" id="16o" text-anchor="end" text-decoration="normal" x="1540" y="626"/>
</g>
</g>
<g cb-classname="ControlPin" cb-pin-name="Nu-W5W-nvd" id="1Is">
<line cb-classname="GraphicLineEntity" class="signalline" id="1IM" x1="1650" x2="1670" y1="630" y2="630"/>
<g cb-classname="DynamicText" cb-source="I4-nDv-tpNO" class="signal" id="1IH" text-anchor="start">
<text cb-classname="GraphicTextEntity" class="signal" fill="black" font-style="normal" font-weight="normal" id="1IZ" text-anchor="start" text-decoration="normal" x="1664" y="627"/>
</g>
<g cb-classname="SignalSegment" id="1Ip">
<g cb-classname="SignalConnection" cb-graphic-line="$311$" cb-input-pin="$NHc$" id="3SH"/>
<line cb-classname="GraphicLineEntity" class="signalline" id="3SM" stroke="#1e12bf" stroke-dasharray="5,4" x1="1670" x2="2260" y1="630" y2="630"/>
</g>
</g>
<g cb-classname="GraphicShape" id="1I8">
<g cb-classname="DynamicText" cb-labeled="true" cb-source="87-IiF-NWsW" class="algorithm" id="1Iv" text-anchor="start">
<text cb-classname="GraphicTextEntity" class="algorithm" fill="black" font-family="MS Shell Dlg" font-size="22" font-style="normal" font-weight="normal" id="1Io" text-anchor="start" text-decoration="normal" x="1560" y="603"/>
</g>
</g>
</g>
<g cb-alg-Hh="$179$cb-alg-out$" cb-algorithm-id="005" cb-classname="ExternalPointInterface" cb-function-name="OUTPUT" id="2Ks">
<ellipse cb-classname="GraphicEllipseEntity" class="algorithm" cx="2320" cy="630" id="2KM" rx="40" ry="40"/>
<rect cb-classname="GraphicRectangleEntity" class="algorithm" height="80" id="2KH" width="30" x="2360" y="590"/>
<line cb-classname="GraphicLineEntity" class="algorithm" id="2KZ" x1="2360" x2="2390" y1="630" y2="630"/>
<g cb-classname="PointStatusIndicator" cb-indicator-type="highway" cb-source="iH-MiV-Lt" id="2Kp" visibility="hidden">
<line cb-classname="GraphicLineEntity" class="algorithmline" id="2Kj" x1="2280" x2="2320" y1="630" y2="590"/>
<line cb-classname="GraphicLineEntity" class="algorithmline" id="2Kl" x1="2320" x2="2360" y1="590" y2="630"/>
<line cb-classname="GraphicLineEntity" class="algorithmline" id="2K8" x1="2360" x2="2320" y1="630" y2="670"/>
<line cb-classname="GraphicLineEntity" class="algorithmline" id="2Kv" x1="2320" x2="2280" y1="670" y2="630"/>
</g>
<g cb-classname="PointStatusIndicator" cb-indicator-type="hardware" cb-source="FE-bTT-6X" id="2Ko" visibility="hidden">
<line cb-classname="GraphicLineEntity" class="algorithmline" id="2Ss" x1="2360" x2="2280" y1="590" y2="590"/>
<line cb-classname="GraphicLineEntity" class="algorithmline" id="2SM" x1="2280" x2="2280" y1="590" y2="670"/>
<line cb-classname="GraphicLineEntity" class="algorithmline" id="2SH" x1="2280" x2="2360" y1="670" y2="670"/>
</g>
<g cb-classname="PointStatusIndicator" cb-indicator-type="alarm" cb-source="PO-oAG-qm" id="2SZ" visibility="hidden">
<text cb-classname="GraphicTextEntity" class="algorithm" fill="#000000" font-family="Arial" font-size="20" id="2Sp" x="2367" y="619">
A
</text>
</g>
<g cb-classname="PointStatusIndicator" cb-indicator-type="ingraphic" cb-source="SR-KlR-Dv" id="2Sj" visibility="hidden">
<text cb-classname="GraphicTextEntity" class="algorithm" fill="#000000" font-family="Arial" font-size="20" id="2Sl" x="2365" y="660">
G
</text>
</g>
<g cb-classname="DynamicText" cb-labeled="false" cb-pin-name="La" cb-source="iH-MiV-Lt" class="algorithm" id="2S8" text-anchor="end">
<text baseline-shift="0%" cb-classname="GraphicTextEntity" class="algorithm" fill="black" font-family="Arial" font-size="20" font-style="normal" font-weight="normal" id="2Sv" text-anchor="end" text-decoration="normal" x="2257" y="609"/>
</g>
<g baseline-shift="-100%" cb-anchor-x="2258" cb-anchor-y="646" cb-classname="PointReferences" cb-max-width="240" cb-originator="false" cb-source="yT-zOO-zY" class="signal" id="2So" text-anchor="end">
<text baseline-shift="-100%" cb-classname="GraphicTextEntity" class="algorithm" id="2Ns" text-anchor="end" x="2258" y="646">
12/124519
</text>
<text baseline-shift="-100%" cb-classname="GraphicTextEntity" class="algorithm" id="3Nv" text-anchor="end" x="2258" y="682">
12/124529
</text>
<text baseline-shift="-100%" cb-classname="GraphicTextEntity" class="algorithm" id="3No" text-anchor="end" x="2258" y="718">
12/124539
</text>
<text baseline-shift="-100%" cb-classname="GraphicTextEntity" class="algorithm" id="33s" text-anchor="end" x="2258" y="754">
12/124549
</text>
<text baseline-shift="-100%" cb-classname="GraphicTextEntity" class="algorithm" id="33M" text-anchor="end" x="2258" y="790">
12/124559
</text>
<text baseline-shift="-100%" cb-classname="GraphicTextEntity" class="algorithm" id="33H" text-anchor="end" x="2258" y="826">
12/124569
</text>
<text baseline-shift="-100%" cb-classname="GraphicTextEntity" class="algorithm" id="33Z" text-anchor="end" x="2258" y="862">
12/124579
</text>
<text baseline-shift="-100%" cb-classname="GraphicTextEntity" class="algorithm" id="33p" text-anchor="end" x="2258" y="898">
12/124589
</text>
</g>
<g baseline-shift="-50%" cb-anchor-x="2411" cb-anchor-y="628" cb-classname="PointDescription" cb-content="extended" cb-labeled="false" cb-max-width="240" cb-source="G2-S4Z-6e" class="algorithm" id="2NZ" text-anchor="start">
<text baseline-shift="-50%" cb-classname="GraphicTextEntity" class="algorithm" id="2Np" text-anchor="start" x="2411" y="611">
TSL1220 ON
</text>
<text baseline-shift="-50%" cb-classname="GraphicTextEntity" class="algorithm" id="2Nj" text-anchor="start" x="2411" y="647">
heaters
</text>
</g>
<g cb-classname="ControlPin" cb-pin-name="Ry-4k7-kK" id="2N8">
<line cb-classname="GraphicLineEntity" class="signalline" id="2Nv" x1="2260" x2="2280" y1="630" y2="630"/>
<polygon cb-classname="GraphicPolygonEntity" class="signal" id="2No" points="2280,630 2269,624 2269,635"/>
</g>
</g>
</g>
<g cb-classname="IncludeDocument" cb-modify-time="12/03/2019 14:33:51" cb-objectname="frame" id="5">
<text cb-classname="GraphicTextEntity" class="frame" font-size="50" id="6" x="3660" y="3146">
HERA
</text>
<g baseline-shift="-50%" cb-classname="DynamicText" cb-source="SR-Bvdn-RZ" class="frame" id="7">
<text cb-classname="GraphicTextEntity" class="frame" fill="black" font-family="arial" font-size="25" font-style="normal" font-weight="normal" id="8" text-decoration="normal" x="4715" y="3325">
12
</text>
</g>
<g baseline-shift="-50%" cb-classname="DynamicText" cb-source="iH-EHq7-OB" class="frame" id="9" text-anchor="middle">
<text cb-classname="GraphicTextEntity" class="frame" fill="black" font-family="arial" font-size="48" font-style="normal" font-weight="normal" id="1K" text-anchor="middle" text-decoration="normal" x="4900" y="3320">
12
</text>
</g>
<g baseline-shift="-50%" cb-classname="DynamicText" cb-source="yT-wMHM-fD" class="frame" id="1S" text-anchor="middle">
<text cb-classname="GraphicTextEntity" class="frame" fill="black" font-family="arial" font-size="48" font-style="normal" font-weight="normal" id="1N" text-anchor="middle" text-decoration="normal" x="5067" y="3324">
3
</text>
</g>
<g cb-classname="DynamicText" cb-source="cR-o2nmG-0re5D" class="frame" id="13">
<text cb-classname="GraphicTextEntity" class="frame" fill="black" font-family="arial" font-size="48" font-style="normal" font-weight="normal" id="1v" text-decoration="normal" x="3660" y="3224">
Quench Heaters start/stop
</text>
</g>
<g baseline-shift="-50%" cb-classname="DynamicText" cb-source="G2-5jMH0-6v82sQ" class="frame" id="1p" text-anchor="middle">
<text cb-classname="GraphicTextEntity" class="frame" fill="black" font-family="arial" font-size="48" font-style="normal" font-weight="normal" id="1b" text-anchor="middle" text-decoration="normal" x="5270" y="3324">
123720
</text>
</g>
<g baseline-shift="0%" cb-classname="DynamicText" cb-source="c0-FHNrVqfK" class="frame" id="1m" text-anchor="middle">
<text cb-classname="GraphicTextEntity" class="frame" fill="black" font-family="arial" font-size="36" font-style="normal" font-weight="normal" id="16" text-anchor="middle" text-decoration="normal" x="5270" y="3150">
A
</text>
</g>
<g baseline-shift="0%" cb-classname="DynamicText" cb-source="Ry-yzBqGDn2-UfMo" class="frame" id="1I" text-anchor="middle">
<text cb-classname="GraphicTextEntity" class="frame" fill="black" font-family="arial" font-size="20" font-style="normal" font-weight="normal" id="2K" text-anchor="middle" text-decoration="normal" x="5270" y="3230">

</text>
</g>
<g baseline-shift="-50%" cb-classname="DynamicText" cb-source="Nu-qcWDvec3" class="frame" id="2S" text-anchor="end">
<text cb-classname="GraphicTextEntity" class="frame" fill="black" font-family="arial" font-size="26" font-style="normal" font-weight="normal" id="2N" text-anchor="end" text-decoration="normal" x="4500" y="3420">

</text>
</g>
<g baseline-shift="-50%" cb-classname="DynamicText" cb-source="I4-HHaLcIbH" class="frame" id="23" text-anchor="end">
<text cb-classname="GraphicTextEntity" class="frame" fill="black" font-family="arial" font-size="26" font-style="normal" font-weight="normal" id="2v" text-anchor="end" text-decoration="normal" x="5353" y="3420">

</text>
</g>
<g cb-classname="GraphicShape" cb-tag="BORDER" id="2p">
<line cb-classname="GraphicLineEntity" class="frameline" id="2b" x1="40" x2="40" y1="40" y2="3460"/>
<line cb-classname="GraphicLineEntity" class="frameline" id="2m" x1="40" x2="5380" y1="3460" y2="3460"/>
<line cb-classname="GraphicLineEntity" class="frameline" id="26" x1="5380" x2="5380" y1="3460" y2="40"/>
<line cb-classname="GraphicLineEntity" class="frameline" id="2I" x1="5380" x2="40" y1="40" y2="40"/>
<line cb-classname="GraphicLineEntity" class="frame" id="3K" x1="5430" x2="5440" y1="3510" y2="3510"/>
</g>
<g cb-classname="GraphicShape" cb-tag="TITLE BOX" id="3S">
<line cb-classname="GraphicLineEntity" class="frameline" id="3N" x1="2340" x2="2340" y1="3080" y2="3460"/>
<line cb-classname="GraphicLineEntity" class="frameline" id="33" x1="2340" x2="5380" y1="3080" y2="3080"/>
<line cb-classname="GraphicLineEntity" class="frameline" id="3v" x1="3650" x2="3650" y1="3460" y2="3080"/>
<line cb-classname="GraphicLineEntity" class="frameline" id="3p" x1="3650" x2="5380" y1="3240" y2="3240"/>
<line cb-classname="GraphicLineEntity" class="frameline" id="3b" x1="3650" x2="5380" y1="3390" y2="3390"/>
<line cb-classname="GraphicLineEntity" class="frameline" id="3m" x1="3650" x2="5380" y1="3160" y2="3160"/>
<line cb-classname="GraphicLineEntity" class="frameline" id="36" x1="3650" x2="4520" y1="3320" y2="3320"/>
<line cb-classname="GraphicLineEntity" class="frameline" id="3I" x1="4520" x2="5380" y1="3290" y2="3290"/>
<line cb-classname="GraphicLineEntity" class="frameline" id="4K" x1="4520" x2="5380" y1="3240" y2="3240"/>
<line cb-classname="GraphicLineEntity" class="frameline" id="4S" x1="4520" x2="4520" y1="3240" y2="3460"/>
<line cb-classname="GraphicLineEntity" class="frameline" id="4N" x1="4810" x2="4810" y1="3240" y2="3390"/>
<line cb-classname="GraphicLineEntity" class="frameline" id="43" x1="4990" x2="4990" y1="3240" y2="3390"/>
<line cb-classname="GraphicLineEntity" class="frameline" id="4v" x1="5150" x2="5150" y1="3080" y2="3390"/>
</g>
<g cb-classname="GraphicShape" cb-tag="TEXT LABELS" id="4p">
<text baseline-shift="-50%" cb-classname="GraphicTextEntity" class="frame" font-size="25" id="4b" text-anchor="middle" x="4890" y="3252">
Drop
</text>
<text baseline-shift="-50%" cb-classname="GraphicTextEntity" class="frame" font-size="25" id="4m" text-anchor="middle" x="5075" y="3252">
Task
</text>
<text baseline-shift="-50%" cb-classname="GraphicTextEntity" class="frame" font-size="25" id="46" text-anchor="middle" x="5265" y="3252">
Sheet
</text>
<text cb-classname="GraphicTextEntity" class="frame" font-size="25" id="4I" x="5152" y="3107">
Rev.
</text>
<text cb-classname="GraphicTextEntity" class="frame" font-size="25" id="5K" x="3653" y="3418">
Engineer
</text>
<text cb-classname="GraphicTextEntity" class="frame" font-size="25" id="5S" x="4528" y="3419">
Approved
</text>
<text cb-classname="GraphicTextEntity" class="frame" font-size="25" id="5N" x="5152" y="3187">
Date
</text>
<text baseline-shift="-50%" cb-classname="GraphicTextEntity" class="frame" font-size="25" id="53" text-anchor="middle" x="4660" y="3252">
Drawing Number
</text>
<text baseline-shift="-50%" cb-classname="GraphicTextEntity" class="frame" font-size="25" id="5v" text-anchor="middle" x="4680" y="3325">
CTL
</text>
</g>
<text baseline-shift="-50%" cb-classname="GraphicTextEntity" class="frame" font-size="48" id="5p" text-anchor="middle" x="3000" y="3100">
EMERSON PROCESS MANAGEMENT
</text>
<g baseline-shift="-100%" cb-anchor-x="2360" cb-anchor-y="3140" cb-classname="GroupText" cb-max-width="1260" fill="black" id="5b">
<text baseline-shift="-100%" cb-classname="GraphicTextEntity" class="frame" fill="black" font-family="arial" font-size="22" font-weight="normal" id="5m" text-anchor="start" text-decoration="normal" x="2360" y="3140">
THIS DOCUMENT CONTAINS INFORMATION PROPRIETARY TO EMERSON PROCESS
</text>
<text baseline-shift="-100%" cb-classname="GraphicTextEntity" class="frame" fill="black" font-family="arial" font-size="22" font-weight="normal" id="56" text-anchor="start" text-decoration="normal" x="2360" y="3176">
MANAGEMENT POWER &amp; WATER SOLUTIONS, INC. IT IS SUBMITTED IN CONFIDENCE AND
</text>
<text baseline-shift="-100%" cb-classname="GraphicTextEntity" class="frame" fill="black" font-family="arial" font-size="22" font-weight="normal" id="5I" text-anchor="start" text-decoration="normal" x="2360" y="3212">
TRUST, IS TO BE USED BY YOU SOLELY FOR THE PURPOSES FOR WHICH IT IS
</text>
<text baseline-shift="-100%" cb-classname="GraphicTextEntity" class="frame" fill="black" font-family="arial" font-size="22" font-weight="normal" id="6K" text-anchor="start" text-decoration="normal" x="2360" y="3248">
FURNISHED AND IS TO BE RETURNED UPON REQUEST. THIS DOCUMENT AND ANY
</text>
<text baseline-shift="-100%" cb-classname="GraphicTextEntity" class="frame" fill="black" font-family="arial" font-size="22" font-weight="normal" id="6S" text-anchor="start" text-decoration="normal" x="2360" y="3284">
OTHER INFORMATION PROVIDED TO YOU IS NOT TO BE REPRODUCED, TRANSMITTED,
</text>
<text baseline-shift="-100%" cb-classname="GraphicTextEntity" class="frame" fill="black" font-family="arial" font-size="22" font-weight="normal" id="6N" text-anchor="start" text-decoration="normal" x="2360" y="3320">
DISCLOSED, OR USED OTHERWISE IN WHOLE OR IN PART WITHOUT THE PRIOR
</text>
<text baseline-shift="-100%" cb-classname="GraphicTextEntity" class="frame" fill="black" font-family="arial" font-size="22" font-weight="normal" id="63" text-anchor="start" text-decoration="normal" x="2360" y="3356">
WRITTEN AUTHORIZATION OF EMERSON PROCESS MANAGEMENT POWER &amp; WATER
</text>
<text baseline-shift="-100%" cb-classname="GraphicTextEntity" class="frame" fill="black" font-family="arial" font-size="22" font-weight="normal" id="6v" text-anchor="start" text-decoration="normal" x="2360" y="3392">
SOLUTIONS,INC.
</text>
</g>
</g>
</svg>