<?xml version="1.0" ?><svg cb-auto-time="02/11/2020 11:04:31" cb-classname="ControlFunction" cb-create-time="02/10/2020" cb-drop-id="99" cb-filename="Z:\OVATION\NET0\UNIT0\CONTROLFUNCTIONS\02A5.svg" cb-function-id="02A5" cb-key="525511234244" cb-modified-timestamp="1587028116" cb-modify-id="00000001" cb-path="Z:/OVATION/NET0/UNIT0/CONTROLFUNCTIONS" cb-revision="A" cb-sheet-number="1072" cb-sheet-title="A19FN1105A - SIM" cb-snap-grid="10" cb-task-id="3" height="3522" id="1" width="5450" xmlns="http://www.w3.org/2000/svg">
<style cb-classname="EntityStyle" id="2" type="text/css">
	.algorithm { fill: white; stroke: black; stroke-width: 3 }
	.algorithm-function { fill: black; stroke: none }
	.algorithm-functionline { fill: none; stroke: black; stroke-linecap: round; stroke-width: 3 }
	.algorithm-name { fill: black; stroke: none }
	.algorithm-nameline { fill: none; stroke: black; stroke-linecap: round; stroke-width: 3 }
	.algorithm-sequence { fill: black; stroke: none; visibility: hidden }
	.algorithm-sequenceline { fill: none; stroke: black; stroke-linecap: round; stroke-width: 3; visibility: hidden }
	.algorithmline { fill: none; stroke: black; stroke-linecap: round; stroke-width: 3 }
	.annotation { fill: black; stroke: none }
	.annotationline { fill: none; stroke: black; stroke-linecap: round; stroke-width: 3 }
	.description { fill: black; stroke: none }
	.descriptionline { fill: none; stroke: black; stroke-linecap: round; stroke-width: 3 }
	.frame { fill: black; stroke: none }
	.frameline { fill: none; stroke: black; stroke-linecap: round; stroke-width: 3 }
	.signal { fill: black; stroke: none }
	.signalline { fill: none; stroke: black; stroke-linecap: round; stroke-width: 3 }
	text.algorithm { fill: black; font-family: Arial; font-size: 22; stroke: none }
	text.algorithm-function { fill: black; font-family: Arial; font-size: 22; stroke: none }
	text.algorithm-name { fill: black; font-family: Arial; font-size: 22; stroke: none }
	text.algorithm-sequence { fill: black; font-family: Arial; font-size: 22; stroke: none; visibility: hidden }
	text.annotation { fill: black; font-family: Arial; font-size: 22; stroke: none }
	text.description { fill: black; font-family: Arial; font-size: 28; stroke: none }
	text.frame { fill: black; font-family: Arial; font-size: 18; stroke: none }
	text.signal { fill: black; font-family: Arial; font-size: 12; stroke: none }
</style>
<g cb-classname="NamedObject" cb-objectname="Comments" id="3"/>
<g cb-classname="AlgorithmContainer" cb-objectname="Algorithms" id="4">
<g cb-alg-oDes="NO" cb-alg-ofP="A19FN1105A_HSH" cb-algorithm-id="003" cb-classname="ExternalPointInterface" cb-function-name="INPUT" id="6m">
<ellipse cb-classname="GraphicEllipseEntity" class="algorithm" cx="600" cy="220" id="6w" rx="40" ry="40"/>
<rect cb-classname="GraphicRectangleEntity" class="algorithm" height="80" id="6C" width="30" x="530" y="180"/>
<line cb-classname="GraphicLineEntity" class="algorithm" id="6Q" x1="530" x2="560" y1="220" y2="220"/>
<g cb-classname="PointStatusIndicator" cb-indicator-type="Highway" cb-source="zD-LCl-L4r" id="6N" visibility="visible">
<line cb-classname="GraphicLineEntity" class="algorithmline" id="7H" x1="560" x2="600" y1="220" y2="180"/>
<line cb-classname="GraphicLineEntity" class="algorithmline" id="7B" x1="600" x2="640" y1="180" y2="220"/>
<line cb-classname="GraphicLineEntity" class="algorithmline" id="75" x1="640" x2="600" y1="220" y2="260"/>
<line cb-classname="GraphicLineEntity" class="algorithmline" id="7r" x1="600" x2="560" y1="260" y2="220"/>
</g>
<g cb-classname="PointStatusIndicator" cb-indicator-type="hardware" cb-source="Zt-dcg-EAc" id="7d" visibility="visible">
<line cb-classname="GraphicLineEntity" class="algorithmline" id="7m" x1="560" x2="640" y1="180" y2="180"/>
<line cb-classname="GraphicLineEntity" class="algorithmline" id="7w" x1="640" x2="640" y1="180" y2="260"/>
<line cb-classname="GraphicLineEntity" class="algorithmline" id="7C" x1="640" x2="560" y1="260" y2="260"/>
</g>
<g cb-classname="PointStatusIndicator" cb-indicator-type="alarm" cb-source="cJ-t15-H2q" id="7Q" visibility="hidden">
<text cb-classname="GraphicTextEntity" class="algorithm" fill="#000000" font-family="arial" font-size="20" id="7N" x="537" y="209">
A
</text>
</g>
<g cb-classname="PointStatusIndicator" cb-indicator-type="ingraphic" cb-source="NA-mbp-szN" id="8H" visibility="hidden">
<text cb-classname="GraphicTextEntity" class="algorithm" fill="#000000" font-family="Arial" font-size="20" id="8B" x="535" y="249">
G
</text>
</g>
<g baseline-shift="-50%" cb-anchor-x="512" cb-anchor-y="214" cb-classname="PointDescription" cb-content="extended" cb-labeled="false" cb-max-width="240" cb-source="zD-LCl-L4r" class="algorithm" id="85" text-anchor="end">
<text baseline-shift="-50%" cb-classname="GraphicTextEntity" class="algorithm" id="8r" text-anchor="end" x="512" y="144">
fan
</text>
<text baseline-shift="-50%" cb-classname="GraphicTextEntity" class="algorithm" id="25F" text-anchor="end" x="512" y="180">
FN1105Acooling
</text>
<text baseline-shift="-50%" cb-classname="GraphicTextEntity" class="algorithm" id="25h" text-anchor="end" x="512" y="216">
dolomia M1104A -
</text>
<text baseline-shift="-50%" cb-classname="GraphicTextEntity" class="algorithm" id="2rO" text-anchor="end" x="512" y="252">
start/stop
</text>
<text baseline-shift="-50%" cb-classname="GraphicTextEntity" class="algorithm" id="2r4" text-anchor="end" x="512" y="288">
(Start - !Stop)
</text>
</g>
<g cb-classname="DynamicText" cb-labeled="false" cb-pin-name="VJM" cb-source="EU-zj3-ez3" class="algorithm" id="8d" text-anchor="start">
<text baseline-shift="0%" cb-classname="GraphicTextEntity" class="algorithm" fill="black" font-family="Arial" font-size="20" font-style="normal" font-weight="normal" id="8m" text-anchor="start" text-decoration="normal" x="660" y="200"/>
</g>
<g baseline-shift="-100%" cb-anchor-x="660" cb-anchor-y="230" cb-classname="PointReferences" cb-max-width="230" cb-originator="true" cb-source="tD-J55-GcY" class="signal" id="8w" text-anchor="start">
<text baseline-shift="-100%" cb-classname="GraphicTextEntity" class="algorithm" id="8C" text-anchor="start" x="660" y="230">
12/124860
</text>
</g>
<g cb-classname="ControlPin" cb-pin-name="98-UiW-3L6" id="8Q">
<line cb-classname="GraphicLineEntity" class="signalline" id="8N" x1="640" x2="660" y1="220" y2="220"/>
<g cb-classname="SignalSegment" id="9H">
<line cb-classname="GraphicLineEntity" class="signalline" id="9B" stroke="#1e12bf" stroke-dasharray="5,4" x1="660" x2="1030" y1="220" y2="220"/>
<g cb-classname="SignalSegment" id="95">
<ellipse cb-classname="GraphicEllipseEntity" class="signal" cx="1030" cy="220" fill="#1e12bf" id="9r" rx="5" ry="5" stroke="#1e12bf" stroke-dasharray="5,4"/>
<line cb-classname="GraphicLineEntity" class="signalline" id="9d" stroke="#1e12bf" stroke-dasharray="5,4" x1="1030" x2="1110" y1="220" y2="220"/>
<g cb-classname="SignalConnection" cb-graphic-line="$94$" cb-input-pin="$iyE$" id="9m"/>
<line cb-classname="GraphicLineEntity" class="signalline" id="9w" stroke="#1e12bf" stroke-dasharray="5,4" x1="1030" x2="1030" y1="220" y2="240"/>
<g cb-classname="SignalSegment" id="9C">
<line cb-classname="GraphicLineEntity" class="signalline" id="9Q" stroke="#1e12bf" stroke-dasharray="5,4" x1="1030" x2="1110" y1="240" y2="240"/>
<g cb-classname="SignalConnection" cb-graphic-line="$98$" cb-input-pin="$Vdt$" id="9N"/>
</g>
</g>
</g>
</g>
</g>
<g cb-alg-AN85="$65$cb-alg-out$" cb-alg-BNC="$65$cb-alg-out$" cb-alg-Deu0="1.0" cb-alg-JrJ9="96" cb-alg-qe09="2" cb-alg-szN="S_A19FN1105A_YLH" cb-algorithm-id="009" cb-classname="ControlAlgorithm" cb-function-name="ONDELAY" cb-modify-id="00000001" id="1HO">
<rect cb-classname="GraphicRectangleEntity" class="algorithm" height="60" id="1H4" width="60" x="1130" y="200"/>
<text baseline-shift="-50%" cb-classname="GraphicTextEntity" class="algorithm" font-size="18" id="1HC" text-anchor="middle" x="1159" y="212">
TD
</text>
<text cb-classname="GraphicTextEntity" class="algorithm" font-size="18" id="1Hn" text-anchor="middle" x="1159" y="247">
ON
</text>
<g cb-classname="ControlPin" cb-pin-name="cJ-t15-2SV" id="1HV">
<line cb-classname="GraphicLineEntity" class="signalline" id="1Hl" x1="1110" x2="1130" y1="220" y2="220"/>
<polygon cb-classname="GraphicPolygonEntity" class="signal" id="1Hu" points="1130,220 1119,216 1119,224"/>
<g cb-classname="DynamicText" cb-source="ij-12S-NJSp" class="signal" id="1HK" text-anchor="end">
<text baseline-shift="5%" cb-classname="GraphicTextEntity" class="signal" fill="black" font-style="normal" font-weight="normal" id="1HF" text-anchor="end" text-decoration="normal" x="1094" y="216"/>
</g>
</g>
<g cb-classname="ControlPin" cb-pin-name="Wp-1IZ-sBY" id="1Hh">
<line cb-classname="GraphicLineEntity" class="signalline" id="1BO" x1="1190" x2="1210" y1="220" y2="220"/>
<g cb-classname="DynamicText" cb-source="o0-62r-Wn4m" class="signal" id="1B4">
<text baseline-shift="5%" cb-classname="GraphicTextEntity" class="signal" fill="black" font-style="normal" font-weight="normal" id="1BC" text-decoration="normal" x="1226" y="216"/>
</g>
<g cb-classname="SignalSegment" id="1Bn">
<line cb-classname="GraphicLineEntity" class="signalline" id="1BV" stroke="#1e12bf" stroke-dasharray="5,4" x1="1210" x2="1520" y1="220" y2="220"/>
<g cb-classname="SignalSegment" id="1Bl">
<line cb-classname="GraphicLineEntity" class="signalline" id="1Bu" stroke="#1e12bf" stroke-dasharray="5,4" x1="1520" x2="1520" y1="220" y2="350"/>
<g cb-classname="SignalSegment" id="1BK">
<line cb-classname="GraphicLineEntity" class="signalline" id="1BF" stroke="#1e12bf" stroke-dasharray="5,4" x1="1520" x2="1570" y1="350" y2="350"/>
<g cb-classname="SignalConnection" cb-graphic-line="$118$" cb-input-pin="$MN6$" id="1Bh"/>
</g>
<line cb-classname="GraphicLineEntity" class="signalline" id="15O" stroke="#1e12bf" stroke-dasharray="5,4" x1="1520" x2="3940" y1="220" y2="220"/>
<g cb-classname="SignalConnection" cb-graphic-line="$120$" cb-input-pin="$iJE$" id="154"/>
<ellipse cb-classname="GraphicEllipseEntity" class="signal" cx="1520" cy="220" fill="#1e12bf" id="15C" rx="5" ry="5" stroke="#1e12bf" stroke-dasharray="5,4"/>
</g>
</g>
</g>
<g cb-classname="ControlPin" cb-pin-name="EU-zj3-pWcC" id="15n">
<line cb-classname="GraphicLineEntity" class="signalline" id="15V" x1="1110" x2="1130" y1="240" y2="240"/>
<polygon cb-classname="GraphicPolygonEntity" class="signal" id="15l" points="1130,240 1119,236 1119,244"/>
<g cb-classname="DynamicText" cb-source="Zt-70W-TSoc" class="signal" id="15u" text-anchor="end">
<text baseline-shift="5%" cb-classname="GraphicTextEntity" class="signal" fill="black" font-style="normal" font-weight="normal" id="15K" text-anchor="end" text-decoration="normal" x="1094" y="236"/>
</g>
</g>
<g cb-classname="GraphicShape" id="15F">
<g cb-classname="DynamicText" cb-labeled="true" cb-source="H1-nCL-6CJq" id="15h">
<text cb-classname="GraphicTextEntity" class="algorithm" id="1rO" text-anchor="start" x="1100" y="180"/>
</g>
</g>
</g>
<g cb-alg-es="$100$cb-alg-out$" cb-algorithm-id="00C" cb-classname="ExternalPointInterface" cb-function-name="OUTPUT" id="1r4">
<ellipse cb-classname="GraphicEllipseEntity" class="algorithm" cx="4000" cy="220" id="1rC" rx="40" ry="40"/>
<rect cb-classname="GraphicRectangleEntity" class="algorithm" height="80" id="1rn" width="30" x="4040" y="180"/>
<line cb-classname="GraphicLineEntity" class="algorithm" id="1rV" x1="4040" x2="4070" y1="220" y2="220"/>
<g cb-classname="PointStatusIndicator" cb-indicator-type="highway" cb-source="Wp-1IZ-xO" id="1rl" visibility="hidden">
<line cb-classname="GraphicLineEntity" class="algorithmline" id="1ru" x1="3960" x2="4000" y1="220" y2="180"/>
<line cb-classname="GraphicLineEntity" class="algorithmline" id="1rK" x1="4000" x2="4040" y1="180" y2="220"/>
<line cb-classname="GraphicLineEntity" class="algorithmline" id="1rF" x1="4040" x2="4000" y1="220" y2="260"/>
<line cb-classname="GraphicLineEntity" class="algorithmline" id="1rh" x1="4000" x2="3960" y1="260" y2="220"/>
</g>
<g cb-classname="PointStatusIndicator" cb-indicator-type="hardware" cb-source="98-UiW-Wn" id="1dO" visibility="hidden">
<line cb-classname="GraphicLineEntity" class="algorithmline" id="1d4" x1="4040" x2="3960" y1="180" y2="180"/>
<line cb-classname="GraphicLineEntity" class="algorithmline" id="1dC" x1="3960" x2="3960" y1="180" y2="260"/>
<line cb-classname="GraphicLineEntity" class="algorithmline" id="1dn" x1="3960" x2="4040" y1="260" y2="260"/>
</g>
<g cb-classname="PointStatusIndicator" cb-indicator-type="alarm" cb-source="76-lqD-uk" id="1dV" visibility="hidden">
<text cb-classname="GraphicTextEntity" class="algorithm" fill="#000000" font-family="Arial" font-size="20" id="1dl" x="4047" y="209">
A
</text>
</g>
<g cb-classname="PointStatusIndicator" cb-indicator-type="ingraphic" cb-source="ij-4wo-rB" id="1du" visibility="hidden">
<text cb-classname="GraphicTextEntity" class="algorithm" fill="#000000" font-family="Arial" font-size="20" id="1dK" x="4045" y="250">
G
</text>
</g>
<g cb-classname="DynamicText" cb-labeled="false" cb-pin-name="Bs" cb-source="Wp-1IZ-xO" class="algorithm" id="1dF" text-anchor="end">
<text baseline-shift="0%" cb-classname="GraphicTextEntity" class="algorithm" fill="black" font-family="Arial" font-size="20" font-style="normal" font-weight="normal" id="1dh" text-anchor="end" text-decoration="normal" x="3937" y="199"/>
</g>
<g baseline-shift="-100%" cb-anchor-x="3938" cb-anchor-y="236" cb-classname="PointReferences" cb-max-width="240" cb-originator="false" cb-source="o0-en9-0B" class="signal" id="1mO" text-anchor="end">
<text baseline-shift="-100%" cb-classname="GraphicTextEntity" class="algorithm" id="1m4" text-anchor="end" x="3938" y="236">
-
</text>
</g>
<g baseline-shift="-50%" cb-anchor-x="4091" cb-anchor-y="218" cb-classname="PointDescription" cb-content="extended" cb-labeled="false" cb-max-width="240" cb-source="Zt-dcg-Wl" class="algorithm" id="1mC" text-anchor="start">
<text baseline-shift="-50%" cb-classname="GraphicTextEntity" class="algorithm" id="1mn" text-anchor="start" x="4091" y="166">
DESC: No
</text>
<text baseline-shift="-50%" cb-classname="GraphicTextEntity" class="algorithm" id="2rC" text-anchor="start" x="4091" y="202">
Description
</text>
<text baseline-shift="-50%" cb-classname="GraphicTextEntity" class="algorithm" id="2rn" text-anchor="start" x="4091" y="238">
Defined
</text>
<text baseline-shift="-50%" cb-classname="GraphicTextEntity" class="algorithm" id="2rV" text-anchor="start" x="4091" y="274">
(S_A19FN1105A_YLH)
</text>
</g>
<g cb-classname="ControlPin" cb-pin-name="4g-wO9-vi" id="1mV">
<line cb-classname="GraphicLineEntity" class="signalline" id="1ml" x1="3940" x2="3960" y1="220" y2="220"/>
<polygon cb-classname="GraphicPolygonEntity" class="signal" id="1mu" points="3960,220 3949,214 3949,225"/>
</g>
</g>
<g cb-alg-3etg="65" cb-alg-ikSA="56.2" cb-algorithm-id="021" cb-classname="ControlAlgorithm" cb-function-name="AVALGEN" cb-modify-id="00000001" id="1mK">
<polygon cb-classname="GraphicPolygonEntity" class="algorithm" id="1mF" points="600,430 640,390 600,350 560,390"/>
<text baseline-shift="-50%" cb-classname="GraphicTextEntity" class="algorithm" font-size="44" id="1mh" text-anchor="middle" x="600" y="373">
A
</text>
<g cb-classname="ControlPin" cb-pin-name="zD-LCl-L4r" id="1wO">
<line cb-classname="GraphicLineEntity" class="signalline" id="1w4" x1="640" x2="660" y1="390" y2="390"/>
<g cb-classname="DynamicText" cb-source="EU-PrB-OwL0" class="signal" id="1wC">
<text baseline-shift="5%" cb-classname="GraphicTextEntity" class="signal" fill="black" font-style="normal" font-weight="normal" id="1wn" text-decoration="normal" x="651" y="380"/>
</g>
<g cb-classname="SignalSegment" id="1wV">
<line cb-classname="GraphicLineEntity" class="signalline" id="1wl" x1="660" x2="1450" y1="390" y2="390"/>
<g cb-classname="SignalSegment" id="1wu">
<line cb-classname="GraphicLineEntity" class="signalline" id="1wK" x1="1450" x2="1450" y1="390" y2="260"/>
<g cb-classname="SignalSegment" id="1wF">
<line cb-classname="GraphicLineEntity" class="signalline" id="1wh" x1="1450" x2="1610" y1="260" y2="260"/>
<g cb-classname="SignalSegment" id="1CO">
<line cb-classname="GraphicLineEntity" class="signalline" id="1C4" x1="1610" x2="1610" y1="260" y2="330"/>
<g cb-classname="SignalConnection" cb-graphic-line="$171$" cb-input-pin="$0ad$" id="1CC"/>
</g>
</g>
<line cb-classname="GraphicLineEntity" class="signalline" id="1Cn" x1="1450" x2="1550" y1="390" y2="390"/>
<g cb-classname="SignalConnection" cb-graphic-line="$173$" cb-input-pin="$dsv$" id="1CV"/>
<ellipse cb-classname="GraphicEllipseEntity" class="signal" cx="1450" cy="390" id="1Cl" rx="5" ry="5" stroke="black"/>
</g>
</g>
</g>
</g>
<g cb-alg-9eha="2.500000" cb-alg-9ehd="2.500000" cb-alg-9n59="999999999" cb-alg-FCzZ="$100$cb-alg-out$" cb-alg-HAh2="ON" cb-alg-HqH="ON" cb-alg-MuzZ="42" cb-alg-UA59="-999999999" cb-alg-il5="$157$cb-alg-out$" cb-alg-il5Z="1" cb-alg-il5t="0.000000" cb-alg-uCAR="OFF" cb-alg-xN="$157$cb-alg-out$" cb-alg-xN_Z="0" cb-alg-xN_t="0.000000" cb-algorithm-id="010" cb-classname="ControlAlgorithm" cb-function-name="TRANSFER" cb-modify-id="00000001" id="1Cu">
<polygon cb-classname="GraphicPolygonEntity" class="algorithm" id="1CK" points="1610,350 1570,390 1610,430 1650,390"/>
<text baseline-shift="-50%" cb-classname="GraphicTextEntity" class="algorithm" font-size="33" id="1CF" text-anchor="middle" x="1610" y="381">
T
</text>
<g cb-classname="ControlPin" cb-pin-name="98-UiW-3L6" id="1Ch">
<line cb-classname="GraphicLineEntity" class="signalline" id="1QO" x1="1610" x2="1610" y1="430" y2="450"/>
<g cb-classname="DynamicText" cb-source="H1-9Wl-iCKw" class="signal" id="1Q4" text-anchor="end">
<text baseline-shift="5%" cb-classname="GraphicTextEntity" class="signal" fill="black" font-style="normal" font-weight="normal" id="1QC" text-anchor="end" text-decoration="normal" transform="translate(1599,442)rotate(-90)"/>
</g>
</g>
<g cb-classname="ControlPin" cb-pin-name="zD-LCl-l5Ug" id="1Qu">
<line cb-classname="GraphicLineEntity" class="signalline" id="1QK" x1="1570" x2="1590" y1="350" y2="370"/>
<polygon cb-classname="GraphicPolygonEntity" class="signal" id="1QF" points="1590,370 1585,359 1579,365"/>
<g cb-classname="DynamicText" cb-source="o0-62r-Wn4m" class="signal" id="1Qh" text-anchor="end">
<text baseline-shift="5%" cb-classname="GraphicTextEntity" class="signal" fill="black" font-style="normal" font-weight="normal" id="1NO" text-anchor="end" text-decoration="normal" transform="translate(1572,339)rotate(45)"/>
</g>
</g>
<g cb-classname="ControlPin" cb-pin-name="Zt-dcg-7mB" id="1N4">
<line cb-classname="GraphicLineEntity" class="signalline" id="1NC" x1="1610" x2="1610" y1="330" y2="350"/>
<polygon cb-classname="GraphicPolygonEntity" class="signal" id="1Nn" points="1610,350 1614,339 1606,339"/>
<g cb-classname="DynamicText" cb-source="H1-9Wl-iCKw" class="signal" id="1NV">
<text baseline-shift="5%" cb-classname="GraphicTextEntity" class="signal" fill="black" font-style="normal" font-weight="normal" id="1Nl" text-decoration="normal" transform="translate(1601,327)rotate(-90)"/>
</g>
</g>
<g cb-classname="ControlPin" cb-pin-name="76-lqD-Ss" id="1Nu">
<line cb-classname="GraphicLineEntity" class="signalline" id="1NK" x1="1550" x2="1570" y1="390" y2="390"/>
<polygon cb-classname="GraphicPolygonEntity" class="signal" id="1NF" points="1570,390 1559,386 1559,394"/>
<g cb-classname="DynamicText" cb-source="zD-luk-Bdah" class="signal" id="1Nh" text-anchor="end">
<text baseline-shift="5%" cb-classname="GraphicTextEntity" class="signal" fill="black" font-style="normal" font-weight="normal" id="2HO" text-anchor="end" text-decoration="normal" x="1550" y="378"/>
</g>
</g>
</g>
</g>
<g cb-classname="IncludeDocument" cb-modify-time="12/03/2019 14:33:51" cb-objectname="frame" id="5">
<text cb-classname="GraphicTextEntity" class="frame" font-size="50" id="6" x="3660" y="3146">
HERA
</text>
<g baseline-shift="-50%" cb-classname="DynamicText" cb-source="o0-30sY-gK" class="frame" id="7">
<text cb-classname="GraphicTextEntity" class="frame" fill="black" font-family="arial" font-size="25" font-style="normal" font-weight="normal" id="8" text-decoration="normal" x="4715" y="3325">
99
</text>
</g>
<g baseline-shift="-50%" cb-classname="DynamicText" cb-source="Zt-Tbd9-W6" class="frame" id="9" text-anchor="middle">
<text cb-classname="GraphicTextEntity" class="frame" fill="black" font-family="arial" font-size="48" font-style="normal" font-weight="normal" id="1H" text-anchor="middle" text-decoration="normal" x="4900" y="3320">
99
</text>
</g>
<g baseline-shift="-50%" cb-classname="DynamicText" cb-source="4g-Ynjs-Nk" class="frame" id="1B" text-anchor="middle">
<text cb-classname="GraphicTextEntity" class="frame" fill="black" font-family="arial" font-size="48" font-style="normal" font-weight="normal" id="15" text-anchor="middle" text-decoration="normal" x="5067" y="3324">
3
</text>
</g>
<g cb-classname="DynamicText" cb-source="cJ-4PFN9-qrN5p" class="frame" id="1r">
<text cb-classname="GraphicTextEntity" class="frame" fill="black" font-family="arial" font-size="48" font-style="normal" font-weight="normal" id="1d" text-decoration="normal" x="3660" y="3224">
A19FN1105A - SIM
</text>
</g>
<g baseline-shift="-50%" cb-classname="DynamicText" cb-source="NA-TFAlq-B4aZrR" class="frame" id="1m" text-anchor="middle">
<text cb-classname="GraphicTextEntity" class="frame" fill="black" font-family="arial" font-size="48" font-style="normal" font-weight="normal" id="1w" text-anchor="middle" text-decoration="normal" x="5270" y="3324">
1072
</text>
</g>
<g baseline-shift="0%" cb-classname="DynamicText" cb-source="zD-gldruxeW" class="frame" id="1C" text-anchor="middle">
<text cb-classname="GraphicTextEntity" class="frame" fill="black" font-family="arial" font-size="36" font-style="normal" font-weight="normal" id="1Q" text-anchor="middle" text-decoration="normal" x="5270" y="3150">
A
</text>
</g>
<g baseline-shift="0%" cb-classname="DynamicText" cb-source="EU-hkTxC0GT-cNFc" class="frame" id="1N" text-anchor="middle">
<text cb-classname="GraphicTextEntity" class="frame" fill="black" font-family="arial" font-size="20" font-style="normal" font-weight="normal" id="2H" text-anchor="middle" text-decoration="normal" x="5270" y="3230">

</text>
</g>
<g baseline-shift="-50%" cb-classname="DynamicText" cb-source="tD-jr50B0m4" class="frame" id="2B" text-anchor="end">
<text cb-classname="GraphicTextEntity" class="frame" fill="black" font-family="arial" font-size="26" font-style="normal" font-weight="normal" id="25" text-anchor="end" text-decoration="normal" x="4500" y="3420">

</text>
</g>
<g baseline-shift="-50%" cb-classname="DynamicText" cb-source="98-bhkWmNc0" class="frame" id="2r" text-anchor="end">
<text cb-classname="GraphicTextEntity" class="frame" fill="black" font-family="arial" font-size="26" font-style="normal" font-weight="normal" id="2d" text-anchor="end" text-decoration="normal" x="5353" y="3420">

</text>
</g>
<g cb-classname="GraphicShape" cb-tag="BORDER" id="2m">
<line cb-classname="GraphicLineEntity" class="frameline" id="2w" x1="40" x2="40" y1="40" y2="3460"/>
<line cb-classname="GraphicLineEntity" class="frameline" id="2C" x1="40" x2="5380" y1="3460" y2="3460"/>
<line cb-classname="GraphicLineEntity" class="frameline" id="2Q" x1="5380" x2="5380" y1="3460" y2="40"/>
<line cb-classname="GraphicLineEntity" class="frameline" id="2N" x1="5380" x2="40" y1="40" y2="40"/>
<line cb-classname="GraphicLineEntity" class="frame" id="3H" x1="5430" x2="5440" y1="3510" y2="3510"/>
</g>
<g cb-classname="GraphicShape" cb-tag="TITLE BOX" id="3B">
<line cb-classname="GraphicLineEntity" class="frameline" id="35" x1="2340" x2="2340" y1="3080" y2="3460"/>
<line cb-classname="GraphicLineEntity" class="frameline" id="3r" x1="2340" x2="5380" y1="3080" y2="3080"/>
<line cb-classname="GraphicLineEntity" class="frameline" id="3d" x1="3650" x2="3650" y1="3460" y2="3080"/>
<line cb-classname="GraphicLineEntity" class="frameline" id="3m" x1="3650" x2="5380" y1="3240" y2="3240"/>
<line cb-classname="GraphicLineEntity" class="frameline" id="3w" x1="3650" x2="5380" y1="3390" y2="3390"/>
<line cb-classname="GraphicLineEntity" class="frameline" id="3C" x1="3650" x2="5380" y1="3160" y2="3160"/>
<line cb-classname="GraphicLineEntity" class="frameline" id="3Q" x1="3650" x2="4520" y1="3320" y2="3320"/>
<line cb-classname="GraphicLineEntity" class="frameline" id="3N" x1="4520" x2="5380" y1="3290" y2="3290"/>
<line cb-classname="GraphicLineEntity" class="frameline" id="4H" x1="4520" x2="5380" y1="3240" y2="3240"/>
<line cb-classname="GraphicLineEntity" class="frameline" id="4B" x1="4520" x2="4520" y1="3240" y2="3460"/>
<line cb-classname="GraphicLineEntity" class="frameline" id="45" x1="4810" x2="4810" y1="3240" y2="3390"/>
<line cb-classname="GraphicLineEntity" class="frameline" id="4r" x1="4990" x2="4990" y1="3240" y2="3390"/>
<line cb-classname="GraphicLineEntity" class="frameline" id="4d" x1="5150" x2="5150" y1="3080" y2="3390"/>
</g>
<g cb-classname="GraphicShape" cb-tag="TEXT LABELS" id="4m">
<text baseline-shift="-50%" cb-classname="GraphicTextEntity" class="frame" font-size="25" id="4w" text-anchor="middle" x="4890" y="3252">
Drop
</text>
<text baseline-shift="-50%" cb-classname="GraphicTextEntity" class="frame" font-size="25" id="4C" text-anchor="middle" x="5075" y="3252">
Task
</text>
<text baseline-shift="-50%" cb-classname="GraphicTextEntity" class="frame" font-size="25" id="4Q" text-anchor="middle" x="5265" y="3252">
Sheet
</text>
<text cb-classname="GraphicTextEntity" class="frame" font-size="25" id="4N" x="5152" y="3107">
Rev.
</text>
<text cb-classname="GraphicTextEntity" class="frame" font-size="25" id="5H" x="3653" y="3418">
Engineer
</text>
<text cb-classname="GraphicTextEntity" class="frame" font-size="25" id="5B" x="4528" y="3419">
Approved
</text>
<text cb-classname="GraphicTextEntity" class="frame" font-size="25" id="55" x="5152" y="3187">
Date
</text>
<text baseline-shift="-50%" cb-classname="GraphicTextEntity" class="frame" font-size="25" id="5r" text-anchor="middle" x="4660" y="3252">
Drawing Number
</text>
<text baseline-shift="-50%" cb-classname="GraphicTextEntity" class="frame" font-size="25" id="5d" text-anchor="middle" x="4680" y="3325">
CTL
</text>
</g>
<text baseline-shift="-50%" cb-classname="GraphicTextEntity" class="frame" font-size="48" id="5m" text-anchor="middle" x="3000" y="3100">
EMERSON PROCESS MANAGEMENT
</text>
<g baseline-shift="-100%" cb-anchor-x="2360" cb-anchor-y="3140" cb-classname="GroupText" cb-max-width="1260" fill="black" id="5w">
<text baseline-shift="-100%" cb-classname="GraphicTextEntity" class="frame" fill="black" font-family="arial" font-size="22" font-weight="normal" id="5C" text-anchor="start" text-decoration="normal" x="2360" y="3140">
THIS DOCUMENT CONTAINS INFORMATION PROPRIETARY TO EMERSON PROCESS
</text>
<text baseline-shift="-100%" cb-classname="GraphicTextEntity" class="frame" fill="black" font-family="arial" font-size="22" font-weight="normal" id="5Q" text-anchor="start" text-decoration="normal" x="2360" y="3176">
MANAGEMENT POWER &amp; WATER SOLUTIONS, INC. IT IS SUBMITTED IN CONFIDENCE AND
</text>
<text baseline-shift="-100%" cb-classname="GraphicTextEntity" class="frame" fill="black" font-family="arial" font-size="22" font-weight="normal" id="5N" text-anchor="start" text-decoration="normal" x="2360" y="3212">
TRUST, IS TO BE USED BY YOU SOLELY FOR THE PURPOSES FOR WHICH IT IS
</text>
<text baseline-shift="-100%" cb-classname="GraphicTextEntity" class="frame" fill="black" font-family="arial" font-size="22" font-weight="normal" id="6H" text-anchor="start" text-decoration="normal" x="2360" y="3248">
FURNISHED AND IS TO BE RETURNED UPON REQUEST. THIS DOCUMENT AND ANY
</text>
<text baseline-shift="-100%" cb-classname="GraphicTextEntity" class="frame" fill="black" font-family="arial" font-size="22" font-weight="normal" id="6B" text-anchor="start" text-decoration="normal" x="2360" y="3284">
OTHER INFORMATION PROVIDED TO YOU IS NOT TO BE REPRODUCED, TRANSMITTED,
</text>
<text baseline-shift="-100%" cb-classname="GraphicTextEntity" class="frame" fill="black" font-family="arial" font-size="22" font-weight="normal" id="65" text-anchor="start" text-decoration="normal" x="2360" y="3320">
DISCLOSED, OR USED OTHERWISE IN WHOLE OR IN PART WITHOUT THE PRIOR
</text>
<text baseline-shift="-100%" cb-classname="GraphicTextEntity" class="frame" fill="black" font-family="arial" font-size="22" font-weight="normal" id="6r" text-anchor="start" text-decoration="normal" x="2360" y="3356">
WRITTEN AUTHORIZATION OF EMERSON PROCESS MANAGEMENT POWER &amp; WATER
</text>
<text baseline-shift="-100%" cb-classname="GraphicTextEntity" class="frame" fill="black" font-family="arial" font-size="22" font-weight="normal" id="6d" text-anchor="start" text-decoration="normal" x="2360" y="3392">
SOLUTIONS,INC.
</text>
</g>
</g>
</svg>