<?xml version="1.0" ?><svg cb-auto-time="02/11/2020 11:58:46" cb-classname="ControlFunction" cb-create-time="02/10/2020" cb-drop-id="99" cb-filename="Z:\OVATION\NET0\UNIT0\CONTROLFUNCTIONS\02AA.svg" cb-function-id="02AA" cb-key="152551123424" cb-modified-timestamp="1587028123" cb-modify-id="00000001" cb-path="Z:/OVATION/NET0/UNIT0/CONTROLFUNCTIONS" cb-revision="A" cb-sheet-number="1077" cb-sheet-title="P82FN1157 - SIM" cb-snap-grid="10" cb-task-id="3" height="3522" id="1" width="5450" xmlns="http://www.w3.org/2000/svg">
<style cb-classname="EntityStyle" id="2" type="text/css">
	.algorithm { fill: white; stroke: black; stroke-width: 3 }
	.algorithm-function { fill: black; stroke: none }
	.algorithm-functionline { fill: none; stroke: black; stroke-linecap: round; stroke-width: 3 }
	.algorithm-name { fill: black; stroke: none }
	.algorithm-nameline { fill: none; stroke: black; stroke-linecap: round; stroke-width: 3 }
	.algorithm-sequence { fill: black; stroke: none; visibility: hidden }
	.algorithm-sequenceline { fill: none; stroke: black; stroke-linecap: round; stroke-width: 3; visibility: hidden }
	.algorithmline { fill: none; stroke: black; stroke-linecap: round; stroke-width: 3 }
	.annotation { fill: black; stroke: none }
	.annotationline { fill: none; stroke: black; stroke-linecap: round; stroke-width: 3 }
	.description { fill: black; stroke: none }
	.descriptionline { fill: none; stroke: black; stroke-linecap: round; stroke-width: 3 }
	.frame { fill: black; stroke: none }
	.frameline { fill: none; stroke: black; stroke-linecap: round; stroke-width: 3 }
	.signal { fill: black; stroke: none }
	.signalline { fill: none; stroke: black; stroke-linecap: round; stroke-width: 3 }
	text.algorithm { fill: black; font-family: Arial; font-size: 22; stroke: none }
	text.algorithm-function { fill: black; font-family: Arial; font-size: 22; stroke: none }
	text.algorithm-name { fill: black; font-family: Arial; font-size: 22; stroke: none }
	text.algorithm-sequence { fill: black; font-family: Arial; font-size: 22; stroke: none; visibility: hidden }
	text.annotation { fill: black; font-family: Arial; font-size: 22; stroke: none }
	text.description { fill: black; font-family: Arial; font-size: 28; stroke: none }
	text.frame { fill: black; font-family: Arial; font-size: 18; stroke: none }
	text.signal { fill: black; font-family: Arial; font-size: 12; stroke: none }
</style>
<g cb-classname="NamedObject" cb-objectname="Comments" id="3"/>
<g cb-classname="AlgorithmContainer" cb-objectname="Algorithms" id="4">
<g cb-alg-oFrJ="NO" cb-alg-ojs="P82FN1157_HSH" cb-algorithm-id="003" cb-classname="ExternalPointInterface" cb-function-name="INPUT" id="6f">
<ellipse cb-classname="GraphicEllipseEntity" class="algorithm" cx="600" cy="220" id="6i" rx="40" ry="40"/>
<rect cb-classname="GraphicRectangleEntity" class="algorithm" height="80" id="6w" width="30" x="530" y="180"/>
<line cb-classname="GraphicLineEntity" class="algorithm" id="6C" x1="530" x2="560" y1="220" y2="220"/>
<g cb-classname="PointStatusIndicator" cb-indicator-type="Highway" cb-source="q8-apv-FpA" id="6K" visibility="visible">
<line cb-classname="GraphicLineEntity" class="algorithmline" id="7U" x1="560" x2="600" y1="220" y2="180"/>
<line cb-classname="GraphicLineEntity" class="algorithmline" id="7N" x1="600" x2="640" y1="180" y2="220"/>
<line cb-classname="GraphicLineEntity" class="algorithmline" id="7D" x1="640" x2="600" y1="220" y2="260"/>
<line cb-classname="GraphicLineEntity" class="algorithmline" id="75" x1="600" x2="560" y1="260" y2="220"/>
</g>
<g cb-classname="PointStatusIndicator" cb-indicator-type="hardware" cb-source="df-jff-Rus" id="7x" visibility="visible">
<line cb-classname="GraphicLineEntity" class="algorithmline" id="7f" x1="560" x2="640" y1="180" y2="180"/>
<line cb-classname="GraphicLineEntity" class="algorithmline" id="7i" x1="640" x2="640" y1="180" y2="260"/>
<line cb-classname="GraphicLineEntity" class="algorithmline" id="7w" x1="640" x2="560" y1="260" y2="260"/>
</g>
<g cb-classname="PointStatusIndicator" cb-indicator-type="alarm" cb-source="cJ-y13-nap" id="7C" visibility="hidden">
<text cb-classname="GraphicTextEntity" class="algorithm" fill="#000000" font-family="arial" font-size="20" id="7K" x="537" y="209">
A
</text>
</g>
<g cb-classname="PointStatusIndicator" cb-indicator-type="ingraphic" cb-source="wk-po9-ix0" id="8U" visibility="hidden">
<text cb-classname="GraphicTextEntity" class="algorithm" fill="#000000" font-family="Arial" font-size="20" id="8N" x="535" y="249">
G
</text>
</g>
<g baseline-shift="-50%" cb-anchor-x="512" cb-anchor-y="214" cb-classname="PointDescription" cb-content="extended" cb-labeled="false" cb-max-width="240" cb-source="q8-apv-FpA" class="algorithm" id="8D" text-anchor="end">
<text baseline-shift="-50%" cb-classname="GraphicTextEntity" class="algorithm" id="85" text-anchor="end" x="512" y="162">
fan FN1157 vent
</text>
<text baseline-shift="-50%" cb-classname="GraphicTextEntity" class="algorithm" id="2DD" text-anchor="end" x="512" y="198">
dust CV1156 -
</text>
<text baseline-shift="-50%" cb-classname="GraphicTextEntity" class="algorithm" id="2D6" text-anchor="end" x="512" y="234">
start/stop
</text>
<text baseline-shift="-50%" cb-classname="GraphicTextEntity" class="algorithm" id="25B" text-anchor="end" x="512" y="270">
(Start - !Stop)
</text>
</g>
<g cb-classname="DynamicText" cb-labeled="false" cb-pin-name="eoZ" cb-source="s6-VmQ-12O" class="algorithm" id="8x" text-anchor="start">
<text baseline-shift="0%" cb-classname="GraphicTextEntity" class="algorithm" fill="black" font-family="Arial" font-size="20" font-style="normal" font-weight="normal" id="8f" text-anchor="start" text-decoration="normal" x="660" y="200"/>
</g>
<g baseline-shift="-100%" cb-anchor-x="660" cb-anchor-y="230" cb-classname="PointReferences" cb-max-width="230" cb-originator="true" cb-source="Qo-OmV-HP1" class="signal" id="8i" text-anchor="start">
<text baseline-shift="-100%" cb-classname="GraphicTextEntity" class="algorithm" id="8w" text-anchor="start" x="660" y="230">
12/124910
</text>
</g>
<g cb-classname="ControlPin" cb-pin-name="1c-PGs-okG" id="8C">
<line cb-classname="GraphicLineEntity" class="signalline" id="8K" x1="640" x2="660" y1="220" y2="220"/>
<g cb-classname="SignalSegment" id="9U">
<line cb-classname="GraphicLineEntity" class="signalline" id="9N" stroke="#1e12bf" stroke-dasharray="5,4" x1="660" x2="1030" y1="220" y2="220"/>
<g cb-classname="SignalSegment" id="9D">
<ellipse cb-classname="GraphicEllipseEntity" class="signal" cx="1030" cy="220" fill="#1e12bf" id="95" rx="5" ry="5" stroke="#1e12bf" stroke-dasharray="5,4"/>
<line cb-classname="GraphicLineEntity" class="signalline" id="9x" stroke="#1e12bf" stroke-dasharray="5,4" x1="1030" x2="1110" y1="220" y2="220"/>
<g cb-classname="SignalConnection" cb-graphic-line="$94$" cb-input-pin="$B4p$" id="9f"/>
<line cb-classname="GraphicLineEntity" class="signalline" id="9i" stroke="#1e12bf" stroke-dasharray="5,4" x1="1030" x2="1030" y1="220" y2="240"/>
<g cb-classname="SignalSegment" id="9w">
<line cb-classname="GraphicLineEntity" class="signalline" id="9C" stroke="#1e12bf" stroke-dasharray="5,4" x1="1030" x2="1110" y1="240" y2="240"/>
<g cb-classname="SignalConnection" cb-graphic-line="$98$" cb-input-pin="$R2n$" id="9K"/>
</g>
</g>
</g>
</g>
</g>
<g cb-alg-97cm="$65$cb-alg-out$" cb-alg-cvO5="96" cb-alg-ix0="S_P82FN1157_YLH" cb-alg-okJz="1.0" cb-alg-pkz5="2" cb-alg-r7U="$65$cb-alg-out$" cb-algorithm-id="009" cb-classname="ControlAlgorithm" cb-function-name="ONDELAY" cb-modify-id="00000001" id="1UB">
<rect cb-classname="GraphicRectangleEntity" class="algorithm" height="60" id="1UT" width="60" x="1130" y="200"/>
<text baseline-shift="-50%" cb-classname="GraphicTextEntity" class="algorithm" font-size="18" id="1Up" text-anchor="middle" x="1159" y="212">
TD
</text>
<text cb-classname="GraphicTextEntity" class="algorithm" font-size="18" id="1UA" text-anchor="middle" x="1159" y="247">
ON
</text>
<g cb-classname="ControlPin" cb-pin-name="cJ-y13-j3R" id="1UN">
<line cb-classname="GraphicLineEntity" class="signalline" id="1Ua" x1="1110" x2="1130" y1="220" y2="220"/>
<polygon cb-classname="GraphicPolygonEntity" class="signal" id="1Uh" points="1130,220 1119,216 1119,224"/>
<g cb-classname="DynamicText" cb-source="6V-Qj3-7Ohw" class="signal" id="1Um" text-anchor="end">
<text baseline-shift="5%" cb-classname="GraphicTextEntity" class="signal" fill="black" font-style="normal" font-weight="normal" id="1UD" text-anchor="end" text-decoration="normal" x="1094" y="216"/>
</g>
</g>
<g cb-classname="ControlPin" cb-pin-name="HE-Fxo-IFr" id="1U6">
<line cb-classname="GraphicLineEntity" class="signalline" id="1NB" x1="1190" x2="1210" y1="220" y2="220"/>
<g cb-classname="DynamicText" cb-source="Wt-Po4-U9ZB" class="signal" id="1NT">
<text baseline-shift="5%" cb-classname="GraphicTextEntity" class="signal" fill="black" font-style="normal" font-weight="normal" id="1Np" text-decoration="normal" x="1226" y="216"/>
</g>
<g cb-classname="SignalSegment" id="1NA">
<line cb-classname="GraphicLineEntity" class="signalline" id="1NN" stroke="#1e12bf" stroke-dasharray="5,4" x1="1210" x2="1520" y1="220" y2="220"/>
<g cb-classname="SignalSegment" id="1Na">
<line cb-classname="GraphicLineEntity" class="signalline" id="1Nh" stroke="#1e12bf" stroke-dasharray="5,4" x1="1520" x2="1520" y1="220" y2="350"/>
<g cb-classname="SignalSegment" id="1Nm">
<line cb-classname="GraphicLineEntity" class="signalline" id="1ND" stroke="#1e12bf" stroke-dasharray="5,4" x1="1520" x2="1570" y1="350" y2="350"/>
<g cb-classname="SignalConnection" cb-graphic-line="$118$" cb-input-pin="$l0q$" id="1N6"/>
</g>
<line cb-classname="GraphicLineEntity" class="signalline" id="1DB" stroke="#1e12bf" stroke-dasharray="5,4" x1="1520" x2="3940" y1="220" y2="220"/>
<g cb-classname="SignalConnection" cb-graphic-line="$120$" cb-input-pin="$B2p$" id="1DT"/>
<ellipse cb-classname="GraphicEllipseEntity" class="signal" cx="1520" cy="220" fill="#1e12bf" id="1Dp" rx="5" ry="5" stroke="#1e12bf" stroke-dasharray="5,4"/>
</g>
</g>
</g>
<g cb-classname="ControlPin" cb-pin-name="s6-VmQ-wU7D" id="1DA">
<line cb-classname="GraphicLineEntity" class="signalline" id="1DN" x1="1110" x2="1130" y1="240" y2="240"/>
<polygon cb-classname="GraphicPolygonEntity" class="signal" id="1Da" points="1130,240 1119,236 1119,244"/>
<g cb-classname="DynamicText" cb-source="df-t7U-NtVu" class="signal" id="1Dh" text-anchor="end">
<text baseline-shift="5%" cb-classname="GraphicTextEntity" class="signal" fill="black" font-style="normal" font-weight="normal" id="1Dm" text-anchor="end" text-decoration="normal" x="1094" y="236"/>
</g>
</g>
<g cb-classname="GraphicShape" id="1DD">
<g cb-classname="DynamicText" cb-labeled="true" cb-source="Bs-9DU-GgTI" id="1D6">
<text cb-classname="GraphicTextEntity" class="algorithm" id="15B" text-anchor="start" x="1100" y="180"/>
</g>
</g>
</g>
<g cb-alg-k3="$100$cb-alg-out$" cb-algorithm-id="00C" cb-classname="ExternalPointInterface" cb-function-name="OUTPUT" id="15T">
<ellipse cb-classname="GraphicEllipseEntity" class="algorithm" cx="4000" cy="220" id="15p" rx="40" ry="40"/>
<rect cb-classname="GraphicRectangleEntity" class="algorithm" height="80" id="15A" width="30" x="4040" y="180"/>
<line cb-classname="GraphicLineEntity" class="algorithm" id="15N" x1="4040" x2="4070" y1="220" y2="220"/>
<g cb-classname="PointStatusIndicator" cb-indicator-type="highway" cb-source="HE-Fxo-8Y" id="15a" visibility="hidden">
<line cb-classname="GraphicLineEntity" class="algorithmline" id="15h" x1="3960" x2="4000" y1="220" y2="180"/>
<line cb-classname="GraphicLineEntity" class="algorithmline" id="15m" x1="4000" x2="4040" y1="180" y2="220"/>
<line cb-classname="GraphicLineEntity" class="algorithmline" id="15D" x1="4040" x2="4000" y1="220" y2="260"/>
<line cb-classname="GraphicLineEntity" class="algorithmline" id="156" x1="4000" x2="3960" y1="260" y2="220"/>
</g>
<g cb-classname="PointStatusIndicator" cb-indicator-type="hardware" cb-source="1c-PGs-xS" id="1xB" visibility="hidden">
<line cb-classname="GraphicLineEntity" class="algorithmline" id="1xT" x1="4040" x2="3960" y1="180" y2="180"/>
<line cb-classname="GraphicLineEntity" class="algorithmline" id="1xp" x1="3960" x2="3960" y1="180" y2="260"/>
<line cb-classname="GraphicLineEntity" class="algorithmline" id="1xA" x1="3960" x2="4040" y1="260" y2="260"/>
</g>
<g cb-classname="PointStatusIndicator" cb-indicator-type="alarm" cb-source="7c-CWl-Lu" id="1xN" visibility="hidden">
<text cb-classname="GraphicTextEntity" class="algorithm" fill="#000000" font-family="Arial" font-size="20" id="1xa" x="4047" y="209">
A
</text>
</g>
<g cb-classname="PointStatusIndicator" cb-indicator-type="ingraphic" cb-source="6V-gRE-vR" id="1xh" visibility="hidden">
<text cb-classname="GraphicTextEntity" class="algorithm" fill="#000000" font-family="Arial" font-size="20" id="1xm" x="4045" y="250">
G
</text>
</g>
<g cb-classname="DynamicText" cb-labeled="false" cb-pin-name="k6" cb-source="HE-Fxo-8Y" class="algorithm" id="1xD" text-anchor="end">
<text baseline-shift="0%" cb-classname="GraphicTextEntity" class="algorithm" fill="black" font-family="Arial" font-size="20" font-style="normal" font-weight="normal" id="1x6" text-anchor="end" text-decoration="normal" x="3937" y="199"/>
</g>
<g baseline-shift="-100%" cb-anchor-x="3938" cb-anchor-y="236" cb-classname="PointReferences" cb-max-width="240" cb-originator="false" cb-source="Wt-kL5-wq" class="signal" id="1fB" text-anchor="end">
<text baseline-shift="-100%" cb-classname="GraphicTextEntity" class="algorithm" id="1fT" text-anchor="end" x="3938" y="236">
-
</text>
</g>
<g baseline-shift="-50%" cb-anchor-x="4091" cb-anchor-y="218" cb-classname="PointDescription" cb-content="extended" cb-labeled="false" cb-max-width="240" cb-source="df-jff-9k" class="algorithm" id="1fp" text-anchor="start">
<text baseline-shift="-50%" cb-classname="GraphicTextEntity" class="algorithm" id="1fA" text-anchor="start" x="4091" y="166">
DESC: No
</text>
<text baseline-shift="-50%" cb-classname="GraphicTextEntity" class="algorithm" id="25T" text-anchor="start" x="4091" y="202">
Description
</text>
<text baseline-shift="-50%" cb-classname="GraphicTextEntity" class="algorithm" id="25p" text-anchor="start" x="4091" y="238">
Defined
</text>
<text baseline-shift="-50%" cb-classname="GraphicTextEntity" class="algorithm" id="25A" text-anchor="start" x="4091" y="274">
(S_P82FN1157_YLH)
</text>
</g>
<g cb-classname="ControlPin" cb-pin-name="sZ-udq-Hl" id="1fN">
<line cb-classname="GraphicLineEntity" class="signalline" id="1fa" x1="3940" x2="3960" y1="220" y2="220"/>
<polygon cb-classname="GraphicPolygonEntity" class="signal" id="1fh" points="3960,220 3949,214 3949,225"/>
</g>
</g>
<g cb-alg-bINP="56.2" cb-alg-vry2="65" cb-algorithm-id="021" cb-classname="ControlAlgorithm" cb-function-name="AVALGEN" cb-modify-id="00000001" id="1fm">
<polygon cb-classname="GraphicPolygonEntity" class="algorithm" id="1fD" points="600,430 640,390 600,350 560,390"/>
<text baseline-shift="-50%" cb-classname="GraphicTextEntity" class="algorithm" font-size="44" id="1f6" text-anchor="middle" x="600" y="373">
A
</text>
<g cb-classname="ControlPin" cb-pin-name="q8-apv-FpA" id="1iB">
<line cb-classname="GraphicLineEntity" class="signalline" id="1iT" x1="640" x2="660" y1="390" y2="390"/>
<g cb-classname="DynamicText" cb-source="s6-XvR-YuWJ" class="signal" id="1ip">
<text baseline-shift="5%" cb-classname="GraphicTextEntity" class="signal" fill="black" font-style="normal" font-weight="normal" id="1iA" text-decoration="normal" x="651" y="380"/>
</g>
<g cb-classname="SignalSegment" id="1iN">
<line cb-classname="GraphicLineEntity" class="signalline" id="1ia" x1="660" x2="1450" y1="390" y2="390"/>
<g cb-classname="SignalSegment" id="1ih">
<line cb-classname="GraphicLineEntity" class="signalline" id="1im" x1="1450" x2="1450" y1="390" y2="260"/>
<g cb-classname="SignalSegment" id="1iD">
<line cb-classname="GraphicLineEntity" class="signalline" id="1i6" x1="1450" x2="1610" y1="260" y2="260"/>
<g cb-classname="SignalSegment" id="1wB">
<line cb-classname="GraphicLineEntity" class="signalline" id="1wT" x1="1610" x2="1610" y1="260" y2="330"/>
<g cb-classname="SignalConnection" cb-graphic-line="$171$" cb-input-pin="$MFK$" id="1wp"/>
</g>
</g>
<line cb-classname="GraphicLineEntity" class="signalline" id="1wA" x1="1450" x2="1550" y1="390" y2="390"/>
<g cb-classname="SignalConnection" cb-graphic-line="$173$" cb-input-pin="$Kde$" id="1wN"/>
<ellipse cb-classname="GraphicEllipseEntity" class="signal" cx="1450" cy="390" id="1wa" rx="5" ry="5" stroke="black"/>
</g>
</g>
</g>
</g>
<g cb-alg-2p9r="OFF" cb-alg-6mg1="-999999999" cb-alg-By="$157$cb-alg-out$" cb-alg-By_f="0.000000" cb-alg-By_o="0" cb-alg-JpVo="$100$cb-alg-out$" cb-alg-Tbg="$157$cb-alg-out$" cb-alg-Tbgf="0.000000" cb-alg-Tbgo="1" cb-alg-nm8I="ON" cb-alg-nv0="ON" cb-alg-x0g1="999999999" cb-alg-xC82="2.500000" cb-alg-xC8E="2.500000" cb-alg-zLVo="42" cb-algorithm-id="010" cb-classname="ControlAlgorithm" cb-function-name="TRANSFER" cb-modify-id="00000001" id="1wh">
<polygon cb-classname="GraphicPolygonEntity" class="algorithm" id="1wm" points="1610,350 1570,390 1610,430 1650,390"/>
<text baseline-shift="-50%" cb-classname="GraphicTextEntity" class="algorithm" font-size="33" id="1wD" text-anchor="middle" x="1610" y="381">
T
</text>
<g cb-classname="ControlPin" cb-pin-name="1c-PGs-okG" id="1w6">
<line cb-classname="GraphicLineEntity" class="signalline" id="1CB" x1="1610" x2="1610" y1="430" y2="450"/>
<g cb-classname="DynamicText" cb-source="Bs-g9k-lgFm" class="signal" id="1CT" text-anchor="end">
<text baseline-shift="5%" cb-classname="GraphicTextEntity" class="signal" fill="black" font-style="normal" font-weight="normal" id="1Cp" text-anchor="end" text-decoration="normal" transform="translate(1599,442)rotate(-90)"/>
</g>
</g>
<g cb-classname="ControlPin" cb-pin-name="q8-apv-dmPf" id="1Ch">
<line cb-classname="GraphicLineEntity" class="signalline" id="1Cm" x1="1570" x2="1590" y1="350" y2="370"/>
<polygon cb-classname="GraphicPolygonEntity" class="signal" id="1CD" points="1590,370 1585,359 1579,365"/>
<g cb-classname="DynamicText" cb-source="Wt-Po4-U9ZB" class="signal" id="1C6" text-anchor="end">
<text baseline-shift="5%" cb-classname="GraphicTextEntity" class="signal" fill="black" font-style="normal" font-weight="normal" id="1KB" text-anchor="end" text-decoration="normal" transform="translate(1572,339)rotate(45)"/>
</g>
</g>
<g cb-classname="ControlPin" cb-pin-name="df-jff-5BW" id="1KT">
<line cb-classname="GraphicLineEntity" class="signalline" id="1Kp" x1="1610" x2="1610" y1="330" y2="350"/>
<polygon cb-classname="GraphicPolygonEntity" class="signal" id="1KA" points="1610,350 1614,339 1606,339"/>
<g cb-classname="DynamicText" cb-source="Bs-g9k-lgFm" class="signal" id="1KN">
<text baseline-shift="5%" cb-classname="GraphicTextEntity" class="signal" fill="black" font-style="normal" font-weight="normal" id="1Ka" text-decoration="normal" transform="translate(1601,327)rotate(-90)"/>
</g>
</g>
<g cb-classname="ControlPin" cb-pin-name="7c-CWl-3i" id="1Kh">
<line cb-classname="GraphicLineEntity" class="signalline" id="1Km" x1="1550" x2="1570" y1="390" y2="390"/>
<polygon cb-classname="GraphicPolygonEntity" class="signal" id="1KD" points="1570,390 1559,386 1559,394"/>
<g cb-classname="DynamicText" cb-source="q8-mLu-Rjeb" class="signal" id="1K6" text-anchor="end">
<text baseline-shift="5%" cb-classname="GraphicTextEntity" class="signal" fill="black" font-style="normal" font-weight="normal" id="2UB" text-anchor="end" text-decoration="normal" x="1550" y="378"/>
</g>
</g>
</g>
</g>
<g cb-classname="IncludeDocument" cb-modify-time="12/03/2019 14:33:51" cb-objectname="frame" id="5">
<text cb-classname="GraphicTextEntity" class="frame" font-size="50" id="6" x="3660" y="3146">
HERA
</text>
<g baseline-shift="-50%" cb-classname="DynamicText" cb-source="Wt-QzI2-wr" class="frame" id="7">
<text cb-classname="GraphicTextEntity" class="frame" fill="black" font-family="arial" font-size="25" font-style="normal" font-weight="normal" id="8" text-decoration="normal" x="4715" y="3325">
99
</text>
</g>
<g baseline-shift="-50%" cb-classname="DynamicText" cb-source="df-ngIg-xg" class="frame" id="9" text-anchor="middle">
<text cb-classname="GraphicTextEntity" class="frame" fill="black" font-family="arial" font-size="48" font-style="normal" font-weight="normal" id="1U" text-anchor="middle" text-decoration="normal" x="4900" y="3320">
99
</text>
</g>
<g baseline-shift="-50%" cb-classname="DynamicText" cb-source="sZ-r9aa-FO" class="frame" id="1N" text-anchor="middle">
<text cb-classname="GraphicTextEntity" class="frame" fill="black" font-family="arial" font-size="48" font-style="normal" font-weight="normal" id="1D" text-anchor="middle" text-decoration="normal" x="5067" y="3324">
3
</text>
</g>
<g cb-classname="DynamicText" cb-source="cJ-Aac7x-pv0mw" class="frame" id="15">
<text cb-classname="GraphicTextEntity" class="frame" fill="black" font-family="arial" font-size="48" font-style="normal" font-weight="normal" id="1x" text-decoration="normal" x="3660" y="3224">
P82FN1157 - SIM
</text>
</g>
<g baseline-shift="-50%" cb-classname="DynamicText" cb-source="wk-z9Ibp-RpeByu" class="frame" id="1f" text-anchor="middle">
<text cb-classname="GraphicTextEntity" class="frame" fill="black" font-family="arial" font-size="48" font-style="normal" font-weight="normal" id="1i" text-anchor="middle" text-decoration="normal" x="5270" y="3324">
1077
</text>
</g>
<g baseline-shift="0%" cb-classname="DynamicText" cb-source="q8-GbtvJ81U" class="frame" id="1w" text-anchor="middle">
<text cb-classname="GraphicTextEntity" class="frame" fill="black" font-family="arial" font-size="36" font-style="normal" font-weight="normal" id="1C" text-anchor="middle" text-decoration="normal" x="5270" y="3150">
A
</text>
</g>
<g baseline-shift="0%" cb-classname="DynamicText" cb-source="s6-8lf8EwHN-sFwE" class="frame" id="1K" text-anchor="middle">
<text cb-classname="GraphicTextEntity" class="frame" fill="black" font-family="arial" font-size="20" font-style="normal" font-weight="normal" id="2U" text-anchor="middle" text-decoration="normal" x="5270" y="3230">

</text>
</g>
<g baseline-shift="-50%" cb-classname="DynamicText" cb-source="Qo-84VwqJBX" class="frame" id="2N" text-anchor="end">
<text cb-classname="GraphicTextEntity" class="frame" fill="black" font-family="arial" font-size="26" font-style="normal" font-weight="normal" id="2D" text-anchor="end" text-decoration="normal" x="4500" y="3420">

</text>
</g>
<g baseline-shift="-50%" cb-classname="DynamicText" cb-source="1c-gbk9Bdux" class="frame" id="25" text-anchor="end">
<text cb-classname="GraphicTextEntity" class="frame" fill="black" font-family="arial" font-size="26" font-style="normal" font-weight="normal" id="2x" text-anchor="end" text-decoration="normal" x="5353" y="3420">

</text>
</g>
<g cb-classname="GraphicShape" cb-tag="BORDER" id="2f">
<line cb-classname="GraphicLineEntity" class="frameline" id="2i" x1="40" x2="40" y1="40" y2="3460"/>
<line cb-classname="GraphicLineEntity" class="frameline" id="2w" x1="40" x2="5380" y1="3460" y2="3460"/>
<line cb-classname="GraphicLineEntity" class="frameline" id="2C" x1="5380" x2="5380" y1="3460" y2="40"/>
<line cb-classname="GraphicLineEntity" class="frameline" id="2K" x1="5380" x2="40" y1="40" y2="40"/>
<line cb-classname="GraphicLineEntity" class="frame" id="3U" x1="5430" x2="5440" y1="3510" y2="3510"/>
</g>
<g cb-classname="GraphicShape" cb-tag="TITLE BOX" id="3N">
<line cb-classname="GraphicLineEntity" class="frameline" id="3D" x1="2340" x2="2340" y1="3080" y2="3460"/>
<line cb-classname="GraphicLineEntity" class="frameline" id="35" x1="2340" x2="5380" y1="3080" y2="3080"/>
<line cb-classname="GraphicLineEntity" class="frameline" id="3x" x1="3650" x2="3650" y1="3460" y2="3080"/>
<line cb-classname="GraphicLineEntity" class="frameline" id="3f" x1="3650" x2="5380" y1="3240" y2="3240"/>
<line cb-classname="GraphicLineEntity" class="frameline" id="3i" x1="3650" x2="5380" y1="3390" y2="3390"/>
<line cb-classname="GraphicLineEntity" class="frameline" id="3w" x1="3650" x2="5380" y1="3160" y2="3160"/>
<line cb-classname="GraphicLineEntity" class="frameline" id="3C" x1="3650" x2="4520" y1="3320" y2="3320"/>
<line cb-classname="GraphicLineEntity" class="frameline" id="3K" x1="4520" x2="5380" y1="3290" y2="3290"/>
<line cb-classname="GraphicLineEntity" class="frameline" id="4U" x1="4520" x2="5380" y1="3240" y2="3240"/>
<line cb-classname="GraphicLineEntity" class="frameline" id="4N" x1="4520" x2="4520" y1="3240" y2="3460"/>
<line cb-classname="GraphicLineEntity" class="frameline" id="4D" x1="4810" x2="4810" y1="3240" y2="3390"/>
<line cb-classname="GraphicLineEntity" class="frameline" id="45" x1="4990" x2="4990" y1="3240" y2="3390"/>
<line cb-classname="GraphicLineEntity" class="frameline" id="4x" x1="5150" x2="5150" y1="3080" y2="3390"/>
</g>
<g cb-classname="GraphicShape" cb-tag="TEXT LABELS" id="4f">
<text baseline-shift="-50%" cb-classname="GraphicTextEntity" class="frame" font-size="25" id="4i" text-anchor="middle" x="4890" y="3252">
Drop
</text>
<text baseline-shift="-50%" cb-classname="GraphicTextEntity" class="frame" font-size="25" id="4w" text-anchor="middle" x="5075" y="3252">
Task
</text>
<text baseline-shift="-50%" cb-classname="GraphicTextEntity" class="frame" font-size="25" id="4C" text-anchor="middle" x="5265" y="3252">
Sheet
</text>
<text cb-classname="GraphicTextEntity" class="frame" font-size="25" id="4K" x="5152" y="3107">
Rev.
</text>
<text cb-classname="GraphicTextEntity" class="frame" font-size="25" id="5U" x="3653" y="3418">
Engineer
</text>
<text cb-classname="GraphicTextEntity" class="frame" font-size="25" id="5N" x="4528" y="3419">
Approved
</text>
<text cb-classname="GraphicTextEntity" class="frame" font-size="25" id="5D" x="5152" y="3187">
Date
</text>
<text baseline-shift="-50%" cb-classname="GraphicTextEntity" class="frame" font-size="25" id="55" text-anchor="middle" x="4660" y="3252">
Drawing Number
</text>
<text baseline-shift="-50%" cb-classname="GraphicTextEntity" class="frame" font-size="25" id="5x" text-anchor="middle" x="4680" y="3325">
CTL
</text>
</g>
<text baseline-shift="-50%" cb-classname="GraphicTextEntity" class="frame" font-size="48" id="5f" text-anchor="middle" x="3000" y="3100">
EMERSON PROCESS MANAGEMENT
</text>
<g baseline-shift="-100%" cb-anchor-x="2360" cb-anchor-y="3140" cb-classname="GroupText" cb-max-width="1260" fill="black" id="5i">
<text baseline-shift="-100%" cb-classname="GraphicTextEntity" class="frame" fill="black" font-family="arial" font-size="22" font-weight="normal" id="5w" text-anchor="start" text-decoration="normal" x="2360" y="3140">
THIS DOCUMENT CONTAINS INFORMATION PROPRIETARY TO EMERSON PROCESS
</text>
<text baseline-shift="-100%" cb-classname="GraphicTextEntity" class="frame" fill="black" font-family="arial" font-size="22" font-weight="normal" id="5C" text-anchor="start" text-decoration="normal" x="2360" y="3176">
MANAGEMENT POWER &amp; WATER SOLUTIONS, INC. IT IS SUBMITTED IN CONFIDENCE AND
</text>
<text baseline-shift="-100%" cb-classname="GraphicTextEntity" class="frame" fill="black" font-family="arial" font-size="22" font-weight="normal" id="5K" text-anchor="start" text-decoration="normal" x="2360" y="3212">
TRUST, IS TO BE USED BY YOU SOLELY FOR THE PURPOSES FOR WHICH IT IS
</text>
<text baseline-shift="-100%" cb-classname="GraphicTextEntity" class="frame" fill="black" font-family="arial" font-size="22" font-weight="normal" id="6U" text-anchor="start" text-decoration="normal" x="2360" y="3248">
FURNISHED AND IS TO BE RETURNED UPON REQUEST. THIS DOCUMENT AND ANY
</text>
<text baseline-shift="-100%" cb-classname="GraphicTextEntity" class="frame" fill="black" font-family="arial" font-size="22" font-weight="normal" id="6N" text-anchor="start" text-decoration="normal" x="2360" y="3284">
OTHER INFORMATION PROVIDED TO YOU IS NOT TO BE REPRODUCED, TRANSMITTED,
</text>
<text baseline-shift="-100%" cb-classname="GraphicTextEntity" class="frame" fill="black" font-family="arial" font-size="22" font-weight="normal" id="6D" text-anchor="start" text-decoration="normal" x="2360" y="3320">
DISCLOSED, OR USED OTHERWISE IN WHOLE OR IN PART WITHOUT THE PRIOR
</text>
<text baseline-shift="-100%" cb-classname="GraphicTextEntity" class="frame" fill="black" font-family="arial" font-size="22" font-weight="normal" id="65" text-anchor="start" text-decoration="normal" x="2360" y="3356">
WRITTEN AUTHORIZATION OF EMERSON PROCESS MANAGEMENT POWER &amp; WATER
</text>
<text baseline-shift="-100%" cb-classname="GraphicTextEntity" class="frame" fill="black" font-family="arial" font-size="22" font-weight="normal" id="6x" text-anchor="start" text-decoration="normal" x="2360" y="3392">
SOLUTIONS,INC.
</text>
</g>
</g>
</svg>