<?xml version="1.0" ?><svg cb-auto-time="02/11/2020 11:17:16" cb-classname="ControlFunction" cb-create-time="02/10/2020" cb-drop-id="99" cb-filename="Z:\OVATION\NET0\UNIT0\CONTROLFUNCTIONS\02BF.svg" cb-function-id="02BF" cb-key="255112342443" cb-modified-timestamp="1587028163" cb-modify-id="00000001" cb-path="Z:/OVATION/NET0/UNIT0/CONTROLFUNCTIONS" cb-revision="A" cb-sheet-number="1108" cb-sheet-title="P33PM1500B - SIM" cb-snap-grid="10" cb-task-id="3" height="3522" id="1" width="5450" xmlns="http://www.w3.org/2000/svg">
<style cb-classname="EntityStyle" id="2" type="text/css">
	.algorithm { fill: white; stroke: black; stroke-width: 3 }
	.algorithm-function { fill: black; stroke: none }
	.algorithm-functionline { fill: none; stroke: black; stroke-linecap: round; stroke-width: 3 }
	.algorithm-name { fill: black; stroke: none }
	.algorithm-nameline { fill: none; stroke: black; stroke-linecap: round; stroke-width: 3 }
	.algorithm-sequence { fill: black; stroke: none; visibility: hidden }
	.algorithm-sequenceline { fill: none; stroke: black; stroke-linecap: round; stroke-width: 3; visibility: hidden }
	.algorithmline { fill: none; stroke: black; stroke-linecap: round; stroke-width: 3 }
	.annotation { fill: black; stroke: none }
	.annotationline { fill: none; stroke: black; stroke-linecap: round; stroke-width: 3 }
	.description { fill: black; stroke: none }
	.descriptionline { fill: none; stroke: black; stroke-linecap: round; stroke-width: 3 }
	.frame { fill: black; stroke: none }
	.frameline { fill: none; stroke: black; stroke-linecap: round; stroke-width: 3 }
	.signal { fill: black; stroke: none }
	.signalline { fill: none; stroke: black; stroke-linecap: round; stroke-width: 3 }
	text.algorithm { fill: black; font-family: Arial; font-size: 22; stroke: none }
	text.algorithm-function { fill: black; font-family: Arial; font-size: 22; stroke: none }
	text.algorithm-name { fill: black; font-family: Arial; font-size: 22; stroke: none }
	text.algorithm-sequence { fill: black; font-family: Arial; font-size: 22; stroke: none; visibility: hidden }
	text.annotation { fill: black; font-family: Arial; font-size: 22; stroke: none }
	text.description { fill: black; font-family: Arial; font-size: 28; stroke: none }
	text.frame { fill: black; font-family: Arial; font-size: 18; stroke: none }
	text.signal { fill: black; font-family: Arial; font-size: 12; stroke: none }
</style>
<g cb-classname="NamedObject" cb-objectname="Comments" id="3"/>
<g cb-classname="AlgorithmContainer" cb-objectname="Algorithms" id="4">
<g cb-alg-oJhK="NO" cb-alg-oje="P33PM1500B_HSH" cb-algorithm-id="003" cb-classname="ExternalPointInterface" cb-function-name="INPUT" id="6f">
<ellipse cb-classname="GraphicEllipseEntity" class="algorithm" cx="600" cy="220" id="6k" rx="40" ry="40"/>
<rect cb-classname="GraphicRectangleEntity" class="algorithm" height="80" id="62" width="30" x="530" y="180"/>
<line cb-classname="GraphicLineEntity" class="algorithm" id="6E" x1="530" x2="560" y1="220" y2="220"/>
<g cb-classname="PointStatusIndicator" cb-indicator-type="Highway" cb-source="UT-p4g-NBA" id="6M" visibility="visible">
<line cb-classname="GraphicLineEntity" class="algorithmline" id="7W" x1="560" x2="600" y1="220" y2="180"/>
<line cb-classname="GraphicLineEntity" class="algorithmline" id="7X" x1="600" x2="640" y1="180" y2="220"/>
<line cb-classname="GraphicLineEntity" class="algorithmline" id="7N" x1="640" x2="600" y1="220" y2="260"/>
<line cb-classname="GraphicLineEntity" class="algorithmline" id="7B" x1="600" x2="560" y1="260" y2="220"/>
</g>
<g cb-classname="PointStatusIndicator" cb-indicator-type="hardware" cb-source="N1-lzd-U0S" id="7p" visibility="visible">
<line cb-classname="GraphicLineEntity" class="algorithmline" id="7f" x1="560" x2="640" y1="180" y2="180"/>
<line cb-classname="GraphicLineEntity" class="algorithmline" id="7k" x1="640" x2="640" y1="180" y2="260"/>
<line cb-classname="GraphicLineEntity" class="algorithmline" id="72" x1="640" x2="560" y1="260" y2="260"/>
</g>
<g cb-classname="PointStatusIndicator" cb-indicator-type="alarm" cb-source="cD-sj9-eKy" id="7E" visibility="hidden">
<text cb-classname="GraphicTextEntity" class="algorithm" fill="#000000" font-family="arial" font-size="20" id="7M" x="537" y="209">
A
</text>
</g>
<g cb-classname="PointStatusIndicator" cb-indicator-type="ingraphic" cb-source="Rp-v3t-O9F" id="8W" visibility="hidden">
<text cb-classname="GraphicTextEntity" class="algorithm" fill="#000000" font-family="Arial" font-size="20" id="8X" x="535" y="249">
G
</text>
</g>
<g baseline-shift="-50%" cb-anchor-x="512" cb-anchor-y="214" cb-classname="PointDescription" cb-content="extended" cb-labeled="false" cb-max-width="240" cb-source="UT-p4g-NBA" class="algorithm" id="8N" text-anchor="end">
<text baseline-shift="-50%" cb-classname="GraphicTextEntity" class="algorithm" id="8B" text-anchor="end" x="512" y="144">
PM1500B dosag.
</text>
<text baseline-shift="-50%" cb-classname="GraphicTextEntity" class="algorithm" id="2NH" text-anchor="end" x="512" y="180">
wet FG clean.
</text>
<text baseline-shift="-50%" cb-classname="GraphicTextEntity" class="algorithm" id="2Nu" text-anchor="end" x="512" y="216">
pot.perm.
</text>
<text baseline-shift="-50%" cb-classname="GraphicTextEntity" class="algorithm" id="2BF" text-anchor="end" x="512" y="252">
-start/stop
</text>
<text baseline-shift="-50%" cb-classname="GraphicTextEntity" class="algorithm" id="2B4" text-anchor="end" x="512" y="288">
(Start - !Stop)
</text>
</g>
<g cb-classname="DynamicText" cb-labeled="false" cb-pin-name="QGG" cb-source="G7-cZZ-rCy" class="algorithm" id="8p" text-anchor="start">
<text baseline-shift="0%" cb-classname="GraphicTextEntity" class="algorithm" fill="black" font-family="Arial" font-size="20" font-style="normal" font-weight="normal" id="8f" text-anchor="start" text-decoration="normal" x="660" y="200"/>
</g>
<g baseline-shift="-100%" cb-anchor-x="660" cb-anchor-y="230" cb-classname="PointReferences" cb-max-width="230" cb-originator="true" cb-source="8V-DJ4-GuZ" class="signal" id="8k" text-anchor="start">
<text baseline-shift="-100%" cb-classname="GraphicTextEntity" class="algorithm" id="82" text-anchor="start" x="660" y="230">
12/1241070
</text>
</g>
<g cb-classname="ControlPin" cb-pin-name="p4-oHE-qa5" id="8E">
<line cb-classname="GraphicLineEntity" class="signalline" id="8M" x1="640" x2="660" y1="220" y2="220"/>
<g cb-classname="SignalSegment" id="9W">
<line cb-classname="GraphicLineEntity" class="signalline" id="9X" stroke="#1e12bf" stroke-dasharray="5,4" x1="660" x2="1030" y1="220" y2="220"/>
<g cb-classname="SignalSegment" id="9N">
<ellipse cb-classname="GraphicEllipseEntity" class="signal" cx="1030" cy="220" fill="#1e12bf" id="9B" rx="5" ry="5" stroke="#1e12bf" stroke-dasharray="5,4"/>
<line cb-classname="GraphicLineEntity" class="signalline" id="9p" stroke="#1e12bf" stroke-dasharray="5,4" x1="1030" x2="1110" y1="220" y2="220"/>
<g cb-classname="SignalConnection" cb-graphic-line="$94$" cb-input-pin="$J5O$" id="9f"/>
<line cb-classname="GraphicLineEntity" class="signalline" id="9k" stroke="#1e12bf" stroke-dasharray="5,4" x1="1030" x2="1030" y1="220" y2="240"/>
<g cb-classname="SignalSegment" id="92">
<line cb-classname="GraphicLineEntity" class="signalline" id="9E" stroke="#1e12bf" stroke-dasharray="5,4" x1="1030" x2="1110" y1="240" y2="240"/>
<g cb-classname="SignalConnection" cb-graphic-line="$98$" cb-input-pin="$oQc$" id="9M"/>
</g>
</g>
</g>
</g>
</g>
<g cb-alg-DTi="$65$cb-alg-out$" cb-alg-O9F="S_P33PM1500B_YLH" cb-alg-PgDO="96" cb-alg-ST4J="$65$cb-alg-out$" cb-alg-V7ej="1.0" cb-alg-y73O="2" cb-algorithm-id="009" cb-classname="ControlAlgorithm" cb-function-name="ONDELAY" cb-modify-id="00000001" id="1WF">
<rect cb-classname="GraphicRectangleEntity" class="algorithm" height="60" id="1W4" width="60" x="1130" y="200"/>
<text baseline-shift="-50%" cb-classname="GraphicTextEntity" class="algorithm" font-size="18" id="1Wy" text-anchor="middle" x="1159" y="212">
TD
</text>
<text cb-classname="GraphicTextEntity" class="algorithm" font-size="18" id="1WX" text-anchor="middle" x="1159" y="247">
ON
</text>
<g cb-classname="ControlPin" cb-pin-name="cD-sj9-D2o" id="1WJ">
<line cb-classname="GraphicLineEntity" class="signalline" id="1WD" x1="1110" x2="1130" y1="220" y2="220"/>
<polygon cb-classname="GraphicPolygonEntity" class="signal" id="1WT" points="1130,220 1119,216 1119,224"/>
<g cb-classname="DynamicText" cb-source="C0-1D2-TD1f" class="signal" id="1WN" text-anchor="end">
<text baseline-shift="5%" cb-classname="GraphicTextEntity" class="signal" fill="black" font-style="normal" font-weight="normal" id="1WH" text-anchor="end" text-decoration="normal" x="1094" y="216"/>
</g>
</g>
<g cb-classname="ControlPin" cb-pin-name="At-6u8-KNj" id="1Wu">
<line cb-classname="GraphicLineEntity" class="signalline" id="1XF" x1="1190" x2="1210" y1="220" y2="220"/>
<g cb-classname="DynamicText" cb-source="Ug-f8x-gX9a" class="signal" id="1X4">
<text baseline-shift="5%" cb-classname="GraphicTextEntity" class="signal" fill="black" font-style="normal" font-weight="normal" id="1Xy" text-decoration="normal" x="1226" y="216"/>
</g>
<g cb-classname="SignalSegment" id="1XX">
<line cb-classname="GraphicLineEntity" class="signalline" id="1XJ" stroke="#1e12bf" stroke-dasharray="5,4" x1="1210" x2="1520" y1="220" y2="220"/>
<g cb-classname="SignalSegment" id="1XD">
<line cb-classname="GraphicLineEntity" class="signalline" id="1XT" stroke="#1e12bf" stroke-dasharray="5,4" x1="1520" x2="1520" y1="220" y2="350"/>
<g cb-classname="SignalSegment" id="1XN">
<line cb-classname="GraphicLineEntity" class="signalline" id="1XH" stroke="#1e12bf" stroke-dasharray="5,4" x1="1520" x2="1570" y1="350" y2="350"/>
<g cb-classname="SignalConnection" cb-graphic-line="$118$" cb-input-pin="$la3$" id="1Xu"/>
</g>
<line cb-classname="GraphicLineEntity" class="signalline" id="1NF" stroke="#1e12bf" stroke-dasharray="5,4" x1="1520" x2="3940" y1="220" y2="220"/>
<g cb-classname="SignalConnection" cb-graphic-line="$120$" cb-input-pin="$JcO$" id="1N4"/>
<ellipse cb-classname="GraphicEllipseEntity" class="signal" cx="1520" cy="220" fill="#1e12bf" id="1Ny" rx="5" ry="5" stroke="#1e12bf" stroke-dasharray="5,4"/>
</g>
</g>
</g>
<g cb-classname="ControlPin" cb-pin-name="G7-cZZ-fgpN" id="1NX">
<line cb-classname="GraphicLineEntity" class="signalline" id="1NJ" x1="1110" x2="1130" y1="240" y2="240"/>
<polygon cb-classname="GraphicPolygonEntity" class="signal" id="1ND" points="1130,240 1119,236 1119,244"/>
<g cb-classname="DynamicText" cb-source="N1-pSg-fAiS" class="signal" id="1NT" text-anchor="end">
<text baseline-shift="5%" cb-classname="GraphicTextEntity" class="signal" fill="black" font-style="normal" font-weight="normal" id="1NN" text-anchor="end" text-decoration="normal" x="1094" y="236"/>
</g>
</g>
<g cb-classname="GraphicShape" id="1NH">
<g cb-classname="DynamicText" cb-labeled="true" cb-source="9e-XNy-5zxT" id="1Nu">
<text cb-classname="GraphicTextEntity" class="algorithm" id="1BF" text-anchor="start" x="1100" y="180"/>
</g>
</g>
</g>
<g cb-alg-i1="$100$cb-alg-out$" cb-algorithm-id="00C" cb-classname="ExternalPointInterface" cb-function-name="OUTPUT" id="1B4">
<ellipse cb-classname="GraphicEllipseEntity" class="algorithm" cx="4000" cy="220" id="1By" rx="40" ry="40"/>
<rect cb-classname="GraphicRectangleEntity" class="algorithm" height="80" id="1BX" width="30" x="4040" y="180"/>
<line cb-classname="GraphicLineEntity" class="algorithm" id="1BJ" x1="4040" x2="4070" y1="220" y2="220"/>
<g cb-classname="PointStatusIndicator" cb-indicator-type="highway" cb-source="At-6u8-Sd" id="1BD" visibility="hidden">
<line cb-classname="GraphicLineEntity" class="algorithmline" id="1BT" x1="3960" x2="4000" y1="220" y2="180"/>
<line cb-classname="GraphicLineEntity" class="algorithmline" id="1BN" x1="4000" x2="4040" y1="180" y2="220"/>
<line cb-classname="GraphicLineEntity" class="algorithmline" id="1BH" x1="4040" x2="4000" y1="220" y2="260"/>
<line cb-classname="GraphicLineEntity" class="algorithmline" id="1Bu" x1="4000" x2="3960" y1="260" y2="220"/>
</g>
<g cb-classname="PointStatusIndicator" cb-indicator-type="hardware" cb-source="p4-oHE-9W" id="1pF" visibility="hidden">
<line cb-classname="GraphicLineEntity" class="algorithmline" id="1p4" x1="4040" x2="3960" y1="180" y2="180"/>
<line cb-classname="GraphicLineEntity" class="algorithmline" id="1py" x1="3960" x2="3960" y1="180" y2="260"/>
<line cb-classname="GraphicLineEntity" class="algorithmline" id="1pX" x1="3960" x2="4040" y1="260" y2="260"/>
</g>
<g cb-classname="PointStatusIndicator" cb-indicator-type="alarm" cb-source="9O-HRz-DM" id="1pJ" visibility="hidden">
<text cb-classname="GraphicTextEntity" class="algorithm" fill="#000000" font-family="Arial" font-size="20" id="1pD" x="4047" y="209">
A
</text>
</g>
<g cb-classname="PointStatusIndicator" cb-indicator-type="ingraphic" cb-source="C0-olp-gk" id="1pT" visibility="hidden">
<text cb-classname="GraphicTextEntity" class="algorithm" fill="#000000" font-family="Arial" font-size="20" id="1pN" x="4045" y="250">
G
</text>
</g>
<g cb-classname="DynamicText" cb-labeled="false" cb-pin-name="wT" cb-source="At-6u8-Sd" class="algorithm" id="1pH" text-anchor="end">
<text baseline-shift="0%" cb-classname="GraphicTextEntity" class="algorithm" fill="black" font-family="Arial" font-size="20" font-style="normal" font-weight="normal" id="1pu" text-anchor="end" text-decoration="normal" x="3937" y="199"/>
</g>
<g baseline-shift="-100%" cb-anchor-x="3938" cb-anchor-y="236" cb-classname="PointReferences" cb-max-width="240" cb-originator="false" cb-source="Ug-7OO-4u" class="signal" id="1fF" text-anchor="end">
<text baseline-shift="-100%" cb-classname="GraphicTextEntity" class="algorithm" id="1f4" text-anchor="end" x="3938" y="236">
-
</text>
</g>
<g baseline-shift="-50%" cb-anchor-x="4091" cb-anchor-y="218" cb-classname="PointDescription" cb-content="extended" cb-labeled="false" cb-max-width="240" cb-source="N1-lzd-eh" class="algorithm" id="1fy" text-anchor="start">
<text baseline-shift="-50%" cb-classname="GraphicTextEntity" class="algorithm" id="1fX" text-anchor="start" x="4091" y="166">
DESC: No
</text>
<text baseline-shift="-50%" cb-classname="GraphicTextEntity" class="algorithm" id="2By" text-anchor="start" x="4091" y="202">
Description
</text>
<text baseline-shift="-50%" cb-classname="GraphicTextEntity" class="algorithm" id="2BX" text-anchor="start" x="4091" y="238">
Defined
</text>
<text baseline-shift="-50%" cb-classname="GraphicTextEntity" class="algorithm" id="2BJ" text-anchor="start" x="4091" y="274">
(S_P33PM1500B_YLH)
</text>
</g>
<g cb-classname="ControlPin" cb-pin-name="AC-YV4-In" id="1fJ">
<line cb-classname="GraphicLineEntity" class="signalline" id="1fD" x1="3940" x2="3960" y1="220" y2="220"/>
<polygon cb-classname="GraphicPolygonEntity" class="signal" id="1fT" points="3960,220 3949,214 3949,225"/>
</g>
</g>
<g cb-alg-5hsh="65" cb-alg-eVT3="56.2" cb-algorithm-id="021" cb-classname="ControlAlgorithm" cb-function-name="AVALGEN" cb-modify-id="00000001" id="1fN">
<polygon cb-classname="GraphicPolygonEntity" class="algorithm" id="1fH" points="600,430 640,390 600,350 560,390"/>
<text baseline-shift="-50%" cb-classname="GraphicTextEntity" class="algorithm" font-size="44" id="1fu" text-anchor="middle" x="600" y="373">
A
</text>
<g cb-classname="ControlPin" cb-pin-name="UT-p4g-NBA" id="1kF">
<line cb-classname="GraphicLineEntity" class="signalline" id="1k4" x1="640" x2="660" y1="390" y2="390"/>
<g cb-classname="DynamicText" cb-source="G7-Cgk-dYFs" class="signal" id="1ky">
<text baseline-shift="5%" cb-classname="GraphicTextEntity" class="signal" fill="black" font-style="normal" font-weight="normal" id="1kX" text-decoration="normal" x="651" y="380"/>
</g>
<g cb-classname="SignalSegment" id="1kJ">
<line cb-classname="GraphicLineEntity" class="signalline" id="1kD" x1="660" x2="1450" y1="390" y2="390"/>
<g cb-classname="SignalSegment" id="1kT">
<line cb-classname="GraphicLineEntity" class="signalline" id="1kN" x1="1450" x2="1450" y1="390" y2="260"/>
<g cb-classname="SignalSegment" id="1kH">
<line cb-classname="GraphicLineEntity" class="signalline" id="1ku" x1="1450" x2="1610" y1="260" y2="260"/>
<g cb-classname="SignalSegment" id="12F">
<line cb-classname="GraphicLineEntity" class="signalline" id="124" x1="1610" x2="1610" y1="260" y2="330"/>
<g cb-classname="SignalConnection" cb-graphic-line="$171$" cb-input-pin="$7sf$" id="12y"/>
</g>
</g>
<line cb-classname="GraphicLineEntity" class="signalline" id="12X" x1="1450" x2="1550" y1="390" y2="390"/>
<g cb-classname="SignalConnection" cb-graphic-line="$173$" cb-input-pin="$fLu$" id="12J"/>
<ellipse cb-classname="GraphicEllipseEntity" class="signal" cx="1450" cy="390" id="12D" rx="5" ry="5" stroke="black"/>
</g>
</g>
</g>
</g>
<g cb-alg-7ywp="-999999999" cb-alg-B4Sz="OFF" cb-alg-I5w="$157$cb-alg-out$" cb-alg-I5w1="0.000000" cb-alg-I5w8="1" cb-alg-M4c8="$100$cb-alg-out$" cb-alg-RSnK="2.500000" cb-alg-RSnQ="2.500000" cb-alg-Rhwp="999999999" cb-alg-eql="ON" cb-alg-eynJ="ON" cb-alg-fDc8="42" cb-alg-yJ="$157$cb-alg-out$" cb-alg-yJ_1="0.000000" cb-alg-yJ_8="0" cb-algorithm-id="010" cb-classname="ControlAlgorithm" cb-function-name="TRANSFER" cb-modify-id="00000001" id="12T">
<polygon cb-classname="GraphicPolygonEntity" class="algorithm" id="12N" points="1610,350 1570,390 1610,430 1650,390"/>
<text baseline-shift="-50%" cb-classname="GraphicTextEntity" class="algorithm" font-size="33" id="12H" text-anchor="middle" x="1610" y="381">
T
</text>
<g cb-classname="ControlPin" cb-pin-name="p4-oHE-qa5" id="12u">
<line cb-classname="GraphicLineEntity" class="signalline" id="1EF" x1="1610" x2="1610" y1="430" y2="450"/>
<g cb-classname="DynamicText" cb-source="9e-Weh-nzf8" class="signal" id="1E4" text-anchor="end">
<text baseline-shift="5%" cb-classname="GraphicTextEntity" class="signal" fill="black" font-style="normal" font-weight="normal" id="1Ey" text-anchor="end" text-decoration="normal" transform="translate(1599,442)rotate(-90)"/>
</g>
</g>
<g cb-classname="ControlPin" cb-pin-name="UT-p4g-rJod" id="1ET">
<line cb-classname="GraphicLineEntity" class="signalline" id="1EN" x1="1570" x2="1590" y1="350" y2="370"/>
<polygon cb-classname="GraphicPolygonEntity" class="signal" id="1EH" points="1590,370 1585,359 1579,365"/>
<g cb-classname="DynamicText" cb-source="Ug-f8x-gX9a" class="signal" id="1Eu" text-anchor="end">
<text baseline-shift="5%" cb-classname="GraphicTextEntity" class="signal" fill="black" font-style="normal" font-weight="normal" id="1MF" text-anchor="end" text-decoration="normal" transform="translate(1572,339)rotate(45)"/>
</g>
</g>
<g cb-classname="ControlPin" cb-pin-name="N1-lzd-SaM" id="1M4">
<line cb-classname="GraphicLineEntity" class="signalline" id="1My" x1="1610" x2="1610" y1="330" y2="350"/>
<polygon cb-classname="GraphicPolygonEntity" class="signal" id="1MX" points="1610,350 1614,339 1606,339"/>
<g cb-classname="DynamicText" cb-source="9e-Weh-nzf8" class="signal" id="1MJ">
<text baseline-shift="5%" cb-classname="GraphicTextEntity" class="signal" fill="black" font-style="normal" font-weight="normal" id="1MD" text-decoration="normal" transform="translate(1601,327)rotate(-90)"/>
</g>
</g>
<g cb-classname="ControlPin" cb-pin-name="9O-HRz-2O" id="1MT">
<line cb-classname="GraphicLineEntity" class="signalline" id="1MN" x1="1550" x2="1570" y1="390" y2="390"/>
<polygon cb-classname="GraphicPolygonEntity" class="signal" id="1MH" points="1570,390 1559,386 1559,394"/>
<g cb-classname="DynamicText" cb-source="UT-YDM-klk7" class="signal" id="1Mu" text-anchor="end">
<text baseline-shift="5%" cb-classname="GraphicTextEntity" class="signal" fill="black" font-style="normal" font-weight="normal" id="2WF" text-anchor="end" text-decoration="normal" x="1550" y="378"/>
</g>
</g>
</g>
</g>
<g cb-classname="IncludeDocument" cb-modify-time="12/03/2019 14:33:51" cb-objectname="frame" id="5">
<text cb-classname="GraphicTextEntity" class="frame" font-size="50" id="6" x="3660" y="3146">
HERA
</text>
<g baseline-shift="-50%" cb-classname="DynamicText" cb-source="Ug-o3Ki-5P" class="frame" id="7">
<text cb-classname="GraphicTextEntity" class="frame" fill="black" font-family="arial" font-size="25" font-style="normal" font-weight="normal" id="8" text-decoration="normal" x="4715" y="3325">
99
</text>
</g>
<g baseline-shift="-50%" cb-classname="DynamicText" cb-source="N1-cmwW-98" class="frame" id="9" text-anchor="middle">
<text cb-classname="GraphicTextEntity" class="frame" fill="black" font-family="arial" font-size="48" font-style="normal" font-weight="normal" id="1W" text-anchor="middle" text-decoration="normal" x="4900" y="3320">
99
</text>
</g>
<g baseline-shift="-50%" cb-classname="DynamicText" cb-source="AC-jX27-eU" class="frame" id="1X" text-anchor="middle">
<text cb-classname="GraphicTextEntity" class="frame" fill="black" font-family="arial" font-size="48" font-style="normal" font-weight="normal" id="1N" text-anchor="middle" text-decoration="normal" x="5067" y="3324">
3
</text>
</g>
<g cb-classname="DynamicText" cb-source="cD-upxXR-ygFJf" class="frame" id="1B">
<text cb-classname="GraphicTextEntity" class="frame" fill="black" font-family="arial" font-size="48" font-style="normal" font-weight="normal" id="1p" text-decoration="normal" x="3660" y="3224">
P33PM1500B - SIM
</text>
</g>
<g baseline-shift="-50%" cb-classname="DynamicText" cb-source="Rp-W9i5y-kBk2eZ" class="frame" id="1f" text-anchor="middle">
<text cb-classname="GraphicTextEntity" class="frame" fill="black" font-family="arial" font-size="48" font-style="normal" font-weight="normal" id="1k" text-anchor="middle" text-decoration="normal" x="5270" y="3324">
1108
</text>
</g>
<g baseline-shift="0%" cb-classname="DynamicText" cb-source="UT-b56geSrg" class="frame" id="12" text-anchor="middle">
<text cb-classname="GraphicTextEntity" class="frame" fill="black" font-family="arial" font-size="36" font-style="normal" font-weight="normal" id="1E" text-anchor="middle" text-decoration="normal" x="5270" y="3150">
A
</text>
</g>
<g baseline-shift="0%" cb-classname="DynamicText" cb-source="G7-nC7Su4Gf-Segh" class="frame" id="1M" text-anchor="middle">
<text cb-classname="GraphicTextEntity" class="frame" fill="black" font-family="arial" font-size="20" font-style="normal" font-weight="normal" id="2W" text-anchor="middle" text-decoration="normal" x="5270" y="3230">

</text>
</g>
<g baseline-shift="-50%" cb-classname="DynamicText" cb-source="8V-Sx44usa6" class="frame" id="2X" text-anchor="end">
<text cb-classname="GraphicTextEntity" class="frame" fill="black" font-family="arial" font-size="26" font-style="normal" font-weight="normal" id="2N" text-anchor="end" text-decoration="normal" x="4500" y="3420">

</text>
</g>
<g baseline-shift="-50%" cb-classname="DynamicText" cb-source="p4-m7xeaqSh" class="frame" id="2B" text-anchor="end">
<text cb-classname="GraphicTextEntity" class="frame" fill="black" font-family="arial" font-size="26" font-style="normal" font-weight="normal" id="2p" text-anchor="end" text-decoration="normal" x="5353" y="3420">

</text>
</g>
<g cb-classname="GraphicShape" cb-tag="BORDER" id="2f">
<line cb-classname="GraphicLineEntity" class="frameline" id="2k" x1="40" x2="40" y1="40" y2="3460"/>
<line cb-classname="GraphicLineEntity" class="frameline" id="22" x1="40" x2="5380" y1="3460" y2="3460"/>
<line cb-classname="GraphicLineEntity" class="frameline" id="2E" x1="5380" x2="5380" y1="3460" y2="40"/>
<line cb-classname="GraphicLineEntity" class="frameline" id="2M" x1="5380" x2="40" y1="40" y2="40"/>
<line cb-classname="GraphicLineEntity" class="frame" id="3W" x1="5430" x2="5440" y1="3510" y2="3510"/>
</g>
<g cb-classname="GraphicShape" cb-tag="TITLE BOX" id="3X">
<line cb-classname="GraphicLineEntity" class="frameline" id="3N" x1="2340" x2="2340" y1="3080" y2="3460"/>
<line cb-classname="GraphicLineEntity" class="frameline" id="3B" x1="2340" x2="5380" y1="3080" y2="3080"/>
<line cb-classname="GraphicLineEntity" class="frameline" id="3p" x1="3650" x2="3650" y1="3460" y2="3080"/>
<line cb-classname="GraphicLineEntity" class="frameline" id="3f" x1="3650" x2="5380" y1="3240" y2="3240"/>
<line cb-classname="GraphicLineEntity" class="frameline" id="3k" x1="3650" x2="5380" y1="3390" y2="3390"/>
<line cb-classname="GraphicLineEntity" class="frameline" id="32" x1="3650" x2="5380" y1="3160" y2="3160"/>
<line cb-classname="GraphicLineEntity" class="frameline" id="3E" x1="3650" x2="4520" y1="3320" y2="3320"/>
<line cb-classname="GraphicLineEntity" class="frameline" id="3M" x1="4520" x2="5380" y1="3290" y2="3290"/>
<line cb-classname="GraphicLineEntity" class="frameline" id="4W" x1="4520" x2="5380" y1="3240" y2="3240"/>
<line cb-classname="GraphicLineEntity" class="frameline" id="4X" x1="4520" x2="4520" y1="3240" y2="3460"/>
<line cb-classname="GraphicLineEntity" class="frameline" id="4N" x1="4810" x2="4810" y1="3240" y2="3390"/>
<line cb-classname="GraphicLineEntity" class="frameline" id="4B" x1="4990" x2="4990" y1="3240" y2="3390"/>
<line cb-classname="GraphicLineEntity" class="frameline" id="4p" x1="5150" x2="5150" y1="3080" y2="3390"/>
</g>
<g cb-classname="GraphicShape" cb-tag="TEXT LABELS" id="4f">
<text baseline-shift="-50%" cb-classname="GraphicTextEntity" class="frame" font-size="25" id="4k" text-anchor="middle" x="4890" y="3252">
Drop
</text>
<text baseline-shift="-50%" cb-classname="GraphicTextEntity" class="frame" font-size="25" id="42" text-anchor="middle" x="5075" y="3252">
Task
</text>
<text baseline-shift="-50%" cb-classname="GraphicTextEntity" class="frame" font-size="25" id="4E" text-anchor="middle" x="5265" y="3252">
Sheet
</text>
<text cb-classname="GraphicTextEntity" class="frame" font-size="25" id="4M" x="5152" y="3107">
Rev.
</text>
<text cb-classname="GraphicTextEntity" class="frame" font-size="25" id="5W" x="3653" y="3418">
Engineer
</text>
<text cb-classname="GraphicTextEntity" class="frame" font-size="25" id="5X" x="4528" y="3419">
Approved
</text>
<text cb-classname="GraphicTextEntity" class="frame" font-size="25" id="5N" x="5152" y="3187">
Date
</text>
<text baseline-shift="-50%" cb-classname="GraphicTextEntity" class="frame" font-size="25" id="5B" text-anchor="middle" x="4660" y="3252">
Drawing Number
</text>
<text baseline-shift="-50%" cb-classname="GraphicTextEntity" class="frame" font-size="25" id="5p" text-anchor="middle" x="4680" y="3325">
CTL
</text>
</g>
<text baseline-shift="-50%" cb-classname="GraphicTextEntity" class="frame" font-size="48" id="5f" text-anchor="middle" x="3000" y="3100">
EMERSON PROCESS MANAGEMENT
</text>
<g baseline-shift="-100%" cb-anchor-x="2360" cb-anchor-y="3140" cb-classname="GroupText" cb-max-width="1260" fill="black" id="5k">
<text baseline-shift="-100%" cb-classname="GraphicTextEntity" class="frame" fill="black" font-family="arial" font-size="22" font-weight="normal" id="52" text-anchor="start" text-decoration="normal" x="2360" y="3140">
THIS DOCUMENT CONTAINS INFORMATION PROPRIETARY TO EMERSON PROCESS
</text>
<text baseline-shift="-100%" cb-classname="GraphicTextEntity" class="frame" fill="black" font-family="arial" font-size="22" font-weight="normal" id="5E" text-anchor="start" text-decoration="normal" x="2360" y="3176">
MANAGEMENT POWER &amp; WATER SOLUTIONS, INC. IT IS SUBMITTED IN CONFIDENCE AND
</text>
<text baseline-shift="-100%" cb-classname="GraphicTextEntity" class="frame" fill="black" font-family="arial" font-size="22" font-weight="normal" id="5M" text-anchor="start" text-decoration="normal" x="2360" y="3212">
TRUST, IS TO BE USED BY YOU SOLELY FOR THE PURPOSES FOR WHICH IT IS
</text>
<text baseline-shift="-100%" cb-classname="GraphicTextEntity" class="frame" fill="black" font-family="arial" font-size="22" font-weight="normal" id="6W" text-anchor="start" text-decoration="normal" x="2360" y="3248">
FURNISHED AND IS TO BE RETURNED UPON REQUEST. THIS DOCUMENT AND ANY
</text>
<text baseline-shift="-100%" cb-classname="GraphicTextEntity" class="frame" fill="black" font-family="arial" font-size="22" font-weight="normal" id="6X" text-anchor="start" text-decoration="normal" x="2360" y="3284">
OTHER INFORMATION PROVIDED TO YOU IS NOT TO BE REPRODUCED, TRANSMITTED,
</text>
<text baseline-shift="-100%" cb-classname="GraphicTextEntity" class="frame" fill="black" font-family="arial" font-size="22" font-weight="normal" id="6N" text-anchor="start" text-decoration="normal" x="2360" y="3320">
DISCLOSED, OR USED OTHERWISE IN WHOLE OR IN PART WITHOUT THE PRIOR
</text>
<text baseline-shift="-100%" cb-classname="GraphicTextEntity" class="frame" fill="black" font-family="arial" font-size="22" font-weight="normal" id="6B" text-anchor="start" text-decoration="normal" x="2360" y="3356">
WRITTEN AUTHORIZATION OF EMERSON PROCESS MANAGEMENT POWER &amp; WATER
</text>
<text baseline-shift="-100%" cb-classname="GraphicTextEntity" class="frame" fill="black" font-family="arial" font-size="22" font-weight="normal" id="6p" text-anchor="start" text-decoration="normal" x="2360" y="3392">
SOLUTIONS,INC.
</text>
</g>
</g>
</svg>