<?xml version="1.0" ?><svg cb-auto-time="02/11/2020 12:20:11" cb-classname="ControlFunction" cb-create-time="02/10/2020" cb-drop-id="99" cb-filename="Z:\OVATION\NET0\UNIT0\CONTROLFUNCTIONS\02D9.svg" cb-function-id="02D9" cb-key="234244332152" cb-modified-timestamp="1587028187" cb-modify-id="00000001" cb-path="Z:/OVATION/NET0/UNIT0/CONTROLFUNCTIONS" cb-revision="A" cb-sheet-number="1124" cb-sheet-title="A17RV1110B - SIM" cb-snap-grid="10" cb-task-id="3" height="3522" id="1" width="5450" xmlns="http://www.w3.org/2000/svg">
<style cb-classname="EntityStyle" id="2" type="text/css">
	.algorithm { fill: white; stroke: black; stroke-width: 3 }
	.algorithm-function { fill: black; stroke: none }
	.algorithm-functionline { fill: none; stroke: black; stroke-linecap: round; stroke-width: 3 }
	.algorithm-name { fill: black; stroke: none }
	.algorithm-nameline { fill: none; stroke: black; stroke-linecap: round; stroke-width: 3 }
	.algorithm-sequence { fill: black; stroke: none; visibility: hidden }
	.algorithm-sequenceline { fill: none; stroke: black; stroke-linecap: round; stroke-width: 3; visibility: hidden }
	.algorithmline { fill: none; stroke: black; stroke-linecap: round; stroke-width: 3 }
	.annotation { fill: black; stroke: none }
	.annotationline { fill: none; stroke: black; stroke-linecap: round; stroke-width: 3 }
	.description { fill: black; stroke: none }
	.descriptionline { fill: none; stroke: black; stroke-linecap: round; stroke-width: 3 }
	.frame { fill: black; stroke: none }
	.frameline { fill: none; stroke: black; stroke-linecap: round; stroke-width: 3 }
	.signal { fill: black; stroke: none }
	.signalline { fill: none; stroke: black; stroke-linecap: round; stroke-width: 3 }
	text.algorithm { fill: black; font-family: Arial; font-size: 22; stroke: none }
	text.algorithm-function { fill: black; font-family: Arial; font-size: 22; stroke: none }
	text.algorithm-name { fill: black; font-family: Arial; font-size: 22; stroke: none }
	text.algorithm-sequence { fill: black; font-family: Arial; font-size: 22; stroke: none; visibility: hidden }
	text.annotation { fill: black; font-family: Arial; font-size: 22; stroke: none }
	text.description { fill: black; font-family: Arial; font-size: 28; stroke: none }
	text.frame { fill: black; font-family: Arial; font-size: 18; stroke: none }
	text.signal { fill: black; font-family: Arial; font-size: 12; stroke: none }
</style>
<g cb-classname="NamedObject" cb-objectname="Comments" id="3"/>
<g cb-classname="AlgorithmContainer" cb-objectname="Algorithms" id="4">
<g cb-alg-o9yj="NO" cb-alg-onu="A17RV1110B_HSH" cb-algorithm-id="003" cb-classname="ExternalPointInterface" cb-function-name="INPUT" id="6b">
<ellipse cb-classname="GraphicEllipseEntity" class="algorithm" cx="600" cy="220" id="6i" rx="40" ry="40"/>
<rect cb-classname="GraphicRectangleEntity" class="algorithm" height="80" id="62" width="30" x="530" y="180"/>
<line cb-classname="GraphicLineEntity" class="algorithm" id="6E" x1="530" x2="560" y1="220" y2="220"/>
<g cb-classname="PointStatusIndicator" cb-indicator-type="Highway" cb-source="iW-Unn-EiZ" id="6O" visibility="visible">
<line cb-classname="GraphicLineEntity" class="algorithmline" id="7Q" x1="560" x2="600" y1="220" y2="180"/>
<line cb-classname="GraphicLineEntity" class="algorithmline" id="7V" x1="600" x2="640" y1="180" y2="220"/>
<line cb-classname="GraphicLineEntity" class="algorithmline" id="7F" x1="640" x2="600" y1="220" y2="260"/>
<line cb-classname="GraphicLineEntity" class="algorithmline" id="71" x1="600" x2="560" y1="260" y2="220"/>
</g>
<g cb-classname="PointStatusIndicator" cb-indicator-type="hardware" cb-source="4h-ST3-9Aa" id="7j" visibility="visible">
<line cb-classname="GraphicLineEntity" class="algorithmline" id="7b" x1="560" x2="640" y1="180" y2="180"/>
<line cb-classname="GraphicLineEntity" class="algorithmline" id="7i" x1="640" x2="640" y1="180" y2="260"/>
<line cb-classname="GraphicLineEntity" class="algorithmline" id="72" x1="640" x2="560" y1="260" y2="260"/>
</g>
<g cb-classname="PointStatusIndicator" cb-indicator-type="alarm" cb-source="cJ-xRb-TSU" id="7E" visibility="hidden">
<text cb-classname="GraphicTextEntity" class="algorithm" fill="#000000" font-family="arial" font-size="20" id="7O" x="537" y="209">
A
</text>
</g>
<g cb-classname="PointStatusIndicator" cb-indicator-type="ingraphic" cb-source="B5-MuP-tjn" id="8Q" visibility="hidden">
<text cb-classname="GraphicTextEntity" class="algorithm" fill="#000000" font-family="Arial" font-size="20" id="8V" x="535" y="249">
G
</text>
</g>
<g baseline-shift="-50%" cb-anchor-x="512" cb-anchor-y="214" cb-classname="PointDescription" cb-content="extended" cb-labeled="false" cb-max-width="240" cb-source="iW-Unn-EiZ" class="algorithm" id="8F" text-anchor="end">
<text baseline-shift="-50%" cb-classname="GraphicTextEntity" class="algorithm" id="81" text-anchor="end" x="512" y="162">
rot.vlv. RV1110B
</text>
<text baseline-shift="-50%" cb-classname="GraphicTextEntity" class="algorithm" id="2FZ" text-anchor="end" x="512" y="198">
lime pneu.convey.
</text>
<text baseline-shift="-50%" cb-classname="GraphicTextEntity" class="algorithm" id="2Fw" text-anchor="end" x="512" y="234">
- start/stop
</text>
<text baseline-shift="-50%" cb-classname="GraphicTextEntity" class="algorithm" id="21p" text-anchor="end" x="512" y="270">
(Start - !Stop)
</text>
</g>
<g cb-classname="DynamicText" cb-labeled="false" cb-pin-name="DWH" cb-source="02-ybJ-Mci" class="algorithm" id="8j" text-anchor="start">
<text baseline-shift="0%" cb-classname="GraphicTextEntity" class="algorithm" fill="black" font-family="Arial" font-size="20" font-style="normal" font-weight="normal" id="8b" text-anchor="start" text-decoration="normal" x="660" y="200"/>
</g>
<g baseline-shift="-100%" cb-anchor-x="660" cb-anchor-y="230" cb-classname="PointReferences" cb-max-width="230" cb-originator="true" cb-source="zW-u3B-Vqh" class="signal" id="8i" text-anchor="start">
<text baseline-shift="-100%" cb-classname="GraphicTextEntity" class="algorithm" id="82" text-anchor="start" x="660" y="230">
12/1241090
</text>
</g>
<g cb-classname="ControlPin" cb-pin-name="ls-lxx-I8L" id="8E">
<line cb-classname="GraphicLineEntity" class="signalline" id="8O" x1="640" x2="660" y1="220" y2="220"/>
<g cb-classname="SignalSegment" id="9Q">
<line cb-classname="GraphicLineEntity" class="signalline" id="9V" stroke="#1e12bf" stroke-dasharray="5,4" x1="660" x2="1030" y1="220" y2="220"/>
<g cb-classname="SignalSegment" id="9F">
<ellipse cb-classname="GraphicEllipseEntity" class="signal" cx="1030" cy="220" fill="#1e12bf" id="91" rx="5" ry="5" stroke="#1e12bf" stroke-dasharray="5,4"/>
<line cb-classname="GraphicLineEntity" class="signalline" id="9j" stroke="#1e12bf" stroke-dasharray="5,4" x1="1030" x2="1110" y1="220" y2="220"/>
<g cb-classname="SignalConnection" cb-graphic-line="$94$" cb-input-pin="$gpn$" id="9b"/>
<line cb-classname="GraphicLineEntity" class="signalline" id="9i" stroke="#1e12bf" stroke-dasharray="5,4" x1="1030" x2="1030" y1="220" y2="240"/>
<g cb-classname="SignalSegment" id="92">
<line cb-classname="GraphicLineEntity" class="signalline" id="9E" stroke="#1e12bf" stroke-dasharray="5,4" x1="1030" x2="1110" y1="240" y2="240"/>
<g cb-classname="SignalConnection" cb-graphic-line="$98$" cb-input-pin="$mZ1$" id="9O"/>
</g>
</g>
</g>
</g>
</g>
<g cb-alg-JRs3="$65$cb-alg-out$" cb-alg-NRF="$65$cb-alg-out$" cb-alg-UgNa="2" cb-alg-Wgyj="1.0" cb-alg-jdua="96" cb-alg-tjn="S_A17RV1110B_YLH" cb-algorithm-id="009" cb-classname="ControlAlgorithm" cb-function-name="ONDELAY" cb-modify-id="00000001" id="1Qp">
<rect cb-classname="GraphicRectangleEntity" class="algorithm" height="60" id="1QA" width="60" x="1130" y="200"/>
<text baseline-shift="-50%" cb-classname="GraphicTextEntity" class="algorithm" font-size="18" id="1QK" text-anchor="middle" x="1159" y="212">
TD
</text>
<text cb-classname="GraphicTextEntity" class="algorithm" font-size="18" id="1QI" text-anchor="middle" x="1159" y="247">
ON
</text>
<g cb-classname="ControlPin" cb-pin-name="cJ-xRb-0Bm" id="1QX">
<line cb-classname="GraphicLineEntity" class="signalline" id="1Qs" x1="1110" x2="1130" y1="220" y2="220"/>
<polygon cb-classname="GraphicPolygonEntity" class="signal" id="1QS" points="1130,220 1119,216 1119,224"/>
<g cb-classname="DynamicText" cb-source="Hf-r0B-RuUn" class="signal" id="1QQ" text-anchor="end">
<text baseline-shift="5%" cb-classname="GraphicTextEntity" class="signal" fill="black" font-style="normal" font-weight="normal" id="1QZ" text-anchor="end" text-decoration="normal" x="1094" y="216"/>
</g>
</g>
<g cb-classname="ControlPin" cb-pin-name="Uv-GeA-Y9i" id="1Qw">
<line cb-classname="GraphicLineEntity" class="signalline" id="1Vp" x1="1190" x2="1210" y1="220" y2="220"/>
<g cb-classname="DynamicText" cb-source="M1-cd9-5yJu" class="signal" id="1VA">
<text baseline-shift="5%" cb-classname="GraphicTextEntity" class="signal" fill="black" font-style="normal" font-weight="normal" id="1VK" text-decoration="normal" x="1226" y="216"/>
</g>
<g cb-classname="SignalSegment" id="1VI">
<line cb-classname="GraphicLineEntity" class="signalline" id="1VX" stroke="#1e12bf" stroke-dasharray="5,4" x1="1210" x2="1520" y1="220" y2="220"/>
<g cb-classname="SignalSegment" id="1Vs">
<line cb-classname="GraphicLineEntity" class="signalline" id="1VS" stroke="#1e12bf" stroke-dasharray="5,4" x1="1520" x2="1520" y1="220" y2="350"/>
<g cb-classname="SignalSegment" id="1VQ">
<line cb-classname="GraphicLineEntity" class="signalline" id="1VZ" stroke="#1e12bf" stroke-dasharray="5,4" x1="1520" x2="1570" y1="350" y2="350"/>
<g cb-classname="SignalConnection" cb-graphic-line="$118$" cb-input-pin="$3OG$" id="1Vw"/>
</g>
<line cb-classname="GraphicLineEntity" class="signalline" id="1Fp" stroke="#1e12bf" stroke-dasharray="5,4" x1="1520" x2="3940" y1="220" y2="220"/>
<g cb-classname="SignalConnection" cb-graphic-line="$120$" cb-input-pin="$gnn$" id="1FA"/>
<ellipse cb-classname="GraphicEllipseEntity" class="signal" cx="1520" cy="220" fill="#1e12bf" id="1FK" rx="5" ry="5" stroke="#1e12bf" stroke-dasharray="5,4"/>
</g>
</g>
</g>
<g cb-classname="ControlPin" cb-pin-name="02-ybJ-n57O" id="1FI">
<line cb-classname="GraphicLineEntity" class="signalline" id="1FX" x1="1110" x2="1130" y1="240" y2="240"/>
<polygon cb-classname="GraphicPolygonEntity" class="signal" id="1Fs" points="1130,240 1119,236 1119,244"/>
<g cb-classname="DynamicText" cb-source="4h-za5-AROF" class="signal" id="1FS" text-anchor="end">
<text baseline-shift="5%" cb-classname="GraphicTextEntity" class="signal" fill="black" font-style="normal" font-weight="normal" id="1FQ" text-anchor="end" text-decoration="normal" x="1094" y="236"/>
</g>
</g>
<g cb-classname="GraphicShape" id="1FZ">
<g cb-classname="DynamicText" cb-labeled="true" cb-source="cG-yOV-L6dv" id="1Fw">
<text cb-classname="GraphicTextEntity" class="algorithm" id="11p" text-anchor="start" x="1100" y="180"/>
</g>
</g>
</g>
<g cb-alg-g8="$100$cb-alg-out$" cb-algorithm-id="00C" cb-classname="ExternalPointInterface" cb-function-name="OUTPUT" id="11A">
<ellipse cb-classname="GraphicEllipseEntity" class="algorithm" cx="4000" cy="220" id="11K" rx="40" ry="40"/>
<rect cb-classname="GraphicRectangleEntity" class="algorithm" height="80" id="11I" width="30" x="4040" y="180"/>
<line cb-classname="GraphicLineEntity" class="algorithm" id="11X" x1="4040" x2="4070" y1="220" y2="220"/>
<g cb-classname="PointStatusIndicator" cb-indicator-type="highway" cb-source="Uv-GeA-dR" id="11s" visibility="hidden">
<line cb-classname="GraphicLineEntity" class="algorithmline" id="11S" x1="3960" x2="4000" y1="220" y2="180"/>
<line cb-classname="GraphicLineEntity" class="algorithmline" id="11Q" x1="4000" x2="4040" y1="180" y2="220"/>
<line cb-classname="GraphicLineEntity" class="algorithmline" id="11Z" x1="4040" x2="4000" y1="220" y2="260"/>
<line cb-classname="GraphicLineEntity" class="algorithmline" id="11w" x1="4000" x2="3960" y1="260" y2="220"/>
</g>
<g cb-classname="PointStatusIndicator" cb-indicator-type="hardware" cb-source="ls-lxx-sp" id="1jp" visibility="hidden">
<line cb-classname="GraphicLineEntity" class="algorithmline" id="1jA" x1="4040" x2="3960" y1="180" y2="180"/>
<line cb-classname="GraphicLineEntity" class="algorithmline" id="1jK" x1="3960" x2="3960" y1="180" y2="260"/>
<line cb-classname="GraphicLineEntity" class="algorithmline" id="1jI" x1="3960" x2="4040" y1="260" y2="260"/>
</g>
<g cb-classname="PointStatusIndicator" cb-indicator-type="alarm" cb-source="DU-SzB-Nv" id="1jX" visibility="hidden">
<text cb-classname="GraphicTextEntity" class="algorithm" fill="#000000" font-family="Arial" font-size="20" id="1js" x="4047" y="209">
A
</text>
</g>
<g cb-classname="PointStatusIndicator" cb-indicator-type="ingraphic" cb-source="Hf-f77-dC" id="1jS" visibility="hidden">
<text cb-classname="GraphicTextEntity" class="algorithm" fill="#000000" font-family="Arial" font-size="20" id="1jQ" x="4045" y="250">
G
</text>
</g>
<g cb-classname="DynamicText" cb-labeled="false" cb-pin-name="o2" cb-source="Uv-GeA-dR" class="algorithm" id="1jZ" text-anchor="end">
<text baseline-shift="0%" cb-classname="GraphicTextEntity" class="algorithm" fill="black" font-family="Arial" font-size="20" font-style="normal" font-weight="normal" id="1jw" text-anchor="end" text-decoration="normal" x="3937" y="199"/>
</g>
<g baseline-shift="-100%" cb-anchor-x="3938" cb-anchor-y="236" cb-classname="PointReferences" cb-max-width="240" cb-originator="false" cb-source="M1-gia-28" class="signal" id="1bp" text-anchor="end">
<text baseline-shift="-100%" cb-classname="GraphicTextEntity" class="algorithm" id="1bA" text-anchor="end" x="3938" y="236">
-
</text>
</g>
<g baseline-shift="-50%" cb-anchor-x="4091" cb-anchor-y="218" cb-classname="PointDescription" cb-content="extended" cb-labeled="false" cb-max-width="240" cb-source="4h-ST3-xH" class="algorithm" id="1bK" text-anchor="start">
<text baseline-shift="-50%" cb-classname="GraphicTextEntity" class="algorithm" id="1bI" text-anchor="start" x="4091" y="166">
DESC: No
</text>
<text baseline-shift="-50%" cb-classname="GraphicTextEntity" class="algorithm" id="21A" text-anchor="start" x="4091" y="202">
Description
</text>
<text baseline-shift="-50%" cb-classname="GraphicTextEntity" class="algorithm" id="21K" text-anchor="start" x="4091" y="238">
Defined
</text>
<text baseline-shift="-50%" cb-classname="GraphicTextEntity" class="algorithm" id="21I" text-anchor="start" x="4091" y="274">
(S_A17RV1110B_YLH)
</text>
</g>
<g cb-classname="ControlPin" cb-pin-name="0V-rq6-uM" id="1bX">
<line cb-classname="GraphicLineEntity" class="signalline" id="1bs" x1="3940" x2="3960" y1="220" y2="220"/>
<polygon cb-classname="GraphicPolygonEntity" class="signal" id="1bS" points="3960,220 3949,214 3949,225"/>
</g>
</g>
<g cb-alg-3yxG="65" cb-alg-eWXX="56.2" cb-algorithm-id="021" cb-classname="ControlAlgorithm" cb-function-name="AVALGEN" cb-modify-id="00000001" id="1bQ">
<polygon cb-classname="GraphicPolygonEntity" class="algorithm" id="1bZ" points="600,430 640,390 600,350 560,390"/>
<text baseline-shift="-50%" cb-classname="GraphicTextEntity" class="algorithm" font-size="44" id="1bw" text-anchor="middle" x="600" y="373">
A
</text>
<g cb-classname="ControlPin" cb-pin-name="iW-Unn-EiZ" id="1ip">
<line cb-classname="GraphicLineEntity" class="signalline" id="1iA" x1="640" x2="660" y1="390" y2="390"/>
<g cb-classname="DynamicText" cb-source="02-odC-RrEs" class="signal" id="1iK">
<text baseline-shift="5%" cb-classname="GraphicTextEntity" class="signal" fill="black" font-style="normal" font-weight="normal" id="1iI" text-decoration="normal" x="651" y="380"/>
</g>
<g cb-classname="SignalSegment" id="1iX">
<line cb-classname="GraphicLineEntity" class="signalline" id="1is" x1="660" x2="1450" y1="390" y2="390"/>
<g cb-classname="SignalSegment" id="1iS">
<line cb-classname="GraphicLineEntity" class="signalline" id="1iQ" x1="1450" x2="1450" y1="390" y2="260"/>
<g cb-classname="SignalSegment" id="1iZ">
<line cb-classname="GraphicLineEntity" class="signalline" id="1iw" x1="1450" x2="1610" y1="260" y2="260"/>
<g cb-classname="SignalSegment" id="12p">
<line cb-classname="GraphicLineEntity" class="signalline" id="12A" x1="1610" x2="1610" y1="260" y2="330"/>
<g cb-classname="SignalConnection" cb-graphic-line="$171$" cb-input-pin="$YeN$" id="12K"/>
</g>
</g>
<line cb-classname="GraphicLineEntity" class="signalline" id="12I" x1="1450" x2="1550" y1="390" y2="390"/>
<g cb-classname="SignalConnection" cb-graphic-line="$173$" cb-input-pin="$NDM$" id="12X"/>
<ellipse cb-classname="GraphicEllipseEntity" class="signal" cx="1450" cy="390" id="12s" rx="5" ry="5" stroke="black"/>
</g>
</g>
</g>
</g>
<g cb-alg-293l="-999999999" cb-alg-3nJt="OFF" cb-alg-4h3="$157$cb-alg-out$" cb-alg-4h3A="1" cb-alg-4h3h="0.000000" cb-alg-6AiL="2.500000" cb-alg-6AiZ="2.500000" cb-alg-6l3l="999999999" cb-alg-HNyA="42" cb-alg-InyA="$100$cb-alg-out$" cb-alg-Sx="$157$cb-alg-out$" cb-alg-Sx_A="0" cb-alg-Sx_h="0.000000" cb-alg-T9iw="ON" cb-alg-TDA="ON" cb-algorithm-id="010" cb-classname="ControlAlgorithm" cb-function-name="TRANSFER" cb-modify-id="00000001" id="12S">
<polygon cb-classname="GraphicPolygonEntity" class="algorithm" id="12Q" points="1610,350 1570,390 1610,430 1650,390"/>
<text baseline-shift="-50%" cb-classname="GraphicTextEntity" class="algorithm" font-size="33" id="12Z" text-anchor="middle" x="1610" y="381">
T
</text>
<g cb-classname="ControlPin" cb-pin-name="ls-lxx-I8L" id="12w">
<line cb-classname="GraphicLineEntity" class="signalline" id="1Ep" x1="1610" x2="1610" y1="430" y2="450"/>
<g cb-classname="DynamicText" cb-source="cG-LxH-M6B8" class="signal" id="1EA" text-anchor="end">
<text baseline-shift="5%" cb-classname="GraphicTextEntity" class="signal" fill="black" font-style="normal" font-weight="normal" id="1EK" text-anchor="end" text-decoration="normal" transform="translate(1599,442)rotate(-90)"/>
</g>
</g>
<g cb-classname="ControlPin" cb-pin-name="iW-Unn-a3l3" id="1ES">
<line cb-classname="GraphicLineEntity" class="signalline" id="1EQ" x1="1570" x2="1590" y1="350" y2="370"/>
<polygon cb-classname="GraphicPolygonEntity" class="signal" id="1EZ" points="1590,370 1585,359 1579,365"/>
<g cb-classname="DynamicText" cb-source="M1-cd9-5yJu" class="signal" id="1Ew" text-anchor="end">
<text baseline-shift="5%" cb-classname="GraphicTextEntity" class="signal" fill="black" font-style="normal" font-weight="normal" id="1Op" text-anchor="end" text-decoration="normal" transform="translate(1572,339)rotate(45)"/>
</g>
</g>
<g cb-classname="ControlPin" cb-pin-name="4h-ST3-Quj" id="1OA">
<line cb-classname="GraphicLineEntity" class="signalline" id="1OK" x1="1610" x2="1610" y1="330" y2="350"/>
<polygon cb-classname="GraphicPolygonEntity" class="signal" id="1OI" points="1610,350 1614,339 1606,339"/>
<g cb-classname="DynamicText" cb-source="cG-LxH-M6B8" class="signal" id="1OX">
<text baseline-shift="5%" cb-classname="GraphicTextEntity" class="signal" fill="black" font-style="normal" font-weight="normal" id="1Os" text-decoration="normal" transform="translate(1601,327)rotate(-90)"/>
</g>
</g>
<g cb-classname="ControlPin" cb-pin-name="DU-SzB-Bt" id="1OS">
<line cb-classname="GraphicLineEntity" class="signalline" id="1OQ" x1="1550" x2="1570" y1="390" y2="390"/>
<polygon cb-classname="GraphicPolygonEntity" class="signal" id="1OZ" points="1570,390 1559,386 1559,394"/>
<g cb-classname="DynamicText" cb-source="iW-CNv-CSIZ" class="signal" id="1Ow" text-anchor="end">
<text baseline-shift="5%" cb-classname="GraphicTextEntity" class="signal" fill="black" font-style="normal" font-weight="normal" id="2Qp" text-anchor="end" text-decoration="normal" x="1550" y="378"/>
</g>
</g>
</g>
</g>
<g cb-classname="IncludeDocument" cb-modify-time="12/03/2019 14:33:51" cb-objectname="frame" id="5">
<text cb-classname="GraphicTextEntity" class="frame" font-size="50" id="6" x="3660" y="3146">
HERA
</text>
<g baseline-shift="-50%" cb-classname="DynamicText" cb-source="M1-TNYq-3X" class="frame" id="7">
<text cb-classname="GraphicTextEntity" class="frame" fill="black" font-family="arial" font-size="25" font-style="normal" font-weight="normal" id="8" text-decoration="normal" x="4715" y="3325">
99
</text>
</g>
<g baseline-shift="-50%" cb-classname="DynamicText" cb-source="4h-BwuL-sk" class="frame" id="9" text-anchor="middle">
<text cb-classname="GraphicTextEntity" class="frame" fill="black" font-family="arial" font-size="48" font-style="normal" font-weight="normal" id="1Q" text-anchor="middle" text-decoration="normal" x="4900" y="3320">
99
</text>
</g>
<g baseline-shift="-50%" cb-classname="DynamicText" cb-source="0V-iy1q-PN" class="frame" id="1V" text-anchor="middle">
<text cb-classname="GraphicTextEntity" class="frame" fill="black" font-family="arial" font-size="48" font-style="normal" font-weight="normal" id="1F" text-anchor="middle" text-decoration="normal" x="5067" y="3324">
3
</text>
</g>
<g cb-classname="DynamicText" cb-source="cJ-wxY16-Udn3n" class="frame" id="11">
<text cb-classname="GraphicTextEntity" class="frame" fill="black" font-family="arial" font-size="48" font-style="normal" font-weight="normal" id="1j" text-decoration="normal" x="3660" y="3224">
A17RV1110B - SIM
</text>
</g>
<g baseline-shift="-50%" cb-classname="DynamicText" cb-source="B5-y8NhU-CiIoNG" class="frame" id="1b" text-anchor="middle">
<text cb-classname="GraphicTextEntity" class="frame" fill="black" font-family="arial" font-size="48" font-style="normal" font-weight="normal" id="1i" text-anchor="middle" text-decoration="normal" x="5270" y="3324">
1124
</text>
</g>
<g baseline-shift="0%" cb-classname="DynamicText" cb-source="iW-5hzdydM5" class="frame" id="12" text-anchor="middle">
<text cb-classname="GraphicTextEntity" class="frame" fill="black" font-family="arial" font-size="36" font-style="normal" font-weight="normal" id="1E" text-anchor="middle" text-decoration="normal" x="5270" y="3150">
A
</text>
</g>
<g baseline-shift="0%" cb-classname="DynamicText" cb-source="02-izTd82VA-aPKG" class="frame" id="1O" text-anchor="middle">
<text cb-classname="GraphicTextEntity" class="frame" fill="black" font-family="arial" font-size="20" font-style="normal" font-weight="normal" id="2Q" text-anchor="middle" text-decoration="normal" x="5270" y="3230">

</text>
</g>
<g baseline-shift="-50%" cb-classname="DynamicText" cb-source="zW-L9B28sub" class="frame" id="2V" text-anchor="end">
<text cb-classname="GraphicTextEntity" class="frame" fill="black" font-family="arial" font-size="26" font-style="normal" font-weight="normal" id="2F" text-anchor="end" text-decoration="normal" x="4500" y="3420">

</text>
</g>
<g baseline-shift="-50%" cb-classname="DynamicText" cb-source="ls-wZsxusFv" class="frame" id="21" text-anchor="end">
<text cb-classname="GraphicTextEntity" class="frame" fill="black" font-family="arial" font-size="26" font-style="normal" font-weight="normal" id="2j" text-anchor="end" text-decoration="normal" x="5353" y="3420">

</text>
</g>
<g cb-classname="GraphicShape" cb-tag="BORDER" id="2b">
<line cb-classname="GraphicLineEntity" class="frameline" id="2i" x1="40" x2="40" y1="40" y2="3460"/>
<line cb-classname="GraphicLineEntity" class="frameline" id="22" x1="40" x2="5380" y1="3460" y2="3460"/>
<line cb-classname="GraphicLineEntity" class="frameline" id="2E" x1="5380" x2="5380" y1="3460" y2="40"/>
<line cb-classname="GraphicLineEntity" class="frameline" id="2O" x1="5380" x2="40" y1="40" y2="40"/>
<line cb-classname="GraphicLineEntity" class="frame" id="3Q" x1="5430" x2="5440" y1="3510" y2="3510"/>
</g>
<g cb-classname="GraphicShape" cb-tag="TITLE BOX" id="3V">
<line cb-classname="GraphicLineEntity" class="frameline" id="3F" x1="2340" x2="2340" y1="3080" y2="3460"/>
<line cb-classname="GraphicLineEntity" class="frameline" id="31" x1="2340" x2="5380" y1="3080" y2="3080"/>
<line cb-classname="GraphicLineEntity" class="frameline" id="3j" x1="3650" x2="3650" y1="3460" y2="3080"/>
<line cb-classname="GraphicLineEntity" class="frameline" id="3b" x1="3650" x2="5380" y1="3240" y2="3240"/>
<line cb-classname="GraphicLineEntity" class="frameline" id="3i" x1="3650" x2="5380" y1="3390" y2="3390"/>
<line cb-classname="GraphicLineEntity" class="frameline" id="32" x1="3650" x2="5380" y1="3160" y2="3160"/>
<line cb-classname="GraphicLineEntity" class="frameline" id="3E" x1="3650" x2="4520" y1="3320" y2="3320"/>
<line cb-classname="GraphicLineEntity" class="frameline" id="3O" x1="4520" x2="5380" y1="3290" y2="3290"/>
<line cb-classname="GraphicLineEntity" class="frameline" id="4Q" x1="4520" x2="5380" y1="3240" y2="3240"/>
<line cb-classname="GraphicLineEntity" class="frameline" id="4V" x1="4520" x2="4520" y1="3240" y2="3460"/>
<line cb-classname="GraphicLineEntity" class="frameline" id="4F" x1="4810" x2="4810" y1="3240" y2="3390"/>
<line cb-classname="GraphicLineEntity" class="frameline" id="41" x1="4990" x2="4990" y1="3240" y2="3390"/>
<line cb-classname="GraphicLineEntity" class="frameline" id="4j" x1="5150" x2="5150" y1="3080" y2="3390"/>
</g>
<g cb-classname="GraphicShape" cb-tag="TEXT LABELS" id="4b">
<text baseline-shift="-50%" cb-classname="GraphicTextEntity" class="frame" font-size="25" id="4i" text-anchor="middle" x="4890" y="3252">
Drop
</text>
<text baseline-shift="-50%" cb-classname="GraphicTextEntity" class="frame" font-size="25" id="42" text-anchor="middle" x="5075" y="3252">
Task
</text>
<text baseline-shift="-50%" cb-classname="GraphicTextEntity" class="frame" font-size="25" id="4E" text-anchor="middle" x="5265" y="3252">
Sheet
</text>
<text cb-classname="GraphicTextEntity" class="frame" font-size="25" id="4O" x="5152" y="3107">
Rev.
</text>
<text cb-classname="GraphicTextEntity" class="frame" font-size="25" id="5Q" x="3653" y="3418">
Engineer
</text>
<text cb-classname="GraphicTextEntity" class="frame" font-size="25" id="5V" x="4528" y="3419">
Approved
</text>
<text cb-classname="GraphicTextEntity" class="frame" font-size="25" id="5F" x="5152" y="3187">
Date
</text>
<text baseline-shift="-50%" cb-classname="GraphicTextEntity" class="frame" font-size="25" id="51" text-anchor="middle" x="4660" y="3252">
Drawing Number
</text>
<text baseline-shift="-50%" cb-classname="GraphicTextEntity" class="frame" font-size="25" id="5j" text-anchor="middle" x="4680" y="3325">
CTL
</text>
</g>
<text baseline-shift="-50%" cb-classname="GraphicTextEntity" class="frame" font-size="48" id="5b" text-anchor="middle" x="3000" y="3100">
EMERSON PROCESS MANAGEMENT
</text>
<g baseline-shift="-100%" cb-anchor-x="2360" cb-anchor-y="3140" cb-classname="GroupText" cb-max-width="1260" fill="black" id="5i">
<text baseline-shift="-100%" cb-classname="GraphicTextEntity" class="frame" fill="black" font-family="arial" font-size="22" font-weight="normal" id="52" text-anchor="start" text-decoration="normal" x="2360" y="3140">
THIS DOCUMENT CONTAINS INFORMATION PROPRIETARY TO EMERSON PROCESS
</text>
<text baseline-shift="-100%" cb-classname="GraphicTextEntity" class="frame" fill="black" font-family="arial" font-size="22" font-weight="normal" id="5E" text-anchor="start" text-decoration="normal" x="2360" y="3176">
MANAGEMENT POWER &amp; WATER SOLUTIONS, INC. IT IS SUBMITTED IN CONFIDENCE AND
</text>
<text baseline-shift="-100%" cb-classname="GraphicTextEntity" class="frame" fill="black" font-family="arial" font-size="22" font-weight="normal" id="5O" text-anchor="start" text-decoration="normal" x="2360" y="3212">
TRUST, IS TO BE USED BY YOU SOLELY FOR THE PURPOSES FOR WHICH IT IS
</text>
<text baseline-shift="-100%" cb-classname="GraphicTextEntity" class="frame" fill="black" font-family="arial" font-size="22" font-weight="normal" id="6Q" text-anchor="start" text-decoration="normal" x="2360" y="3248">
FURNISHED AND IS TO BE RETURNED UPON REQUEST. THIS DOCUMENT AND ANY
</text>
<text baseline-shift="-100%" cb-classname="GraphicTextEntity" class="frame" fill="black" font-family="arial" font-size="22" font-weight="normal" id="6V" text-anchor="start" text-decoration="normal" x="2360" y="3284">
OTHER INFORMATION PROVIDED TO YOU IS NOT TO BE REPRODUCED, TRANSMITTED,
</text>
<text baseline-shift="-100%" cb-classname="GraphicTextEntity" class="frame" fill="black" font-family="arial" font-size="22" font-weight="normal" id="6F" text-anchor="start" text-decoration="normal" x="2360" y="3320">
DISCLOSED, OR USED OTHERWISE IN WHOLE OR IN PART WITHOUT THE PRIOR
</text>
<text baseline-shift="-100%" cb-classname="GraphicTextEntity" class="frame" fill="black" font-family="arial" font-size="22" font-weight="normal" id="61" text-anchor="start" text-decoration="normal" x="2360" y="3356">
WRITTEN AUTHORIZATION OF EMERSON PROCESS MANAGEMENT POWER &amp; WATER
</text>
<text baseline-shift="-100%" cb-classname="GraphicTextEntity" class="frame" fill="black" font-family="arial" font-size="22" font-weight="normal" id="6j" text-anchor="start" text-decoration="normal" x="2360" y="3392">
SOLUTIONS,INC.
</text>
</g>
</g>
</svg>