<?xml version="1.0" ?><svg cb-auto-time="04/16/2020 12:17:59" cb-classname="ControlFunction" cb-create-time="02/10/2020" cb-drop-id="99" cb-filename="Z:\OVATION\NET0\UNIT0\CONTROLFUNCTIONS\02E4.svg" cb-function-id="02E4" cb-key="111111111111" cb-modified-timestamp="1587028681" cb-modify-id="00000001" cb-path="Z:/OVATION/NET0/UNIT0/CONTROLFUNCTIONS" cb-revision="A" cb-sheet-number="1132" cb-sheet-title="P32RV1124 - SIM" cb-snap-grid="10" cb-task-id="3" height="3522" id="1" width="5450" xmlns="http://www.w3.org/2000/svg">
<style cb-classname="EntityStyle" id="2" type="text/css">
	.algorithm { fill: white; stroke: black; stroke-width: 3 }
	.algorithm-function { fill: black; stroke: none }
	.algorithm-functionline { fill: none; stroke: black; stroke-linecap: round; stroke-width: 3 }
	.algorithm-name { fill: black; stroke: none }
	.algorithm-nameline { fill: none; stroke: black; stroke-linecap: round; stroke-width: 3 }
	.algorithm-sequence { fill: black; stroke: none; visibility: hidden }
	.algorithm-sequenceline { fill: none; stroke: black; stroke-linecap: round; stroke-width: 3; visibility: hidden }
	.algorithmline { fill: none; stroke: black; stroke-linecap: round; stroke-width: 3 }
	.annotation { fill: black; stroke: none }
	.annotationline { fill: none; stroke: black; stroke-linecap: round; stroke-width: 3 }
	.description { fill: black; stroke: none }
	.descriptionline { fill: none; stroke: black; stroke-linecap: round; stroke-width: 3 }
	.frame { fill: black; stroke: none }
	.frameline { fill: none; stroke: black; stroke-linecap: round; stroke-width: 3 }
	.signal { fill: black; stroke: none }
	.signalline { fill: none; stroke: black; stroke-linecap: round; stroke-width: 3 }
	text.algorithm { fill: black; font-family: Arial; font-size: 22; stroke: none }
	text.algorithm-function { fill: black; font-family: Arial; font-size: 22; stroke: none }
	text.algorithm-name { fill: black; font-family: Arial; font-size: 22; stroke: none }
	text.algorithm-sequence { fill: black; font-family: Arial; font-size: 22; stroke: none; visibility: hidden }
	text.annotation { fill: black; font-family: Arial; font-size: 22; stroke: none }
	text.description { fill: black; font-family: Arial; font-size: 28; stroke: none }
	text.frame { fill: black; font-family: Arial; font-size: 18; stroke: none }
	text.signal { fill: black; font-family: Arial; font-size: 12; stroke: none }
</style>
<g cb-classname="NamedObject" cb-objectname="Comments" id="3"/>
<g cb-classname="AlgorithmContainer" cb-objectname="Algorithms" id="4">
<g cb-alg-oiMU="NO" cb-alg-oue="P32RV1128_HSH" cb-algorithm-id="003" cb-classname="ExternalPointInterface" cb-function-name="INPUT" id="6Z">
<ellipse cb-classname="GraphicEllipseEntity" class="algorithm" cx="600" cy="220" id="6R" rx="40" ry="40"/>
<rect cb-classname="GraphicRectangleEntity" class="algorithm" height="80" id="6J" width="30" x="530" y="180"/>
<line cb-classname="GraphicLineEntity" class="algorithm" id="6B" x1="530" x2="560" y1="220" y2="220"/>
<g cb-classname="PointStatusIndicator" cb-indicator-type="Highway" cb-source="3k-6xs-Vuz" id="63" visibility="visible">
<line cb-classname="GraphicLineEntity" class="algorithmline" id="7I" x1="560" x2="600" y1="220" y2="180"/>
<line cb-classname="GraphicLineEntity" class="algorithmline" id="7M" x1="600" x2="640" y1="180" y2="220"/>
<line cb-classname="GraphicLineEntity" class="algorithmline" id="7Q" x1="640" x2="600" y1="220" y2="260"/>
<line cb-classname="GraphicLineEntity" class="algorithmline" id="7U" x1="600" x2="560" y1="260" y2="220"/>
</g>
<g cb-classname="PointStatusIndicator" cb-indicator-type="hardware" cb-source="M8-cDX-oue" id="7Y" visibility="visible">
<line cb-classname="GraphicLineEntity" class="algorithmline" id="7Z" x1="560" x2="640" y1="180" y2="180"/>
<line cb-classname="GraphicLineEntity" class="algorithmline" id="7R" x1="640" x2="640" y1="180" y2="260"/>
<line cb-classname="GraphicLineEntity" class="algorithmline" id="7J" x1="640" x2="560" y1="260" y2="260"/>
</g>
<g cb-classname="PointStatusIndicator" cb-indicator-type="alarm" cb-source="cT-J7i-VuZ" id="7B" visibility="hidden">
<text cb-classname="GraphicTextEntity" class="algorithm" fill="#000000" font-family="arial" font-size="20" id="73" x="537" y="209">
A
</text>
</g>
<g cb-classname="PointStatusIndicator" cb-indicator-type="ingraphic" cb-source="gz-jOM-duT" id="8I" visibility="hidden">
<text cb-classname="GraphicTextEntity" class="algorithm" fill="#000000" font-family="Arial" font-size="20" id="8M" x="535" y="249">
G
</text>
</g>
<g baseline-shift="-50%" cb-anchor-x="512" cb-anchor-y="214" cb-classname="PointDescription" cb-content="extended" cb-labeled="false" cb-max-width="240" cb-source="3k-6xs-Vuz" class="algorithm" id="8Q" text-anchor="end">
<text baseline-shift="-50%" cb-classname="GraphicTextEntity" class="algorithm" id="8U" text-anchor="end" x="512" y="162">
RV1124 dry FG
</text>
<text baseline-shift="-50%" cb-classname="GraphicTextEntity" class="algorithm" id="2Qn" text-anchor="end" x="512" y="198">
clean. dust from
</text>
<text baseline-shift="-50%" cb-classname="GraphicTextEntity" class="algorithm" id="2QU" text-anchor="end" x="512" y="234">
Unit4 - start/stop
</text>
<text baseline-shift="-50%" cb-classname="GraphicTextEntity" class="algorithm" id="2UC" text-anchor="end" x="512" y="270">
(Start - !Stop)
</text>
</g>
<g cb-classname="DynamicText" cb-labeled="false" cb-pin-name="fmH" cb-source="rq-CRl-duk" class="algorithm" id="8Y" text-anchor="start">
<text baseline-shift="0%" cb-classname="GraphicTextEntity" class="algorithm" fill="black" font-family="Arial" font-size="20" font-style="normal" font-weight="normal" id="8Z" text-anchor="start" text-decoration="normal" x="660" y="200"/>
</g>
<g baseline-shift="-100%" cb-anchor-x="660" cb-anchor-y="230" cb-classname="PointReferences" cb-max-width="230" cb-originator="true" cb-source="1H-Dfa-Vuq" class="signal" id="8R" text-anchor="start">
<text baseline-shift="-100%" cb-classname="GraphicTextEntity" class="algorithm" id="8J" text-anchor="start" x="660" y="230">
12/123400
</text>
</g>
<g cb-classname="ControlPin" cb-pin-name="FB-Pc7-duH" id="8B">
<line cb-classname="GraphicLineEntity" class="signalline" id="83" x1="640" x2="660" y1="220" y2="220"/>
<g cb-classname="SignalSegment" id="9I">
<line cb-classname="GraphicLineEntity" class="signalline" id="9M" stroke="#1e12bf" stroke-dasharray="5,4" x1="660" x2="1030" y1="220" y2="220"/>
<g cb-classname="SignalSegment" id="9Q">
<ellipse cb-classname="GraphicEllipseEntity" class="signal" cx="1030" cy="220" fill="#1e12bf" id="9U" rx="5" ry="5" stroke="#1e12bf" stroke-dasharray="5,4"/>
<line cb-classname="GraphicLineEntity" class="signalline" id="9Y" stroke="#1e12bf" stroke-dasharray="5,4" x1="1030" x2="1110" y1="220" y2="220"/>
<g cb-classname="SignalConnection" cb-graphic-line="$94$" cb-input-pin="$l0Y$" id="9Z"/>
<line cb-classname="GraphicLineEntity" class="signalline" id="9R" stroke="#1e12bf" stroke-dasharray="5,4" x1="1030" x2="1030" y1="220" y2="240"/>
<g cb-classname="SignalSegment" id="9J">
<line cb-classname="GraphicLineEntity" class="signalline" id="9B" stroke="#1e12bf" stroke-dasharray="5,4" x1="1030" x2="1110" y1="240" y2="240"/>
<g cb-classname="SignalConnection" cb-graphic-line="$98$" cb-input-pin="$7Qa$" id="93"/>
</g>
</g>
</g>
</g>
</g>
<g cb-alg-Hf6E="1.0" cb-alg-L7Dp="96" cb-alg-TtBf="$65$cb-alg-out$" cb-alg-XtO="$65$cb-alg-out$" cb-alg-Zf7p="2" cb-alg-duT="S_P32RV1124_YLH" cb-algorithm-id="009" cb-classname="ControlAlgorithm" cb-function-name="ONDELAY" cb-modify-id="00000001" id="1IG">
<rect cb-classname="GraphicRectangleEntity" class="algorithm" height="60" id="1IF" width="60" x="1130" y="200"/>
<text baseline-shift="-50%" cb-classname="GraphicTextEntity" class="algorithm" font-size="18" id="1Iw" text-anchor="middle" x="1159" y="212">
TD
</text>
<text cb-classname="GraphicTextEntity" class="algorithm" font-size="18" id="1Ir" text-anchor="middle" x="1159" y="247">
ON
</text>
<g cb-classname="ControlPin" cb-pin-name="cT-J7i-pE7" id="1I4">
<line cb-classname="GraphicLineEntity" class="signalline" id="1Ib" x1="1110" x2="1130" y1="220" y2="220"/>
<polygon cb-classname="GraphicPolygonEntity" class="signal" id="1IC" points="1130,220 1119,216 1119,224"/>
<g cb-classname="DynamicText" cb-source="9E-jpE-tDCk" class="signal" id="1IO" text-anchor="end">
<text baseline-shift="5%" cb-classname="GraphicTextEntity" class="signal" fill="black" font-style="normal" font-weight="normal" id="1In" text-anchor="end" text-decoration="normal" x="1094" y="216"/>
</g>
</g>
<g cb-classname="ControlPin" cb-pin-name="Ut-R6m-ouE" id="1IU">
<line cb-classname="GraphicLineEntity" class="signalline" id="1MG" x1="1190" x2="1210" y1="220" y2="220"/>
<g cb-classname="DynamicText" cb-source="ie-CJe-89PH" class="signal" id="1MF">
<text baseline-shift="5%" cb-classname="GraphicTextEntity" class="signal" fill="black" font-style="normal" font-weight="normal" id="1Mw" text-decoration="normal" x="1226" y="216"/>
</g>
<g cb-classname="SignalSegment" id="1Mr">
<line cb-classname="GraphicLineEntity" class="signalline" id="1M4" stroke="#1e12bf" stroke-dasharray="5,4" x1="1210" x2="1520" y1="220" y2="220"/>
<g cb-classname="SignalSegment" id="1Mb">
<line cb-classname="GraphicLineEntity" class="signalline" id="1MC" stroke="#1e12bf" stroke-dasharray="5,4" x1="1520" x2="1520" y1="220" y2="350"/>
<g cb-classname="SignalSegment" id="1MO">
<line cb-classname="GraphicLineEntity" class="signalline" id="1Mn" stroke="#1e12bf" stroke-dasharray="5,4" x1="1520" x2="1570" y1="350" y2="350"/>
<g cb-classname="SignalConnection" cb-graphic-line="$118$" cb-input-pin="$s5c$" id="1MU"/>
</g>
<line cb-classname="GraphicLineEntity" class="signalline" id="1QG" stroke="#1e12bf" stroke-dasharray="5,4" x1="1520" x2="3940" y1="220" y2="220"/>
<g cb-classname="SignalConnection" cb-graphic-line="$120$" cb-input-pin="$lEY$" id="1QF"/>
<ellipse cb-classname="GraphicEllipseEntity" class="signal" cx="1520" cy="220" fill="#1e12bf" id="1Qw" rx="5" ry="5" stroke="#1e12bf" stroke-dasharray="5,4"/>
</g>
</g>
</g>
<g cb-classname="ControlPin" cb-pin-name="rq-CRl-k8Zg" id="1Qr">
<line cb-classname="GraphicLineEntity" class="signalline" id="1Q4" x1="1110" x2="1130" y1="240" y2="240"/>
<polygon cb-classname="GraphicPolygonEntity" class="signal" id="1Qb" points="1130,240 1119,236 1119,244"/>
<g cb-classname="DynamicText" cb-source="M8-Dj8-nU9B" class="signal" id="1QC" text-anchor="end">
<text baseline-shift="5%" cb-classname="GraphicTextEntity" class="signal" fill="black" font-style="normal" font-weight="normal" id="1QO" text-anchor="end" text-decoration="normal" x="1094" y="236"/>
</g>
</g>
<g cb-classname="GraphicShape" id="1Qn">
<g cb-classname="DynamicText" cb-labeled="true" cb-source="mh-9gO-H1cC" id="1QU">
<text cb-classname="GraphicTextEntity" class="algorithm" id="1UG" text-anchor="start" x="1100" y="180"/>
</g>
</g>
</g>
<g cb-alg-15="$100$cb-alg-out$" cb-algorithm-id="00C" cb-classname="ExternalPointInterface" cb-function-name="OUTPUT" id="1UF">
<ellipse cb-classname="GraphicEllipseEntity" class="algorithm" cx="4000" cy="220" id="1Uw" rx="40" ry="40"/>
<rect cb-classname="GraphicRectangleEntity" class="algorithm" height="80" id="1Ur" width="30" x="4040" y="180"/>
<line cb-classname="GraphicLineEntity" class="algorithm" id="1U4" x1="4040" x2="4070" y1="220" y2="220"/>
<g cb-classname="PointStatusIndicator" cb-indicator-type="highway" cb-source="Ut-R6m-OH" id="1Ub" visibility="hidden">
<line cb-classname="GraphicLineEntity" class="algorithmline" id="1UC" x1="3960" x2="4000" y1="220" y2="180"/>
<line cb-classname="GraphicLineEntity" class="algorithmline" id="1UO" x1="4000" x2="4040" y1="180" y2="220"/>
<line cb-classname="GraphicLineEntity" class="algorithmline" id="1Un" x1="4040" x2="4000" y1="220" y2="260"/>
<line cb-classname="GraphicLineEntity" class="algorithmline" id="1UU" x1="4000" x2="3960" y1="260" y2="220"/>
</g>
<g cb-classname="PointStatusIndicator" cb-indicator-type="hardware" cb-source="FB-Pc7-C5" id="1YG" visibility="hidden">
<line cb-classname="GraphicLineEntity" class="algorithmline" id="1YF" x1="4040" x2="3960" y1="180" y2="180"/>
<line cb-classname="GraphicLineEntity" class="algorithmline" id="1Yw" x1="3960" x2="3960" y1="180" y2="260"/>
<line cb-classname="GraphicLineEntity" class="algorithmline" id="1Yr" x1="3960" x2="4040" y1="260" y2="260"/>
</g>
<g cb-classname="PointStatusIndicator" cb-indicator-type="alarm" cb-source="PN-OJ1-ak" id="1Y4" visibility="hidden">
<text cb-classname="GraphicTextEntity" class="algorithm" fill="#000000" font-family="Arial" font-size="20" id="1Yb" x="4047" y="209">
A
</text>
</g>
<g cb-classname="PointStatusIndicator" cb-indicator-type="ingraphic" cb-source="9E-xjF-7q" id="1YC" visibility="hidden">
<text cb-classname="GraphicTextEntity" class="algorithm" fill="#000000" font-family="Arial" font-size="20" id="1YO" x="4045" y="250">
G
</text>
</g>
<g cb-classname="DynamicText" cb-labeled="false" cb-pin-name="0e" cb-source="Ut-R6m-OH" class="algorithm" id="1Yn" text-anchor="end">
<text baseline-shift="0%" cb-classname="GraphicTextEntity" class="algorithm" fill="black" font-family="Arial" font-size="20" font-style="normal" font-weight="normal" id="1YU" text-anchor="end" text-decoration="normal" x="3937" y="199"/>
</g>
<g baseline-shift="-100%" cb-anchor-x="3938" cb-anchor-y="236" cb-classname="PointReferences" cb-max-width="240" cb-originator="false" cb-source="ie-fCp-xB" class="signal" id="1ZG" text-anchor="end">
<text baseline-shift="-100%" cb-classname="GraphicTextEntity" class="algorithm" id="1ZF" text-anchor="end" x="3938" y="236">
-
</text>
</g>
<g baseline-shift="-50%" cb-anchor-x="4091" cb-anchor-y="218" cb-classname="PointDescription" cb-content="extended" cb-labeled="false" cb-max-width="240" cb-source="M8-cDX-Rh" class="algorithm" id="1Zw" text-anchor="start">
<text baseline-shift="-50%" cb-classname="GraphicTextEntity" class="algorithm" id="1Zr" text-anchor="start" x="4091" y="166">
DESC: No
</text>
<text baseline-shift="-50%" cb-classname="GraphicTextEntity" class="algorithm" id="2UF" text-anchor="start" x="4091" y="202">
Description
</text>
<text baseline-shift="-50%" cb-classname="GraphicTextEntity" class="algorithm" id="2Uw" text-anchor="start" x="4091" y="238">
Defined
</text>
<text baseline-shift="-50%" cb-classname="GraphicTextEntity" class="algorithm" id="2Ur" text-anchor="start" x="4091" y="274">
(S_P32RV1124_YLH)
</text>
</g>
<g cb-classname="ControlPin" cb-pin-name="sn-gPJ-fZ" id="1Z4">
<line cb-classname="GraphicLineEntity" class="signalline" id="1Zb" x1="3940" x2="3960" y1="220" y2="220"/>
<polygon cb-classname="GraphicPolygonEntity" class="signal" id="1ZC" points="3960,220 3949,214 3949,225"/>
</g>
</g>
<g cb-alg-LMJr="65" cb-alg-y7Xu="56.2" cb-algorithm-id="021" cb-classname="ControlAlgorithm" cb-function-name="AVALGEN" cb-modify-id="00000001" id="1ZO">
<polygon cb-classname="GraphicPolygonEntity" class="algorithm" id="1Zn" points="600,430 640,390 600,350 560,390"/>
<text baseline-shift="-50%" cb-classname="GraphicTextEntity" class="algorithm" font-size="44" id="1ZU" text-anchor="middle" x="600" y="373">
A
</text>
<g cb-classname="ControlPin" cb-pin-name="3k-6xs-Vuz" id="1RG">
<line cb-classname="GraphicLineEntity" class="signalline" id="1RF" x1="640" x2="660" y1="390" y2="390"/>
<g cb-classname="DynamicText" cb-source="rq-R7q-Hgce" class="signal" id="1Rw">
<text baseline-shift="5%" cb-classname="GraphicTextEntity" class="signal" fill="black" font-style="normal" font-weight="normal" id="1Rr" text-decoration="normal" x="651" y="380"/>
</g>
<g cb-classname="SignalSegment" id="1R4">
<line cb-classname="GraphicLineEntity" class="signalline" id="1Rb" x1="660" x2="1450" y1="390" y2="390"/>
<g cb-classname="SignalSegment" id="1RC">
<line cb-classname="GraphicLineEntity" class="signalline" id="1RO" x1="1450" x2="1450" y1="390" y2="260"/>
<g cb-classname="SignalSegment" id="1Rn">
<line cb-classname="GraphicLineEntity" class="signalline" id="1RU" x1="1450" x2="1610" y1="260" y2="260"/>
<g cb-classname="SignalSegment" id="1JG">
<line cb-classname="GraphicLineEntity" class="signalline" id="1JF" x1="1610" x2="1610" y1="260" y2="330"/>
<g cb-classname="SignalConnection" cb-graphic-line="$171$" cb-input-pin="$m1p$" id="1Jw"/>
</g>
</g>
<line cb-classname="GraphicLineEntity" class="signalline" id="1Jr" x1="1450" x2="1550" y1="390" y2="390"/>
<g cb-classname="SignalConnection" cb-graphic-line="$173$" cb-input-pin="$pF9$" id="1J4"/>
<ellipse cb-classname="GraphicEllipseEntity" class="signal" cx="1450" cy="390" id="1Jb" rx="5" ry="5" stroke="black"/>
</g>
</g>
</g>
</g>
<g cb-alg-Abj="$157$cb-alg-out$" cb-alg-Abj8="0.000000" cb-alg-Abjm="1" cb-alg-JxT2="OFF" cb-alg-UxCm="$100$cb-alg-out$" cb-alg-V5aZ="ON" cb-alg-Vdi="ON" cb-alg-h6jF="999999999" cb-alg-hpaJ="2.500000" cb-alg-hpaQ="2.500000" cb-alg-oaCm="42" cb-alg-q5jF="-999999999" cb-alg-zo="$157$cb-alg-out$" cb-alg-zo_8="0.000000" cb-alg-zo_m="0" cb-algorithm-id="010" cb-classname="ControlAlgorithm" cb-function-name="TRANSFER" cb-modify-id="00000001" id="1JC">
<polygon cb-classname="GraphicPolygonEntity" class="algorithm" id="1JO" points="1610,350 1570,390 1610,430 1650,390"/>
<text baseline-shift="-50%" cb-classname="GraphicTextEntity" class="algorithm" font-size="33" id="1Jn" text-anchor="middle" x="1610" y="381">
T
</text>
<g cb-classname="ControlPin" cb-pin-name="FB-Pc7-duH" id="1JU">
<line cb-classname="GraphicLineEntity" class="signalline" id="1BG" x1="1610" x2="1610" y1="430" y2="450"/>
<g cb-classname="DynamicText" cb-source="mh-gRh-Z1r5" class="signal" id="1BF" text-anchor="end">
<text baseline-shift="5%" cb-classname="GraphicTextEntity" class="signal" fill="black" font-style="normal" font-weight="normal" id="1Bw" text-anchor="end" text-decoration="normal" transform="translate(1599,442)rotate(-90)"/>
</g>
</g>
<g cb-classname="ControlPin" cb-pin-name="3k-6xs-MfPX" id="1BC">
<line cb-classname="GraphicLineEntity" class="signalline" id="1BO" x1="1570" x2="1590" y1="350" y2="370"/>
<polygon cb-classname="GraphicPolygonEntity" class="signal" id="1Bn" points="1590,370 1585,359 1579,365"/>
<g cb-classname="DynamicText" cb-source="ie-CJe-89PH" class="signal" id="1BU" text-anchor="end">
<text baseline-shift="5%" cb-classname="GraphicTextEntity" class="signal" fill="black" font-style="normal" font-weight="normal" id="13G" text-anchor="end" text-decoration="normal" transform="translate(1572,339)rotate(45)"/>
</g>
</g>
<g cb-classname="ControlPin" cb-pin-name="M8-cDX-AHg" id="13F">
<line cb-classname="GraphicLineEntity" class="signalline" id="13w" x1="1610" x2="1610" y1="330" y2="350"/>
<polygon cb-classname="GraphicPolygonEntity" class="signal" id="13r" points="1610,350 1614,339 1606,339"/>
<g cb-classname="DynamicText" cb-source="mh-gRh-Z1r5" class="signal" id="134">
<text baseline-shift="5%" cb-classname="GraphicTextEntity" class="signal" fill="black" font-style="normal" font-weight="normal" id="13b" text-decoration="normal" transform="translate(1601,327)rotate(-90)"/>
</g>
</g>
<g cb-classname="ControlPin" cb-pin-name="PN-OJ1-Ed" id="13C">
<line cb-classname="GraphicLineEntity" class="signalline" id="13O" x1="1550" x2="1570" y1="390" y2="390"/>
<polygon cb-classname="GraphicPolygonEntity" class="signal" id="13n" points="1570,390 1559,386 1559,394"/>
<g cb-classname="DynamicText" cb-source="3k-xak-qcft" class="signal" id="13U" text-anchor="end">
<text baseline-shift="5%" cb-classname="GraphicTextEntity" class="signal" fill="black" font-style="normal" font-weight="normal" id="2IG" text-anchor="end" text-decoration="normal" x="1550" y="378"/>
</g>
</g>
</g>
</g>
<g cb-classname="IncludeDocument" cb-modify-time="12/03/2019 14:33:51" cb-objectname="frame" id="5">
<text cb-classname="GraphicTextEntity" class="frame" font-size="50" id="6" x="3660" y="3146">
HERA
</text>
<g baseline-shift="-50%" cb-classname="DynamicText" cb-source="ie-V7oc-6d" class="frame" id="7">
<text cb-classname="GraphicTextEntity" class="frame" fill="black" font-family="arial" font-size="25" font-style="normal" font-weight="normal" id="8" text-decoration="normal" x="4715" y="3325">
99
</text>
</g>
<g baseline-shift="-50%" cb-classname="DynamicText" cb-source="M8-dOLg-CV" class="frame" id="9" text-anchor="middle">
<text cb-classname="GraphicTextEntity" class="frame" fill="black" font-family="arial" font-size="48" font-style="normal" font-weight="normal" id="1I" text-anchor="middle" text-decoration="normal" x="4900" y="3320">
99
</text>
</g>
<g baseline-shift="-50%" cb-classname="DynamicText" cb-source="sn-E9ct-Dd" class="frame" id="1M" text-anchor="middle">
<text cb-classname="GraphicTextEntity" class="frame" fill="black" font-family="arial" font-size="48" font-style="normal" font-weight="normal" id="1Q" text-anchor="middle" text-decoration="normal" x="5067" y="3324">
3
</text>
</g>
<g cb-classname="DynamicText" cb-source="cT-pTh5h-Z7Tfk" class="frame" id="1U">
<text cb-classname="GraphicTextEntity" class="frame" fill="black" font-family="arial" font-size="48" font-style="normal" font-weight="normal" id="1Y" text-decoration="normal" x="3660" y="3224">
P32RV1124 - SIM
</text>
</g>
<g baseline-shift="-50%" cb-classname="DynamicText" cb-source="gz-XzZbZ-quf5q6" class="frame" id="1Z" text-anchor="middle">
<text cb-classname="GraphicTextEntity" class="frame" fill="black" font-family="arial" font-size="48" font-style="normal" font-weight="normal" id="1R" text-anchor="middle" text-decoration="normal" x="5270" y="3324">
1132
</text>
</g>
<g baseline-shift="0%" cb-classname="DynamicText" cb-source="3k-lbv76Od8" class="frame" id="1J" text-anchor="middle">
<text cb-classname="GraphicTextEntity" class="frame" fill="black" font-family="arial" font-size="36" font-style="normal" font-weight="normal" id="1B" text-anchor="middle" text-decoration="normal" x="5270" y="3150">
A
</text>
</g>
<g baseline-shift="0%" cb-classname="DynamicText" cb-source="rq-aNAOCxVn-eDUh" class="frame" id="13" text-anchor="middle">
<text cb-classname="GraphicTextEntity" class="frame" fill="black" font-family="arial" font-size="20" font-style="normal" font-weight="normal" id="2I" text-anchor="middle" text-decoration="normal" x="5270" y="3230">

</text>
</g>
<g baseline-shift="-50%" cb-classname="DynamicText" cb-source="1H-zeaxBeHC" class="frame" id="2M" text-anchor="end">
<text cb-classname="GraphicTextEntity" class="frame" fill="black" font-family="arial" font-size="26" font-style="normal" font-weight="normal" id="2Q" text-anchor="end" text-decoration="normal" x="4500" y="3420">

</text>
</g>
<g baseline-shift="-50%" cb-classname="DynamicText" cb-source="FB-OtvRHwBD" class="frame" id="2U" text-anchor="end">
<text cb-classname="GraphicTextEntity" class="frame" fill="black" font-family="arial" font-size="26" font-style="normal" font-weight="normal" id="2Y" text-anchor="end" text-decoration="normal" x="5353" y="3420">

</text>
</g>
<g cb-classname="GraphicShape" cb-tag="BORDER" id="2Z">
<line cb-classname="GraphicLineEntity" class="frameline" id="2R" x1="40" x2="40" y1="40" y2="3460"/>
<line cb-classname="GraphicLineEntity" class="frameline" id="2J" x1="40" x2="5380" y1="3460" y2="3460"/>
<line cb-classname="GraphicLineEntity" class="frameline" id="2B" x1="5380" x2="5380" y1="3460" y2="40"/>
<line cb-classname="GraphicLineEntity" class="frameline" id="23" x1="5380" x2="40" y1="40" y2="40"/>
<line cb-classname="GraphicLineEntity" class="frame" id="3I" x1="5430" x2="5440" y1="3510" y2="3510"/>
</g>
<g cb-classname="GraphicShape" cb-tag="TITLE BOX" id="3M">
<line cb-classname="GraphicLineEntity" class="frameline" id="3Q" x1="2340" x2="2340" y1="3080" y2="3460"/>
<line cb-classname="GraphicLineEntity" class="frameline" id="3U" x1="2340" x2="5380" y1="3080" y2="3080"/>
<line cb-classname="GraphicLineEntity" class="frameline" id="3Y" x1="3650" x2="3650" y1="3460" y2="3080"/>
<line cb-classname="GraphicLineEntity" class="frameline" id="3Z" x1="3650" x2="5380" y1="3240" y2="3240"/>
<line cb-classname="GraphicLineEntity" class="frameline" id="3R" x1="3650" x2="5380" y1="3390" y2="3390"/>
<line cb-classname="GraphicLineEntity" class="frameline" id="3J" x1="3650" x2="5380" y1="3160" y2="3160"/>
<line cb-classname="GraphicLineEntity" class="frameline" id="3B" x1="3650" x2="4520" y1="3320" y2="3320"/>
<line cb-classname="GraphicLineEntity" class="frameline" id="33" x1="4520" x2="5380" y1="3290" y2="3290"/>
<line cb-classname="GraphicLineEntity" class="frameline" id="4I" x1="4520" x2="5380" y1="3240" y2="3240"/>
<line cb-classname="GraphicLineEntity" class="frameline" id="4M" x1="4520" x2="4520" y1="3240" y2="3460"/>
<line cb-classname="GraphicLineEntity" class="frameline" id="4Q" x1="4810" x2="4810" y1="3240" y2="3390"/>
<line cb-classname="GraphicLineEntity" class="frameline" id="4U" x1="4990" x2="4990" y1="3240" y2="3390"/>
<line cb-classname="GraphicLineEntity" class="frameline" id="4Y" x1="5150" x2="5150" y1="3080" y2="3390"/>
</g>
<g cb-classname="GraphicShape" cb-tag="TEXT LABELS" id="4Z">
<text baseline-shift="-50%" cb-classname="GraphicTextEntity" class="frame" font-size="25" id="4R" text-anchor="middle" x="4890" y="3252">
Drop
</text>
<text baseline-shift="-50%" cb-classname="GraphicTextEntity" class="frame" font-size="25" id="4J" text-anchor="middle" x="5075" y="3252">
Task
</text>
<text baseline-shift="-50%" cb-classname="GraphicTextEntity" class="frame" font-size="25" id="4B" text-anchor="middle" x="5265" y="3252">
Sheet
</text>
<text cb-classname="GraphicTextEntity" class="frame" font-size="25" id="43" x="5152" y="3107">
Rev.
</text>
<text cb-classname="GraphicTextEntity" class="frame" font-size="25" id="5I" x="3653" y="3418">
Engineer
</text>
<text cb-classname="GraphicTextEntity" class="frame" font-size="25" id="5M" x="4528" y="3419">
Approved
</text>
<text cb-classname="GraphicTextEntity" class="frame" font-size="25" id="5Q" x="5152" y="3187">
Date
</text>
<text baseline-shift="-50%" cb-classname="GraphicTextEntity" class="frame" font-size="25" id="5U" text-anchor="middle" x="4660" y="3252">
Drawing Number
</text>
<text baseline-shift="-50%" cb-classname="GraphicTextEntity" class="frame" font-size="25" id="5Y" text-anchor="middle" x="4680" y="3325">
CTL
</text>
</g>
<text baseline-shift="-50%" cb-classname="GraphicTextEntity" class="frame" font-size="48" id="5Z" text-anchor="middle" x="3000" y="3100">
EMERSON PROCESS MANAGEMENT
</text>
<g baseline-shift="-100%" cb-anchor-x="2360" cb-anchor-y="3140" cb-classname="GroupText" cb-max-width="1260" fill="black" id="5R">
<text baseline-shift="-100%" cb-classname="GraphicTextEntity" class="frame" fill="black" font-family="arial" font-size="22" font-weight="normal" id="5J" text-anchor="start" text-decoration="normal" x="2360" y="3140">
THIS DOCUMENT CONTAINS INFORMATION PROPRIETARY TO EMERSON PROCESS
</text>
<text baseline-shift="-100%" cb-classname="GraphicTextEntity" class="frame" fill="black" font-family="arial" font-size="22" font-weight="normal" id="5B" text-anchor="start" text-decoration="normal" x="2360" y="3176">
MANAGEMENT POWER &amp; WATER SOLUTIONS, INC. IT IS SUBMITTED IN CONFIDENCE AND
</text>
<text baseline-shift="-100%" cb-classname="GraphicTextEntity" class="frame" fill="black" font-family="arial" font-size="22" font-weight="normal" id="53" text-anchor="start" text-decoration="normal" x="2360" y="3212">
TRUST, IS TO BE USED BY YOU SOLELY FOR THE PURPOSES FOR WHICH IT IS
</text>
<text baseline-shift="-100%" cb-classname="GraphicTextEntity" class="frame" fill="black" font-family="arial" font-size="22" font-weight="normal" id="6I" text-anchor="start" text-decoration="normal" x="2360" y="3248">
FURNISHED AND IS TO BE RETURNED UPON REQUEST. THIS DOCUMENT AND ANY
</text>
<text baseline-shift="-100%" cb-classname="GraphicTextEntity" class="frame" fill="black" font-family="arial" font-size="22" font-weight="normal" id="6M" text-anchor="start" text-decoration="normal" x="2360" y="3284">
OTHER INFORMATION PROVIDED TO YOU IS NOT TO BE REPRODUCED, TRANSMITTED,
</text>
<text baseline-shift="-100%" cb-classname="GraphicTextEntity" class="frame" fill="black" font-family="arial" font-size="22" font-weight="normal" id="6Q" text-anchor="start" text-decoration="normal" x="2360" y="3320">
DISCLOSED, OR USED OTHERWISE IN WHOLE OR IN PART WITHOUT THE PRIOR
</text>
<text baseline-shift="-100%" cb-classname="GraphicTextEntity" class="frame" fill="black" font-family="arial" font-size="22" font-weight="normal" id="6U" text-anchor="start" text-decoration="normal" x="2360" y="3356">
WRITTEN AUTHORIZATION OF EMERSON PROCESS MANAGEMENT POWER &amp; WATER
</text>
<text baseline-shift="-100%" cb-classname="GraphicTextEntity" class="frame" fill="black" font-family="arial" font-size="22" font-weight="normal" id="6Y" text-anchor="start" text-decoration="normal" x="2360" y="3392">
SOLUTIONS,INC.
</text>
</g>
</g>
</svg>