<?xml version="1.0" ?><svg cb-auto-time="02/10/2020 16:29:29" cb-classname="ControlFunction" cb-create-time="02/10/2020" cb-drop-id="99" cb-filename="Z:\OVATION\NET0\UNIT0\CONTROLFUNCTIONS\02E7.svg" cb-function-id="02E7" cb-key="123424433215" cb-modified-timestamp="1587028206" cb-modify-id="00000001" cb-path="Z:/OVATION/NET0/UNIT0/CONTROLFUNCTIONS" cb-revision="A" cb-sheet-number="1138" cb-sheet-title="A17SW1104B - SIM" cb-snap-grid="10" cb-task-id="3" height="3522" id="1" width="5450" xmlns="http://www.w3.org/2000/svg">
<style cb-classname="EntityStyle" id="2" type="text/css">
	.algorithm { fill: white; stroke: black; stroke-width: 3 }
	.algorithm-function { fill: black; stroke: none }
	.algorithm-functionline { fill: none; stroke: black; stroke-linecap: round; stroke-width: 3 }
	.algorithm-name { fill: black; stroke: none }
	.algorithm-nameline { fill: none; stroke: black; stroke-linecap: round; stroke-width: 3 }
	.algorithm-sequence { fill: black; stroke: none; visibility: hidden }
	.algorithm-sequenceline { fill: none; stroke: black; stroke-linecap: round; stroke-width: 3; visibility: hidden }
	.algorithmline { fill: none; stroke: black; stroke-linecap: round; stroke-width: 3 }
	.annotation { fill: black; stroke: none }
	.annotationline { fill: none; stroke: black; stroke-linecap: round; stroke-width: 3 }
	.description { fill: black; stroke: none }
	.descriptionline { fill: none; stroke: black; stroke-linecap: round; stroke-width: 3 }
	.frame { fill: black; stroke: none }
	.frameline { fill: none; stroke: black; stroke-linecap: round; stroke-width: 3 }
	.signal { fill: black; stroke: none }
	.signalline { fill: none; stroke: black; stroke-linecap: round; stroke-width: 3 }
	text.algorithm { fill: black; font-family: Arial; font-size: 22; stroke: none }
	text.algorithm-function { fill: black; font-family: Arial; font-size: 22; stroke: none }
	text.algorithm-name { fill: black; font-family: Arial; font-size: 22; stroke: none }
	text.algorithm-sequence { fill: black; font-family: Arial; font-size: 22; stroke: none; visibility: hidden }
	text.annotation { fill: black; font-family: Arial; font-size: 22; stroke: none }
	text.description { fill: black; font-family: Arial; font-size: 28; stroke: none }
	text.frame { fill: black; font-family: Arial; font-size: 18; stroke: none }
	text.signal { fill: black; font-family: Arial; font-size: 12; stroke: none }
</style>
<g cb-classname="NamedObject" cb-objectname="Comments" id="3"/>
<g cb-classname="AlgorithmContainer" cb-objectname="Algorithms" id="4">
<g cb-alg-oFf2="NO" cb-alg-olh="A17SW1104B_HSH" cb-algorithm-id="003" cb-classname="ExternalPointInterface" cb-function-name="INPUT" id="6d">
<ellipse cb-classname="GraphicEllipseEntity" class="algorithm" cx="600" cy="220" id="6e" rx="40" ry="40"/>
<rect cb-classname="GraphicRectangleEntity" class="algorithm" height="80" id="6o" width="30" x="530" y="180"/>
<line cb-classname="GraphicLineEntity" class="algorithm" id="6C" x1="530" x2="560" y1="220" y2="220"/>
<g cb-classname="PointStatusIndicator" cb-indicator-type="Highway" cb-source="xv-47V-ndF" id="6I" visibility="visible">
<line cb-classname="GraphicLineEntity" class="algorithmline" id="7M" x1="560" x2="600" y1="220" y2="180"/>
<line cb-classname="GraphicLineEntity" class="algorithmline" id="7U" x1="600" x2="640" y1="180" y2="220"/>
<line cb-classname="GraphicLineEntity" class="algorithmline" id="7P" x1="640" x2="600" y1="220" y2="260"/>
<line cb-classname="GraphicLineEntity" class="algorithmline" id="79" x1="600" x2="560" y1="260" y2="220"/>
</g>
<g cb-classname="PointStatusIndicator" cb-indicator-type="hardware" cb-source="PZ-7pn-0d0" id="7v" visibility="visible">
<line cb-classname="GraphicLineEntity" class="algorithmline" id="7d" x1="560" x2="640" y1="180" y2="180"/>
<line cb-classname="GraphicLineEntity" class="algorithmline" id="7e" x1="640" x2="640" y1="180" y2="260"/>
<line cb-classname="GraphicLineEntity" class="algorithmline" id="7o" x1="640" x2="560" y1="260" y2="260"/>
</g>
<g cb-classname="PointStatusIndicator" cb-indicator-type="alarm" cb-source="cN-wNR-uIl" id="7C" visibility="hidden">
<text cb-classname="GraphicTextEntity" class="algorithm" fill="#000000" font-family="arial" font-size="20" id="7I" x="537" y="209">
A
</text>
</g>
<g cb-classname="PointStatusIndicator" cb-indicator-type="ingraphic" cb-source="re-6gb-UJM" id="8M" visibility="hidden">
<text cb-classname="GraphicTextEntity" class="algorithm" fill="#000000" font-family="Arial" font-size="20" id="8U" x="535" y="249">
G
</text>
</g>
<g baseline-shift="-50%" cb-anchor-x="512" cb-anchor-y="214" cb-classname="PointDescription" cb-content="extended" cb-labeled="false" cb-max-width="240" cb-source="xv-47V-ndF" class="algorithm" id="8P" text-anchor="end">
<text baseline-shift="-50%" cb-classname="GraphicTextEntity" class="algorithm" id="89" text-anchor="end" x="512" y="162">
screw conv.
</text>
<text baseline-shift="-50%" cb-classname="GraphicTextEntity" class="algorithm" id="2Pv" text-anchor="end" x="512" y="198">
SW1104B dosag.
</text>
<text baseline-shift="-50%" cb-classname="GraphicTextEntity" class="algorithm" id="2P5" text-anchor="end" x="512" y="234">
lime - start/stop
</text>
<text baseline-shift="-50%" cb-classname="GraphicTextEntity" class="algorithm" id="29O" text-anchor="end" x="512" y="270">
(Start - !Stop)
</text>
</g>
<g cb-classname="DynamicText" cb-labeled="false" cb-pin-name="uYC" cb-source="Pj-LhD-Nho" class="algorithm" id="8v" text-anchor="start">
<text baseline-shift="0%" cb-classname="GraphicTextEntity" class="algorithm" fill="black" font-family="Arial" font-size="20" font-style="normal" font-weight="normal" id="8d" text-anchor="start" text-decoration="normal" x="660" y="200"/>
</g>
<g baseline-shift="-100%" cb-anchor-x="660" cb-anchor-y="230" cb-classname="PointReferences" cb-max-width="230" cb-originator="true" cb-source="mi-sXM-Q1j" class="signal" id="8e" text-anchor="start">
<text baseline-shift="-100%" cb-classname="GraphicTextEntity" class="algorithm" id="8o" text-anchor="start" x="660" y="230">
12/1241210
</text>
</g>
<g cb-classname="ControlPin" cb-pin-name="et-ROp-4sj" id="8C">
<line cb-classname="GraphicLineEntity" class="signalline" id="8I" x1="640" x2="660" y1="220" y2="220"/>
<g cb-classname="SignalSegment" id="9M">
<line cb-classname="GraphicLineEntity" class="signalline" id="9U" stroke="#1e12bf" stroke-dasharray="5,4" x1="660" x2="1030" y1="220" y2="220"/>
<g cb-classname="SignalSegment" id="9P">
<ellipse cb-classname="GraphicEllipseEntity" class="signal" cx="1030" cy="220" fill="#1e12bf" id="99" rx="5" ry="5" stroke="#1e12bf" stroke-dasharray="5,4"/>
<line cb-classname="GraphicLineEntity" class="signalline" id="9v" stroke="#1e12bf" stroke-dasharray="5,4" x1="1030" x2="1110" y1="220" y2="220"/>
<g cb-classname="SignalConnection" cb-graphic-line="$94$" cb-input-pin="$LZs$" id="9d"/>
<line cb-classname="GraphicLineEntity" class="signalline" id="9e" stroke="#1e12bf" stroke-dasharray="5,4" x1="1030" x2="1030" y1="220" y2="240"/>
<g cb-classname="SignalSegment" id="9o">
<line cb-classname="GraphicLineEntity" class="signalline" id="9C" stroke="#1e12bf" stroke-dasharray="5,4" x1="1030" x2="1110" y1="240" y2="240"/>
<g cb-classname="SignalConnection" cb-graphic-line="$98$" cb-input-pin="$OaG$" id="9I"/>
</g>
</g>
</g>
</g>
</g>
<g cb-alg-DVso="96" cb-alg-UJM="S_A17SW1104B_YLH" cb-alg-XStX="$65$cb-alg-out$" cb-alg-i28G="1.0" cb-alg-l2Lo="2" cb-alg-mSj="$65$cb-alg-out$" cb-algorithm-id="009" cb-classname="ControlAlgorithm" cb-function-name="ONDELAY" cb-modify-id="00000001" id="1MO">
<rect cb-classname="GraphicRectangleEntity" class="algorithm" height="60" id="1Mj" width="60" x="1130" y="200"/>
<text baseline-shift="-50%" cb-classname="GraphicTextEntity" class="algorithm" font-size="18" id="1M0" text-anchor="middle" x="1159" y="212">
TD
</text>
<text cb-classname="GraphicTextEntity" class="algorithm" font-size="18" id="1MI" text-anchor="middle" x="1159" y="247">
ON
</text>
<g cb-classname="ControlPin" cb-pin-name="cN-wNR-PVO" id="1Mq">
<line cb-classname="GraphicLineEntity" class="signalline" id="1Mm" x1="1110" x2="1130" y1="220" y2="220"/>
<polygon cb-classname="GraphicPolygonEntity" class="signal" id="1Mn" points="1130,220 1119,216 1119,224"/>
<g cb-classname="DynamicText" cb-source="sn-bPV-Ssr8" class="signal" id="1Ml" text-anchor="end">
<text baseline-shift="5%" cb-classname="GraphicTextEntity" class="signal" fill="black" font-style="normal" font-weight="normal" id="1Mv" text-anchor="end" text-decoration="normal" x="1094" y="216"/>
</g>
</g>
<g cb-classname="ControlPin" cb-pin-name="i8-aJr-fXt" id="1M5">
<line cb-classname="GraphicLineEntity" class="signalline" id="1UO" x1="1190" x2="1210" y1="220" y2="220"/>
<g cb-classname="DynamicText" cb-source="U3-xA6-dsIv" class="signal" id="1Uj">
<text baseline-shift="5%" cb-classname="GraphicTextEntity" class="signal" fill="black" font-style="normal" font-weight="normal" id="1U0" text-decoration="normal" x="1226" y="216"/>
</g>
<g cb-classname="SignalSegment" id="1UI">
<line cb-classname="GraphicLineEntity" class="signalline" id="1Uq" stroke="#1e12bf" stroke-dasharray="5,4" x1="1210" x2="1520" y1="220" y2="220"/>
<g cb-classname="SignalSegment" id="1Um">
<line cb-classname="GraphicLineEntity" class="signalline" id="1Un" stroke="#1e12bf" stroke-dasharray="5,4" x1="1520" x2="1520" y1="220" y2="350"/>
<g cb-classname="SignalSegment" id="1Ul">
<line cb-classname="GraphicLineEntity" class="signalline" id="1Uv" stroke="#1e12bf" stroke-dasharray="5,4" x1="1520" x2="1570" y1="350" y2="350"/>
<g cb-classname="SignalConnection" cb-graphic-line="$118$" cb-input-pin="$Ftp$" id="1U5"/>
</g>
<line cb-classname="GraphicLineEntity" class="signalline" id="1PO" stroke="#1e12bf" stroke-dasharray="5,4" x1="1520" x2="3940" y1="220" y2="220"/>
<g cb-classname="SignalConnection" cb-graphic-line="$120$" cb-input-pin="$LIs$" id="1Pj"/>
<ellipse cb-classname="GraphicEllipseEntity" class="signal" cx="1520" cy="220" fill="#1e12bf" id="1P0" rx="5" ry="5" stroke="#1e12bf" stroke-dasharray="5,4"/>
</g>
</g>
</g>
<g cb-classname="ControlPin" cb-pin-name="Pj-LhD-8dGY" id="1PI">
<line cb-classname="GraphicLineEntity" class="signalline" id="1Pq" x1="1110" x2="1130" y1="240" y2="240"/>
<polygon cb-classname="GraphicPolygonEntity" class="signal" id="1Pm" points="1130,240 1119,236 1119,244"/>
<g cb-classname="DynamicText" cb-source="PZ-SDd-aEgx" class="signal" id="1Pn" text-anchor="end">
<text baseline-shift="5%" cb-classname="GraphicTextEntity" class="signal" fill="black" font-style="normal" font-weight="normal" id="1Pl" text-anchor="end" text-decoration="normal" x="1094" y="236"/>
</g>
</g>
<g cb-classname="GraphicShape" id="1Pv">
<g cb-classname="DynamicText" cb-labeled="true" cb-source="ZY-sYk-j7x4" id="1P5">
<text cb-classname="GraphicTextEntity" class="algorithm" id="19O" text-anchor="start" x="1100" y="180"/>
</g>
</g>
</g>
<g cb-alg-iu="$100$cb-alg-out$" cb-algorithm-id="00C" cb-classname="ExternalPointInterface" cb-function-name="OUTPUT" id="19j">
<ellipse cb-classname="GraphicEllipseEntity" class="algorithm" cx="4000" cy="220" id="190" rx="40" ry="40"/>
<rect cb-classname="GraphicRectangleEntity" class="algorithm" height="80" id="19I" width="30" x="4040" y="180"/>
<line cb-classname="GraphicLineEntity" class="algorithm" id="19q" x1="4040" x2="4070" y1="220" y2="220"/>
<g cb-classname="PointStatusIndicator" cb-indicator-type="highway" cb-source="i8-aJr-D1" id="19m" visibility="hidden">
<line cb-classname="GraphicLineEntity" class="algorithmline" id="19n" x1="3960" x2="4000" y1="220" y2="180"/>
<line cb-classname="GraphicLineEntity" class="algorithmline" id="19l" x1="4000" x2="4040" y1="180" y2="220"/>
<line cb-classname="GraphicLineEntity" class="algorithmline" id="19v" x1="4040" x2="4000" y1="220" y2="260"/>
<line cb-classname="GraphicLineEntity" class="algorithmline" id="195" x1="4000" x2="3960" y1="260" y2="220"/>
</g>
<g cb-classname="PointStatusIndicator" cb-indicator-type="hardware" cb-source="et-ROp-Hr" id="1vO" visibility="hidden">
<line cb-classname="GraphicLineEntity" class="algorithmline" id="1vj" x1="4040" x2="3960" y1="180" y2="180"/>
<line cb-classname="GraphicLineEntity" class="algorithmline" id="1v0" x1="3960" x2="3960" y1="180" y2="260"/>
<line cb-classname="GraphicLineEntity" class="algorithmline" id="1vI" x1="3960" x2="4040" y1="260" y2="260"/>
</g>
<g cb-classname="PointStatusIndicator" cb-indicator-type="alarm" cb-source="Dz-pMM-4r" id="1vq" visibility="hidden">
<text cb-classname="GraphicTextEntity" class="algorithm" fill="#000000" font-family="Arial" font-size="20" id="1vm" x="4047" y="209">
A
</text>
</g>
<g cb-classname="PointStatusIndicator" cb-indicator-type="ingraphic" cb-source="sn-5Tc-Vd" id="1vn" visibility="hidden">
<text cb-classname="GraphicTextEntity" class="algorithm" fill="#000000" font-family="Arial" font-size="20" id="1vl" x="4045" y="250">
G
</text>
</g>
<g cb-classname="DynamicText" cb-labeled="false" cb-pin-name="eO" cb-source="i8-aJr-D1" class="algorithm" id="1vv" text-anchor="end">
<text baseline-shift="0%" cb-classname="GraphicTextEntity" class="algorithm" fill="black" font-family="Arial" font-size="20" font-style="normal" font-weight="normal" id="1v5" text-anchor="end" text-decoration="normal" x="3937" y="199"/>
</g>
<g baseline-shift="-100%" cb-anchor-x="3938" cb-anchor-y="236" cb-classname="PointReferences" cb-max-width="240" cb-originator="false" cb-source="U3-2ao-Mi" class="signal" id="1dO" text-anchor="end">
<text baseline-shift="-100%" cb-classname="GraphicTextEntity" class="algorithm" id="1dj" text-anchor="end" x="3938" y="236">
-
</text>
</g>
<g baseline-shift="-50%" cb-anchor-x="4091" cb-anchor-y="218" cb-classname="PointDescription" cb-content="extended" cb-labeled="false" cb-max-width="240" cb-source="PZ-7pn-tV" class="algorithm" id="1d0" text-anchor="start">
<text baseline-shift="-50%" cb-classname="GraphicTextEntity" class="algorithm" id="1dI" text-anchor="start" x="4091" y="166">
DESC: No
</text>
<text baseline-shift="-50%" cb-classname="GraphicTextEntity" class="algorithm" id="29j" text-anchor="start" x="4091" y="202">
Description
</text>
<text baseline-shift="-50%" cb-classname="GraphicTextEntity" class="algorithm" id="290" text-anchor="start" x="4091" y="238">
Defined
</text>
<text baseline-shift="-50%" cb-classname="GraphicTextEntity" class="algorithm" id="29I" text-anchor="start" x="4091" y="274">
(S_A17SW1104B_YLH)
</text>
</g>
<g cb-classname="ControlPin" cb-pin-name="bq-755-Db" id="1dq">
<line cb-classname="GraphicLineEntity" class="signalline" id="1dm" x1="3940" x2="3960" y1="220" y2="220"/>
<polygon cb-classname="GraphicPolygonEntity" class="signal" id="1dn" points="3960,220 3949,214 3949,225"/>
</g>
</g>
<g cb-alg-7fw0="65" cb-alg-ha0G="56.2" cb-algorithm-id="021" cb-classname="ControlAlgorithm" cb-function-name="AVALGEN" cb-modify-id="00000001" id="1dl">
<polygon cb-classname="GraphicPolygonEntity" class="algorithm" id="1dv" points="600,430 640,390 600,350 560,390"/>
<text baseline-shift="-50%" cb-classname="GraphicTextEntity" class="algorithm" font-size="44" id="1d5" text-anchor="middle" x="600" y="373">
A
</text>
<g cb-classname="ControlPin" cb-pin-name="xv-47V-ndF" id="1eO">
<line cb-classname="GraphicLineEntity" class="signalline" id="1ej" x1="640" x2="660" y1="390" y2="390"/>
<g cb-classname="DynamicText" cb-source="Pj-8Vd-17EH" class="signal" id="1e0">
<text baseline-shift="5%" cb-classname="GraphicTextEntity" class="signal" fill="black" font-style="normal" font-weight="normal" id="1eI" text-decoration="normal" x="651" y="380"/>
</g>
<g cb-classname="SignalSegment" id="1eq">
<line cb-classname="GraphicLineEntity" class="signalline" id="1em" x1="660" x2="1450" y1="390" y2="390"/>
<g cb-classname="SignalSegment" id="1en">
<line cb-classname="GraphicLineEntity" class="signalline" id="1el" x1="1450" x2="1450" y1="390" y2="260"/>
<g cb-classname="SignalSegment" id="1ev">
<line cb-classname="GraphicLineEntity" class="signalline" id="1e5" x1="1450" x2="1610" y1="260" y2="260"/>
<g cb-classname="SignalSegment" id="1oO">
<line cb-classname="GraphicLineEntity" class="signalline" id="1oj" x1="1610" x2="1610" y1="260" y2="330"/>
<g cb-classname="SignalConnection" cb-graphic-line="$171$" cb-input-pin="$D40$" id="1o0"/>
</g>
</g>
<line cb-classname="GraphicLineEntity" class="signalline" id="1oI" x1="1450" x2="1550" y1="390" y2="390"/>
<g cb-classname="SignalConnection" cb-graphic-line="$173$" cb-input-pin="$0pf$" id="1oq"/>
<ellipse cb-classname="GraphicEllipseEntity" class="signal" cx="1450" cy="390" id="1om" rx="5" ry="5" stroke="black"/>
</g>
</g>
</g>
</g>
<g cb-alg-I50e="999999999" cb-alg-INCa="2.500000" cb-alg-INCu="2.500000" cb-alg-Xd="$157$cb-alg-out$" cb-alg-Xd_Z="0.000000" cb-alg-Xd_r="0" cb-alg-ZA0="$157$cb-alg-out$" cb-alg-ZA0Z="0.000000" cb-alg-ZA0r="1" cb-alg-e7Xm="OFF" cb-alg-f4Lr="42" cb-alg-jk0e="-999999999" cb-alg-n7Lr="$100$cb-alg-out$" cb-alg-uH9="ON" cb-alg-uIl="S_A17SW1104B_II" cb-alg-ukCA="ON" cb-algorithm-id="010" cb-classname="ControlAlgorithm" cb-function-name="TRANSFER" cb-modify-id="00000001" id="1on">
<polygon cb-classname="GraphicPolygonEntity" class="algorithm" id="1ol" points="1610,350 1570,390 1610,430 1650,390"/>
<text baseline-shift="-50%" cb-classname="GraphicTextEntity" class="algorithm" font-size="33" id="1ov" text-anchor="middle" x="1610" y="381">
T
</text>
<g cb-classname="ControlPin" cb-pin-name="et-ROp-4sj" id="1o5">
<line cb-classname="GraphicLineEntity" class="signalline" id="1CO" x1="1610" x2="1610" y1="430" y2="450"/>
<g cb-classname="DynamicText" cb-source="ZY-ktV-b7ms" class="signal" id="1Cj" text-anchor="end">
<text baseline-shift="5%" cb-classname="GraphicTextEntity" class="signal" fill="black" font-style="normal" font-weight="normal" id="1C0" text-anchor="end" text-decoration="normal" transform="translate(1599,442)rotate(-90)"/>
</g>
<g cb-classname="SignalSegment" id="1CI">
<line cb-classname="GraphicLineEntity" class="signalline" id="1Cq" x1="1610" x2="3940" y1="450" y2="450"/>
<g cb-classname="SignalConnection" cb-graphic-line="$184$" cb-input-pin="$MgI$" id="1Cm"/>
</g>
</g>
<g cb-classname="ControlPin" cb-pin-name="xv-47V-TXRn" id="1Cn">
<line cb-classname="GraphicLineEntity" class="signalline" id="1Cl" x1="1570" x2="1590" y1="350" y2="370"/>
<polygon cb-classname="GraphicPolygonEntity" class="signal" id="1Cv" points="1590,370 1585,359 1579,365"/>
<g cb-classname="DynamicText" cb-source="U3-xA6-dsIv" class="signal" id="1C5" text-anchor="end">
<text baseline-shift="5%" cb-classname="GraphicTextEntity" class="signal" fill="black" font-style="normal" font-weight="normal" id="1IO" text-anchor="end" text-decoration="normal" transform="translate(1572,339)rotate(45)"/>
</g>
</g>
<g cb-classname="ControlPin" cb-pin-name="PZ-7pn-yvy" id="1Ij">
<line cb-classname="GraphicLineEntity" class="signalline" id="1I0" x1="1610" x2="1610" y1="330" y2="350"/>
<polygon cb-classname="GraphicPolygonEntity" class="signal" id="1II" points="1610,350 1614,339 1606,339"/>
<g cb-classname="DynamicText" cb-source="ZY-ktV-b7ms" class="signal" id="1Iq">
<text baseline-shift="5%" cb-classname="GraphicTextEntity" class="signal" fill="black" font-style="normal" font-weight="normal" id="1Im" text-decoration="normal" transform="translate(1601,327)rotate(-90)"/>
</g>
</g>
<g cb-classname="ControlPin" cb-pin-name="Dz-pMM-VU" id="1In">
<line cb-classname="GraphicLineEntity" class="signalline" id="1Il" x1="1550" x2="1570" y1="390" y2="390"/>
<polygon cb-classname="GraphicPolygonEntity" class="signal" id="1Iv" points="1570,390 1559,386 1559,394"/>
<g cb-classname="DynamicText" cb-source="xv-c4r-d7PF" class="signal" id="1I5" text-anchor="end">
<text baseline-shift="5%" cb-classname="GraphicTextEntity" class="signal" fill="black" font-style="normal" font-weight="normal" id="2MO" text-anchor="end" text-decoration="normal" x="1550" y="378"/>
</g>
</g>
</g>
<g cb-alg-iX="$176$cb-alg-out$" cb-algorithm-id="00F" cb-classname="ExternalPointInterface" cb-function-name="OUTPUT" id="2Mj">
<ellipse cb-classname="GraphicEllipseEntity" class="algorithm" cx="4000" cy="450" id="2M0" rx="40" ry="40"/>
<rect cb-classname="GraphicRectangleEntity" class="algorithm" height="80" id="2MI" width="30" x="4040" y="410"/>
<line cb-classname="GraphicLineEntity" class="algorithm" id="2Mq" x1="4040" x2="4070" y1="450" y2="450"/>
<g cb-classname="PointStatusIndicator" cb-indicator-type="highway" cb-source="et-ROp-Hr" id="2Mm" visibility="hidden">
<line cb-classname="GraphicLineEntity" class="algorithmline" id="2Mn" x1="3960" x2="4000" y1="450" y2="410"/>
<line cb-classname="GraphicLineEntity" class="algorithmline" id="2Ml" x1="4000" x2="4040" y1="410" y2="450"/>
<line cb-classname="GraphicLineEntity" class="algorithmline" id="2Mv" x1="4040" x2="4000" y1="450" y2="490"/>
<line cb-classname="GraphicLineEntity" class="algorithmline" id="2M5" x1="4000" x2="3960" y1="490" y2="450"/>
</g>
<g cb-classname="PointStatusIndicator" cb-indicator-type="hardware" cb-source="re-6gb-mS" id="2UO" visibility="hidden">
<line cb-classname="GraphicLineEntity" class="algorithmline" id="2Uj" x1="4040" x2="3960" y1="410" y2="410"/>
<line cb-classname="GraphicLineEntity" class="algorithmline" id="2U0" x1="3960" x2="3960" y1="410" y2="490"/>
<line cb-classname="GraphicLineEntity" class="algorithmline" id="2UI" x1="3960" x2="4040" y1="490" y2="490"/>
</g>
<g cb-classname="PointStatusIndicator" cb-indicator-type="alarm" cb-source="Pj-LhD-Dd" id="2Uq" visibility="hidden">
<text cb-classname="GraphicTextEntity" class="algorithm" fill="#000000" font-family="Arial" font-size="20" id="2Um" x="4047" y="439">
A
</text>
</g>
<g cb-classname="PointStatusIndicator" cb-indicator-type="ingraphic" cb-source="mi-sXM-za" id="2Un" visibility="hidden">
<text cb-classname="GraphicTextEntity" class="algorithm" fill="#000000" font-family="Arial" font-size="20" id="2Ul" x="4045" y="480">
G
</text>
</g>
<g cb-classname="DynamicText" cb-labeled="false" cb-pin-name="du" cb-source="et-ROp-Hr" class="algorithm" id="2Uv" text-anchor="end">
<text baseline-shift="0%" cb-classname="GraphicTextEntity" class="algorithm" fill="black" font-family="Arial" font-size="20" font-style="normal" font-weight="normal" id="2U5" text-anchor="end" text-decoration="normal" x="3937" y="429"/>
</g>
<g baseline-shift="-100%" cb-anchor-x="3938" cb-anchor-y="466" cb-classname="PointReferences" cb-max-width="240" cb-originator="false" cb-source="ZY-sYk-OR" class="signal" id="2PO" text-anchor="end">
<text baseline-shift="-100%" cb-classname="GraphicTextEntity" class="algorithm" id="2Pj" text-anchor="end" x="3938" y="466">
-
</text>
</g>
<g baseline-shift="-50%" cb-anchor-x="4091" cb-anchor-y="448" cb-classname="PointDescription" cb-content="extended" cb-labeled="false" cb-max-width="240" cb-source="Dz-pMM-4r" class="algorithm" id="2P0" text-anchor="start">
<text baseline-shift="-50%" cb-classname="GraphicTextEntity" class="algorithm" id="2PI" text-anchor="start" x="4091" y="396">
DESC: No
</text>
<text baseline-shift="-50%" cb-classname="GraphicTextEntity" class="algorithm" id="2Pq" text-anchor="start" x="4091" y="432">
Description
</text>
<text baseline-shift="-50%" cb-classname="GraphicTextEntity" class="algorithm" id="29q" text-anchor="start" x="4091" y="468">
Defined
</text>
<text baseline-shift="-50%" cb-classname="GraphicTextEntity" class="algorithm" id="29m" text-anchor="start" x="4091" y="504">
(S_A17SW1104B_II)
</text>
</g>
<g cb-classname="ControlPin" cb-pin-name="xv-47V-A6" id="2Pm">
<line cb-classname="GraphicLineEntity" class="signalline" id="2Pn" x1="3940" x2="3960" y1="450" y2="450"/>
<polygon cb-classname="GraphicPolygonEntity" class="signal" id="2Pl" points="3960,450 3949,444 3949,455"/>
</g>
</g>
</g>
<g cb-classname="IncludeDocument" cb-modify-time="12/03/2019 14:33:51" cb-objectname="frame" id="5">
<text cb-classname="GraphicTextEntity" class="frame" font-size="50" id="6" x="3660" y="3146">
HERA
</text>
<g baseline-shift="-50%" cb-classname="DynamicText" cb-source="U3-1Lfh-zX" class="frame" id="7">
<text cb-classname="GraphicTextEntity" class="frame" fill="black" font-family="arial" font-size="25" font-style="normal" font-weight="normal" id="8" text-decoration="normal" x="4715" y="3325">
99
</text>
</g>
<g baseline-shift="-50%" cb-classname="DynamicText" cb-source="PZ-gWuk-HY" class="frame" id="9" text-anchor="middle">
<text cb-classname="GraphicTextEntity" class="frame" fill="black" font-family="arial" font-size="48" font-style="normal" font-weight="normal" id="1M" text-anchor="middle" text-decoration="normal" x="4900" y="3320">
99
</text>
</g>
<g baseline-shift="-50%" cb-classname="DynamicText" cb-source="bq-ts7m-Ou" class="frame" id="1U" text-anchor="middle">
<text cb-classname="GraphicTextEntity" class="frame" fill="black" font-family="arial" font-size="48" font-style="normal" font-weight="normal" id="1P" text-anchor="middle" text-decoration="normal" x="5067" y="3324">
3
</text>
</g>
<g cb-classname="DynamicText" cb-source="cN-mwzLI-lVMX8" class="frame" id="19">
<text cb-classname="GraphicTextEntity" class="frame" fill="black" font-family="arial" font-size="48" font-style="normal" font-weight="normal" id="1v" text-decoration="normal" x="3660" y="3224">
A17SW1104B - SIM
</text>
</g>
<g baseline-shift="-50%" cb-classname="DynamicText" cb-source="re-HoCAl-ddPvtf" class="frame" id="1d" text-anchor="middle">
<text cb-classname="GraphicTextEntity" class="frame" fill="black" font-family="arial" font-size="48" font-style="normal" font-weight="normal" id="1e" text-anchor="middle" text-decoration="normal" x="5270" y="3324">
1138
</text>
</g>
<g baseline-shift="0%" cb-classname="DynamicText" cb-source="xv-SAGV8DNd" class="frame" id="1o" text-anchor="middle">
<text cb-classname="GraphicTextEntity" class="frame" fill="black" font-family="arial" font-size="36" font-style="normal" font-weight="normal" id="1C" text-anchor="middle" text-decoration="normal" x="5270" y="3150">
A
</text>
</g>
<g baseline-shift="0%" cb-classname="DynamicText" cb-source="Pj-Cw2DJMQa-0Ovb" class="frame" id="1I" text-anchor="middle">
<text cb-classname="GraphicTextEntity" class="frame" fill="black" font-family="arial" font-size="20" font-style="normal" font-weight="normal" id="2M" text-anchor="middle" text-decoration="normal" x="5270" y="3230">

</text>
</g>
<g baseline-shift="-50%" cb-classname="DynamicText" cb-source="mi-E6MMiHvF" class="frame" id="2U" text-anchor="end">
<text cb-classname="GraphicTextEntity" class="frame" fill="black" font-family="arial" font-size="26" font-style="normal" font-weight="normal" id="2P" text-anchor="end" text-decoration="normal" x="4500" y="3420">

</text>
</g>
<g baseline-shift="-50%" cb-classname="DynamicText" cb-source="et-WFHtvExY" class="frame" id="29" text-anchor="end">
<text cb-classname="GraphicTextEntity" class="frame" fill="black" font-family="arial" font-size="26" font-style="normal" font-weight="normal" id="2v" text-anchor="end" text-decoration="normal" x="5353" y="3420">

</text>
</g>
<g cb-classname="GraphicShape" cb-tag="BORDER" id="2d">
<line cb-classname="GraphicLineEntity" class="frameline" id="2e" x1="40" x2="40" y1="40" y2="3460"/>
<line cb-classname="GraphicLineEntity" class="frameline" id="2o" x1="40" x2="5380" y1="3460" y2="3460"/>
<line cb-classname="GraphicLineEntity" class="frameline" id="2C" x1="5380" x2="5380" y1="3460" y2="40"/>
<line cb-classname="GraphicLineEntity" class="frameline" id="2I" x1="5380" x2="40" y1="40" y2="40"/>
<line cb-classname="GraphicLineEntity" class="frame" id="3M" x1="5430" x2="5440" y1="3510" y2="3510"/>
</g>
<g cb-classname="GraphicShape" cb-tag="TITLE BOX" id="3U">
<line cb-classname="GraphicLineEntity" class="frameline" id="3P" x1="2340" x2="2340" y1="3080" y2="3460"/>
<line cb-classname="GraphicLineEntity" class="frameline" id="39" x1="2340" x2="5380" y1="3080" y2="3080"/>
<line cb-classname="GraphicLineEntity" class="frameline" id="3v" x1="3650" x2="3650" y1="3460" y2="3080"/>
<line cb-classname="GraphicLineEntity" class="frameline" id="3d" x1="3650" x2="5380" y1="3240" y2="3240"/>
<line cb-classname="GraphicLineEntity" class="frameline" id="3e" x1="3650" x2="5380" y1="3390" y2="3390"/>
<line cb-classname="GraphicLineEntity" class="frameline" id="3o" x1="3650" x2="5380" y1="3160" y2="3160"/>
<line cb-classname="GraphicLineEntity" class="frameline" id="3C" x1="3650" x2="4520" y1="3320" y2="3320"/>
<line cb-classname="GraphicLineEntity" class="frameline" id="3I" x1="4520" x2="5380" y1="3290" y2="3290"/>
<line cb-classname="GraphicLineEntity" class="frameline" id="4M" x1="4520" x2="5380" y1="3240" y2="3240"/>
<line cb-classname="GraphicLineEntity" class="frameline" id="4U" x1="4520" x2="4520" y1="3240" y2="3460"/>
<line cb-classname="GraphicLineEntity" class="frameline" id="4P" x1="4810" x2="4810" y1="3240" y2="3390"/>
<line cb-classname="GraphicLineEntity" class="frameline" id="49" x1="4990" x2="4990" y1="3240" y2="3390"/>
<line cb-classname="GraphicLineEntity" class="frameline" id="4v" x1="5150" x2="5150" y1="3080" y2="3390"/>
</g>
<g cb-classname="GraphicShape" cb-tag="TEXT LABELS" id="4d">
<text baseline-shift="-50%" cb-classname="GraphicTextEntity" class="frame" font-size="25" id="4e" text-anchor="middle" x="4890" y="3252">
Drop
</text>
<text baseline-shift="-50%" cb-classname="GraphicTextEntity" class="frame" font-size="25" id="4o" text-anchor="middle" x="5075" y="3252">
Task
</text>
<text baseline-shift="-50%" cb-classname="GraphicTextEntity" class="frame" font-size="25" id="4C" text-anchor="middle" x="5265" y="3252">
Sheet
</text>
<text cb-classname="GraphicTextEntity" class="frame" font-size="25" id="4I" x="5152" y="3107">
Rev.
</text>
<text cb-classname="GraphicTextEntity" class="frame" font-size="25" id="5M" x="3653" y="3418">
Engineer
</text>
<text cb-classname="GraphicTextEntity" class="frame" font-size="25" id="5U" x="4528" y="3419">
Approved
</text>
<text cb-classname="GraphicTextEntity" class="frame" font-size="25" id="5P" x="5152" y="3187">
Date
</text>
<text baseline-shift="-50%" cb-classname="GraphicTextEntity" class="frame" font-size="25" id="59" text-anchor="middle" x="4660" y="3252">
Drawing Number
</text>
<text baseline-shift="-50%" cb-classname="GraphicTextEntity" class="frame" font-size="25" id="5v" text-anchor="middle" x="4680" y="3325">
CTL
</text>
</g>
<text baseline-shift="-50%" cb-classname="GraphicTextEntity" class="frame" font-size="48" id="5d" text-anchor="middle" x="3000" y="3100">
EMERSON PROCESS MANAGEMENT
</text>
<g baseline-shift="-100%" cb-anchor-x="2360" cb-anchor-y="3140" cb-classname="GroupText" cb-max-width="1260" fill="black" id="5e">
<text baseline-shift="-100%" cb-classname="GraphicTextEntity" class="frame" fill="black" font-family="arial" font-size="22" font-weight="normal" id="5o" text-anchor="start" text-decoration="normal" x="2360" y="3140">
THIS DOCUMENT CONTAINS INFORMATION PROPRIETARY TO EMERSON PROCESS
</text>
<text baseline-shift="-100%" cb-classname="GraphicTextEntity" class="frame" fill="black" font-family="arial" font-size="22" font-weight="normal" id="5C" text-anchor="start" text-decoration="normal" x="2360" y="3176">
MANAGEMENT POWER &amp; WATER SOLUTIONS, INC. IT IS SUBMITTED IN CONFIDENCE AND
</text>
<text baseline-shift="-100%" cb-classname="GraphicTextEntity" class="frame" fill="black" font-family="arial" font-size="22" font-weight="normal" id="5I" text-anchor="start" text-decoration="normal" x="2360" y="3212">
TRUST, IS TO BE USED BY YOU SOLELY FOR THE PURPOSES FOR WHICH IT IS
</text>
<text baseline-shift="-100%" cb-classname="GraphicTextEntity" class="frame" fill="black" font-family="arial" font-size="22" font-weight="normal" id="6M" text-anchor="start" text-decoration="normal" x="2360" y="3248">
FURNISHED AND IS TO BE RETURNED UPON REQUEST. THIS DOCUMENT AND ANY
</text>
<text baseline-shift="-100%" cb-classname="GraphicTextEntity" class="frame" fill="black" font-family="arial" font-size="22" font-weight="normal" id="6U" text-anchor="start" text-decoration="normal" x="2360" y="3284">
OTHER INFORMATION PROVIDED TO YOU IS NOT TO BE REPRODUCED, TRANSMITTED,
</text>
<text baseline-shift="-100%" cb-classname="GraphicTextEntity" class="frame" fill="black" font-family="arial" font-size="22" font-weight="normal" id="6P" text-anchor="start" text-decoration="normal" x="2360" y="3320">
DISCLOSED, OR USED OTHERWISE IN WHOLE OR IN PART WITHOUT THE PRIOR
</text>
<text baseline-shift="-100%" cb-classname="GraphicTextEntity" class="frame" fill="black" font-family="arial" font-size="22" font-weight="normal" id="69" text-anchor="start" text-decoration="normal" x="2360" y="3356">
WRITTEN AUTHORIZATION OF EMERSON PROCESS MANAGEMENT POWER &amp; WATER
</text>
<text baseline-shift="-100%" cb-classname="GraphicTextEntity" class="frame" fill="black" font-family="arial" font-size="22" font-weight="normal" id="6v" text-anchor="start" text-decoration="normal" x="2360" y="3392">
SOLUTIONS,INC.
</text>
</g>
</g>
</svg>