<?xml version="1.0" ?><svg cb-auto-time="02/13/2020 15:00:26" cb-classname="ControlFunction" cb-create-time="02/10/2020" cb-drop-id="99" cb-filename="Z:\OVATION\NET0\UNIT0\CONTROLFUNCTIONS\02F8.svg" cb-function-id="02F8" cb-key="111111111111" cb-modified-timestamp="1587028235" cb-modify-id="00000001" cb-path="Z:/OVATION/NET0/UNIT0/CONTROLFUNCTIONS" cb-revision="A" cb-sheet-number="3010" cb-sheet-title="P30POV1100 - SIM" cb-snap-grid="10" cb-task-id="3" height="3522" id="1" width="5450" xmlns="http://www.w3.org/2000/svg">
<style cb-classname="EntityStyle" id="2" type="text/css">
	.algorithm { fill: white; stroke: black; stroke-width: 3 }
	.algorithm-function { fill: black; stroke: none }
	.algorithm-functionline { fill: none; stroke: black; stroke-linecap: round; stroke-width: 3 }
	.algorithm-name { fill: black; stroke: none }
	.algorithm-nameline { fill: none; stroke: black; stroke-linecap: round; stroke-width: 3 }
	.algorithm-sequence { fill: black; stroke: none; visibility: hidden }
	.algorithm-sequenceline { fill: none; stroke: black; stroke-linecap: round; stroke-width: 3; visibility: hidden }
	.algorithmline { fill: none; stroke: black; stroke-linecap: round; stroke-width: 3 }
	.annotation { fill: black; stroke: none }
	.annotationline { fill: none; stroke: black; stroke-linecap: round; stroke-width: 3 }
	.description { fill: black; stroke: none }
	.descriptionline { fill: none; stroke: black; stroke-linecap: round; stroke-width: 3 }
	.frame { fill: black; stroke: none }
	.frameline { fill: none; stroke: black; stroke-linecap: round; stroke-width: 3 }
	.signal { fill: black; stroke: none }
	.signalline { fill: none; stroke: black; stroke-linecap: round; stroke-width: 3 }
	text.algorithm { fill: black; font-family: Arial; font-size: 22; stroke: none }
	text.algorithm-function { fill: black; font-family: Arial; font-size: 22; stroke: none }
	text.algorithm-name { fill: black; font-family: Arial; font-size: 22; stroke: none }
	text.algorithm-sequence { fill: black; font-family: Arial; font-size: 22; stroke: none; visibility: hidden }
	text.annotation { fill: black; font-family: Arial; font-size: 22; stroke: none }
	text.description { fill: black; font-family: Arial; font-size: 28; stroke: none }
	text.frame { fill: black; font-family: Arial; font-size: 18; stroke: none }
	text.signal { fill: black; font-family: Arial; font-size: 12; stroke: none }
</style>
<g cb-classname="NamedObject" cb-objectname="Comments" id="3"/>
<g cb-classname="AlgorithmContainer" cb-objectname="Algorithms" id="4">
<g cb-alg-VJjX="NO" cb-alg-Vuz="P30POV1100_HSH" cb-algorithm-id="007" cb-classname="ExternalPointInterface" cb-function-name="INPUT" id="7R">
<ellipse cb-classname="GraphicEllipseEntity" class="algorithm" cx="600" cy="260" id="7J" rx="40" ry="40"/>
<rect cb-classname="GraphicRectangleEntity" class="algorithm" height="80" id="7B" width="30" x="530" y="220"/>
<line cb-classname="GraphicLineEntity" class="algorithm" id="73" x1="530" x2="560" y1="260" y2="260"/>
<g cb-classname="PointStatusIndicator" cb-indicator-type="Highway" cb-source="gz-jOM-duT" id="8I" visibility="visible">
<line cb-classname="GraphicLineEntity" class="algorithmline" id="8M" x1="560" x2="600" y1="260" y2="220"/>
<line cb-classname="GraphicLineEntity" class="algorithmline" id="8Q" x1="600" x2="640" y1="220" y2="260"/>
<line cb-classname="GraphicLineEntity" class="algorithmline" id="8U" x1="640" x2="600" y1="260" y2="300"/>
<line cb-classname="GraphicLineEntity" class="algorithmline" id="8Y" x1="600" x2="560" y1="300" y2="260"/>
</g>
<g cb-classname="PointStatusIndicator" cb-indicator-type="hardware" cb-source="ie-fCp-Lut" id="8Z" visibility="visible">
<line cb-classname="GraphicLineEntity" class="algorithmline" id="8R" x1="560" x2="640" y1="220" y2="220"/>
<line cb-classname="GraphicLineEntity" class="algorithmline" id="8J" x1="640" x2="640" y1="220" y2="300"/>
<line cb-classname="GraphicLineEntity" class="algorithmline" id="8B" x1="640" x2="560" y1="300" y2="300"/>
</g>
<g cb-classname="PointStatusIndicator" cb-indicator-type="alarm" cb-source="sn-gPJ-Lu8" id="83" visibility="hidden">
<text cb-classname="GraphicTextEntity" class="algorithm" fill="#000000" font-family="arial" font-size="20" id="9I" x="537" y="249">
A
</text>
</g>
<g cb-classname="PointStatusIndicator" cb-indicator-type="ingraphic" cb-source="cT-J7i-VuZ" id="9M" visibility="hidden">
<text cb-classname="GraphicTextEntity" class="algorithm" fill="#000000" font-family="Arial" font-size="20" id="9Q" x="535" y="289">
G
</text>
</g>
<g baseline-shift="-50%" cb-anchor-x="512" cb-anchor-y="254" cb-classname="PointDescription" cb-content="extended" cb-labeled="false" cb-max-width="240" cb-source="gz-jOM-duT" class="algorithm" id="9U" text-anchor="end">
<text baseline-shift="-50%" cb-classname="GraphicTextEntity" class="algorithm" id="9Y" text-anchor="end" x="512" y="202">
vlv. POV1100 FG
</text>
<text baseline-shift="-50%" cb-classname="GraphicTextEntity" class="algorithm" id="2Rw" text-anchor="end" x="512" y="238">
quenc. inlet
</text>
<text baseline-shift="-50%" cb-classname="GraphicTextEntity" class="algorithm" id="2Rr" text-anchor="end" x="512" y="274">
QT1100 - open
</text>
<text baseline-shift="-50%" cb-classname="GraphicTextEntity" class="algorithm" id="2R4" text-anchor="end" x="512" y="310">
(OPN - !nOPN)
</text>
</g>
<g cb-classname="DynamicText" cb-labeled="false" cb-pin-name="RFq" cb-source="3k-6xs-Vuz" class="algorithm" id="9Z" text-anchor="start">
<text baseline-shift="0%" cb-classname="GraphicTextEntity" class="algorithm" fill="black" font-family="Arial" font-size="20" font-style="normal" font-weight="normal" id="9R" text-anchor="start" text-decoration="normal" x="660" y="240"/>
</g>
<g baseline-shift="-100%" cb-anchor-x="660" cb-anchor-y="270" cb-classname="PointReferences" cb-max-width="230" cb-originator="true" cb-source="rq-CRl-duk" class="signal" id="9J" text-anchor="start">
<text baseline-shift="-100%" cb-classname="GraphicTextEntity" class="algorithm" id="9B" text-anchor="start" x="660" y="270">
12/123480
</text>
</g>
<g cb-classname="ControlPin" cb-pin-name="1H-Dfa-Vuq" id="93">
<line cb-classname="GraphicLineEntity" class="signalline" id="1IG" x1="640" x2="660" y1="260" y2="260"/>
<g cb-classname="SignalSegment" id="1IF">
<line cb-classname="GraphicLineEntity" class="signalline" id="1Iw" stroke="#1e12bf" stroke-dasharray="5,4" x1="660" x2="1010" y1="260" y2="260"/>
<g cb-classname="SignalSegment" id="1Ir">
<line cb-classname="GraphicLineEntity" class="signalline" id="1I4" stroke="#1e12bf" stroke-dasharray="5,4" x1="1010" x2="1010" y1="260" y2="280"/>
<g cb-classname="SignalSegment" id="1Ib">
<line cb-classname="GraphicLineEntity" class="signalline" id="1IC" stroke="#1e12bf" stroke-dasharray="5,4" x1="1010" x2="1070" y1="280" y2="280"/>
<g cb-classname="SignalConnection" cb-graphic-line="$106$" cb-input-pin="$mwR$" id="1IO"/>
</g>
<line cb-classname="GraphicLineEntity" class="signalline" id="1In" stroke="#1e12bf" stroke-dasharray="5,4" x1="1010" x2="1070" y1="260" y2="260"/>
<g cb-classname="SignalConnection" cb-graphic-line="$108$" cb-input-pin="$pat$" id="1IU"/>
<ellipse cb-classname="GraphicEllipseEntity" class="signal" cx="1010" cy="260" fill="#1e12bf" id="1MG" rx="5" ry="5" stroke="#1e12bf" stroke-dasharray="5,4"/>
</g>
</g>
</g>
</g>
<g cb-alg-ZEHR="$76$cb-alg-out$" cb-alg-hRam="2" cb-alg-oaCm="96" cb-alg-pE7="$76$cb-alg-out$" cb-alg-qRjN="1.0" cb-algorithm-id="005" cb-classname="ControlAlgorithm" cb-function-name="ONDELAY" cb-modify-id="00000001" id="1MF">
<rect cb-classname="GraphicRectangleEntity" class="algorithm" height="60" id="1Mw" width="60" x="1090" y="240"/>
<text baseline-shift="-50%" cb-classname="GraphicTextEntity" class="algorithm" font-size="18" id="1Mr" text-anchor="middle" x="1119" y="252">
TD
</text>
<text cb-classname="GraphicTextEntity" class="algorithm" font-size="18" id="1M4" text-anchor="middle" x="1119" y="287">
ON
</text>
<g cb-classname="ControlPin" cb-pin-name="sn-gPJ-fZP" id="1Mb">
<line cb-classname="GraphicLineEntity" class="signalline" id="1MC" x1="1070" x2="1090" y1="260" y2="260"/>
<polygon cb-classname="GraphicPolygonEntity" class="signal" id="1MO" points="1090,260 1079,256 1079,264"/>
<g cb-classname="DynamicText" cb-source="PN-JmN-EC6z" class="signal" id="1Mn" text-anchor="end">
<text baseline-shift="5%" cb-classname="GraphicTextEntity" class="signal" fill="black" font-style="normal" font-weight="normal" id="1MU" text-anchor="end" text-decoration="normal" x="1054" y="256"/>
</g>
</g>
<g cb-classname="ControlPin" cb-pin-name="9E-xjF-LuN" id="1QG">
<line cb-classname="GraphicLineEntity" class="signalline" id="1QF" x1="1150" x2="1170" y1="260" y2="260"/>
<g cb-classname="DynamicText" cb-source="Ut-6Xt-ePDq" class="signal" id="1Qw">
<text baseline-shift="5%" cb-classname="GraphicTextEntity" class="signal" fill="black" font-style="normal" font-weight="normal" id="1Qr" text-decoration="normal" x="1186" y="256"/>
</g>
<g cb-classname="SignalSegment" id="1Q4">
<line cb-classname="GraphicLineEntity" class="signalline" id="1Qb" stroke="#1e12bf" stroke-dasharray="5,4" x1="1170" x2="1180" y1="260" y2="260"/>
<g cb-classname="SignalConnection" cb-graphic-line="$125$" cb-input-pin="$Jai$" id="1QC"/>
</g>
</g>
<g cb-classname="ControlPin" cb-pin-name="FB-Pc7-H5zr" id="1QO">
<line cb-classname="GraphicLineEntity" class="signalline" id="1Qn" x1="1070" x2="1090" y1="280" y2="280"/>
<polygon cb-classname="GraphicPolygonEntity" class="signal" id="1QU" points="1090,280 1079,276 1079,284"/>
<g cb-classname="DynamicText" cb-source="cT-7sT-zRxN" class="signal" id="1UG" text-anchor="end">
<text baseline-shift="5%" cb-classname="GraphicTextEntity" class="signal" fill="black" font-style="normal" font-weight="normal" id="1UF" text-anchor="end" text-decoration="normal" x="1054" y="276"/>
</g>
</g>
</g>
<g cb-alg-MZm="$111$cb-alg-out$" cb-alg-NJah="1.000000" cb-alg-VFOi="97" cb-alg-eJFi="2" cb-algorithm-id="016" cb-classname="ControlAlgorithm" cb-function-name="OFFDELAY" cb-modify-id="00000001" id="1Uw">
<rect cb-classname="GraphicRectangleEntity" class="algorithm" height="60" id="1Ur" width="60" x="1200" y="230"/>
<text baseline-shift="-50%" cb-classname="GraphicTextEntity" class="algorithm" font-size="18" id="1U4" text-anchor="middle" x="1230" y="245">
TD
</text>
<text baseline-shift="-50%" cb-classname="GraphicTextEntity" class="algorithm" font-size="18" id="1Ub" text-anchor="middle" x="1230" y="267">
OFF
</text>
<g cb-classname="ControlPin" cb-pin-name="rq-CRl-j8R" id="1UC">
<line cb-classname="GraphicLineEntity" class="signalline" id="1UO" x1="1180" x2="1200" y1="260" y2="260"/>
<polygon cb-classname="GraphicPolygonEntity" class="signal" id="1Un" points="1200,260 1189,256 1189,264"/>
<g cb-classname="DynamicText" cb-source="M8-Dj8-nU9B" class="signal" id="1UU" text-anchor="end">
<text baseline-shift="5%" cb-classname="GraphicTextEntity" class="signal" fill="black" font-style="normal" font-weight="normal" id="1YG" text-anchor="end" text-decoration="normal" x="1164" y="256"/>
</g>
</g>
<g cb-classname="ControlPin" cb-pin-name="sn-gPJ-Lu8" id="1YF">
<line cb-classname="GraphicLineEntity" class="signalline" id="1Yw" x1="1260" x2="1280" y1="260" y2="260"/>
<g cb-classname="DynamicText" cb-source="cT-7sT-zRxN" class="signal" id="1Yr">
<text baseline-shift="5%" cb-classname="GraphicTextEntity" class="signal" fill="black" font-style="normal" font-weight="normal" id="1Y4" text-decoration="normal" x="1296" y="256"/>
</g>
<g cb-classname="SignalSegment" id="1Yb">
<line cb-classname="GraphicLineEntity" class="signalline" id="1YC" stroke="#1e12bf" stroke-dasharray="5,4" x1="1280" x2="1290" y1="260" y2="260"/>
<g cb-classname="SignalSegment" id="1YO">
<g cb-classname="SignalSegment" id="1Yn">
<line cb-classname="GraphicLineEntity" class="signalline" id="1YU" stroke="#1e12bf" stroke-dasharray="5,4" x1="1290" x2="1300" y1="380" y2="380"/>
<g cb-classname="SignalConnection" cb-graphic-line="$149$" cb-input-pin="$X3J$" id="1ZG"/>
<line cb-classname="GraphicLineEntity" class="signalline" id="1ZF" stroke="#1e12bf" stroke-dasharray="5,4" x1="1290" x2="1290" y1="380" y2="420"/>
<g cb-classname="SignalSegment" id="1Zw">
<line cb-classname="GraphicLineEntity" class="signalline" id="1Zr" stroke="#1e12bf" stroke-dasharray="5,4" x1="1290" x2="1300" y1="420" y2="420"/>
<g cb-classname="SignalConnection" cb-graphic-line="$153$" cb-input-pin="$jqn$" id="1Z4"/>
<line cb-classname="GraphicLineEntity" class="signalline" id="2ZO" stroke="#1e12bf" stroke-dasharray="5,4" x1="1290" x2="1290" y1="420" y2="460"/>
<g cb-classname="SignalSegment" id="2Zn">
<line cb-classname="GraphicLineEntity" class="signalline" id="2ZU" stroke="#1e12bf" stroke-dasharray="5,4" x1="1290" x2="1300" y1="460" y2="460"/>
<g cb-classname="SignalConnection" cb-graphic-line="$259$" cb-input-pin="$Mn0$" id="2RG"/>
</g>
<ellipse cb-classname="GraphicEllipseEntity" class="signal" cx="1290" cy="420" fill="#1e12bf" id="2RF" rx="5" ry="5" stroke="#1e12bf" stroke-dasharray="5,4"/>
</g>
<ellipse cb-classname="GraphicEllipseEntity" class="signal" cx="1290" cy="380" fill="#1e12bf" id="1Zb" rx="5" ry="5" stroke="#1e12bf" stroke-dasharray="5,4"/>
</g>
<line cb-classname="GraphicLineEntity" class="signalline" id="1ZC" stroke="#1e12bf" stroke-dasharray="5,4" x1="1290" x2="1290" y1="260" y2="380"/>
</g>
</g>
</g>
</g>
<g cb-alg-152="$132$cb-alg-out$" cb-alg-15i="$132$cb-alg-out$" cb-alg-15s="$132$cb-alg-out$" cb-alg-duH="S_P30POV1100_ZSH" cb-algorithm-id="014" cb-classname="FastBooleanAlgorithm" cb-function-name="AND" id="1ZO">
<rect cb-classname="GraphicRectangleEntity" class="algorithm" height="60" id="1Zn" width="80" x="1320" y="390"/>
<text baseline-shift="-50%" cb-classname="GraphicTextEntity" class="algorithm" id="1ZU" text-anchor="middle" x="1360" y="419">
AND
</text>
<line cb-classname="GraphicLineEntity" class="algorithmline" id="1RG" x1="1320" x2="1320" y1="360" y2="480"/>
<g cb-classname="ControlPin" cb-pin-name="Ut-R6m-OH6" id="1RF">
<line cb-classname="GraphicLineEntity" class="signalline" id="1Rw" x1="1300" x2="1320" y1="380" y2="380"/>
<polygon cb-classname="GraphicPolygonEntity" class="signal" id="1Rr" points="1320,380 1309,376 1309,384"/>
<g cb-classname="DynamicText" cb-source="1H-fOH-B3g8" class="signal" id="1R4" text-anchor="end">
<text baseline-shift="5%" cb-classname="GraphicTextEntity" class="signal" fill="black" font-style="normal" font-weight="normal" id="1Rb" text-anchor="end" text-decoration="normal" x="1313" y="372"/>
</g>
</g>
<g cb-classname="ControlPin" cb-pin-name="FB-Pc7-duH" id="1RC">
<line cb-classname="GraphicLineEntity" class="signalline" id="1RO" x1="1400" x2="1420" y1="420" y2="420"/>
<g cb-classname="DynamicText" cb-source="mh-gRh-Z1r5" class="signal" id="1Rn">
<text baseline-shift="5%" cb-classname="GraphicTextEntity" class="signal" fill="black" font-style="normal" font-weight="normal" id="1RU" text-decoration="normal" x="1412" y="412"/>
</g>
<g cb-classname="SignalSegment" id="1JG">
<line cb-classname="GraphicLineEntity" class="signalline" id="1JF" stroke="#1e12bf" stroke-dasharray="5,4" x1="1420" x2="1560" y1="420" y2="420"/>
<g cb-classname="SignalSegment" id="1Jw">
<line cb-classname="GraphicLineEntity" class="signalline" id="1Jr" stroke="#1e12bf" stroke-dasharray="5,4" x1="1560" x2="1560" y1="420" y2="260"/>
<g cb-classname="SignalSegment" id="1J4">
<line cb-classname="GraphicLineEntity" class="signalline" id="1Jb" stroke="#1e12bf" stroke-dasharray="5,4" x1="1560" x2="3930" y1="260" y2="260"/>
<g cb-classname="SignalConnection" cb-graphic-line="$175$" cb-input-pin="$wq4$" id="1JC"/>
</g>
<line cb-classname="GraphicLineEntity" class="signalline" id="1JO" stroke="#1e12bf" stroke-dasharray="5,4" x1="1560" x2="1690" y1="420" y2="420"/>
<g cb-classname="SignalConnection" cb-graphic-line="$177$" cb-input-pin="$JpX$" id="1Jn"/>
<ellipse cb-classname="GraphicEllipseEntity" class="signal" cx="1560" cy="420" fill="#1e12bf" id="1JU" rx="5" ry="5" stroke="#1e12bf" stroke-dasharray="5,4"/>
</g>
</g>
</g>
<g cb-classname="ControlPin" cb-pin-name="sn-gPJ-fZw" id="1BG">
<line cb-classname="GraphicLineEntity" class="signalline" id="1BF" x1="1300" x2="1320" y1="460" y2="460"/>
<polygon cb-classname="GraphicPolygonEntity" class="signal" id="1Bw" points="1320,460 1309,456 1309,464"/>
<g cb-classname="DynamicText" cb-source="PN-JmN-EC6z" class="signal" id="1Br" text-anchor="end">
<text baseline-shift="5%" cb-classname="GraphicTextEntity" class="signal" fill="black" font-style="normal" font-weight="normal" id="1B4" text-anchor="end" text-decoration="normal" x="1310" y="450"/>
</g>
</g>
<g cb-classname="ControlPin" cb-pin-name="9E-xjF-7qX" id="1Bb">
<line cb-classname="GraphicLineEntity" class="signalline" id="1BC" x1="1300" x2="1320" y1="420" y2="420"/>
<polygon cb-classname="GraphicPolygonEntity" class="signal" id="1BO" points="1320,420 1309,416 1309,424"/>
<g cb-classname="DynamicText" cb-source="rq-R7q-Hgce" class="signal" id="1Bn" text-anchor="end">
<text baseline-shift="5%" cb-classname="GraphicTextEntity" class="signal" fill="black" font-style="normal" font-weight="normal" id="1BU" text-anchor="end" text-decoration="normal" x="1310" y="410"/>
</g>
</g>
</g>
<g cb-alg-akJ="$157$cb-alg-out$" cb-alg-oub="S_P30POV1100_ZSL" cb-algorithm-id="006" cb-classname="FastBooleanAlgorithm" cb-function-name="NOT" id="13G">
<rect cb-classname="GraphicRectangleEntity" class="algorithm" height="40" id="13F" width="40" x="1710" y="400"/>
<text baseline-shift="-50%" cb-classname="GraphicTextEntity" class="algorithm" font-size="28" id="13w" text-anchor="middle" x="1729" y="412">
N
</text>
<g cb-classname="ControlPin" cb-pin-name="sn-gPJ-fZP" id="13r">
<line cb-classname="GraphicLineEntity" class="signalline" id="134" x1="1690" x2="1710" y1="420" y2="420"/>
<polygon cb-classname="GraphicPolygonEntity" class="signal" id="13b" points="1710,420 1699,416 1699,424"/>
<g cb-classname="DynamicText" cb-source="PN-JmN-EC6z" class="signal" id="13C" text-anchor="end">
<text baseline-shift="5%" cb-classname="GraphicTextEntity" class="signal" fill="black" font-style="normal" font-weight="normal" id="13O" text-anchor="end" text-decoration="normal" x="1705" y="412"/>
</g>
</g>
<g cb-classname="ControlPin" cb-pin-name="9E-xjF-LuN" id="13n">
<line cb-classname="GraphicLineEntity" class="signalline" id="13U" x1="1750" x2="1770" y1="420" y2="420"/>
<g cb-classname="DynamicText" cb-source="Ut-6Xt-ePDq" class="signal" id="2IG">
<text baseline-shift="5%" cb-classname="GraphicTextEntity" class="signal" fill="black" font-style="normal" font-weight="normal" id="2IF" text-decoration="normal" x="1762" y="412"/>
</g>
<g cb-classname="SignalSegment" id="2Iw">
<g cb-classname="SignalConnection" cb-graphic-line="$204$" cb-input-pin="$2Qk$" id="2Ir"/>
<line cb-classname="GraphicLineEntity" class="signalline" id="2I4" stroke="#1e12bf" stroke-dasharray="5,4" x1="1770" x2="3930" y1="420" y2="420"/>
</g>
</g>
</g>
<g cb-alg-7q="$190$cb-alg-out$" cb-algorithm-id="00C" cb-classname="ExternalPointInterface" cb-function-name="OUTPUT" id="2Ib">
<ellipse cb-classname="GraphicEllipseEntity" class="algorithm" cx="3990" cy="420" id="2IC" rx="40" ry="40"/>
<rect cb-classname="GraphicRectangleEntity" class="algorithm" height="80" id="2IO" width="30" x="4030" y="380"/>
<line cb-classname="GraphicLineEntity" class="algorithm" id="2In" x1="4030" x2="4060" y1="420" y2="420"/>
<g cb-classname="PointStatusIndicator" cb-indicator-type="highway" cb-source="PN-OJ1-ak" id="2IU" visibility="hidden">
<line cb-classname="GraphicLineEntity" class="algorithmline" id="2MG" x1="3950" x2="3990" y1="420" y2="380"/>
<line cb-classname="GraphicLineEntity" class="algorithmline" id="2MF" x1="3990" x2="4030" y1="380" y2="420"/>
<line cb-classname="GraphicLineEntity" class="algorithmline" id="2Mw" x1="4030" x2="3990" y1="420" y2="460"/>
<line cb-classname="GraphicLineEntity" class="algorithmline" id="2Mr" x1="3990" x2="3950" y1="460" y2="420"/>
</g>
<g cb-classname="PointStatusIndicator" cb-indicator-type="hardware" cb-source="rq-CRl-j8" id="2M4" visibility="hidden">
<line cb-classname="GraphicLineEntity" class="algorithmline" id="2Mb" x1="4030" x2="3950" y1="380" y2="380"/>
<line cb-classname="GraphicLineEntity" class="algorithmline" id="2MC" x1="3950" x2="3950" y1="380" y2="460"/>
<line cb-classname="GraphicLineEntity" class="algorithmline" id="2MO" x1="3950" x2="4030" y1="460" y2="460"/>
</g>
<g cb-classname="PointStatusIndicator" cb-indicator-type="alarm" cb-source="FB-Pc7-C5" id="2Mn" visibility="hidden">
<text cb-classname="GraphicTextEntity" class="algorithm" fill="#000000" font-family="Arial" font-size="20" id="2MU" x="4037" y="409">
A
</text>
</g>
<g cb-classname="PointStatusIndicator" cb-indicator-type="ingraphic" cb-source="mh-9gO-Db" id="2QG" visibility="hidden">
<text cb-classname="GraphicTextEntity" class="algorithm" fill="#000000" font-family="Arial" font-size="20" id="2QF" x="4035" y="450">
G
</text>
</g>
<g cb-classname="DynamicText" cb-labeled="false" cb-pin-name="GE" cb-source="PN-OJ1-ak" class="algorithm" id="2Qw" text-anchor="end">
<text baseline-shift="0%" cb-classname="GraphicTextEntity" class="algorithm" fill="black" font-family="Arial" font-size="20" font-style="normal" font-weight="normal" id="2Qr" text-anchor="end" text-decoration="normal" x="3927" y="399"/>
</g>
<g baseline-shift="-100%" cb-anchor-x="3928" cb-anchor-y="436" cb-classname="PointReferences" cb-max-width="240" cb-originator="false" cb-source="9E-xjF-7q" class="signal" id="2Q4" text-anchor="end">
<text baseline-shift="-100%" cb-classname="GraphicTextEntity" class="algorithm" id="2Qb" text-anchor="end" x="3928" y="436">
-
</text>
</g>
<g baseline-shift="-50%" cb-anchor-x="4081" cb-anchor-y="418" cb-classname="PointDescription" cb-content="extended" cb-labeled="false" cb-max-width="240" cb-source="Ut-R6m-OH" class="algorithm" id="2QC" text-anchor="start">
<text baseline-shift="-50%" cb-classname="GraphicTextEntity" class="algorithm" id="2QO" text-anchor="start" x="4081" y="366">
DESC: No
</text>
<text baseline-shift="-50%" cb-classname="GraphicTextEntity" class="algorithm" id="2Rb" text-anchor="start" x="4081" y="402">
Description
</text>
<text baseline-shift="-50%" cb-classname="GraphicTextEntity" class="algorithm" id="2RC" text-anchor="start" x="4081" y="438">
Defined
</text>
<text baseline-shift="-50%" cb-classname="GraphicTextEntity" class="algorithm" id="2RO" text-anchor="start" x="4081" y="474">
(S_P30POV1100_ZSL)
</text>
</g>
<g cb-classname="ControlPin" cb-pin-name="ie-fCp-xB" id="2Qn">
<line cb-classname="GraphicLineEntity" class="signalline" id="2QU" x1="3930" x2="3950" y1="420" y2="420"/>
<polygon cb-classname="GraphicPolygonEntity" class="signal" id="2UG" points="3950,420 3939,414 3939,425"/>
</g>
</g>
<g cb-alg-7q="$157$cb-alg-out$" cb-algorithm-id="009" cb-classname="ExternalPointInterface" cb-function-name="OUTPUT" id="2UF">
<ellipse cb-classname="GraphicEllipseEntity" class="algorithm" cx="3990" cy="260" id="2Uw" rx="40" ry="40"/>
<rect cb-classname="GraphicRectangleEntity" class="algorithm" height="80" id="2Ur" width="30" x="4030" y="220"/>
<line cb-classname="GraphicLineEntity" class="algorithm" id="2U4" x1="4030" x2="4060" y1="260" y2="260"/>
<g cb-classname="PointStatusIndicator" cb-indicator-type="highway" cb-source="PN-OJ1-ak" id="2Ub" visibility="hidden">
<line cb-classname="GraphicLineEntity" class="algorithmline" id="2UC" x1="3950" x2="3990" y1="260" y2="220"/>
<line cb-classname="GraphicLineEntity" class="algorithmline" id="2UO" x1="3990" x2="4030" y1="220" y2="260"/>
<line cb-classname="GraphicLineEntity" class="algorithmline" id="2Un" x1="4030" x2="3990" y1="260" y2="300"/>
<line cb-classname="GraphicLineEntity" class="algorithmline" id="2UU" x1="3990" x2="3950" y1="300" y2="260"/>
</g>
<g cb-classname="PointStatusIndicator" cb-indicator-type="hardware" cb-source="rq-CRl-j8" id="2YG" visibility="hidden">
<line cb-classname="GraphicLineEntity" class="algorithmline" id="2YF" x1="4030" x2="3950" y1="220" y2="220"/>
<line cb-classname="GraphicLineEntity" class="algorithmline" id="2Yw" x1="3950" x2="3950" y1="220" y2="300"/>
<line cb-classname="GraphicLineEntity" class="algorithmline" id="2Yr" x1="3950" x2="4030" y1="300" y2="300"/>
</g>
<g cb-classname="PointStatusIndicator" cb-indicator-type="alarm" cb-source="FB-Pc7-C5" id="2Y4" visibility="hidden">
<text cb-classname="GraphicTextEntity" class="algorithm" fill="#000000" font-family="Arial" font-size="20" id="2Yb" x="4037" y="249">
A
</text>
</g>
<g cb-classname="PointStatusIndicator" cb-indicator-type="ingraphic" cb-source="mh-9gO-Db" id="2YC" visibility="hidden">
<text cb-classname="GraphicTextEntity" class="algorithm" fill="#000000" font-family="Arial" font-size="20" id="2YO" x="4035" y="290">
G
</text>
</g>
<g cb-classname="DynamicText" cb-labeled="false" cb-pin-name="GE" cb-source="PN-OJ1-ak" class="algorithm" id="2Yn" text-anchor="end">
<text baseline-shift="0%" cb-classname="GraphicTextEntity" class="algorithm" fill="black" font-family="Arial" font-size="20" font-style="normal" font-weight="normal" id="2YU" text-anchor="end" text-decoration="normal" x="3927" y="239"/>
</g>
<g baseline-shift="-100%" cb-anchor-x="3928" cb-anchor-y="276" cb-classname="PointReferences" cb-max-width="240" cb-originator="false" cb-source="9E-xjF-7q" class="signal" id="2ZG" text-anchor="end">
<text baseline-shift="-100%" cb-classname="GraphicTextEntity" class="algorithm" id="2ZF" text-anchor="end" x="3928" y="276">
-
</text>
</g>
<g baseline-shift="-50%" cb-anchor-x="4081" cb-anchor-y="258" cb-classname="PointDescription" cb-content="extended" cb-labeled="false" cb-max-width="240" cb-source="Ut-R6m-OH" class="algorithm" id="2Zw" text-anchor="start">
<text baseline-shift="-50%" cb-classname="GraphicTextEntity" class="algorithm" id="2Zr" text-anchor="start" x="4081" y="206">
DESC: No
</text>
<text baseline-shift="-50%" cb-classname="GraphicTextEntity" class="algorithm" id="2Rn" text-anchor="start" x="4081" y="242">
Description
</text>
<text baseline-shift="-50%" cb-classname="GraphicTextEntity" class="algorithm" id="2RU" text-anchor="start" x="4081" y="278">
Defined
</text>
<text baseline-shift="-50%" cb-classname="GraphicTextEntity" class="algorithm" id="2JG" text-anchor="start" x="4081" y="314">
(S_P30POV1100_ZSH)
</text>
</g>
<g cb-classname="ControlPin" cb-pin-name="ie-fCp-xB" id="2Z4">
<line cb-classname="GraphicLineEntity" class="signalline" id="2Zb" x1="3930" x2="3950" y1="260" y2="260"/>
<polygon cb-classname="GraphicPolygonEntity" class="signal" id="2ZC" points="3950,260 3939,254 3939,265"/>
</g>
</g>
</g>
<g cb-classname="IncludeDocument" cb-modify-time="12/03/2019 14:33:51" cb-objectname="frame" id="5">
<text cb-classname="GraphicTextEntity" class="frame" font-size="50" id="6" x="3660" y="3146">
HERA
</text>
<g baseline-shift="-50%" cb-classname="DynamicText" cb-source="ie-V7oc-6d" class="frame" id="7">
<text cb-classname="GraphicTextEntity" class="frame" fill="black" font-family="arial" font-size="25" font-style="normal" font-weight="normal" id="8" text-decoration="normal" x="4715" y="3325">
99
</text>
</g>
<g baseline-shift="-50%" cb-classname="DynamicText" cb-source="M8-dOLg-CV" class="frame" id="9" text-anchor="middle">
<text cb-classname="GraphicTextEntity" class="frame" fill="black" font-family="arial" font-size="48" font-style="normal" font-weight="normal" id="1I" text-anchor="middle" text-decoration="normal" x="4900" y="3320">
99
</text>
</g>
<g baseline-shift="-50%" cb-classname="DynamicText" cb-source="sn-E9ct-Dd" class="frame" id="1M" text-anchor="middle">
<text cb-classname="GraphicTextEntity" class="frame" fill="black" font-family="arial" font-size="48" font-style="normal" font-weight="normal" id="1Q" text-anchor="middle" text-decoration="normal" x="5067" y="3324">
3
</text>
</g>
<g cb-classname="DynamicText" cb-source="cT-pTh5h-Z7Tfk" class="frame" id="1U">
<text cb-classname="GraphicTextEntity" class="frame" fill="black" font-family="arial" font-size="48" font-style="normal" font-weight="normal" id="1Y" text-decoration="normal" x="3660" y="3224">
P30POV1100 - SIM
</text>
</g>
<g baseline-shift="-50%" cb-classname="DynamicText" cb-source="gz-XzZbZ-quf5q6" class="frame" id="1Z" text-anchor="middle">
<text cb-classname="GraphicTextEntity" class="frame" fill="black" font-family="arial" font-size="48" font-style="normal" font-weight="normal" id="1R" text-anchor="middle" text-decoration="normal" x="5270" y="3324">
3010
</text>
</g>
<g baseline-shift="0%" cb-classname="DynamicText" cb-source="3k-lbv76Od8" class="frame" id="1J" text-anchor="middle">
<text cb-classname="GraphicTextEntity" class="frame" fill="black" font-family="arial" font-size="36" font-style="normal" font-weight="normal" id="1B" text-anchor="middle" text-decoration="normal" x="5270" y="3150">
A
</text>
</g>
<g baseline-shift="0%" cb-classname="DynamicText" cb-source="rq-aNAOCxVn-eDUh" class="frame" id="13" text-anchor="middle">
<text cb-classname="GraphicTextEntity" class="frame" fill="black" font-family="arial" font-size="20" font-style="normal" font-weight="normal" id="2I" text-anchor="middle" text-decoration="normal" x="5270" y="3230">

</text>
</g>
<g baseline-shift="-50%" cb-classname="DynamicText" cb-source="1H-zeaxBeHC" class="frame" id="2M" text-anchor="end">
<text cb-classname="GraphicTextEntity" class="frame" fill="black" font-family="arial" font-size="26" font-style="normal" font-weight="normal" id="2Q" text-anchor="end" text-decoration="normal" x="4500" y="3420">

</text>
</g>
<g baseline-shift="-50%" cb-classname="DynamicText" cb-source="FB-OtvRHwBD" class="frame" id="2U" text-anchor="end">
<text cb-classname="GraphicTextEntity" class="frame" fill="black" font-family="arial" font-size="26" font-style="normal" font-weight="normal" id="2Y" text-anchor="end" text-decoration="normal" x="5353" y="3420">

</text>
</g>
<g cb-classname="GraphicShape" cb-tag="BORDER" id="2Z">
<line cb-classname="GraphicLineEntity" class="frameline" id="2R" x1="40" x2="40" y1="40" y2="3460"/>
<line cb-classname="GraphicLineEntity" class="frameline" id="2J" x1="40" x2="5380" y1="3460" y2="3460"/>
<line cb-classname="GraphicLineEntity" class="frameline" id="2B" x1="5380" x2="5380" y1="3460" y2="40"/>
<line cb-classname="GraphicLineEntity" class="frameline" id="23" x1="5380" x2="40" y1="40" y2="40"/>
<line cb-classname="GraphicLineEntity" class="frame" id="3I" x1="5430" x2="5440" y1="3510" y2="3510"/>
</g>
<g cb-classname="GraphicShape" cb-tag="TITLE BOX" id="3M">
<line cb-classname="GraphicLineEntity" class="frameline" id="3Q" x1="2340" x2="2340" y1="3080" y2="3460"/>
<line cb-classname="GraphicLineEntity" class="frameline" id="3U" x1="2340" x2="5380" y1="3080" y2="3080"/>
<line cb-classname="GraphicLineEntity" class="frameline" id="3Y" x1="3650" x2="3650" y1="3460" y2="3080"/>
<line cb-classname="GraphicLineEntity" class="frameline" id="3Z" x1="3650" x2="5380" y1="3240" y2="3240"/>
<line cb-classname="GraphicLineEntity" class="frameline" id="3R" x1="3650" x2="5380" y1="3390" y2="3390"/>
<line cb-classname="GraphicLineEntity" class="frameline" id="3J" x1="3650" x2="5380" y1="3160" y2="3160"/>
<line cb-classname="GraphicLineEntity" class="frameline" id="3B" x1="3650" x2="4520" y1="3320" y2="3320"/>
<line cb-classname="GraphicLineEntity" class="frameline" id="33" x1="4520" x2="5380" y1="3290" y2="3290"/>
<line cb-classname="GraphicLineEntity" class="frameline" id="4I" x1="4520" x2="5380" y1="3240" y2="3240"/>
<line cb-classname="GraphicLineEntity" class="frameline" id="4M" x1="4520" x2="4520" y1="3240" y2="3460"/>
<line cb-classname="GraphicLineEntity" class="frameline" id="4Q" x1="4810" x2="4810" y1="3240" y2="3390"/>
<line cb-classname="GraphicLineEntity" class="frameline" id="4U" x1="4990" x2="4990" y1="3240" y2="3390"/>
<line cb-classname="GraphicLineEntity" class="frameline" id="4Y" x1="5150" x2="5150" y1="3080" y2="3390"/>
</g>
<g cb-classname="GraphicShape" cb-tag="TEXT LABELS" id="4Z">
<text baseline-shift="-50%" cb-classname="GraphicTextEntity" class="frame" font-size="25" id="4R" text-anchor="middle" x="4890" y="3252">
Drop
</text>
<text baseline-shift="-50%" cb-classname="GraphicTextEntity" class="frame" font-size="25" id="4J" text-anchor="middle" x="5075" y="3252">
Task
</text>
<text baseline-shift="-50%" cb-classname="GraphicTextEntity" class="frame" font-size="25" id="4B" text-anchor="middle" x="5265" y="3252">
Sheet
</text>
<text cb-classname="GraphicTextEntity" class="frame" font-size="25" id="43" x="5152" y="3107">
Rev.
</text>
<text cb-classname="GraphicTextEntity" class="frame" font-size="25" id="5I" x="3653" y="3418">
Engineer
</text>
<text cb-classname="GraphicTextEntity" class="frame" font-size="25" id="5M" x="4528" y="3419">
Approved
</text>
<text cb-classname="GraphicTextEntity" class="frame" font-size="25" id="5Q" x="5152" y="3187">
Date
</text>
<text baseline-shift="-50%" cb-classname="GraphicTextEntity" class="frame" font-size="25" id="5U" text-anchor="middle" x="4660" y="3252">
Drawing Number
</text>
<text baseline-shift="-50%" cb-classname="GraphicTextEntity" class="frame" font-size="25" id="5Y" text-anchor="middle" x="4680" y="3325">
CTL
</text>
</g>
<text baseline-shift="-50%" cb-classname="GraphicTextEntity" class="frame" font-size="48" id="5Z" text-anchor="middle" x="3000" y="3100">
EMERSON PROCESS MANAGEMENT
</text>
<g baseline-shift="-100%" cb-anchor-x="2360" cb-anchor-y="3140" cb-classname="GroupText" cb-max-width="1260" fill="black" id="5R">
<text baseline-shift="-100%" cb-classname="GraphicTextEntity" class="frame" fill="black" font-family="arial" font-size="22" font-weight="normal" id="5J" text-anchor="start" text-decoration="normal" x="2360" y="3140">
THIS DOCUMENT CONTAINS INFORMATION PROPRIETARY TO EMERSON PROCESS
</text>
<text baseline-shift="-100%" cb-classname="GraphicTextEntity" class="frame" fill="black" font-family="arial" font-size="22" font-weight="normal" id="5B" text-anchor="start" text-decoration="normal" x="2360" y="3176">
MANAGEMENT POWER &amp; WATER SOLUTIONS, INC. IT IS SUBMITTED IN CONFIDENCE AND
</text>
<text baseline-shift="-100%" cb-classname="GraphicTextEntity" class="frame" fill="black" font-family="arial" font-size="22" font-weight="normal" id="53" text-anchor="start" text-decoration="normal" x="2360" y="3212">
TRUST, IS TO BE USED BY YOU SOLELY FOR THE PURPOSES FOR WHICH IT IS
</text>
<text baseline-shift="-100%" cb-classname="GraphicTextEntity" class="frame" fill="black" font-family="arial" font-size="22" font-weight="normal" id="6I" text-anchor="start" text-decoration="normal" x="2360" y="3248">
FURNISHED AND IS TO BE RETURNED UPON REQUEST. THIS DOCUMENT AND ANY
</text>
<text baseline-shift="-100%" cb-classname="GraphicTextEntity" class="frame" fill="black" font-family="arial" font-size="22" font-weight="normal" id="6M" text-anchor="start" text-decoration="normal" x="2360" y="3284">
OTHER INFORMATION PROVIDED TO YOU IS NOT TO BE REPRODUCED, TRANSMITTED,
</text>
<text baseline-shift="-100%" cb-classname="GraphicTextEntity" class="frame" fill="black" font-family="arial" font-size="22" font-weight="normal" id="6Q" text-anchor="start" text-decoration="normal" x="2360" y="3320">
DISCLOSED, OR USED OTHERWISE IN WHOLE OR IN PART WITHOUT THE PRIOR
</text>
<text baseline-shift="-100%" cb-classname="GraphicTextEntity" class="frame" fill="black" font-family="arial" font-size="22" font-weight="normal" id="6U" text-anchor="start" text-decoration="normal" x="2360" y="3356">
WRITTEN AUTHORIZATION OF EMERSON PROCESS MANAGEMENT POWER &amp; WATER
</text>
<text baseline-shift="-100%" cb-classname="GraphicTextEntity" class="frame" fill="black" font-family="arial" font-size="22" font-weight="normal" id="6Y" text-anchor="start" text-decoration="normal" x="2360" y="3392">
SOLUTIONS,INC.
</text>
</g>
</g>
</svg>