<?xml version="1.0" ?><svg cb-auto-time="02/13/2020 15:00:26" cb-classname="ControlFunction" cb-create-time="02/10/2020" cb-drop-id="99" cb-filename="Z:\OVATION\NET0\UNIT0\CONTROLFUNCTIONS\0309.svg" cb-function-id="0309" cb-key="321525511234" cb-modified-timestamp="1587028263" cb-modify-id="00000001" cb-path="Z:/OVATION/NET0/UNIT0/CONTROLFUNCTIONS" cb-revision="A" cb-sheet-number="3028" cb-sheet-title="P82POV1155 - SIM" cb-snap-grid="10" cb-task-id="3" height="3522" id="1" width="5450" xmlns="http://www.w3.org/2000/svg">
<style cb-classname="EntityStyle" id="2" type="text/css">
	.algorithm { fill: white; stroke: black; stroke-width: 3 }
	.algorithm-function { fill: black; stroke: none }
	.algorithm-functionline { fill: none; stroke: black; stroke-linecap: round; stroke-width: 3 }
	.algorithm-name { fill: black; stroke: none }
	.algorithm-nameline { fill: none; stroke: black; stroke-linecap: round; stroke-width: 3 }
	.algorithm-sequence { fill: black; stroke: none; visibility: hidden }
	.algorithm-sequenceline { fill: none; stroke: black; stroke-linecap: round; stroke-width: 3; visibility: hidden }
	.algorithmline { fill: none; stroke: black; stroke-linecap: round; stroke-width: 3 }
	.annotation { fill: black; stroke: none }
	.annotationline { fill: none; stroke: black; stroke-linecap: round; stroke-width: 3 }
	.description { fill: black; stroke: none }
	.descriptionline { fill: none; stroke: black; stroke-linecap: round; stroke-width: 3 }
	.frame { fill: black; stroke: none }
	.frameline { fill: none; stroke: black; stroke-linecap: round; stroke-width: 3 }
	.signal { fill: black; stroke: none }
	.signalline { fill: none; stroke: black; stroke-linecap: round; stroke-width: 3 }
	text.algorithm { fill: black; font-family: Arial; font-size: 22; stroke: none }
	text.algorithm-function { fill: black; font-family: Arial; font-size: 22; stroke: none }
	text.algorithm-name { fill: black; font-family: Arial; font-size: 22; stroke: none }
	text.algorithm-sequence { fill: black; font-family: Arial; font-size: 22; stroke: none; visibility: hidden }
	text.annotation { fill: black; font-family: Arial; font-size: 22; stroke: none }
	text.description { fill: black; font-family: Arial; font-size: 28; stroke: none }
	text.frame { fill: black; font-family: Arial; font-size: 18; stroke: none }
	text.signal { fill: black; font-family: Arial; font-size: 12; stroke: none }
</style>
<g cb-classname="NamedObject" cb-objectname="Comments" id="3"/>
<g cb-classname="AlgorithmContainer" cb-objectname="Algorithms" id="4">
<g cb-alg-3skV="NO" cb-alg-3vo="P82POV1155_HSH" cb-algorithm-id="007" cb-classname="ExternalPointInterface" cb-function-name="INPUT" id="7b">
<ellipse cb-classname="GraphicEllipseEntity" class="algorithm" cx="600" cy="260" id="7m" rx="40" ry="40"/>
<rect cb-classname="GraphicRectangleEntity" class="algorithm" height="80" id="76" width="30" x="530" y="220"/>
<line cb-classname="GraphicLineEntity" class="algorithm" id="7I" x1="530" x2="560" y1="260" y2="260"/>
<g cb-classname="PointStatusIndicator" cb-indicator-type="Highway" cb-source="G2-S4Z-rQe" id="8K" visibility="visible">
<line cb-classname="GraphicLineEntity" class="algorithmline" id="8S" x1="560" x2="600" y1="260" y2="220"/>
<line cb-classname="GraphicLineEntity" class="algorithmline" id="8N" x1="600" x2="640" y1="220" y2="260"/>
<line cb-classname="GraphicLineEntity" class="algorithmline" id="83" x1="640" x2="600" y1="260" y2="300"/>
<line cb-classname="GraphicLineEntity" class="algorithmline" id="8v" x1="600" x2="560" y1="300" y2="260"/>
</g>
<g cb-classname="PointStatusIndicator" cb-indicator-type="hardware" cb-source="SR-KlR-qfq" id="8p" visibility="visible">
<line cb-classname="GraphicLineEntity" class="algorithmline" id="8b" x1="560" x2="640" y1="220" y2="220"/>
<line cb-classname="GraphicLineEntity" class="algorithmline" id="8m" x1="640" x2="640" y1="220" y2="300"/>
<line cb-classname="GraphicLineEntity" class="algorithmline" id="86" x1="640" x2="560" y1="300" y2="300"/>
</g>
<g cb-classname="PointStatusIndicator" cb-indicator-type="alarm" cb-source="yT-zOO-VXm" id="8I" visibility="hidden">
<text cb-classname="GraphicTextEntity" class="algorithm" fill="#000000" font-family="arial" font-size="20" id="9K" x="537" y="249">
A
</text>
</g>
<g cb-classname="PointStatusIndicator" cb-indicator-type="ingraphic" cb-source="cR-aw2-JG0" id="9S" visibility="hidden">
<text cb-classname="GraphicTextEntity" class="algorithm" fill="#000000" font-family="Arial" font-size="20" id="9N" x="535" y="289">
G
</text>
</g>
<g baseline-shift="-50%" cb-anchor-x="512" cb-anchor-y="254" cb-classname="PointDescription" cb-content="extended" cb-labeled="false" cb-max-width="240" cb-source="G2-S4Z-rQe" class="algorithm" id="93" text-anchor="end">
<text baseline-shift="-50%" cb-classname="GraphicTextEntity" class="algorithm" id="9v" text-anchor="end" x="512" y="202">
vlv. POV1155 dust
</text>
<text baseline-shift="-50%" cb-classname="GraphicTextEntity" class="algorithm" id="2bH" text-anchor="end" x="512" y="238">
outlet SW1154 -
</text>
<text baseline-shift="-50%" cb-classname="GraphicTextEntity" class="algorithm" id="2bZ" text-anchor="end" x="512" y="274">
open
</text>
<text baseline-shift="-50%" cb-classname="GraphicTextEntity" class="algorithm" id="2bp" text-anchor="end" x="512" y="310">
(OPN - !nOPN)
</text>
</g>
<g cb-classname="DynamicText" cb-labeled="false" cb-pin-name="A6y" cb-source="c0-6EW-3vo" class="algorithm" id="9p" text-anchor="start">
<text baseline-shift="0%" cb-classname="GraphicTextEntity" class="algorithm" fill="black" font-family="Arial" font-size="20" font-style="normal" font-weight="normal" id="9b" text-anchor="start" text-decoration="normal" x="660" y="240"/>
</g>
<g baseline-shift="-100%" cb-anchor-x="660" cb-anchor-y="270" cb-classname="PointReferences" cb-max-width="230" cb-originator="true" cb-source="Ry-4k7-foY" class="signal" id="9m" text-anchor="start">
<text baseline-shift="-100%" cb-classname="GraphicTextEntity" class="algorithm" id="96" text-anchor="start" x="660" y="270">
12/123660
</text>
</g>
<g cb-classname="ControlPin" cb-pin-name="Nu-W5W-nvd" id="9I">
<line cb-classname="GraphicLineEntity" class="signalline" id="1Ks" x1="640" x2="660" y1="260" y2="260"/>
<g cb-classname="SignalSegment" id="1KM">
<line cb-classname="GraphicLineEntity" class="signalline" id="1KH" stroke="#1e12bf" stroke-dasharray="5,4" x1="660" x2="1010" y1="260" y2="260"/>
<g cb-classname="SignalSegment" id="1KZ">
<line cb-classname="GraphicLineEntity" class="signalline" id="1Kp" stroke="#1e12bf" stroke-dasharray="5,4" x1="1010" x2="1010" y1="260" y2="280"/>
<g cb-classname="SignalSegment" id="1Kj">
<line cb-classname="GraphicLineEntity" class="signalline" id="1Kl" stroke="#1e12bf" stroke-dasharray="5,4" x1="1010" x2="1070" y1="280" y2="280"/>
<g cb-classname="SignalConnection" cb-graphic-line="$106$" cb-input-pin="$C4r$" id="1K8"/>
</g>
<line cb-classname="GraphicLineEntity" class="signalline" id="1Kv" stroke="#1e12bf" stroke-dasharray="5,4" x1="1010" x2="1070" y1="260" y2="260"/>
<g cb-classname="SignalConnection" cb-graphic-line="$108$" cb-input-pin="$NHD$" id="1Ko"/>
<ellipse cb-classname="GraphicEllipseEntity" class="signal" cx="1010" cy="260" fill="#1e12bf" id="1Ss" rx="5" ry="5" stroke="#1e12bf" stroke-dasharray="5,4"/>
</g>
</g>
</g>
</g>
<g cb-alg-GoyG="2" cb-alg-Mpuk="$76$cb-alg-out$" cb-alg-Opz="$76$cb-alg-out$" cb-alg-Q64G="96" cb-alg-yonz="1.0" cb-algorithm-id="005" cb-classname="ControlAlgorithm" cb-function-name="ONDELAY" cb-modify-id="00000001" id="1SM">
<rect cb-classname="GraphicRectangleEntity" class="algorithm" height="60" id="1SH" width="60" x="1090" y="240"/>
<text baseline-shift="-50%" cb-classname="GraphicTextEntity" class="algorithm" font-size="18" id="1SZ" text-anchor="middle" x="1119" y="252">
TD
</text>
<text cb-classname="GraphicTextEntity" class="algorithm" font-size="18" id="1Sp" text-anchor="middle" x="1119" y="287">
ON
</text>
<g cb-classname="ControlPin" cb-pin-name="yT-zOO-zYL" id="1Sj">
<line cb-classname="GraphicLineEntity" class="signalline" id="1Sl" x1="1070" x2="1090" y1="260" y2="260"/>
<polygon cb-classname="GraphicPolygonEntity" class="signal" id="1S8" points="1090,260 1079,256 1079,264"/>
<g cb-classname="DynamicText" cb-source="FE-FHh-p4dq" class="signal" id="1Sv" text-anchor="end">
<text baseline-shift="5%" cb-classname="GraphicTextEntity" class="signal" fill="black" font-style="normal" font-weight="normal" id="1So" text-anchor="end" text-decoration="normal" x="1054" y="256"/>
</g>
</g>
<g cb-classname="ControlPin" cb-pin-name="87-IiF-gnB" id="1Ns">
<line cb-classname="GraphicLineEntity" class="signalline" id="1NM" x1="1150" x2="1170" y1="260" y2="260"/>
<g cb-classname="DynamicText" cb-source="PO-Y6e-c9Ts" class="signal" id="1NH">
<text baseline-shift="5%" cb-classname="GraphicTextEntity" class="signal" fill="black" font-style="normal" font-weight="normal" id="1NZ" text-decoration="normal" x="1186" y="256"/>
</g>
<g cb-classname="SignalSegment" id="1Np">
<line cb-classname="GraphicLineEntity" class="signalline" id="1Nj" stroke="#1e12bf" stroke-dasharray="5,4" x1="1170" x2="1180" y1="260" y2="260"/>
<g cb-classname="SignalConnection" cb-graphic-line="$125$" cb-input-pin="$Of4$" id="1Nl"/>
</g>
</g>
<g cb-classname="ControlPin" cb-pin-name="I4-9JL-cWC2" id="1N8">
<line cb-classname="GraphicLineEntity" class="signalline" id="1Nv" x1="1070" x2="1090" y1="280" y2="280"/>
<polygon cb-classname="GraphicPolygonEntity" class="signal" id="1No" points="1090,280 1079,276 1079,284"/>
<g cb-classname="DynamicText" cb-source="cR-K93-Dojz" class="signal" id="13s" text-anchor="end">
<text baseline-shift="5%" cb-classname="GraphicTextEntity" class="signal" fill="black" font-style="normal" font-weight="normal" id="13M" text-anchor="end" text-decoration="normal" x="1054" y="276"/>
</g>
</g>
</g>
<g cb-alg-3gb2="97" cb-alg-EaBn="1.000000" cb-alg-Saj2="2" cb-alg-xuC="$111$cb-alg-out$" cb-algorithm-id="016" cb-classname="ControlAlgorithm" cb-function-name="OFFDELAY" cb-modify-id="00000001" id="13H">
<rect cb-classname="GraphicRectangleEntity" class="algorithm" height="60" id="13Z" width="60" x="1200" y="230"/>
<text baseline-shift="-50%" cb-classname="GraphicTextEntity" class="algorithm" font-size="18" id="13p" text-anchor="middle" x="1230" y="245">
TD
</text>
<text baseline-shift="-50%" cb-classname="GraphicTextEntity" class="algorithm" font-size="18" id="13j" text-anchor="middle" x="1230" y="267">
OFF
</text>
<g cb-classname="ControlPin" cb-pin-name="Ry-4k7-kKP" id="13l">
<line cb-classname="GraphicLineEntity" class="signalline" id="138" x1="1180" x2="1200" y1="260" y2="260"/>
<polygon cb-classname="GraphicPolygonEntity" class="signal" id="13v" points="1200,260 1189,256 1189,264"/>
<g cb-classname="DynamicText" cb-source="iH-SkK-2wkb" class="signal" id="13o" text-anchor="end">
<text baseline-shift="5%" cb-classname="GraphicTextEntity" class="signal" fill="black" font-style="normal" font-weight="normal" id="1vs" text-anchor="end" text-decoration="normal" x="1164" y="256"/>
</g>
</g>
<g cb-classname="ControlPin" cb-pin-name="yT-zOO-VXm" id="1vM">
<line cb-classname="GraphicLineEntity" class="signalline" id="1vH" x1="1260" x2="1280" y1="260" y2="260"/>
<g cb-classname="DynamicText" cb-source="cR-K93-Dojz" class="signal" id="1vZ">
<text baseline-shift="5%" cb-classname="GraphicTextEntity" class="signal" fill="black" font-style="normal" font-weight="normal" id="1vp" text-decoration="normal" x="1296" y="256"/>
</g>
<g cb-classname="SignalSegment" id="1vj">
<line cb-classname="GraphicLineEntity" class="signalline" id="1vl" stroke="#1e12bf" stroke-dasharray="5,4" x1="1280" x2="1290" y1="260" y2="260"/>
<g cb-classname="SignalSegment" id="1v8">
<g cb-classname="SignalSegment" id="1vv">
<line cb-classname="GraphicLineEntity" class="signalline" id="1vo" stroke="#1e12bf" stroke-dasharray="5,4" x1="1290" x2="1300" y1="380" y2="380"/>
<g cb-classname="SignalConnection" cb-graphic-line="$149$" cb-input-pin="$9oO$" id="1ps"/>
<line cb-classname="GraphicLineEntity" class="signalline" id="1pM" stroke="#1e12bf" stroke-dasharray="5,4" x1="1290" x2="1290" y1="380" y2="420"/>
<g cb-classname="SignalSegment" id="1pH">
<line cb-classname="GraphicLineEntity" class="signalline" id="1pZ" stroke="#1e12bf" stroke-dasharray="5,4" x1="1290" x2="1300" y1="420" y2="420"/>
<g cb-classname="SignalConnection" cb-graphic-line="$153$" cb-input-pin="$o4Q$" id="1pp"/>
<line cb-classname="GraphicLineEntity" class="signalline" id="2p8" stroke="#1e12bf" stroke-dasharray="5,4" x1="1290" x2="1290" y1="420" y2="460"/>
<g cb-classname="SignalSegment" id="2pv">
<line cb-classname="GraphicLineEntity" class="signalline" id="2po" stroke="#1e12bf" stroke-dasharray="5,4" x1="1290" x2="1300" y1="460" y2="460"/>
<g cb-classname="SignalConnection" cb-graphic-line="$259$" cb-input-pin="$Sve$" id="2bs"/>
</g>
<ellipse cb-classname="GraphicEllipseEntity" class="signal" cx="1290" cy="420" fill="#1e12bf" id="2bM" rx="5" ry="5" stroke="#1e12bf" stroke-dasharray="5,4"/>
</g>
<ellipse cb-classname="GraphicEllipseEntity" class="signal" cx="1290" cy="380" fill="#1e12bf" id="1pj" rx="5" ry="5" stroke="#1e12bf" stroke-dasharray="5,4"/>
</g>
<line cb-classname="GraphicLineEntity" class="signalline" id="1pl" stroke="#1e12bf" stroke-dasharray="5,4" x1="1290" x2="1290" y1="260" y2="380"/>
</g>
</g>
</g>
</g>
<g cb-alg-O1D="S_P82POV1155_ZSH" cb-alg-cJm="$132$cb-alg-out$" cb-alg-cJw="$132$cb-alg-out$" cb-alg-cJz="$132$cb-alg-out$" cb-algorithm-id="014" cb-classname="FastBooleanAlgorithm" cb-function-name="AND" id="1p8">
<rect cb-classname="GraphicRectangleEntity" class="algorithm" height="60" id="1pv" width="80" x="1320" y="390"/>
<text baseline-shift="-50%" cb-classname="GraphicTextEntity" class="algorithm" id="1po" text-anchor="middle" x="1360" y="419">
AND
</text>
<line cb-classname="GraphicLineEntity" class="algorithmline" id="1bs" x1="1320" x2="1320" y1="360" y2="480"/>
<g cb-classname="ControlPin" cb-pin-name="PO-oAG-qmb" id="1bM">
<line cb-classname="GraphicLineEntity" class="signalline" id="1bH" x1="1300" x2="1320" y1="380" y2="380"/>
<polygon cb-classname="GraphicPolygonEntity" class="signal" id="1bZ" points="1320,380 1309,376 1309,384"/>
<g cb-classname="DynamicText" cb-source="Nu-0qm-vTsP" class="signal" id="1bp" text-anchor="end">
<text baseline-shift="5%" cb-classname="GraphicTextEntity" class="signal" fill="black" font-style="normal" font-weight="normal" id="1bj" text-anchor="end" text-decoration="normal" x="1313" y="372"/>
</g>
</g>
<g cb-classname="ControlPin" cb-pin-name="I4-9JL-E9a" id="1bl">
<line cb-classname="GraphicLineEntity" class="signalline" id="1b8" x1="1400" x2="1420" y1="420" y2="420"/>
<g cb-classname="DynamicText" cb-source="kF-7Lt-YdQZ" class="signal" id="1bv">
<text baseline-shift="5%" cb-classname="GraphicTextEntity" class="signal" fill="black" font-style="normal" font-weight="normal" id="1bo" text-decoration="normal" x="1412" y="412"/>
</g>
<g cb-classname="SignalSegment" id="1ms">
<line cb-classname="GraphicLineEntity" class="signalline" id="1mM" stroke="#1e12bf" stroke-dasharray="5,4" x1="1420" x2="1560" y1="420" y2="420"/>
<g cb-classname="SignalSegment" id="1mH">
<line cb-classname="GraphicLineEntity" class="signalline" id="1mZ" stroke="#1e12bf" stroke-dasharray="5,4" x1="1560" x2="1560" y1="420" y2="260"/>
<g cb-classname="SignalSegment" id="1mp">
<line cb-classname="GraphicLineEntity" class="signalline" id="1mj" stroke="#1e12bf" stroke-dasharray="5,4" x1="1560" x2="3930" y1="260" y2="260"/>
<g cb-classname="SignalConnection" cb-graphic-line="$175$" cb-input-pin="$AB8$" id="1ml"/>
</g>
<line cb-classname="GraphicLineEntity" class="signalline" id="1m8" stroke="#1e12bf" stroke-dasharray="5,4" x1="1560" x2="1690" y1="420" y2="420"/>
<g cb-classname="SignalConnection" cb-graphic-line="$177$" cb-input-pin="$Owt$" id="1mv"/>
<ellipse cb-classname="GraphicEllipseEntity" class="signal" cx="1560" cy="420" fill="#1e12bf" id="1mo" rx="5" ry="5" stroke="#1e12bf" stroke-dasharray="5,4"/>
</g>
</g>
</g>
<g cb-classname="ControlPin" cb-pin-name="yT-zOO-zYj" id="16s">
<line cb-classname="GraphicLineEntity" class="signalline" id="16M" x1="1300" x2="1320" y1="460" y2="460"/>
<polygon cb-classname="GraphicPolygonEntity" class="signal" id="16H" points="1320,460 1309,456 1309,464"/>
<g cb-classname="DynamicText" cb-source="FE-FHh-p4dq" class="signal" id="16Z" text-anchor="end">
<text baseline-shift="5%" cb-classname="GraphicTextEntity" class="signal" fill="black" font-style="normal" font-weight="normal" id="16p" text-anchor="end" text-decoration="normal" x="1310" y="450"/>
</g>
</g>
<g cb-classname="ControlPin" cb-pin-name="87-IiF-r6t" id="16j">
<line cb-classname="GraphicLineEntity" class="signalline" id="16l" x1="1300" x2="1320" y1="420" y2="420"/>
<polygon cb-classname="GraphicPolygonEntity" class="signal" id="168" points="1320,420 1309,416 1309,424"/>
<g cb-classname="DynamicText" cb-source="Ry-7r6-mzCe" class="signal" id="16v" text-anchor="end">
<text baseline-shift="5%" cb-classname="GraphicTextEntity" class="signal" fill="black" font-style="normal" font-weight="normal" id="16o" text-anchor="end" text-decoration="normal" x="1310" y="410"/>
</g>
</g>
</g>
<g cb-alg-6XO="$157$cb-alg-out$" cb-alg-TpN="S_P82POV1155_ZSL" cb-algorithm-id="006" cb-classname="FastBooleanAlgorithm" cb-function-name="NOT" id="1Is">
<rect cb-classname="GraphicRectangleEntity" class="algorithm" height="40" id="1IM" width="40" x="1710" y="400"/>
<text baseline-shift="-50%" cb-classname="GraphicTextEntity" class="algorithm" font-size="28" id="1IH" text-anchor="middle" x="1729" y="412">
N
</text>
<g cb-classname="ControlPin" cb-pin-name="yT-zOO-zYL" id="1IZ">
<line cb-classname="GraphicLineEntity" class="signalline" id="1Ip" x1="1690" x2="1710" y1="420" y2="420"/>
<polygon cb-classname="GraphicPolygonEntity" class="signal" id="1Ij" points="1710,420 1699,416 1699,424"/>
<g cb-classname="DynamicText" cb-source="FE-FHh-p4dq" class="signal" id="1Il" text-anchor="end">
<text baseline-shift="5%" cb-classname="GraphicTextEntity" class="signal" fill="black" font-style="normal" font-weight="normal" id="1I8" text-anchor="end" text-decoration="normal" x="1705" y="412"/>
</g>
</g>
<g cb-classname="ControlPin" cb-pin-name="87-IiF-gnB" id="1Iv">
<line cb-classname="GraphicLineEntity" class="signalline" id="1Io" x1="1750" x2="1770" y1="420" y2="420"/>
<g cb-classname="DynamicText" cb-source="PO-Y6e-c9Ts" class="signal" id="2Ks">
<text baseline-shift="5%" cb-classname="GraphicTextEntity" class="signal" fill="black" font-style="normal" font-weight="normal" id="2KM" text-decoration="normal" x="1762" y="412"/>
</g>
<g cb-classname="SignalSegment" id="2KH">
<g cb-classname="SignalConnection" cb-graphic-line="$204$" cb-input-pin="$klZ$" id="2KZ"/>
<line cb-classname="GraphicLineEntity" class="signalline" id="2Kp" stroke="#1e12bf" stroke-dasharray="5,4" x1="1770" x2="3930" y1="420" y2="420"/>
</g>
</g>
</g>
<g cb-alg-r6="$190$cb-alg-out$" cb-algorithm-id="00C" cb-classname="ExternalPointInterface" cb-function-name="OUTPUT" id="2Kj">
<ellipse cb-classname="GraphicEllipseEntity" class="algorithm" cx="3990" cy="420" id="2Kl" rx="40" ry="40"/>
<rect cb-classname="GraphicRectangleEntity" class="algorithm" height="80" id="2K8" width="30" x="4030" y="380"/>
<line cb-classname="GraphicLineEntity" class="algorithm" id="2Kv" x1="4030" x2="4060" y1="420" y2="420"/>
<g cb-classname="PointStatusIndicator" cb-indicator-type="highway" cb-source="FE-bTT-6X" id="2Ko" visibility="hidden">
<line cb-classname="GraphicLineEntity" class="algorithmline" id="2Ss" x1="3950" x2="3990" y1="420" y2="380"/>
<line cb-classname="GraphicLineEntity" class="algorithmline" id="2SM" x1="3990" x2="4030" y1="380" y2="420"/>
<line cb-classname="GraphicLineEntity" class="algorithmline" id="2SH" x1="4030" x2="3990" y1="420" y2="460"/>
<line cb-classname="GraphicLineEntity" class="algorithmline" id="2SZ" x1="3990" x2="3950" y1="460" y2="420"/>
</g>
<g cb-classname="PointStatusIndicator" cb-indicator-type="hardware" cb-source="Ry-4k7-kK" id="2Sp" visibility="hidden">
<line cb-classname="GraphicLineEntity" class="algorithmline" id="2Sj" x1="4030" x2="3950" y1="380" y2="380"/>
<line cb-classname="GraphicLineEntity" class="algorithmline" id="2Sl" x1="3950" x2="3950" y1="380" y2="460"/>
<line cb-classname="GraphicLineEntity" class="algorithmline" id="2S8" x1="3950" x2="4030" y1="460" y2="460"/>
</g>
<g cb-classname="PointStatusIndicator" cb-indicator-type="alarm" cb-source="I4-9JL-OW" id="2Sv" visibility="hidden">
<text cb-classname="GraphicTextEntity" class="algorithm" fill="#000000" font-family="Arial" font-size="20" id="2So" x="4037" y="409">
A
</text>
</g>
<g cb-classname="PointStatusIndicator" cb-indicator-type="ingraphic" cb-source="kF-Myi-fS" id="2Ns" visibility="hidden">
<text cb-classname="GraphicTextEntity" class="algorithm" fill="#000000" font-family="Arial" font-size="20" id="2NM" x="4035" y="450">
G
</text>
</g>
<g cb-classname="DynamicText" cb-labeled="false" cb-pin-name="Jq" cb-source="FE-bTT-6X" class="algorithm" id="2NH" text-anchor="end">
<text baseline-shift="0%" cb-classname="GraphicTextEntity" class="algorithm" fill="black" font-family="Arial" font-size="20" font-style="normal" font-weight="normal" id="2NZ" text-anchor="end" text-decoration="normal" x="3927" y="399"/>
</g>
<g baseline-shift="-100%" cb-anchor-x="3928" cb-anchor-y="436" cb-classname="PointReferences" cb-max-width="240" cb-originator="false" cb-source="87-IiF-r6" class="signal" id="2Np" text-anchor="end">
<text baseline-shift="-100%" cb-classname="GraphicTextEntity" class="algorithm" id="2Nj" text-anchor="end" x="3928" y="436">
-
</text>
</g>
<g baseline-shift="-50%" cb-anchor-x="4081" cb-anchor-y="418" cb-classname="PointDescription" cb-content="extended" cb-labeled="false" cb-max-width="240" cb-source="PO-oAG-qm" class="algorithm" id="2Nl" text-anchor="start">
<text baseline-shift="-50%" cb-classname="GraphicTextEntity" class="algorithm" id="2N8" text-anchor="start" x="4081" y="366">
DESC: No
</text>
<text baseline-shift="-50%" cb-classname="GraphicTextEntity" class="algorithm" id="2bj" text-anchor="start" x="4081" y="402">
Description
</text>
<text baseline-shift="-50%" cb-classname="GraphicTextEntity" class="algorithm" id="2bl" text-anchor="start" x="4081" y="438">
Defined
</text>
<text baseline-shift="-50%" cb-classname="GraphicTextEntity" class="algorithm" id="2b8" text-anchor="start" x="4081" y="474">
(S_P82POV1155_ZSL)
</text>
</g>
<g cb-classname="ControlPin" cb-pin-name="SR-KlR-Dv" id="2Nv">
<line cb-classname="GraphicLineEntity" class="signalline" id="2No" x1="3930" x2="3950" y1="420" y2="420"/>
<polygon cb-classname="GraphicPolygonEntity" class="signal" id="23s" points="3950,420 3939,414 3939,425"/>
</g>
</g>
<g cb-alg-r6="$157$cb-alg-out$" cb-algorithm-id="009" cb-classname="ExternalPointInterface" cb-function-name="OUTPUT" id="23M">
<ellipse cb-classname="GraphicEllipseEntity" class="algorithm" cx="3990" cy="260" id="23H" rx="40" ry="40"/>
<rect cb-classname="GraphicRectangleEntity" class="algorithm" height="80" id="23Z" width="30" x="4030" y="220"/>
<line cb-classname="GraphicLineEntity" class="algorithm" id="23p" x1="4030" x2="4060" y1="260" y2="260"/>
<g cb-classname="PointStatusIndicator" cb-indicator-type="highway" cb-source="FE-bTT-6X" id="23j" visibility="hidden">
<line cb-classname="GraphicLineEntity" class="algorithmline" id="23l" x1="3950" x2="3990" y1="260" y2="220"/>
<line cb-classname="GraphicLineEntity" class="algorithmline" id="238" x1="3990" x2="4030" y1="220" y2="260"/>
<line cb-classname="GraphicLineEntity" class="algorithmline" id="23v" x1="4030" x2="3990" y1="260" y2="300"/>
<line cb-classname="GraphicLineEntity" class="algorithmline" id="23o" x1="3990" x2="3950" y1="300" y2="260"/>
</g>
<g cb-classname="PointStatusIndicator" cb-indicator-type="hardware" cb-source="Ry-4k7-kK" id="2vs" visibility="hidden">
<line cb-classname="GraphicLineEntity" class="algorithmline" id="2vM" x1="4030" x2="3950" y1="220" y2="220"/>
<line cb-classname="GraphicLineEntity" class="algorithmline" id="2vH" x1="3950" x2="3950" y1="220" y2="300"/>
<line cb-classname="GraphicLineEntity" class="algorithmline" id="2vZ" x1="3950" x2="4030" y1="300" y2="300"/>
</g>
<g cb-classname="PointStatusIndicator" cb-indicator-type="alarm" cb-source="I4-9JL-OW" id="2vp" visibility="hidden">
<text cb-classname="GraphicTextEntity" class="algorithm" fill="#000000" font-family="Arial" font-size="20" id="2vj" x="4037" y="249">
A
</text>
</g>
<g cb-classname="PointStatusIndicator" cb-indicator-type="ingraphic" cb-source="kF-Myi-fS" id="2vl" visibility="hidden">
<text cb-classname="GraphicTextEntity" class="algorithm" fill="#000000" font-family="Arial" font-size="20" id="2v8" x="4035" y="290">
G
</text>
</g>
<g cb-classname="DynamicText" cb-labeled="false" cb-pin-name="Jq" cb-source="FE-bTT-6X" class="algorithm" id="2vv" text-anchor="end">
<text baseline-shift="0%" cb-classname="GraphicTextEntity" class="algorithm" fill="black" font-family="Arial" font-size="20" font-style="normal" font-weight="normal" id="2vo" text-anchor="end" text-decoration="normal" x="3927" y="239"/>
</g>
<g baseline-shift="-100%" cb-anchor-x="3928" cb-anchor-y="276" cb-classname="PointReferences" cb-max-width="240" cb-originator="false" cb-source="87-IiF-r6" class="signal" id="2ps" text-anchor="end">
<text baseline-shift="-100%" cb-classname="GraphicTextEntity" class="algorithm" id="2pM" text-anchor="end" x="3928" y="276">
-
</text>
</g>
<g baseline-shift="-50%" cb-anchor-x="4081" cb-anchor-y="258" cb-classname="PointDescription" cb-content="extended" cb-labeled="false" cb-max-width="240" cb-source="PO-oAG-qm" class="algorithm" id="2pH" text-anchor="start">
<text baseline-shift="-50%" cb-classname="GraphicTextEntity" class="algorithm" id="2pZ" text-anchor="start" x="4081" y="206">
DESC: No
</text>
<text baseline-shift="-50%" cb-classname="GraphicTextEntity" class="algorithm" id="2bv" text-anchor="start" x="4081" y="242">
Description
</text>
<text baseline-shift="-50%" cb-classname="GraphicTextEntity" class="algorithm" id="2bo" text-anchor="start" x="4081" y="278">
Defined
</text>
<text baseline-shift="-50%" cb-classname="GraphicTextEntity" class="algorithm" id="2ms" text-anchor="start" x="4081" y="314">
(S_P82POV1155_ZSH)
</text>
</g>
<g cb-classname="ControlPin" cb-pin-name="SR-KlR-Dv" id="2pp">
<line cb-classname="GraphicLineEntity" class="signalline" id="2pj" x1="3930" x2="3950" y1="260" y2="260"/>
<polygon cb-classname="GraphicPolygonEntity" class="signal" id="2pl" points="3950,260 3939,254 3939,265"/>
</g>
</g>
</g>
<g cb-classname="IncludeDocument" cb-modify-time="12/03/2019 14:33:51" cb-objectname="frame" id="5">
<text cb-classname="GraphicTextEntity" class="frame" font-size="50" id="6" x="3660" y="3146">
HERA
</text>
<g baseline-shift="-50%" cb-classname="DynamicText" cb-source="SR-Bvdn-RZ" class="frame" id="7">
<text cb-classname="GraphicTextEntity" class="frame" fill="black" font-family="arial" font-size="25" font-style="normal" font-weight="normal" id="8" text-decoration="normal" x="4715" y="3325">
99
</text>
</g>
<g baseline-shift="-50%" cb-classname="DynamicText" cb-source="iH-EHq7-OB" class="frame" id="9" text-anchor="middle">
<text cb-classname="GraphicTextEntity" class="frame" fill="black" font-family="arial" font-size="48" font-style="normal" font-weight="normal" id="1K" text-anchor="middle" text-decoration="normal" x="4900" y="3320">
99
</text>
</g>
<g baseline-shift="-50%" cb-classname="DynamicText" cb-source="yT-wMHM-fD" class="frame" id="1S" text-anchor="middle">
<text cb-classname="GraphicTextEntity" class="frame" fill="black" font-family="arial" font-size="48" font-style="normal" font-weight="normal" id="1N" text-anchor="middle" text-decoration="normal" x="5067" y="3324">
3
</text>
</g>
<g cb-classname="DynamicText" cb-source="cR-o2nmG-0re5D" class="frame" id="13">
<text cb-classname="GraphicTextEntity" class="frame" fill="black" font-family="arial" font-size="48" font-style="normal" font-weight="normal" id="1v" text-decoration="normal" x="3660" y="3224">
P82POV1155 - SIM
</text>
</g>
<g baseline-shift="-50%" cb-classname="DynamicText" cb-source="G2-5jMH0-6v82sQ" class="frame" id="1p" text-anchor="middle">
<text cb-classname="GraphicTextEntity" class="frame" fill="black" font-family="arial" font-size="48" font-style="normal" font-weight="normal" id="1b" text-anchor="middle" text-decoration="normal" x="5270" y="3324">
3028
</text>
</g>
<g baseline-shift="0%" cb-classname="DynamicText" cb-source="c0-FHNrVqfK" class="frame" id="1m" text-anchor="middle">
<text cb-classname="GraphicTextEntity" class="frame" fill="black" font-family="arial" font-size="36" font-style="normal" font-weight="normal" id="16" text-anchor="middle" text-decoration="normal" x="5270" y="3150">
A
</text>
</g>
<g baseline-shift="0%" cb-classname="DynamicText" cb-source="Ry-yzBqGDn2-UfMo" class="frame" id="1I" text-anchor="middle">
<text cb-classname="GraphicTextEntity" class="frame" fill="black" font-family="arial" font-size="20" font-style="normal" font-weight="normal" id="2K" text-anchor="middle" text-decoration="normal" x="5270" y="3230">

</text>
</g>
<g baseline-shift="-50%" cb-classname="DynamicText" cb-source="Nu-qcWDvec3" class="frame" id="2S" text-anchor="end">
<text cb-classname="GraphicTextEntity" class="frame" fill="black" font-family="arial" font-size="26" font-style="normal" font-weight="normal" id="2N" text-anchor="end" text-decoration="normal" x="4500" y="3420">

</text>
</g>
<g baseline-shift="-50%" cb-classname="DynamicText" cb-source="I4-HHaLcIbH" class="frame" id="23" text-anchor="end">
<text cb-classname="GraphicTextEntity" class="frame" fill="black" font-family="arial" font-size="26" font-style="normal" font-weight="normal" id="2v" text-anchor="end" text-decoration="normal" x="5353" y="3420">

</text>
</g>
<g cb-classname="GraphicShape" cb-tag="BORDER" id="2p">
<line cb-classname="GraphicLineEntity" class="frameline" id="2b" x1="40" x2="40" y1="40" y2="3460"/>
<line cb-classname="GraphicLineEntity" class="frameline" id="2m" x1="40" x2="5380" y1="3460" y2="3460"/>
<line cb-classname="GraphicLineEntity" class="frameline" id="26" x1="5380" x2="5380" y1="3460" y2="40"/>
<line cb-classname="GraphicLineEntity" class="frameline" id="2I" x1="5380" x2="40" y1="40" y2="40"/>
<line cb-classname="GraphicLineEntity" class="frame" id="3K" x1="5430" x2="5440" y1="3510" y2="3510"/>
</g>
<g cb-classname="GraphicShape" cb-tag="TITLE BOX" id="3S">
<line cb-classname="GraphicLineEntity" class="frameline" id="3N" x1="2340" x2="2340" y1="3080" y2="3460"/>
<line cb-classname="GraphicLineEntity" class="frameline" id="33" x1="2340" x2="5380" y1="3080" y2="3080"/>
<line cb-classname="GraphicLineEntity" class="frameline" id="3v" x1="3650" x2="3650" y1="3460" y2="3080"/>
<line cb-classname="GraphicLineEntity" class="frameline" id="3p" x1="3650" x2="5380" y1="3240" y2="3240"/>
<line cb-classname="GraphicLineEntity" class="frameline" id="3b" x1="3650" x2="5380" y1="3390" y2="3390"/>
<line cb-classname="GraphicLineEntity" class="frameline" id="3m" x1="3650" x2="5380" y1="3160" y2="3160"/>
<line cb-classname="GraphicLineEntity" class="frameline" id="36" x1="3650" x2="4520" y1="3320" y2="3320"/>
<line cb-classname="GraphicLineEntity" class="frameline" id="3I" x1="4520" x2="5380" y1="3290" y2="3290"/>
<line cb-classname="GraphicLineEntity" class="frameline" id="4K" x1="4520" x2="5380" y1="3240" y2="3240"/>
<line cb-classname="GraphicLineEntity" class="frameline" id="4S" x1="4520" x2="4520" y1="3240" y2="3460"/>
<line cb-classname="GraphicLineEntity" class="frameline" id="4N" x1="4810" x2="4810" y1="3240" y2="3390"/>
<line cb-classname="GraphicLineEntity" class="frameline" id="43" x1="4990" x2="4990" y1="3240" y2="3390"/>
<line cb-classname="GraphicLineEntity" class="frameline" id="4v" x1="5150" x2="5150" y1="3080" y2="3390"/>
</g>
<g cb-classname="GraphicShape" cb-tag="TEXT LABELS" id="4p">
<text baseline-shift="-50%" cb-classname="GraphicTextEntity" class="frame" font-size="25" id="4b" text-anchor="middle" x="4890" y="3252">
Drop
</text>
<text baseline-shift="-50%" cb-classname="GraphicTextEntity" class="frame" font-size="25" id="4m" text-anchor="middle" x="5075" y="3252">
Task
</text>
<text baseline-shift="-50%" cb-classname="GraphicTextEntity" class="frame" font-size="25" id="46" text-anchor="middle" x="5265" y="3252">
Sheet
</text>
<text cb-classname="GraphicTextEntity" class="frame" font-size="25" id="4I" x="5152" y="3107">
Rev.
</text>
<text cb-classname="GraphicTextEntity" class="frame" font-size="25" id="5K" x="3653" y="3418">
Engineer
</text>
<text cb-classname="GraphicTextEntity" class="frame" font-size="25" id="5S" x="4528" y="3419">
Approved
</text>
<text cb-classname="GraphicTextEntity" class="frame" font-size="25" id="5N" x="5152" y="3187">
Date
</text>
<text baseline-shift="-50%" cb-classname="GraphicTextEntity" class="frame" font-size="25" id="53" text-anchor="middle" x="4660" y="3252">
Drawing Number
</text>
<text baseline-shift="-50%" cb-classname="GraphicTextEntity" class="frame" font-size="25" id="5v" text-anchor="middle" x="4680" y="3325">
CTL
</text>
</g>
<text baseline-shift="-50%" cb-classname="GraphicTextEntity" class="frame" font-size="48" id="5p" text-anchor="middle" x="3000" y="3100">
EMERSON PROCESS MANAGEMENT
</text>
<g baseline-shift="-100%" cb-anchor-x="2360" cb-anchor-y="3140" cb-classname="GroupText" cb-max-width="1260" fill="black" id="5b">
<text baseline-shift="-100%" cb-classname="GraphicTextEntity" class="frame" fill="black" font-family="arial" font-size="22" font-weight="normal" id="5m" text-anchor="start" text-decoration="normal" x="2360" y="3140">
THIS DOCUMENT CONTAINS INFORMATION PROPRIETARY TO EMERSON PROCESS
</text>
<text baseline-shift="-100%" cb-classname="GraphicTextEntity" class="frame" fill="black" font-family="arial" font-size="22" font-weight="normal" id="56" text-anchor="start" text-decoration="normal" x="2360" y="3176">
MANAGEMENT POWER &amp; WATER SOLUTIONS, INC. IT IS SUBMITTED IN CONFIDENCE AND
</text>
<text baseline-shift="-100%" cb-classname="GraphicTextEntity" class="frame" fill="black" font-family="arial" font-size="22" font-weight="normal" id="5I" text-anchor="start" text-decoration="normal" x="2360" y="3212">
TRUST, IS TO BE USED BY YOU SOLELY FOR THE PURPOSES FOR WHICH IT IS
</text>
<text baseline-shift="-100%" cb-classname="GraphicTextEntity" class="frame" fill="black" font-family="arial" font-size="22" font-weight="normal" id="6K" text-anchor="start" text-decoration="normal" x="2360" y="3248">
FURNISHED AND IS TO BE RETURNED UPON REQUEST. THIS DOCUMENT AND ANY
</text>
<text baseline-shift="-100%" cb-classname="GraphicTextEntity" class="frame" fill="black" font-family="arial" font-size="22" font-weight="normal" id="6S" text-anchor="start" text-decoration="normal" x="2360" y="3284">
OTHER INFORMATION PROVIDED TO YOU IS NOT TO BE REPRODUCED, TRANSMITTED,
</text>
<text baseline-shift="-100%" cb-classname="GraphicTextEntity" class="frame" fill="black" font-family="arial" font-size="22" font-weight="normal" id="6N" text-anchor="start" text-decoration="normal" x="2360" y="3320">
DISCLOSED, OR USED OTHERWISE IN WHOLE OR IN PART WITHOUT THE PRIOR
</text>
<text baseline-shift="-100%" cb-classname="GraphicTextEntity" class="frame" fill="black" font-family="arial" font-size="22" font-weight="normal" id="63" text-anchor="start" text-decoration="normal" x="2360" y="3356">
WRITTEN AUTHORIZATION OF EMERSON PROCESS MANAGEMENT POWER &amp; WATER
</text>
<text baseline-shift="-100%" cb-classname="GraphicTextEntity" class="frame" fill="black" font-family="arial" font-size="22" font-weight="normal" id="6v" text-anchor="start" text-decoration="normal" x="2360" y="3392">
SOLUTIONS,INC.
</text>
</g>
</g>
</svg>