<?xml version="1.0" ?><svg cb-auto-time="02/14/2020 09:27:19" cb-classname="ControlFunction" cb-create-time="02/10/2020" cb-drop-id="99" cb-filename="Z:\OVATION\NET0\UNIT0\CONTROLFUNCTIONS\0327.svg" cb-function-id="0327" cb-key="551123424433" cb-modified-timestamp="1587028304" cb-modify-id="00000001" cb-path="Z:/OVATION/NET0/UNIT0/CONTROLFUNCTIONS" cb-revision="A" cb-sheet-number="4030" cb-sheet-title="A19SW1104B - SIM" cb-snap-grid="10" cb-task-id="3" height="3522" id="1" width="5450" xmlns="http://www.w3.org/2000/svg">
<style cb-classname="EntityStyle" id="2" type="text/css">
	.algorithm { fill: white; stroke: black; stroke-width: 3 }
	.algorithm-function { fill: black; stroke: none }
	.algorithm-functionline { fill: none; stroke: black; stroke-linecap: round; stroke-width: 3 }
	.algorithm-name { fill: black; stroke: none }
	.algorithm-nameline { fill: none; stroke: black; stroke-linecap: round; stroke-width: 3 }
	.algorithm-sequence { fill: black; stroke: none; visibility: hidden }
	.algorithm-sequenceline { fill: none; stroke: black; stroke-linecap: round; stroke-width: 3; visibility: hidden }
	.algorithmline { fill: none; stroke: black; stroke-linecap: round; stroke-width: 3 }
	.annotation { fill: black; stroke: none }
	.annotationline { fill: none; stroke: black; stroke-linecap: round; stroke-width: 3 }
	.frame { fill: black; stroke: none }
	.frameline { fill: none; stroke: black; stroke-linecap: round; stroke-width: 3 }
	.signal { fill: black; stroke: none }
	.signalline { fill: none; stroke: black; stroke-linecap: round; stroke-width: 3 }
	text.algorithm { fill: black; font-family: Arial; font-size: 22; stroke: none }
	text.algorithm-function { fill: black; font-family: Arial; font-size: 22; stroke: none }
	text.algorithm-name { fill: black; font-family: Arial; font-size: 22; stroke: none }
	text.algorithm-sequence { fill: black; font-family: Arial; font-size: 22; stroke: none; visibility: hidden }
	text.annotation { fill: black; font-family: Arial; font-size: 22; stroke: none }
	text.frame { fill: black; font-family: Arial; font-size: 18; stroke: none }
	text.signal { fill: black; font-family: Arial; font-size: 12; stroke: none }
</style>
<g cb-classname="NamedObject" cb-objectname="Comments" id="3"/>
<g cb-classname="AlgorithmContainer" cb-objectname="Algorithms" id="4">
<g cb-alg-S0Yv="NO" cb-alg-Sob="A19SW1104B_SY" cb-algorithm-id="00A" cb-classname="ExternalPointInterface" cb-function-name="INPUT" id="2U5">
<ellipse cb-classname="GraphicEllipseEntity" class="algorithm" cx="690" cy="320" id="2Xj" rx="40" ry="40"/>
<rect cb-classname="GraphicRectangleEntity" class="algorithm" height="80" id="2Xk" width="30" x="620" y="280"/>
<line cb-classname="GraphicLineEntity" class="algorithm" id="2Xi" x1="620" x2="650" y1="320" y2="320"/>
<g cb-classname="PointStatusIndicator" cb-indicator-type="Highway" cb-source="wO-eCR-KNj" id="2Xz" visibility="visible">
<line cb-classname="GraphicLineEntity" class="algorithmline" id="2XO" x1="650" x2="690" y1="320" y2="280"/>
<line cb-classname="GraphicLineEntity" class="algorithmline" id="2X3" x1="690" x2="730" y1="280" y2="320"/>
<line cb-classname="GraphicLineEntity" class="algorithmline" id="2XS" x1="730" x2="690" y1="320" y2="360"/>
<line cb-classname="GraphicLineEntity" class="algorithmline" id="2XU" x1="690" x2="650" y1="360" y2="320"/>
</g>
<g cb-classname="PointStatusIndicator" cb-indicator-type="hardware" cb-source="JN-qYo-mo5" id="2XD" visibility="visible">
<line cb-classname="GraphicLineEntity" class="algorithmline" id="2X5" x1="650" x2="730" y1="280" y2="280"/>
<line cb-classname="GraphicLineEntity" class="algorithmline" id="2Jj" x1="730" x2="730" y1="280" y2="360"/>
<line cb-classname="GraphicLineEntity" class="algorithmline" id="2Jk" x1="730" x2="650" y1="360" y2="360"/>
</g>
<g cb-classname="PointStatusIndicator" cb-indicator-type="alarm" cb-source="Hq-jS6-K95" id="2Ji" visibility="hidden">
<text cb-classname="GraphicTextEntity" class="algorithm" fill="#000000" font-family="arial" font-size="20" id="2Jz" x="627" y="309">
A
</text>
</g>
<g cb-classname="PointStatusIndicator" cb-indicator-type="ingraphic" cb-source="hu-bxv-boA" id="2JO" visibility="hidden">
<text cb-classname="GraphicTextEntity" class="algorithm" fill="#000000" font-family="Arial" font-size="20" id="2J3" x="625" y="349">
G
</text>
</g>
<g baseline-shift="-50%" cb-anchor-x="602" cb-anchor-y="314" cb-classname="PointDescription" cb-content="extended" cb-labeled="false" cb-max-width="240" cb-source="wO-eCR-KNj" class="algorithm" id="2JS" text-anchor="end">
<text baseline-shift="-50%" cb-classname="GraphicTextEntity" class="algorithm" id="2JU" text-anchor="end" x="602" y="244">
screw conv.
</text>
<text baseline-shift="-50%" cb-classname="GraphicTextEntity" class="algorithm" id="2JD" text-anchor="end" x="602" y="280">
SW1104B dosag.
</text>
<text baseline-shift="-50%" cb-classname="GraphicTextEntity" class="algorithm" id="2J5" text-anchor="end" x="602" y="316">
dolomia -
</text>
<text baseline-shift="-50%" cb-classname="GraphicTextEntity" class="algorithm" id="2zj" text-anchor="end" x="602" y="352">
req.speed
</text>
<text baseline-shift="-50%" cb-classname="GraphicTextEntity" class="algorithm" id="2RO" text-anchor="end" x="602" y="388">
0 - 0 %
</text>
</g>
<g cb-classname="DynamicText" cb-labeled="false" cb-pin-name="V9h" cb-source="JN-qYo-mo5" class="algorithm" id="2zk" text-anchor="start">
<text baseline-shift="0%" cb-classname="GraphicTextEntity" class="algorithm" fill="black" font-family="Arial" font-size="20" font-style="normal" font-weight="normal" id="2zi" text-anchor="start" text-decoration="normal" x="750" y="300"/>
</g>
<g baseline-shift="-100%" cb-anchor-x="750" cb-anchor-y="330" cb-classname="PointReferences" cb-max-width="230" cb-originator="true" cb-source="C8-V09-XAr" class="signal" id="2zz" text-anchor="start">
<text baseline-shift="-100%" cb-classname="GraphicTextEntity" class="algorithm" id="2zO" text-anchor="start" x="750" y="330">
12/125740
</text>
</g>
<g cb-classname="ControlPin" cb-pin-name="Hq-jS6-K95" id="2z3">
<line cb-classname="GraphicLineEntity" class="signalline" id="2zS" x1="730" x2="750" y1="320" y2="320"/>
<g cb-classname="SignalSegment" id="2zU">
<g cb-classname="SignalConnection" cb-graphic-line="$239$" cb-input-pin="$3Ud$" id="2zD"/>
<line cb-classname="GraphicLineEntity" class="signalline" id="2z5" x1="750" x2="990" y1="320" y2="320"/>
</g>
</g>
</g>
<g cb-alg-SB="S_A19SW1104B_SI" cb-alg-YNNuP="5" cb-alg-kWD="$209$cb-alg-out$" cb-algorithm-id="00D" cb-classname="ControlMacroReference" cb-function-name="SIM_CV" cb-macro-crc="19113" cb-modify-id="00000001" id="2pj">
<rect cb-classname="GraphicRectangleEntity" class="annotation" fill="white" height="180" id="2pk" width="130" x="1030" y="290"/>
<g cb-classname="ControlPin" cb-pin-name="fr-nVg-XSg" id="2pi">
<line cb-classname="GraphicLineEntity" class="signalline" id="2pz" x1="990" x2="1030" y1="320" y2="320"/>
<polygon cb-classname="GraphicPolygonEntity" class="signal" id="2pO" points="1030,320 1019,314 1019,325"/>
<g cb-classname="DynamicText" cb-source="XG-G1d-cjtw" id="2p3">
<text cb-classname="GraphicTextEntity" class="signal" id="2pS" text-anchor="end" x="1015" y="317"/>
</g>
</g>
<g cb-classname="ControlPin" cb-pin-name="cL-l19-t0" id="2pU">
<line cb-classname="GraphicLineEntity" class="signalline" id="2pD" x1="1160" x2="1200" y1="300" y2="300"/>
<g cb-classname="DynamicText" cb-source="AQ-PHo-7yLI" id="2p5">
<text cb-classname="GraphicTextEntity" class="signal" id="2aj" text-anchor="start" x="1174" y="297"/>
</g>
<g cb-classname="SignalSegment" id="2ak">
<line cb-classname="GraphicLineEntity" class="signalline" id="2ai" x1="1200" x2="1660" y1="300" y2="300"/>
<g cb-classname="SignalConnection" cb-graphic-line="$252$" cb-input-pin="$dnG$" id="2az"/>
</g>
</g>
<g cb-classname="ControlPin" cb-pin-name="l0-ydy-wl9" id="2aO">
<line cb-classname="GraphicLineEntity" class="signalline" id="2a3" x1="1160" x2="1200" y1="380" y2="380"/>
<g cb-classname="DynamicText" cb-source="2U-pyM-daD9" id="2aS">
<text cb-classname="GraphicTextEntity" class="signal" id="2aU" text-anchor="start" x="1174" y="377"/>
</g>
</g>
<g cb-classname="ControlPin" cb-pin-name="XG-aLj-xrL" id="2aD">
<line cb-classname="GraphicLineEntity" class="signalline" id="2a5" x1="1160" x2="1200" y1="460" y2="460"/>
<g cb-classname="DynamicText" cb-source="cL-JgN-oe6x" id="2sj">
<text cb-classname="GraphicTextEntity" class="signal" id="2sk" text-anchor="start" x="1174" y="457"/>
</g>
</g>
<text baseline-shift="0%" cb-classname="GraphicTextEntity" class="annotation" fill="#000000" font-family="MS Shell Dlg 2" font-size="18" id="2si" x="1060" y="320">
Control
</text>
<text baseline-shift="0%" cb-classname="GraphicTextEntity" class="annotation" fill="#000000" font-family="MS Shell Dlg 2" font-size="18" id="2sz" x="1050" y="450">
Simulator
</text>
<text baseline-shift="0%" cb-classname="GraphicTextEntity" class="annotation" fill="#000000" font-family="MS Shell Dlg 2" font-size="18" id="2sO" x="1070" y="340">
Valve
</text>
</g>
<g cb-alg-z0="$240$cb-alg-fb$" cb-algorithm-id="00E" cb-classname="ExternalPointInterface" cb-function-name="OUTPUT" id="2s3">
<ellipse cb-classname="GraphicEllipseEntity" class="algorithm" cx="1720" cy="300" id="2sS" rx="40" ry="40"/>
<rect cb-classname="GraphicRectangleEntity" class="algorithm" height="80" id="2sU" width="30" x="1760" y="260"/>
<line cb-classname="GraphicLineEntity" class="algorithm" id="2sD" x1="1760" x2="1790" y1="300" y2="300"/>
<g cb-classname="PointStatusIndicator" cb-indicator-type="highway" cb-source="2U-xJ1-yb" id="2s5" visibility="hidden">
<line cb-classname="GraphicLineEntity" class="algorithmline" id="24j" x1="1680" x2="1720" y1="300" y2="260"/>
<line cb-classname="GraphicLineEntity" class="algorithmline" id="24k" x1="1720" x2="1760" y1="260" y2="300"/>
<line cb-classname="GraphicLineEntity" class="algorithmline" id="24i" x1="1760" x2="1720" y1="300" y2="340"/>
<line cb-classname="GraphicLineEntity" class="algorithmline" id="24z" x1="1720" x2="1680" y1="340" y2="300"/>
</g>
<g cb-classname="PointStatusIndicator" cb-indicator-type="hardware" cb-source="Hq-jS6-q7" id="24O" visibility="hidden">
<line cb-classname="GraphicLineEntity" class="algorithmline" id="243" x1="1760" x2="1680" y1="260" y2="260"/>
<line cb-classname="GraphicLineEntity" class="algorithmline" id="24S" x1="1680" x2="1680" y1="260" y2="340"/>
<line cb-classname="GraphicLineEntity" class="algorithmline" id="24U" x1="1680" x2="1760" y1="340" y2="340"/>
</g>
<g cb-classname="PointStatusIndicator" cb-indicator-type="alarm" cb-source="wO-eCR-Rt" id="24D" visibility="hidden">
<text cb-classname="GraphicTextEntity" class="algorithm" fill="#000000" font-family="Arial" font-size="20" id="245" x="1767" y="289">
A
</text>
</g>
<g cb-classname="PointStatusIndicator" cb-indicator-type="ingraphic" cb-source="l0-ydy-P8" id="2Ej" visibility="hidden">
<text cb-classname="GraphicTextEntity" class="algorithm" fill="#000000" font-family="Arial" font-size="20" id="2Ek" x="1765" y="330">
G
</text>
</g>
<g cb-classname="DynamicText" cb-labeled="false" cb-pin-name="04" cb-source="2U-xJ1-yb" class="algorithm" id="2Ei" text-anchor="end">
<text baseline-shift="0%" cb-classname="GraphicTextEntity" class="algorithm" fill="black" font-family="Arial" font-size="20" font-style="normal" font-weight="normal" id="2Ez" text-anchor="end" text-decoration="normal" x="1657" y="279"/>
</g>
<g baseline-shift="-100%" cb-anchor-x="1658" cb-anchor-y="316" cb-classname="PointReferences" cb-max-width="240" cb-originator="false" cb-source="XG-aLj-PK" class="signal" id="2EO" text-anchor="end">
<text baseline-shift="-100%" cb-classname="GraphicTextEntity" class="algorithm" id="2E3" text-anchor="end" x="1658" y="316">
-
</text>
</g>
<g baseline-shift="-50%" cb-anchor-x="1811" cb-anchor-y="298" cb-classname="PointDescription" cb-content="extended" cb-labeled="false" cb-max-width="240" cb-source="cL-l19-4u" class="algorithm" id="2ES" text-anchor="start">
<text baseline-shift="-50%" cb-classname="GraphicTextEntity" class="algorithm" id="2EU" text-anchor="start" x="1811" y="246">
DESC: No
</text>
<text baseline-shift="-50%" cb-classname="GraphicTextEntity" class="algorithm" id="2ED" text-anchor="start" x="1811" y="282">
Description
</text>
<text baseline-shift="-50%" cb-classname="GraphicTextEntity" class="algorithm" id="2E5" text-anchor="start" x="1811" y="318">
Defined
</text>
<text baseline-shift="-50%" cb-classname="GraphicTextEntity" class="algorithm" id="2Rj" text-anchor="start" x="1811" y="354">
(S_A19SW1104B_SI)
</text>
</g>
<g cb-classname="ControlPin" cb-pin-name="wO-eCR-Rt" id="2Rk">
<line cb-classname="GraphicLineEntity" class="signalline" id="2Ri" x1="1660" x2="1680" y1="300" y2="300"/>
<polygon cb-classname="GraphicPolygonEntity" class="signal" id="2Rz" points="1680,300 1669,294 1669,305"/>
</g>
</g>
</g>
<g cb-classname="IncludeDocument" cb-modify-time="12/03/2019 14:33:51" cb-objectname="frame" id="5">
<text cb-classname="GraphicTextEntity" class="frame" font-size="50" id="6" x="3660" y="3146">
HERA
</text>
<g baseline-shift="-50%" cb-classname="DynamicText" cb-source="l0-PfK1-19" class="frame" id="7">
<text cb-classname="GraphicTextEntity" class="frame" fill="black" font-family="arial" font-size="25" font-style="normal" font-weight="normal" id="8" text-decoration="normal" x="4715" y="3325">
99
</text>
</g>
<g baseline-shift="-50%" cb-classname="DynamicText" cb-source="2U-E6wl-24" class="frame" id="9" text-anchor="middle">
<text cb-classname="GraphicTextEntity" class="frame" fill="black" font-family="arial" font-size="48" font-style="normal" font-weight="normal" id="1U" text-anchor="middle" text-decoration="normal" x="4900" y="3320">
99
</text>
</g>
<g baseline-shift="-50%" cb-classname="DynamicText" cb-source="XG-jVi6-FL" class="frame" id="1X" text-anchor="middle">
<text cb-classname="GraphicTextEntity" class="frame" fill="black" font-family="arial" font-size="48" font-style="normal" font-weight="normal" id="1J" text-anchor="middle" text-decoration="normal" x="5067" y="3324">
3
</text>
</g>
<g cb-classname="DynamicText" cb-source="cL-ehDL2-xqSVQ" class="frame" id="1z">
<text cb-classname="GraphicTextEntity" class="frame" fill="black" font-family="arial" font-size="48" font-style="normal" font-weight="normal" id="1p" text-decoration="normal" x="3660" y="3224">
A19SW1104B - SIM
</text>
</g>
<g baseline-shift="-50%" cb-classname="DynamicText" cb-source="AQ-es9Nx-TwzB2x" class="frame" id="1a" text-anchor="middle">
<text cb-classname="GraphicTextEntity" class="frame" fill="black" font-family="arial" font-size="48" font-style="normal" font-weight="normal" id="1s" text-anchor="middle" text-decoration="normal" x="5270" y="3324">
4030
</text>
</g>
<g baseline-shift="0%" cb-classname="DynamicText" cb-source="fU-RNvqvRTM" class="frame" id="14" text-anchor="middle">
<text cb-classname="GraphicTextEntity" class="frame" fill="black" font-family="arial" font-size="36" font-style="normal" font-weight="normal" id="1E" text-anchor="middle" text-decoration="normal" x="5270" y="3150">
A
</text>
</g>
<g baseline-shift="0%" cb-classname="DynamicText" cb-source="aB-5xqR7Pyd-gFtw" class="frame" id="1R" text-anchor="middle">
<text cb-classname="GraphicTextEntity" class="frame" fill="black" font-family="arial" font-size="20" font-style="normal" font-weight="normal" id="2U" text-anchor="middle" text-decoration="normal" x="5270" y="3230">

</text>
</g>
<g baseline-shift="-50%" cb-classname="DynamicText" cb-source="fr-DggP8RLl" class="frame" id="2X" text-anchor="end">
<text cb-classname="GraphicTextEntity" class="frame" fill="black" font-family="arial" font-size="26" font-style="normal" font-weight="normal" id="2J" text-anchor="end" text-decoration="normal" x="4500" y="3420">

</text>
</g>
<g baseline-shift="-50%" cb-classname="DynamicText" cb-source="JN-6xiyLm9G" class="frame" id="2z" text-anchor="end">
<text cb-classname="GraphicTextEntity" class="frame" fill="black" font-family="arial" font-size="26" font-style="normal" font-weight="normal" id="2p" text-anchor="end" text-decoration="normal" x="5353" y="3420">

</text>
</g>
<g cb-classname="GraphicShape" cb-tag="BORDER" id="2a">
<line cb-classname="GraphicLineEntity" class="frameline" id="2s" x1="40" x2="40" y1="40" y2="3460"/>
<line cb-classname="GraphicLineEntity" class="frameline" id="24" x1="40" x2="5380" y1="3460" y2="3460"/>
<line cb-classname="GraphicLineEntity" class="frameline" id="2E" x1="5380" x2="5380" y1="3460" y2="40"/>
<line cb-classname="GraphicLineEntity" class="frameline" id="2R" x1="5380" x2="40" y1="40" y2="40"/>
<line cb-classname="GraphicLineEntity" class="frame" id="3U" x1="5430" x2="5440" y1="3510" y2="3510"/>
</g>
<g cb-classname="GraphicShape" cb-tag="TITLE BOX" id="3X">
<line cb-classname="GraphicLineEntity" class="frameline" id="3J" x1="2340" x2="2340" y1="3080" y2="3460"/>
<line cb-classname="GraphicLineEntity" class="frameline" id="3z" x1="2340" x2="5380" y1="3080" y2="3080"/>
<line cb-classname="GraphicLineEntity" class="frameline" id="3p" x1="3650" x2="3650" y1="3460" y2="3080"/>
<line cb-classname="GraphicLineEntity" class="frameline" id="3a" x1="3650" x2="5380" y1="3240" y2="3240"/>
<line cb-classname="GraphicLineEntity" class="frameline" id="3s" x1="3650" x2="5380" y1="3390" y2="3390"/>
<line cb-classname="GraphicLineEntity" class="frameline" id="34" x1="3650" x2="5380" y1="3160" y2="3160"/>
<line cb-classname="GraphicLineEntity" class="frameline" id="3E" x1="3650" x2="4520" y1="3320" y2="3320"/>
<line cb-classname="GraphicLineEntity" class="frameline" id="3R" x1="4520" x2="5380" y1="3290" y2="3290"/>
<line cb-classname="GraphicLineEntity" class="frameline" id="4U" x1="4520" x2="5380" y1="3240" y2="3240"/>
<line cb-classname="GraphicLineEntity" class="frameline" id="4X" x1="4520" x2="4520" y1="3240" y2="3460"/>
<line cb-classname="GraphicLineEntity" class="frameline" id="4J" x1="4810" x2="4810" y1="3240" y2="3390"/>
<line cb-classname="GraphicLineEntity" class="frameline" id="4z" x1="4990" x2="4990" y1="3240" y2="3390"/>
<line cb-classname="GraphicLineEntity" class="frameline" id="4p" x1="5150" x2="5150" y1="3080" y2="3390"/>
</g>
<g cb-classname="GraphicShape" cb-tag="TEXT LABELS" id="4a">
<text baseline-shift="-50%" cb-classname="GraphicTextEntity" class="frame" font-size="25" id="4s" text-anchor="middle" x="4890" y="3252">
Drop
</text>
<text baseline-shift="-50%" cb-classname="GraphicTextEntity" class="frame" font-size="25" id="44" text-anchor="middle" x="5075" y="3252">
Task
</text>
<text baseline-shift="-50%" cb-classname="GraphicTextEntity" class="frame" font-size="25" id="4E" text-anchor="middle" x="5265" y="3252">
Sheet
</text>
<text cb-classname="GraphicTextEntity" class="frame" font-size="25" id="4R" x="5152" y="3107">
Rev.
</text>
<text cb-classname="GraphicTextEntity" class="frame" font-size="25" id="5U" x="3653" y="3418">
Engineer
</text>
<text cb-classname="GraphicTextEntity" class="frame" font-size="25" id="5X" x="4528" y="3419">
Approved
</text>
<text cb-classname="GraphicTextEntity" class="frame" font-size="25" id="5J" x="5152" y="3187">
Date
</text>
<text baseline-shift="-50%" cb-classname="GraphicTextEntity" class="frame" font-size="25" id="5z" text-anchor="middle" x="4660" y="3252">
Drawing Number
</text>
<text baseline-shift="-50%" cb-classname="GraphicTextEntity" class="frame" font-size="25" id="5p" text-anchor="middle" x="4680" y="3325">
CTL
</text>
</g>
<text baseline-shift="-50%" cb-classname="GraphicTextEntity" class="frame" font-size="48" id="5a" text-anchor="middle" x="3000" y="3100">
EMERSON PROCESS MANAGEMENT
</text>
<g baseline-shift="-100%" cb-anchor-x="2360" cb-anchor-y="3140" cb-classname="GroupText" cb-max-width="1260" fill="black" id="5s">
<text baseline-shift="-100%" cb-classname="GraphicTextEntity" class="frame" fill="black" font-family="arial" font-size="22" font-weight="normal" id="54" text-anchor="start" text-decoration="normal" x="2360" y="3140">
THIS DOCUMENT CONTAINS INFORMATION PROPRIETARY TO EMERSON PROCESS
</text>
<text baseline-shift="-100%" cb-classname="GraphicTextEntity" class="frame" fill="black" font-family="arial" font-size="22" font-weight="normal" id="5E" text-anchor="start" text-decoration="normal" x="2360" y="3176">
MANAGEMENT POWER &amp; WATER SOLUTIONS, INC. IT IS SUBMITTED IN CONFIDENCE AND
</text>
<text baseline-shift="-100%" cb-classname="GraphicTextEntity" class="frame" fill="black" font-family="arial" font-size="22" font-weight="normal" id="5R" text-anchor="start" text-decoration="normal" x="2360" y="3212">
TRUST, IS TO BE USED BY YOU SOLELY FOR THE PURPOSES FOR WHICH IT IS
</text>
<text baseline-shift="-100%" cb-classname="GraphicTextEntity" class="frame" fill="black" font-family="arial" font-size="22" font-weight="normal" id="6U" text-anchor="start" text-decoration="normal" x="2360" y="3248">
FURNISHED AND IS TO BE RETURNED UPON REQUEST. THIS DOCUMENT AND ANY
</text>
<text baseline-shift="-100%" cb-classname="GraphicTextEntity" class="frame" fill="black" font-family="arial" font-size="22" font-weight="normal" id="6X" text-anchor="start" text-decoration="normal" x="2360" y="3284">
OTHER INFORMATION PROVIDED TO YOU IS NOT TO BE REPRODUCED, TRANSMITTED,
</text>
<text baseline-shift="-100%" cb-classname="GraphicTextEntity" class="frame" fill="black" font-family="arial" font-size="22" font-weight="normal" id="6J" text-anchor="start" text-decoration="normal" x="2360" y="3320">
DISCLOSED, OR USED OTHERWISE IN WHOLE OR IN PART WITHOUT THE PRIOR
</text>
<text baseline-shift="-100%" cb-classname="GraphicTextEntity" class="frame" fill="black" font-family="arial" font-size="22" font-weight="normal" id="6z" text-anchor="start" text-decoration="normal" x="2360" y="3356">
WRITTEN AUTHORIZATION OF EMERSON PROCESS MANAGEMENT POWER &amp; WATER
</text>
<text baseline-shift="-100%" cb-classname="GraphicTextEntity" class="frame" fill="black" font-family="arial" font-size="22" font-weight="normal" id="6p" text-anchor="start" text-decoration="normal" x="2360" y="3392">
SOLUTIONS,INC.
</text>
</g>
</g>
</svg>