<?xml version="1.0" ?><svg cb-auto-time="02/14/2020 08:32:07" cb-classname="ControlFunction" cb-create-time="02/10/2020" cb-drop-id="99" cb-filename="Z:\OVATION\NET0\UNIT0\CONTROLFUNCTIONS\0329.svg" cb-function-id="0329" cb-key="215255112342" cb-modified-timestamp="1587028276" cb-modify-id="00000001" cb-path="Z:/OVATION/NET0/UNIT0/CONTROLFUNCTIONS" cb-revision="A" cb-sheet-number="4009" cb-sheet-title="P33FV1102 - SIM" cb-snap-grid="10" cb-task-id="3" height="3522" id="1" width="5450" xmlns="http://www.w3.org/2000/svg">
<style cb-classname="EntityStyle" id="2" type="text/css">
	.algorithm { fill: white; stroke: black; stroke-width: 3 }
	.algorithm-function { fill: black; stroke: none }
	.algorithm-functionline { fill: none; stroke: black; stroke-linecap: round; stroke-width: 3 }
	.algorithm-name { fill: black; stroke: none }
	.algorithm-nameline { fill: none; stroke: black; stroke-linecap: round; stroke-width: 3 }
	.algorithm-sequence { fill: black; stroke: none; visibility: hidden }
	.algorithm-sequenceline { fill: none; stroke: black; stroke-linecap: round; stroke-width: 3; visibility: hidden }
	.algorithmline { fill: none; stroke: black; stroke-linecap: round; stroke-width: 3 }
	.annotation { fill: black; stroke: none }
	.annotationline { fill: none; stroke: black; stroke-linecap: round; stroke-width: 3 }
	.frame { fill: black; stroke: none }
	.frameline { fill: none; stroke: black; stroke-linecap: round; stroke-width: 3 }
	.signal { fill: black; stroke: none }
	.signalline { fill: none; stroke: black; stroke-linecap: round; stroke-width: 3 }
	text.algorithm { fill: black; font-family: Arial; font-size: 22; stroke: none }
	text.algorithm-function { fill: black; font-family: Arial; font-size: 22; stroke: none }
	text.algorithm-name { fill: black; font-family: Arial; font-size: 22; stroke: none }
	text.algorithm-sequence { fill: black; font-family: Arial; font-size: 22; stroke: none; visibility: hidden }
	text.annotation { fill: black; font-family: Arial; font-size: 22; stroke: none }
	text.frame { fill: black; font-family: Arial; font-size: 18; stroke: none }
	text.signal { fill: black; font-family: Arial; font-size: 12; stroke: none }
</style>
<g cb-classname="NamedObject" cb-objectname="Comments" id="3"/>
<g cb-classname="AlgorithmContainer" cb-objectname="Algorithms" id="4">
<g cb-alg-oJuC="NO" cb-alg-oxS="P33FV1102_ZY" cb-algorithm-id="00A" cb-classname="ExternalPointInterface" cb-function-name="INPUT" id="6z">
<ellipse cb-classname="GraphicEllipseEntity" class="algorithm" cx="610" cy="240" id="6l" rx="40" ry="40"/>
<rect cb-classname="GraphicRectangleEntity" class="algorithm" height="80" id="6k" width="30" x="540" y="200"/>
<line cb-classname="GraphicLineEntity" class="algorithm" id="6w" x1="540" x2="570" y1="240" y2="240"/>
<g cb-classname="PointStatusIndicator" cb-indicator-type="Highway" cb-source="cW-8tt-WbJ" id="68" visibility="visible">
<line cb-classname="GraphicLineEntity" class="algorithmline" id="7C" x1="570" x2="610" y1="240" y2="200"/>
<line cb-classname="GraphicLineEntity" class="algorithmline" id="7S" x1="610" x2="650" y1="200" y2="240"/>
<line cb-classname="GraphicLineEntity" class="algorithmline" id="7R" x1="650" x2="610" y1="240" y2="280"/>
<line cb-classname="GraphicLineEntity" class="algorithmline" id="7H" x1="610" x2="570" y1="280" y2="240"/>
</g>
<g cb-classname="PointStatusIndicator" cb-indicator-type="hardware" cb-source="BQ-MYT-LHY" id="79" visibility="visible">
<line cb-classname="GraphicLineEntity" class="algorithmline" id="7z" x1="570" x2="650" y1="200" y2="200"/>
<line cb-classname="GraphicLineEntity" class="algorithmline" id="7l" x1="650" x2="650" y1="200" y2="280"/>
<line cb-classname="GraphicLineEntity" class="algorithmline" id="7k" x1="650" x2="570" y1="280" y2="280"/>
</g>
<g cb-classname="PointStatusIndicator" cb-indicator-type="alarm" cb-source="cL-LIz-sdJ" id="7w" visibility="hidden">
<text cb-classname="GraphicTextEntity" class="algorithm" fill="#000000" font-family="arial" font-size="20" id="78" x="547" y="229">
A
</text>
</g>
<g cb-classname="PointStatusIndicator" cb-indicator-type="ingraphic" cb-source="k6-dX0-KUF" id="8C" visibility="hidden">
<text cb-classname="GraphicTextEntity" class="algorithm" fill="#000000" font-family="Arial" font-size="20" id="8S" x="545" y="269">
G
</text>
</g>
<g baseline-shift="-50%" cb-anchor-x="522" cb-anchor-y="234" cb-classname="PointDescription" cb-content="extended" cb-labeled="false" cb-max-width="240" cb-source="cW-8tt-WbJ" class="algorithm" id="8R" text-anchor="end">
<text baseline-shift="-50%" cb-classname="GraphicTextEntity" class="algorithm" id="8H" text-anchor="end" x="522" y="164">
vlv. FV1102
</text>
<text baseline-shift="-50%" cb-classname="GraphicTextEntity" class="algorithm" id="89" text-anchor="end" x="522" y="200">
extract. wet FG
</text>
<text baseline-shift="-50%" cb-classname="GraphicTextEntity" class="algorithm" id="2Cl" text-anchor="end" x="522" y="236">
clean. wat. -
</text>
<text baseline-shift="-50%" cb-classname="GraphicTextEntity" class="algorithm" id="2St" text-anchor="end" x="522" y="272">
req.pos.
</text>
<text baseline-shift="-50%" cb-classname="GraphicTextEntity" class="algorithm" id="2SU" text-anchor="end" x="522" y="308">
0 - 0 %
</text>
</g>
<g cb-classname="DynamicText" cb-labeled="false" cb-pin-name="lkV" cb-source="cz-G8Q-tzk" class="algorithm" id="8z" text-anchor="start">
<text baseline-shift="0%" cb-classname="GraphicTextEntity" class="algorithm" fill="black" font-family="Arial" font-size="20" font-style="normal" font-weight="normal" id="8l" text-anchor="start" text-decoration="normal" x="670" y="220"/>
</g>
<g baseline-shift="-100%" cb-anchor-x="670" cb-anchor-y="250" cb-classname="PointReferences" cb-max-width="230" cb-originator="true" cb-source="BQ-MYT-LHY" class="signal" id="8k" text-anchor="start">
<text baseline-shift="-100%" cb-classname="GraphicTextEntity" class="algorithm" id="8w" text-anchor="start" x="670" y="250">
12/125650
</text>
</g>
<g cb-classname="ControlPin" cb-pin-name="D2-ZqK-629" id="88">
<line cb-classname="GraphicLineEntity" class="signalline" id="9C" x1="650" x2="670" y1="240" y2="240"/>
<g cb-classname="SignalSegment" id="9S">
<g cb-classname="SignalConnection" cb-graphic-line="$93$" cb-input-pin="$lP$" id="9R"/>
<line cb-classname="GraphicLineEntity" class="signalline" id="9H" x1="670" x2="910" y1="240" y2="240"/>
</g>
</g>
</g>
<g cb-alg-AkrR7="5" cb-alg-MIo="S_P33FV1102_ZSL" cb-alg-slo="$65$cb-alg-out$" cb-algorithm-id="00D" cb-classname="ControlMacroReference" cb-function-name="SIM_CV" cb-macro-crc="19113" cb-modify-id="00000001" id="99">
<rect cb-classname="GraphicRectangleEntity" class="annotation" fill="white" height="180" id="9z" width="130" x="950" y="210"/>
<g cb-classname="ControlPin" cb-pin-name="jD-646-TxE" id="9l">
<line cb-classname="GraphicLineEntity" class="signalline" id="9k" x1="910" x2="950" y1="240" y2="240"/>
<polygon cb-classname="GraphicPolygonEntity" class="signal" id="9w" points="950,240 939,234 939,245"/>
<g cb-classname="DynamicText" cb-source="V7-ODy-IVZw" id="98">
<text cb-classname="GraphicTextEntity" class="signal" id="1Ct" text-anchor="end" x="935" y="237"/>
</g>
</g>
<g cb-classname="ControlPin" cb-pin-name="03-jUU-kN" id="1CU">
<line cb-classname="GraphicLineEntity" class="signalline" id="1Cc" x1="1080" x2="1120" y1="220" y2="220"/>
<g cb-classname="DynamicText" cb-source="cP-H5m-0C6h" id="1Cs">
<text cb-classname="GraphicTextEntity" class="signal" id="1Cz" text-anchor="start" x="1094" y="217"/>
</g>
</g>
<g cb-classname="ControlPin" cb-pin-name="cW-8tt-Whz" id="1Cm">
<line cb-classname="GraphicLineEntity" class="signalline" id="1Cl" x1="1080" x2="1120" y1="300" y2="300"/>
<g cb-classname="DynamicText" cb-source="F3-kCX-yZ1a" id="1St">
<text cb-classname="GraphicTextEntity" class="signal" id="1SU" text-anchor="start" x="1094" y="297"/>
</g>
</g>
<g cb-classname="ControlPin" cb-pin-name="D2-ZqK-1I1" id="1S7">
<line cb-classname="GraphicLineEntity" class="signalline" id="1SF" x1="1080" x2="1120" y1="380" y2="380"/>
<g cb-classname="DynamicText" cb-source="cL-2w8-K6Ip" id="1SM">
<text cb-classname="GraphicTextEntity" class="signal" id="1Sm" text-anchor="start" x="1094" y="377"/>
</g>
<g cb-classname="SignalSegment" id="1Sl">
<line cb-classname="GraphicLineEntity" class="signalline" id="1Rt" stroke="#1e12bf" stroke-dasharray="5,4" x1="1120" x2="1580" y1="380" y2="380"/>
<g cb-classname="SignalConnection" cb-graphic-line="$120$" cb-input-pin="$fq9$" id="1RU"/>
</g>
</g>
<text baseline-shift="0%" cb-classname="GraphicTextEntity" class="annotation" fill="#000000" font-family="MS Shell Dlg 2" font-size="18" id="1Rc" x="980" y="240">
Control
</text>
<text baseline-shift="0%" cb-classname="GraphicTextEntity" class="annotation" fill="#000000" font-family="MS Shell Dlg 2" font-size="18" id="1Rs" x="970" y="370">
Simulator
</text>
<text baseline-shift="0%" cb-classname="GraphicTextEntity" class="annotation" fill="#000000" font-family="MS Shell Dlg 2" font-size="18" id="1Rz" x="990" y="260">
Valve
</text>
</g>
<g cb-alg-Cv="$94$cb-alg-cld$" cb-algorithm-id="012" cb-classname="ExternalPointInterface" cb-function-name="OUTPUT" id="1km">
<ellipse cb-classname="GraphicEllipseEntity" class="algorithm" cx="1640" cy="380" id="1kl" rx="40" ry="40"/>
<rect cb-classname="GraphicRectangleEntity" class="algorithm" height="80" id="1wt" width="30" x="1680" y="340"/>
<line cb-classname="GraphicLineEntity" class="algorithm" id="1wU" x1="1680" x2="1710" y1="380" y2="380"/>
<g cb-classname="PointStatusIndicator" cb-indicator-type="highway" cb-source="cL-LIz-Dj" id="1wc" visibility="hidden">
<line cb-classname="GraphicLineEntity" class="algorithmline" id="1ws" x1="1600" x2="1640" y1="380" y2="340"/>
<line cb-classname="GraphicLineEntity" class="algorithmline" id="1wz" x1="1640" x2="1680" y1="340" y2="380"/>
<line cb-classname="GraphicLineEntity" class="algorithmline" id="1w7" x1="1680" x2="1640" y1="380" y2="420"/>
<line cb-classname="GraphicLineEntity" class="algorithmline" id="1wF" x1="1640" x2="1600" y1="420" y2="380"/>
</g>
<g cb-classname="PointStatusIndicator" cb-indicator-type="hardware" cb-source="jD-646-Dy" id="1wM" visibility="hidden">
<line cb-classname="GraphicLineEntity" class="algorithmline" id="1wm" x1="1680" x2="1600" y1="340" y2="340"/>
<line cb-classname="GraphicLineEntity" class="algorithmline" id="1wl" x1="1600" x2="1600" y1="340" y2="420"/>
<line cb-classname="GraphicLineEntity" class="algorithmline" id="18t" x1="1600" x2="1680" y1="420" y2="420"/>
</g>
<g cb-classname="PointStatusIndicator" cb-indicator-type="alarm" cb-source="BQ-MYT-5m" id="18U" visibility="hidden">
<text cb-classname="GraphicTextEntity" class="algorithm" fill="#000000" font-family="Arial" font-size="20" id="18c" x="1687" y="369">
A
</text>
</g>
<g cb-classname="PointStatusIndicator" cb-indicator-type="ingraphic" cb-source="D2-ZqK-e0" id="18s" visibility="hidden">
<text cb-classname="GraphicTextEntity" class="algorithm" fill="#000000" font-family="Arial" font-size="20" id="18z" x="1685" y="410">
G
</text>
</g>
<g cb-classname="DynamicText" cb-labeled="false" cb-pin-name="IN" cb-source="cL-LIz-Dj" class="algorithm" id="187" text-anchor="end">
<text baseline-shift="0%" cb-classname="GraphicTextEntity" class="algorithm" fill="black" font-family="Arial" font-size="20" font-style="normal" font-weight="normal" id="18F" text-anchor="end" text-decoration="normal" x="1577" y="359"/>
</g>
<g baseline-shift="-100%" cb-anchor-x="1578" cb-anchor-y="396" cb-classname="PointReferences" cb-max-width="240" cb-originator="false" cb-source="k6-dX0-Cv" class="signal" id="18M" text-anchor="end">
<text baseline-shift="-100%" cb-classname="GraphicTextEntity" class="algorithm" id="18m" text-anchor="end" x="1578" y="396">
-
</text>
</g>
<g baseline-shift="-50%" cb-anchor-x="1731" cb-anchor-y="378" cb-classname="PointDescription" cb-content="extended" cb-labeled="false" cb-max-width="240" cb-source="cW-8tt-0s" class="algorithm" id="18l" text-anchor="start">
<text baseline-shift="-50%" cb-classname="GraphicTextEntity" class="algorithm" id="2Ct" text-anchor="start" x="1731" y="326">
DESC: No
</text>
<text baseline-shift="-50%" cb-classname="GraphicTextEntity" class="algorithm" id="2Sl" text-anchor="start" x="1731" y="362">
Description
</text>
<text baseline-shift="-50%" cb-classname="GraphicTextEntity" class="algorithm" id="2Rt" text-anchor="start" x="1731" y="398">
Defined
</text>
<text baseline-shift="-50%" cb-classname="GraphicTextEntity" class="algorithm" id="2RU" text-anchor="start" x="1731" y="434">
(S_P33FV1102_ZSL)
</text>
</g>
<g cb-classname="ControlPin" cb-pin-name="F3-raJ-fp" id="2CU">
<line cb-classname="GraphicLineEntity" class="signalline" id="2Cc" x1="1580" x2="1600" y1="380" y2="380"/>
<polygon cb-classname="GraphicPolygonEntity" class="signal" id="2Cs" points="1600,380 1589,374 1589,385"/>
</g>
</g>
</g>
<g cb-classname="IncludeDocument" cb-modify-time="12/03/2019 14:33:51" cb-objectname="frame" id="5">
<text cb-classname="GraphicTextEntity" class="frame" font-size="50" id="6" x="3660" y="3146">
HERA
</text>
<g baseline-shift="-50%" cb-classname="DynamicText" cb-source="cz-2ge9-if" class="frame" id="7">
<text cb-classname="GraphicTextEntity" class="frame" fill="black" font-family="arial" font-size="25" font-style="normal" font-weight="normal" id="8" text-decoration="normal" x="4715" y="3325">
99
</text>
</g>
<g baseline-shift="-50%" cb-classname="DynamicText" cb-source="BQ-TitH-fK" class="frame" id="9" text-anchor="middle">
<text cb-classname="GraphicTextEntity" class="frame" fill="black" font-family="arial" font-size="48" font-style="normal" font-weight="normal" id="1C" text-anchor="middle" text-decoration="normal" x="4900" y="3320">
99
</text>
</g>
<g baseline-shift="-50%" cb-classname="DynamicText" cb-source="D2-uPDL-N1" class="frame" id="1S" text-anchor="middle">
<text cb-classname="GraphicTextEntity" class="frame" fill="black" font-family="arial" font-size="48" font-style="normal" font-weight="normal" id="1R" text-anchor="middle" text-decoration="normal" x="5067" y="3324">
3
</text>
</g>
<g cb-classname="DynamicText" cb-source="cL-A6rRx-JCFnA" class="frame" id="1H">
<text cb-classname="GraphicTextEntity" class="frame" fill="black" font-family="arial" font-size="48" font-style="normal" font-weight="normal" id="19" text-decoration="normal" x="3660" y="3224">
P33FV1102 - SIM
</text>
</g>
<g baseline-shift="-50%" cb-classname="DynamicText" cb-source="k6-npE9J-XbxK5F" class="frame" id="1z" text-anchor="middle">
<text cb-classname="GraphicTextEntity" class="frame" fill="black" font-family="arial" font-size="48" font-style="normal" font-weight="normal" id="1l" text-anchor="middle" text-decoration="normal" x="5270" y="3324">
4009
</text>
</g>
<g baseline-shift="0%" cb-classname="DynamicText" cb-source="cW-a9oCtD4p" class="frame" id="1k" text-anchor="middle">
<text cb-classname="GraphicTextEntity" class="frame" fill="black" font-family="arial" font-size="36" font-style="normal" font-weight="normal" id="1w" text-anchor="middle" text-decoration="normal" x="5270" y="3150">
A
</text>
</g>
<g baseline-shift="0%" cb-classname="DynamicText" cb-source="F3-NpbDNb8R-YNUB" class="frame" id="18" text-anchor="middle">
<text cb-classname="GraphicTextEntity" class="frame" fill="black" font-family="arial" font-size="20" font-style="normal" font-weight="normal" id="2C" text-anchor="middle" text-decoration="normal" x="5270" y="3230">

</text>
</g>
<g baseline-shift="-50%" cb-classname="DynamicText" cb-source="V7-5slbIaAa" class="frame" id="2S" text-anchor="end">
<text cb-classname="GraphicTextEntity" class="frame" fill="black" font-family="arial" font-size="26" font-style="normal" font-weight="normal" id="2R" text-anchor="end" text-decoration="normal" x="4500" y="3420">

</text>
</g>
<g baseline-shift="-50%" cb-classname="DynamicText" cb-source="03-iip5A3Vk" class="frame" id="2H" text-anchor="end">
<text cb-classname="GraphicTextEntity" class="frame" fill="black" font-family="arial" font-size="26" font-style="normal" font-weight="normal" id="29" text-anchor="end" text-decoration="normal" x="5353" y="3420">

</text>
</g>
<g cb-classname="GraphicShape" cb-tag="BORDER" id="2z">
<line cb-classname="GraphicLineEntity" class="frameline" id="2l" x1="40" x2="40" y1="40" y2="3460"/>
<line cb-classname="GraphicLineEntity" class="frameline" id="2k" x1="40" x2="5380" y1="3460" y2="3460"/>
<line cb-classname="GraphicLineEntity" class="frameline" id="2w" x1="5380" x2="5380" y1="3460" y2="40"/>
<line cb-classname="GraphicLineEntity" class="frameline" id="28" x1="5380" x2="40" y1="40" y2="40"/>
<line cb-classname="GraphicLineEntity" class="frame" id="3C" x1="5430" x2="5440" y1="3510" y2="3510"/>
</g>
<g cb-classname="GraphicShape" cb-tag="TITLE BOX" id="3S">
<line cb-classname="GraphicLineEntity" class="frameline" id="3R" x1="2340" x2="2340" y1="3080" y2="3460"/>
<line cb-classname="GraphicLineEntity" class="frameline" id="3H" x1="2340" x2="5380" y1="3080" y2="3080"/>
<line cb-classname="GraphicLineEntity" class="frameline" id="39" x1="3650" x2="3650" y1="3460" y2="3080"/>
<line cb-classname="GraphicLineEntity" class="frameline" id="3z" x1="3650" x2="5380" y1="3240" y2="3240"/>
<line cb-classname="GraphicLineEntity" class="frameline" id="3l" x1="3650" x2="5380" y1="3390" y2="3390"/>
<line cb-classname="GraphicLineEntity" class="frameline" id="3k" x1="3650" x2="5380" y1="3160" y2="3160"/>
<line cb-classname="GraphicLineEntity" class="frameline" id="3w" x1="3650" x2="4520" y1="3320" y2="3320"/>
<line cb-classname="GraphicLineEntity" class="frameline" id="38" x1="4520" x2="5380" y1="3290" y2="3290"/>
<line cb-classname="GraphicLineEntity" class="frameline" id="4C" x1="4520" x2="5380" y1="3240" y2="3240"/>
<line cb-classname="GraphicLineEntity" class="frameline" id="4S" x1="4520" x2="4520" y1="3240" y2="3460"/>
<line cb-classname="GraphicLineEntity" class="frameline" id="4R" x1="4810" x2="4810" y1="3240" y2="3390"/>
<line cb-classname="GraphicLineEntity" class="frameline" id="4H" x1="4990" x2="4990" y1="3240" y2="3390"/>
<line cb-classname="GraphicLineEntity" class="frameline" id="49" x1="5150" x2="5150" y1="3080" y2="3390"/>
</g>
<g cb-classname="GraphicShape" cb-tag="TEXT LABELS" id="4z">
<text baseline-shift="-50%" cb-classname="GraphicTextEntity" class="frame" font-size="25" id="4l" text-anchor="middle" x="4890" y="3252">
Drop
</text>
<text baseline-shift="-50%" cb-classname="GraphicTextEntity" class="frame" font-size="25" id="4k" text-anchor="middle" x="5075" y="3252">
Task
</text>
<text baseline-shift="-50%" cb-classname="GraphicTextEntity" class="frame" font-size="25" id="4w" text-anchor="middle" x="5265" y="3252">
Sheet
</text>
<text cb-classname="GraphicTextEntity" class="frame" font-size="25" id="48" x="5152" y="3107">
Rev.
</text>
<text cb-classname="GraphicTextEntity" class="frame" font-size="25" id="5C" x="3653" y="3418">
Engineer
</text>
<text cb-classname="GraphicTextEntity" class="frame" font-size="25" id="5S" x="4528" y="3419">
Approved
</text>
<text cb-classname="GraphicTextEntity" class="frame" font-size="25" id="5R" x="5152" y="3187">
Date
</text>
<text baseline-shift="-50%" cb-classname="GraphicTextEntity" class="frame" font-size="25" id="5H" text-anchor="middle" x="4660" y="3252">
Drawing Number
</text>
<text baseline-shift="-50%" cb-classname="GraphicTextEntity" class="frame" font-size="25" id="59" text-anchor="middle" x="4680" y="3325">
CTL
</text>
</g>
<text baseline-shift="-50%" cb-classname="GraphicTextEntity" class="frame" font-size="48" id="5z" text-anchor="middle" x="3000" y="3100">
EMERSON PROCESS MANAGEMENT
</text>
<g baseline-shift="-100%" cb-anchor-x="2360" cb-anchor-y="3140" cb-classname="GroupText" cb-max-width="1260" fill="black" id="5l">
<text baseline-shift="-100%" cb-classname="GraphicTextEntity" class="frame" fill="black" font-family="arial" font-size="22" font-weight="normal" id="5k" text-anchor="start" text-decoration="normal" x="2360" y="3140">
THIS DOCUMENT CONTAINS INFORMATION PROPRIETARY TO EMERSON PROCESS
</text>
<text baseline-shift="-100%" cb-classname="GraphicTextEntity" class="frame" fill="black" font-family="arial" font-size="22" font-weight="normal" id="5w" text-anchor="start" text-decoration="normal" x="2360" y="3176">
MANAGEMENT POWER &amp; WATER SOLUTIONS, INC. IT IS SUBMITTED IN CONFIDENCE AND
</text>
<text baseline-shift="-100%" cb-classname="GraphicTextEntity" class="frame" fill="black" font-family="arial" font-size="22" font-weight="normal" id="58" text-anchor="start" text-decoration="normal" x="2360" y="3212">
TRUST, IS TO BE USED BY YOU SOLELY FOR THE PURPOSES FOR WHICH IT IS
</text>
<text baseline-shift="-100%" cb-classname="GraphicTextEntity" class="frame" fill="black" font-family="arial" font-size="22" font-weight="normal" id="6C" text-anchor="start" text-decoration="normal" x="2360" y="3248">
FURNISHED AND IS TO BE RETURNED UPON REQUEST. THIS DOCUMENT AND ANY
</text>
<text baseline-shift="-100%" cb-classname="GraphicTextEntity" class="frame" fill="black" font-family="arial" font-size="22" font-weight="normal" id="6S" text-anchor="start" text-decoration="normal" x="2360" y="3284">
OTHER INFORMATION PROVIDED TO YOU IS NOT TO BE REPRODUCED, TRANSMITTED,
</text>
<text baseline-shift="-100%" cb-classname="GraphicTextEntity" class="frame" fill="black" font-family="arial" font-size="22" font-weight="normal" id="6R" text-anchor="start" text-decoration="normal" x="2360" y="3320">
DISCLOSED, OR USED OTHERWISE IN WHOLE OR IN PART WITHOUT THE PRIOR
</text>
<text baseline-shift="-100%" cb-classname="GraphicTextEntity" class="frame" fill="black" font-family="arial" font-size="22" font-weight="normal" id="6H" text-anchor="start" text-decoration="normal" x="2360" y="3356">
WRITTEN AUTHORIZATION OF EMERSON PROCESS MANAGEMENT POWER &amp; WATER
</text>
<text baseline-shift="-100%" cb-classname="GraphicTextEntity" class="frame" fill="black" font-family="arial" font-size="22" font-weight="normal" id="69" text-anchor="start" text-decoration="normal" x="2360" y="3392">
SOLUTIONS,INC.
</text>
</g>
</g>
</svg>