<?xml version="1.0" ?><svg cb-auto-time="04/16/2020 16:54:55" cb-classname="ControlFunction" cb-create-time="03/04/2020" cb-drop-id="12" cb-filename="Z:\OVATION\NET0\UNIT0\CONTROLFUNCTIONS\036B.svg" cb-function-id="036B" cb-key="234244332152" cb-modified-timestamp="1587027637" cb-modify-id="00000003" cb-path="Z:/OVATION/NET0/UNIT0/CONTROLFUNCTIONS" cb-revision="A" cb-sheet-number="1248403" cb-sheet-title="SQ04 SCRUBBER HYDR CIRC VLV RDY" cb-snap-grid="10" cb-task-id="4" height="3522" id="1" width="5450" xmlns="http://www.w3.org/2000/svg">
<style cb-classname="EntityStyle" id="2" type="text/css">
	.algorithm { fill: white; stroke: black; stroke-width: 3 }
	.algorithm-function { fill: black; stroke: none }
	.algorithm-functionline { fill: none; stroke: black; stroke-linecap: round; stroke-width: 3 }
	.algorithm-name { fill: black; stroke: none }
	.algorithm-nameline { fill: none; stroke: black; stroke-linecap: round; stroke-width: 3 }
	.algorithm-sequence { fill: black; stroke: none; visibility: hidden }
	.algorithm-sequenceline { fill: none; stroke: black; stroke-linecap: round; stroke-width: 3; visibility: hidden }
	.algorithmline { fill: none; stroke: black; stroke-linecap: round; stroke-width: 3 }
	.annotation { fill: black; stroke: none }
	.annotationline { fill: none; stroke: black; stroke-linecap: round; stroke-width: 3 }
	.frame { fill: black; stroke: none }
	.frameline { fill: none; stroke: black; stroke-linecap: round; stroke-width: 3 }
	.signal { fill: black; stroke: none }
	.signalline { fill: none; stroke: black; stroke-linecap: round; stroke-width: 3 }
	text.algorithm { fill: black; font-family: Arial; font-size: 22; stroke: none }
	text.algorithm-function { fill: black; font-family: Arial; font-size: 22; stroke: none }
	text.algorithm-name { fill: black; font-family: Arial; font-size: 22; stroke: none }
	text.algorithm-sequence { fill: black; font-family: Arial; font-size: 22; stroke: none; visibility: hidden }
	text.annotation { fill: black; font-family: Arial; font-size: 22; stroke: none }
	text.frame { fill: black; font-family: Arial; font-size: 18; stroke: none }
	text.signal { fill: black; font-family: Arial; font-size: 12; stroke: none }
</style>
<g cb-classname="NamedObject" cb-objectname="Comments" id="3"/>
<g cb-classname="AlgorithmContainer" cb-objectname="Algorithms" id="4">
<g cb-alg-bJVB="NO" cb-alg-bXL="P33POV1103_PSTA" cb-algorithm-id="001" cb-classname="ExternalPointInterface" cb-function-name="INPUT" id="1Fp">
<ellipse cb-classname="GraphicEllipseEntity" class="algorithm" cx="670" cy="360" id="1FA" rx="40" ry="40"/>
<rect cb-classname="GraphicRectangleEntity" class="algorithm" height="80" id="1FK" width="30" x="600" y="320"/>
<line cb-classname="GraphicLineEntity" class="algorithm" id="1FI" x1="600" x2="630" y1="360" y2="360"/>
<g cb-classname="ControlPin" cb-pin-name="M1-gia-uhi" id="1FX">
<line cb-classname="GraphicLineEntity" class="signalline" id="1Fs" x1="710" x2="1080" y1="360" y2="360"/>
<g cb-classname="SignalSegment" id="12p">
<g cb-classname="SignalConnection" cb-graphic-line="$173$" cb-input-pin="$bD$" id="12X"/>
<line cb-classname="GraphicLineEntity" class="signalline" id="12I" x1="1080" x2="1180" y1="360" y2="360"/>
</g>
</g>
<g cb-classname="PointStatusIndicator" cb-indicator-type="Highway" cb-source="4h-ST3-9Aa" id="1FS" visibility="hidden">
<line cb-classname="GraphicLineEntity" class="algorithmline" id="1FQ" x1="630" x2="670" y1="360" y2="320"/>
<line cb-classname="GraphicLineEntity" class="algorithmline" id="1FZ" x1="670" x2="710" y1="320" y2="360"/>
<line cb-classname="GraphicLineEntity" class="algorithmline" id="1Fw" x1="710" x2="670" y1="360" y2="400"/>
<line cb-classname="GraphicLineEntity" class="algorithmline" id="11p" x1="670" x2="630" y1="400" y2="360"/>
</g>
<g cb-classname="PointStatusIndicator" cb-indicator-type="hardware" cb-source="DU-SzB-xIv" id="11A" visibility="hidden">
<text cb-classname="GraphicTextEntity" class="algorithm" fill="#000000" font-family="arial" font-size="20" id="11K" x="660" y="370">
H
</text>
</g>
<g cb-classname="PointStatusIndicator" cb-indicator-type="alarm" cb-source="Hf-f77-qbn" id="11I" visibility="hidden">
<text cb-classname="GraphicTextEntity" class="algorithm" fill="#000000" font-family="arial" font-size="20" id="11X" x="607" y="349">
A
</text>
</g>
<g cb-classname="PointStatusIndicator" cb-indicator-type="ingraphic" cb-source="Uv-GeA-Y9i" id="11s" visibility="hidden">
<text cb-classname="GraphicTextEntity" class="algorithm" fill="#000000" font-family="Arial" font-size="20" id="11S" x="605" y="389">
G
</text>
</g>
<g baseline-shift="-100%" cb-anchor-x="130" cb-anchor-y="360" cb-classname="PointDescription" cb-content="extended" cb-labeled="false" cb-max-width="460" cb-source="M1-gia-uhi" class="algorithm" font-style="normal" id="11Q" text-anchor="start">
<text baseline-shift="-100%" cb-classname="GraphicTextEntity" class="algorithm" id="11Z" text-anchor="start" x="130" y="360">
vlv. POV1103 cooling wet FG
</text>
<text baseline-shift="-100%" cb-classname="GraphicTextEntity" class="algorithm" id="1jI" text-anchor="start" x="130" y="396">
clean. wat. SB1100
</text>
</g>
<g cb-classname="DynamicText" cb-labeled="false" cb-pin-name="YUH" cb-source="4h-ST3-9Aa" class="algorithm" id="11w" text-anchor="start">
<text baseline-shift="-100%" cb-classname="GraphicTextEntity" class="algorithm" fill="black" font-family="arial" font-size="20" font-style="normal" font-weight="normal" id="1jp" text-anchor="start" text-decoration="normal" x="715" y="322"/>
</g>
<g baseline-shift="-100%" cb-anchor-x="730" cb-anchor-y="360" cb-classname="PointReferences" cb-max-width="350" cb-originator="true" cb-source="0V-rq6-cbw" class="signal" id="1jA" text-anchor="start">
<text baseline-shift="-100%" cb-classname="GraphicTextEntity" class="algorithm" id="1jK" text-anchor="start" x="730" y="360">
12/123630
</text>
</g>
</g>
<g cb-alg-YLu="P33POV1103_XU" cb-alg-YNjb="NO" cb-algorithm-id="002" cb-classname="ExternalPointInterface" cb-function-name="INPUT" id="1js">
<ellipse cb-classname="GraphicEllipseEntity" class="algorithm" cx="670" cy="480" id="1jS" rx="40" ry="40"/>
<rect cb-classname="GraphicRectangleEntity" class="algorithm" height="80" id="1jQ" width="30" x="600" y="440"/>
<line cb-classname="GraphicLineEntity" class="algorithm" id="1jZ" x1="600" x2="630" y1="480" y2="480"/>
<g cb-classname="ControlPin" cb-pin-name="02-ybJ-Mci" id="1jw">
<line cb-classname="GraphicLineEntity" class="signalline" id="1bp" x1="710" x2="1080" y1="480" y2="480"/>
<g cb-classname="SignalSegment" id="12s">
<line cb-classname="GraphicLineEntity" class="signalline" id="12S" x1="1080" x2="1080" y1="480" y2="460"/>
<g cb-classname="SignalSegment" id="12Q">
<line cb-classname="GraphicLineEntity" class="signalline" id="12Z" x1="1080" x2="1180" y1="460" y2="460"/>
<g cb-classname="SignalConnection" cb-graphic-line="$178$" cb-input-pin="$BT$" id="12w"/>
</g>
</g>
</g>
<g cb-classname="PointStatusIndicator" cb-indicator-type="Highway" cb-source="zW-u3B-Vqh" id="1bA" visibility="hidden">
<line cb-classname="GraphicLineEntity" class="algorithmline" id="1bK" x1="630" x2="670" y1="480" y2="440"/>
<line cb-classname="GraphicLineEntity" class="algorithmline" id="1bI" x1="670" x2="710" y1="440" y2="480"/>
<line cb-classname="GraphicLineEntity" class="algorithmline" id="1bX" x1="710" x2="670" y1="480" y2="520"/>
<line cb-classname="GraphicLineEntity" class="algorithmline" id="1bs" x1="670" x2="630" y1="520" y2="480"/>
</g>
<g cb-classname="PointStatusIndicator" cb-indicator-type="hardware" cb-source="cJ-xRb-TSU" id="1bS" visibility="hidden">
<text cb-classname="GraphicTextEntity" class="algorithm" fill="#000000" font-family="arial" font-size="20" id="1bQ" x="660" y="490">
H
</text>
</g>
<g cb-classname="PointStatusIndicator" cb-indicator-type="alarm" cb-source="B5-MuP-tjn" id="1bZ" visibility="hidden">
<text cb-classname="GraphicTextEntity" class="algorithm" fill="#000000" font-family="arial" font-size="20" id="1bw" x="607" y="469">
A
</text>
</g>
<g cb-classname="PointStatusIndicator" cb-indicator-type="ingraphic" cb-source="iW-Unn-EiZ" id="1ip" visibility="hidden">
<text cb-classname="GraphicTextEntity" class="algorithm" fill="#000000" font-family="Arial" font-size="20" id="1iA" x="605" y="509">
G
</text>
</g>
<g baseline-shift="-100%" cb-anchor-x="130" cb-anchor-y="440" cb-classname="PointDescription" cb-content="extended" cb-labeled="false" cb-max-width="460" cb-source="02-ybJ-Mci" class="algorithm" font-style="normal" id="1iK" text-anchor="start">
<text baseline-shift="-100%" cb-classname="GraphicTextEntity" class="algorithm" id="1iI" text-anchor="start" x="130" y="440">
vlv. POV1103 cooling wet FG
</text>
<text baseline-shift="-100%" cb-classname="GraphicTextEntity" class="algorithm" id="1iZ" text-anchor="start" x="130" y="476">
clean. wat. SB1100
</text>
</g>
<g cb-classname="DynamicText" cb-labeled="false" cb-pin-name="wKO" cb-source="zW-u3B-Vqh" class="algorithm" id="1iX" text-anchor="start">
<text baseline-shift="-100%" cb-classname="GraphicTextEntity" class="algorithm" fill="black" font-family="arial" font-size="20" font-style="normal" font-weight="normal" id="1is" text-anchor="start" text-decoration="normal" x="715" y="442"/>
</g>
<g baseline-shift="-100%" cb-anchor-x="730" cb-anchor-y="480" cb-classname="PointReferences" cb-max-width="350" cb-originator="true" cb-source="ls-lxx-I8L" class="signal" id="1iS" text-anchor="start">
<text baseline-shift="-100%" cb-classname="GraphicTextEntity" class="algorithm" id="1iQ" text-anchor="start" x="730" y="480">
12/123629
</text>
</g>
</g>
<g cb-alg-cFQ3Y-IUnI="1" cb-alg-cFQ3Y-fS="DVALGEN" cb-alg-cFQ3Y-k0Gn="69" cb-alg-cFXhY-e6GU="2W" cb-alg-cFXhY-fS="PNTSTATUS" cb-alg-cFXhY-k0Gn="86" cb-alg-cFXhY-v09W="28" cb-alg-cFXhY-v09y="27" cb-alg-cVI1Ig-HNyA="69" cb-alg-cVI1Ig-UB="DVALGEN" cb-alg-pzux="$120$cb-alg-out$" cb-alg-vTjVV="0" cb-alg-xn="$145$cb-alg-out$" cb-algorithm-id="00E" cb-classname="ControlMacroReference" cb-function-name="EDEV_ANOMALY" cb-macro-crc="44408" cb-modify-id="00000001" id="6b">
<rect cb-classname="GraphicRectangleEntity" class="algorithm-function" fill="white" height="120" id="6i" width="130" x="1200" y="350"/>
<text baseline-shift="0%" cb-classname="GraphicTextEntity" class="annotation" fill="#000000" font-family="MS Shell Dlg 2" font-size="20" id="62" x="1220" y="398">
Edevice
</text>
<text baseline-shift="0%" cb-classname="GraphicTextEntity" class="annotation" fill="#000000" font-family="MS Shell Dlg 2" font-size="20" id="6E" x="1220" y="433">
Anomaly
</text>
<g cb-classname="ControlPin" cb-pin-name="iW-Unn-K1Zr" id="6O">
<line cb-classname="GraphicLineEntity" class="signalline" id="7Q" x1="1180" x2="1200" y1="360" y2="360"/>
<polygon cb-classname="GraphicPolygonEntity" class="signal" id="7V" points="1200,360 1189,354 1189,365"/>
<g cb-classname="DynamicText" cb-source="M1-cd9-5yJu" id="7F">
<text cb-classname="GraphicTextEntity" class="signal" id="71" text-anchor="end" x="1185" y="357"/>
</g>
</g>
<g cb-classname="ControlPin" cb-pin-name="4h-ST3-hA" id="7j">
<line cb-classname="GraphicLineEntity" class="signalline" id="7b" x1="1180" x2="1200" y1="460" y2="460"/>
<polygon cb-classname="GraphicPolygonEntity" class="signal" id="7i" points="1200,460 1189,454 1189,465"/>
<g cb-classname="DynamicText" cb-source="cG-LxH-M6B8" id="72">
<text cb-classname="GraphicTextEntity" class="signal" id="7E" text-anchor="end" x="1185" y="457"/>
</g>
</g>
<g cb-classname="ControlPin" cb-pin-name="DU-SzB-GIvE" id="7O">
<line cb-classname="GraphicLineEntity" class="signalline" id="8Q" x1="1330" x2="1350" y1="460" y2="460"/>
<g cb-classname="DynamicText" cb-source="Hf-r0B-RuUn" id="8V">
<text cb-classname="GraphicTextEntity" class="signal" id="8F" text-anchor="start" x="1344" y="457"/>
</g>
<g cb-classname="SignalSegment" id="81">
<line cb-classname="GraphicLineEntity" class="signalline" id="8j" stroke="#1e12bf" stroke-dasharray="5,4" x1="1350" x2="1390" y1="460" y2="460"/>
<g cb-classname="SignalSegment" id="8b">
<line cb-classname="GraphicLineEntity" class="signalline" id="8i" stroke="#1e12bf" stroke-dasharray="5,4" x1="1390" x2="1390" y1="460" y2="440"/>
<g cb-classname="SignalSegment" id="82">
<line cb-classname="GraphicLineEntity" class="signalline" id="8E" stroke="#1e12bf" stroke-dasharray="5,4" x1="1390" x2="1430" y1="440" y2="440"/>
<g cb-classname="SignalConnection" cb-graphic-line="$88$" cb-input-pin="$Wsz$" id="8O"/>
</g>
</g>
</g>
</g>
<g cb-classname="ControlPin" cb-pin-name="cG-yOV-oHnpiX" id="9Q">
<line cb-classname="GraphicLineEntity" class="signalline" id="9V" x1="1330" x2="1350" y1="360" y2="360"/>
<g cb-classname="DynamicText" cb-source="DU-8VP-ByPL" id="9F">
<text cb-classname="GraphicTextEntity" class="signal" id="91" text-anchor="start" x="1344" y="357"/>
</g>
<g cb-classname="SignalSegment" id="9j">
<g cb-classname="SignalConnection" cb-graphic-line="$96$" cb-input-pin="$gps$" id="9b"/>
<line cb-classname="GraphicLineEntity" class="signalline" id="9i" stroke="#1e12bf" stroke-dasharray="5,4" x1="1350" x2="1430" y1="360" y2="360"/>
</g>
</g>
</g>
<g cb-alg-YSJ="$65$cb-alg-anomal$" cb-alg-YSa="$65$cb-alg-auto$" cb-alg-cK9="P33POV1103-AVAILABLE" cb-algorithm-id="00F" cb-classname="FastBooleanAlgorithm" cb-function-name="AND" id="92">
<rect cb-classname="GraphicRectangleEntity" class="algorithm" height="60" id="9E" width="80" x="1450" y="370"/>
<text baseline-shift="-50%" cb-classname="GraphicTextEntity" class="algorithm" id="9O" text-anchor="middle" x="1490" y="399">
AND
</text>
<line cb-classname="GraphicLineEntity" class="algorithmline" id="1Qp" x1="1450" x2="1450" y1="340" y2="460"/>
<g cb-classname="ControlPin" cb-pin-name="ls-lxx-sp1" id="1QA">
<line cb-classname="GraphicLineEntity" class="signalline" id="1QK" x1="1430" x2="1450" y1="360" y2="360"/>
<polygon cb-classname="GraphicPolygonEntity" class="signal" id="1QI" points="1450,360 1439,356 1439,364"/>
<g cb-classname="DynamicText" cb-source="cJ-6jB-SGdz" class="signal" id="1QX" text-anchor="end">
<text baseline-shift="5%" cb-classname="GraphicTextEntity" class="signal" fill="black" font-style="normal" font-weight="normal" id="1Qs" text-anchor="end" text-decoration="normal" x="1443" y="352"/>
</g>
</g>
<g cb-classname="ControlPin" cb-pin-name="B5-MuP-tjn" id="1QS">
<line cb-classname="GraphicLineEntity" class="signalline" id="1QQ" x1="1530" x2="1550" y1="400" y2="400"/>
<g cb-classname="DynamicText" cb-source="iW-CNv-CSIZ" class="signal" id="1QZ">
<text baseline-shift="5%" cb-classname="GraphicTextEntity" class="signal" fill="black" font-style="normal" font-weight="normal" id="1Qw" text-decoration="normal" x="1542" y="392"/>
</g>
<g cb-classname="SignalSegment" id="7FZ">
<g cb-classname="SignalConnection" cb-graphic-line="$731$" cb-input-pin="$Gln$" id="71K"/>
<line cb-classname="GraphicLineEntity" class="signalline" id="71A" stroke="#1e12bf" stroke-dasharray="5,4" x1="1550" x2="1780" y1="400" y2="400"/>
</g>
</g>
<g cb-classname="ControlPin" cb-pin-name="02-ybJ-a50" id="1Vp">
<line cb-classname="GraphicLineEntity" class="signalline" id="1VA" x1="1430" x2="1450" y1="440" y2="440"/>
<polygon cb-classname="GraphicPolygonEntity" class="signal" id="1VK" points="1450,440 1439,436 1439,444"/>
<g cb-classname="DynamicText" cb-source="4h-za5-AROF" class="signal" id="1VI" text-anchor="end">
<text baseline-shift="5%" cb-classname="GraphicTextEntity" class="signal" fill="black" font-style="normal" font-weight="normal" id="1VX" text-anchor="end" text-decoration="normal" x="1440" y="430"/>
</g>
</g>
<g cb-classname="ControlPin" cb-pin-name="0V-rq6-uMf" id="1Vs">
<line cb-classname="GraphicLineEntity" class="signalline" id="1VS" x1="1430" x2="1450" y1="400" y2="400"/>
<polygon cb-classname="GraphicPolygonEntity" class="signal" id="1VQ" points="1450,400 1439,396 1439,404"/>
<g cb-classname="DynamicText" cb-source="DU-8VP-ByPL" class="signal" id="1VZ" text-anchor="end">
<text baseline-shift="5%" cb-classname="GraphicTextEntity" class="signal" fill="black" font-style="normal" font-weight="normal" id="1Vw" text-anchor="end" text-decoration="normal" x="1440" y="390"/>
</g>
</g>
</g>
<g cb-alg-CK07="NO" cb-alg-Cz6="P33LV1101_YLA" cb-algorithm-id="003" cb-classname="ExternalPointInterface" cb-function-name="INPUT" id="2OA">
<ellipse cb-classname="GraphicEllipseEntity" class="algorithm" cx="670" cy="600" id="2OK" rx="40" ry="40"/>
<rect cb-classname="GraphicRectangleEntity" class="algorithm" height="80" id="2OI" width="30" x="600" y="560"/>
<line cb-classname="GraphicLineEntity" class="algorithm" id="2OX" x1="600" x2="630" y1="600" y2="600"/>
<g cb-classname="ControlPin" cb-pin-name="4h-ST3-9Aa" id="2Os">
<line cb-classname="GraphicLineEntity" class="signalline" id="2OS" x1="710" x2="1080" y1="600" y2="600"/>
<g cb-classname="SignalSegment" id="3iX">
<g cb-classname="SignalConnection" cb-graphic-line="$367$" cb-input-pin="$T7u$" id="3iZ"/>
<line cb-classname="GraphicLineEntity" class="signalline" id="3iQ" stroke="#1e12bf" stroke-dasharray="5,4" x1="1080" x2="1430" y1="600" y2="600"/>
</g>
</g>
<g cb-classname="PointStatusIndicator" cb-indicator-type="Highway" cb-source="0V-rq6-cbw" id="2OQ" visibility="hidden">
<line cb-classname="GraphicLineEntity" class="algorithmline" id="2OZ" x1="630" x2="670" y1="600" y2="560"/>
<line cb-classname="GraphicLineEntity" class="algorithmline" id="2Ow" x1="670" x2="710" y1="560" y2="600"/>
<line cb-classname="GraphicLineEntity" class="algorithmline" id="3Qp" x1="710" x2="670" y1="600" y2="640"/>
<line cb-classname="GraphicLineEntity" class="algorithmline" id="3QA" x1="670" x2="630" y1="640" y2="600"/>
</g>
<g cb-classname="PointStatusIndicator" cb-indicator-type="hardware" cb-source="Hf-f77-qbn" id="3QK" visibility="hidden">
<text cb-classname="GraphicTextEntity" class="algorithm" fill="#000000" font-family="arial" font-size="20" id="3QI" x="660" y="610">
H
</text>
</g>
<g cb-classname="PointStatusIndicator" cb-indicator-type="alarm" cb-source="Uv-GeA-Y9i" id="3QX" visibility="hidden">
<text cb-classname="GraphicTextEntity" class="algorithm" fill="#000000" font-family="arial" font-size="20" id="3Qs" x="607" y="589">
A
</text>
</g>
<g cb-classname="PointStatusIndicator" cb-indicator-type="ingraphic" cb-source="M1-gia-uhi" id="3QS" visibility="hidden">
<text cb-classname="GraphicTextEntity" class="algorithm" fill="#000000" font-family="Arial" font-size="20" id="3QQ" x="605" y="629">
G
</text>
</g>
<g baseline-shift="-100%" cb-anchor-x="100" cb-anchor-y="560" cb-classname="PointDescription" cb-content="extended" cb-labeled="false" cb-max-width="460" cb-source="4h-ST3-9Aa" class="algorithm" font-style="normal" id="3QZ" text-anchor="start">
<text baseline-shift="-100%" cb-classname="GraphicTextEntity" class="algorithm" id="3Qw" text-anchor="start" x="100" y="560">
vlv. LV1101 filling wet FG clean.
</text>
<text baseline-shift="-100%" cb-classname="GraphicTextEntity" class="algorithm" id="3VX" text-anchor="start" x="100" y="596">
wat. SB1100
</text>
<text baseline-shift="-100%" cb-classname="GraphicTextEntity" class="algorithm" id="32X" text-anchor="start" x="100" y="632">
(Auto - !Manual)
</text>
</g>
<g cb-classname="DynamicText" cb-labeled="false" cb-pin-name="Pov" cb-source="0V-rq6-cbw" class="algorithm" id="3Vp" text-anchor="start">
<text baseline-shift="-100%" cb-classname="GraphicTextEntity" class="algorithm" fill="black" font-family="arial" font-size="20" font-style="normal" font-weight="normal" id="3VA" text-anchor="start" text-decoration="normal" x="715" y="562"/>
</g>
<g baseline-shift="-100%" cb-anchor-x="730" cb-anchor-y="600" cb-classname="PointReferences" cb-max-width="350" cb-originator="true" cb-source="cJ-xRb-TSU" class="signal" id="3VK" text-anchor="start">
<text baseline-shift="-100%" cb-classname="GraphicTextEntity" class="algorithm" id="3VI" text-anchor="start" x="730" y="600">
12/125670
</text>
</g>
</g>
<g cb-alg-nFg="P33LV1101_YAF" cb-alg-nmYP="NO" cb-algorithm-id="004" cb-classname="ExternalPointInterface" cb-function-name="INPUT" id="3VS">
<ellipse cb-classname="GraphicEllipseEntity" class="algorithm" cx="670" cy="700" id="3VQ" rx="40" ry="40"/>
<rect cb-classname="GraphicRectangleEntity" class="algorithm" height="80" id="3VZ" width="30" x="600" y="660"/>
<line cb-classname="GraphicLineEntity" class="algorithm" id="3Vw" x1="600" x2="630" y1="700" y2="700"/>
<g cb-classname="ControlPin" cb-pin-name="zW-u3B-Vqh" id="3Fp">
<line cb-classname="GraphicLineEntity" class="signalline" id="3FA" x1="710" x2="1080" y1="700" y2="700"/>
<g cb-classname="SignalSegment" id="3iw">
<line cb-classname="GraphicLineEntity" class="signalline" id="32p" stroke="#1e12bf" stroke-dasharray="5,4" x1="1080" x2="1080" y1="700" y2="680"/>
<g cb-classname="SignalSegment" id="32A">
<line cb-classname="GraphicLineEntity" class="signalline" id="3EZ" stroke="#1e12bf" stroke-dasharray="5,4" x1="1080" x2="1180" y1="680" y2="680"/>
<g cb-classname="SignalConnection" cb-graphic-line="$388$" cb-input-pin="$1Qi$" id="3Op"/>
</g>
</g>
</g>
<g cb-classname="PointStatusIndicator" cb-indicator-type="Highway" cb-source="ls-lxx-I8L" id="3FK" visibility="hidden">
<line cb-classname="GraphicLineEntity" class="algorithmline" id="3FI" x1="630" x2="670" y1="700" y2="660"/>
<line cb-classname="GraphicLineEntity" class="algorithmline" id="3FX" x1="670" x2="710" y1="660" y2="700"/>
<line cb-classname="GraphicLineEntity" class="algorithmline" id="3Fs" x1="710" x2="670" y1="700" y2="740"/>
<line cb-classname="GraphicLineEntity" class="algorithmline" id="3FS" x1="670" x2="630" y1="740" y2="700"/>
</g>
<g cb-classname="PointStatusIndicator" cb-indicator-type="hardware" cb-source="B5-MuP-tjn" id="3FQ" visibility="hidden">
<text cb-classname="GraphicTextEntity" class="algorithm" fill="#000000" font-family="arial" font-size="20" id="3FZ" x="660" y="710">
H
</text>
</g>
<g cb-classname="PointStatusIndicator" cb-indicator-type="alarm" cb-source="iW-Unn-EiZ" id="3Fw" visibility="visible">
<text cb-classname="GraphicTextEntity" class="algorithm" fill="#000000" font-family="arial" font-size="20" id="31p" x="607" y="689">
A
</text>
</g>
<g cb-classname="PointStatusIndicator" cb-indicator-type="ingraphic" cb-source="02-ybJ-Mci" id="31A" visibility="hidden">
<text cb-classname="GraphicTextEntity" class="algorithm" fill="#000000" font-family="Arial" font-size="20" id="31K" x="605" y="729">
G
</text>
</g>
<g baseline-shift="-100%" cb-anchor-x="130" cb-anchor-y="660" cb-classname="PointDescription" cb-content="extended" cb-labeled="false" cb-max-width="460" cb-source="zW-u3B-Vqh" class="algorithm" font-style="normal" id="31I" text-anchor="start">
<text baseline-shift="-100%" cb-classname="GraphicTextEntity" class="algorithm" id="31X" text-anchor="start" x="130" y="660">
vlv. LV1101 filling wet FG clean.
</text>
<text baseline-shift="-100%" cb-classname="GraphicTextEntity" class="algorithm" id="31w" text-anchor="start" x="130" y="696">
wat. SB1100
</text>
<text baseline-shift="-100%" cb-classname="GraphicTextEntity" class="algorithm" id="32s" text-anchor="start" x="130" y="732">
(Alarm - !OK)
</text>
</g>
<g cb-classname="DynamicText" cb-labeled="false" cb-pin-name="Evl" cb-source="ls-lxx-I8L" class="algorithm" id="31s" text-anchor="start">
<text baseline-shift="-100%" cb-classname="GraphicTextEntity" class="algorithm" fill="black" font-family="arial" font-size="20" font-style="normal" font-weight="normal" id="31S" text-anchor="start" text-decoration="normal" x="715" y="662"/>
</g>
<g baseline-shift="-100%" cb-anchor-x="730" cb-anchor-y="700" cb-classname="PointReferences" cb-max-width="350" cb-originator="true" cb-source="cG-yOV-lMo" class="signal" id="31Q" text-anchor="start">
<text baseline-shift="-100%" cb-classname="GraphicTextEntity" class="algorithm" id="31Z" text-anchor="start" x="730" y="700">
12/125670
</text>
</g>
</g>
<g cb-alg-dRv="$316$cb-alg-out$" cb-algorithm-id="006" cb-classname="FastBooleanAlgorithm" cb-function-name="NOT" id="32S">
<rect cb-classname="GraphicRectangleEntity" class="algorithm" height="40" id="32Q" width="40" x="1200" y="660"/>
<text baseline-shift="-50%" cb-classname="GraphicTextEntity" class="algorithm" font-size="28" id="32Z" text-anchor="middle" x="1219" y="672">
N
</text>
<g cb-classname="ControlPin" cb-pin-name="B5-MuP-NRF" id="32w">
<line cb-classname="GraphicLineEntity" class="signalline" id="3Ep" x1="1180" x2="1200" y1="680" y2="680"/>
<polygon cb-classname="GraphicPolygonEntity" class="signal" id="3EA" points="1200,680 1189,676 1189,684"/>
<g cb-classname="DynamicText" cb-source="Uv-lNR-9lPN" class="signal" id="3EK" text-anchor="end">
<text baseline-shift="5%" cb-classname="GraphicTextEntity" class="signal" fill="black" font-style="normal" font-weight="normal" id="3EI" text-anchor="end" text-decoration="normal" x="1195" y="672"/>
</g>
</g>
<g cb-classname="ControlPin" cb-pin-name="M1-gia-uhi" id="3EX">
<line cb-classname="GraphicLineEntity" class="signalline" id="3Es" x1="1240" x2="1260" y1="680" y2="680"/>
<g cb-classname="DynamicText" cb-source="4h-za5-AROF" class="signal" id="3ES">
<text baseline-shift="5%" cb-classname="GraphicTextEntity" class="signal" fill="black" font-style="normal" font-weight="normal" id="3EQ" text-decoration="normal" x="1252" y="672"/>
</g>
<g cb-classname="SignalSegment" cb-start-x="1260" cb-start-y="680" id="3Ew">
<line cb-classname="GraphicLineEntity" class="signalline" id="32K" stroke="#1e12bf" stroke-dasharray="5,4" x1="1260" x2="1430" y1="680" y2="680"/>
<g cb-classname="SignalConnection" cb-graphic-line="$372$" cb-input-pin="$IUz$" id="3OA"/>
</g>
</g>
</g>
<g cb-alg-lFg="$291$cb-alg-out$" cb-alg-lFt="$376$cb-alg-out$" cb-algorithm-id="005" cb-classname="FastBooleanAlgorithm" cb-function-name="AND" id="3jA">
<rect cb-classname="GraphicRectangleEntity" class="algorithm" height="60" id="3jK" width="80" x="1450" y="610"/>
<text baseline-shift="-50%" cb-classname="GraphicTextEntity" class="algorithm" id="3jI" text-anchor="middle" x="1490" y="639">
AND
</text>
<line cb-classname="GraphicLineEntity" class="algorithmline" id="3jX" x1="1450" x2="1450" y1="580" y2="700"/>
<g cb-classname="ControlPin" cb-pin-name="M1-gia-28u" id="3js">
<line cb-classname="GraphicLineEntity" class="signalline" id="3jS" x1="1430" x2="1450" y1="600" y2="600"/>
<polygon cb-classname="GraphicPolygonEntity" class="signal" id="3jQ" points="1450,600 1439,596 1439,604"/>
<g cb-classname="DynamicText" cb-source="ls-q28-HCU0" class="signal" id="3jZ" text-anchor="end">
<text baseline-shift="5%" cb-classname="GraphicTextEntity" class="signal" fill="black" font-style="normal" font-weight="normal" id="3jw" text-anchor="end" text-decoration="normal" x="1443" y="592"/>
</g>
</g>
<g cb-classname="ControlPin" cb-pin-name="cG-yOV-lMo" id="3bp">
<line cb-classname="GraphicLineEntity" class="signalline" id="3bA" x1="1530" x2="1550" y1="640" y2="640"/>
<g cb-classname="DynamicText" cb-source="DU-8VP-ByPL" class="signal" id="3bK">
<text baseline-shift="5%" cb-classname="GraphicTextEntity" class="signal" fill="black" font-style="normal" font-weight="normal" id="3bI" text-decoration="normal" x="1542" y="632"/>
</g>
<g cb-classname="SignalSegment" id="71I">
<line cb-classname="GraphicLineEntity" class="signalline" id="71X" stroke="#1e12bf" stroke-dasharray="5,4" x1="1550" x2="1580" y1="640" y2="640"/>
<g cb-classname="SignalSegment" id="71s">
<line cb-classname="GraphicLineEntity" class="signalline" id="71S" stroke="#1e12bf" stroke-dasharray="5,4" x1="1580" x2="1580" y1="640" y2="420"/>
<g cb-classname="SignalSegment" id="71Q">
<line cb-classname="GraphicLineEntity" class="signalline" id="71Z" stroke="#1e12bf" stroke-dasharray="5,4" x1="1580" x2="1780" y1="420" y2="420"/>
<g cb-classname="SignalConnection" cb-graphic-line="$738$" cb-input-pin="$Lf4$" id="71w"/>
</g>
</g>
</g>
</g>
<g cb-classname="ControlPin" cb-pin-name="Hf-f77-dCD" id="3bX">
<line cb-classname="GraphicLineEntity" class="signalline" id="3bs" x1="1430" x2="1450" y1="680" y2="680"/>
<polygon cb-classname="GraphicPolygonEntity" class="signal" id="3bS" points="1450,680 1439,676 1439,684"/>
<g cb-classname="DynamicText" cb-source="02-odC-RrEs" class="signal" id="3bQ" text-anchor="end">
<text baseline-shift="5%" cb-classname="GraphicTextEntity" class="signal" fill="black" font-style="normal" font-weight="normal" id="3bZ" text-anchor="end" text-decoration="normal" x="1440" y="670"/>
</g>
</g>
<g cb-classname="ControlPin" cb-pin-name="zW-u3B-3Al" id="3bw">
<line cb-classname="GraphicLineEntity" class="signalline" id="3ip" x1="1430" x2="1450" y1="640" y2="640"/>
<polygon cb-classname="GraphicPolygonEntity" class="signal" id="3iA" points="1450,640 1439,636 1439,644"/>
<g cb-classname="DynamicText" cb-source="0V-63A-poKG" class="signal" id="3iK" text-anchor="end">
<text baseline-shift="5%" cb-classname="GraphicTextEntity" class="signal" fill="black" font-style="normal" font-weight="normal" id="3iI" text-anchor="end" text-decoration="normal" x="1440" y="630"/>
</g>
</g>
</g>
<g cb-alg-YLu="P33FV1102_YLA" cb-alg-YNjb="NO" cb-algorithm-id="007" cb-classname="ExternalPointInterface" cb-function-name="INPUT" id="3OK">
<ellipse cb-classname="GraphicEllipseEntity" class="algorithm" cx="670" cy="810" id="3OI" rx="40" ry="40"/>
<rect cb-classname="GraphicRectangleEntity" class="algorithm" height="80" id="3OX" width="30" x="600" y="770"/>
<line cb-classname="GraphicLineEntity" class="algorithm" id="3Os" x1="600" x2="630" y1="810" y2="810"/>
<g cb-classname="ControlPin" cb-pin-name="02-ybJ-Mci" id="3OS">
<line cb-classname="GraphicLineEntity" class="signalline" id="3OQ" x1="710" x2="1080" y1="810" y2="810"/>
<g cb-classname="SignalSegment" id="3OZ">
<g cb-classname="SignalConnection" cb-graphic-line="$400$" cb-input-pin="$iAw$" id="3Ow"/>
<line cb-classname="GraphicLineEntity" class="signalline" id="4Qp" stroke="#1e12bf" stroke-dasharray="5,4" x1="1080" x2="1430" y1="810" y2="810"/>
</g>
</g>
<g cb-classname="PointStatusIndicator" cb-indicator-type="Highway" cb-source="0V-rq6-cbw" id="4QA" visibility="hidden">
<line cb-classname="GraphicLineEntity" class="algorithmline" id="4QK" x1="630" x2="670" y1="810" y2="770"/>
<line cb-classname="GraphicLineEntity" class="algorithmline" id="4QI" x1="670" x2="710" y1="770" y2="810"/>
<line cb-classname="GraphicLineEntity" class="algorithmline" id="4QX" x1="710" x2="670" y1="810" y2="850"/>
<line cb-classname="GraphicLineEntity" class="algorithmline" id="4Qs" x1="670" x2="630" y1="850" y2="810"/>
</g>
<g cb-classname="PointStatusIndicator" cb-indicator-type="hardware" cb-source="Hf-f77-qbn" id="4QS" visibility="hidden">
<text cb-classname="GraphicTextEntity" class="algorithm" fill="#000000" font-family="arial" font-size="20" id="4QQ" x="660" y="820">
H
</text>
</g>
<g cb-classname="PointStatusIndicator" cb-indicator-type="alarm" cb-source="Uv-GeA-Y9i" id="4QZ" visibility="hidden">
<text cb-classname="GraphicTextEntity" class="algorithm" fill="#000000" font-family="arial" font-size="20" id="4Qw" x="607" y="799">
A
</text>
</g>
<g cb-classname="PointStatusIndicator" cb-indicator-type="ingraphic" cb-source="M1-gia-uhi" id="4Vp" visibility="hidden">
<text cb-classname="GraphicTextEntity" class="algorithm" fill="#000000" font-family="Arial" font-size="20" id="4VA" x="605" y="839">
G
</text>
</g>
<g baseline-shift="-100%" cb-anchor-x="100" cb-anchor-y="770" cb-classname="PointDescription" cb-content="extended" cb-labeled="false" cb-max-width="460" cb-source="4h-ST3-9Aa" class="algorithm" font-style="normal" id="4VK" text-anchor="start">
<text baseline-shift="-100%" cb-classname="GraphicTextEntity" class="algorithm" id="4VI" text-anchor="start" x="100" y="770">
vlv. FV1102 extract. wet FG clean.
</text>
<text baseline-shift="-100%" cb-classname="GraphicTextEntity" class="algorithm" id="4VX" text-anchor="start" x="100" y="806">
wat.
</text>
<text baseline-shift="-100%" cb-classname="GraphicTextEntity" class="algorithm" id="4Vs" text-anchor="start" x="100" y="842">
(Auto - !Manual)
</text>
</g>
<g cb-classname="DynamicText" cb-labeled="false" cb-pin-name="OY3" cb-source="cJ-xRb-TSU" class="algorithm" id="4VS" text-anchor="start">
<text baseline-shift="-100%" cb-classname="GraphicTextEntity" class="algorithm" fill="black" font-family="arial" font-size="20" font-style="normal" font-weight="normal" id="4VQ" text-anchor="start" text-decoration="normal" x="715" y="772"/>
</g>
<g baseline-shift="-100%" cb-anchor-x="730" cb-anchor-y="810" cb-classname="PointReferences" cb-max-width="350" cb-originator="true" cb-source="B5-MuP-tjn" class="signal" id="4VZ" text-anchor="start">
<text baseline-shift="-100%" cb-classname="GraphicTextEntity" class="algorithm" id="4Vw" text-anchor="start" x="730" y="810">
12/125650
</text>
</g>
</g>
<g cb-alg-nFg="P33FV1102_YAF" cb-alg-nmYP="NO" cb-algorithm-id="008" cb-classname="ExternalPointInterface" cb-function-name="INPUT" id="4Fp">
<ellipse cb-classname="GraphicEllipseEntity" class="algorithm" cx="670" cy="910" id="4FA" rx="40" ry="40"/>
<rect cb-classname="GraphicRectangleEntity" class="algorithm" height="80" id="4FK" width="30" x="600" y="870"/>
<line cb-classname="GraphicLineEntity" class="algorithm" id="4FI" x1="600" x2="630" y1="910" y2="910"/>
<g cb-classname="ControlPin" cb-pin-name="zW-u3B-Vqh" id="4FX">
<line cb-classname="GraphicLineEntity" class="signalline" id="4Fs" x1="710" x2="1080" y1="910" y2="910"/>
<g cb-classname="SignalSegment" id="4FS">
<line cb-classname="GraphicLineEntity" class="signalline" id="4FQ" stroke="#1e12bf" stroke-dasharray="5,4" x1="1080" x2="1080" y1="910" y2="890"/>
<g cb-classname="SignalSegment" id="4FZ">
<line cb-classname="GraphicLineEntity" class="signalline" id="4Fw" stroke="#1e12bf" stroke-dasharray="5,4" x1="1080" x2="1180" y1="890" y2="890"/>
<g cb-classname="SignalConnection" cb-graphic-line="$429$" cb-input-pin="$XUT$" id="41p"/>
</g>
</g>
</g>
<g cb-classname="PointStatusIndicator" cb-indicator-type="Highway" cb-source="B5-MuP-tjn" id="41A" visibility="hidden">
<line cb-classname="GraphicLineEntity" class="algorithmline" id="41K" x1="630" x2="670" y1="910" y2="870"/>
<line cb-classname="GraphicLineEntity" class="algorithmline" id="41I" x1="670" x2="710" y1="870" y2="910"/>
<line cb-classname="GraphicLineEntity" class="algorithmline" id="41X" x1="710" x2="670" y1="910" y2="950"/>
<line cb-classname="GraphicLineEntity" class="algorithmline" id="41s" x1="670" x2="630" y1="950" y2="910"/>
</g>
<g cb-classname="PointStatusIndicator" cb-indicator-type="hardware" cb-source="M1-gia-uhi" id="41S" visibility="hidden">
<text cb-classname="GraphicTextEntity" class="algorithm" fill="#000000" font-family="arial" font-size="20" id="41Q" x="660" y="920">
H
</text>
</g>
<g cb-classname="PointStatusIndicator" cb-indicator-type="alarm" cb-source="4h-ST3-9Aa" id="41Z" visibility="visible">
<text cb-classname="GraphicTextEntity" class="algorithm" fill="#000000" font-family="arial" font-size="20" id="41w" x="607" y="899">
A
</text>
</g>
<g cb-classname="PointStatusIndicator" cb-indicator-type="ingraphic" cb-source="0V-rq6-cbw" id="4jp" visibility="hidden">
<text cb-classname="GraphicTextEntity" class="algorithm" fill="#000000" font-family="Arial" font-size="20" id="4jA" x="605" y="939">
G
</text>
</g>
<g baseline-shift="-100%" cb-anchor-x="130" cb-anchor-y="870" cb-classname="PointDescription" cb-content="extended" cb-labeled="false" cb-max-width="460" cb-source="cJ-xRb-TSU" class="algorithm" font-style="normal" id="4jK" text-anchor="start">
<text baseline-shift="-100%" cb-classname="GraphicTextEntity" class="algorithm" id="4jI" text-anchor="start" x="130" y="870">
vlv. FV1102 extract. wet FG clean.
</text>
<text baseline-shift="-100%" cb-classname="GraphicTextEntity" class="algorithm" id="4jX" text-anchor="start" x="130" y="906">
wat.
</text>
<text baseline-shift="-100%" cb-classname="GraphicTextEntity" class="algorithm" id="4js" text-anchor="start" x="130" y="942">
(Alarm - !OK)
</text>
</g>
<g cb-classname="DynamicText" cb-labeled="false" cb-pin-name="erU" cb-source="iW-Unn-EiZ" class="algorithm" id="4jS" text-anchor="start">
<text baseline-shift="-100%" cb-classname="GraphicTextEntity" class="algorithm" fill="black" font-family="arial" font-size="20" font-style="normal" font-weight="normal" id="4jQ" text-anchor="start" text-decoration="normal" x="715" y="872"/>
</g>
<g baseline-shift="-100%" cb-anchor-x="730" cb-anchor-y="910" cb-classname="PointReferences" cb-max-width="350" cb-originator="true" cb-source="02-ybJ-Mci" class="signal" id="4jZ" text-anchor="start">
<text baseline-shift="-100%" cb-classname="GraphicTextEntity" class="algorithm" id="4jw" text-anchor="start" x="730" y="910">
12/125650
</text>
</g>
</g>
<g cb-alg-NvL="$420$cb-alg-out$" cb-algorithm-id="009" cb-classname="FastBooleanAlgorithm" cb-function-name="NOT" id="4bp">
<rect cb-classname="GraphicRectangleEntity" class="algorithm" height="40" id="4bA" width="40" x="1200" y="870"/>
<text baseline-shift="-50%" cb-classname="GraphicTextEntity" class="algorithm" font-size="28" id="4bK" text-anchor="middle" x="1219" y="882">
N
</text>
<g cb-classname="ControlPin" cb-pin-name="0V-rq6-uMG" id="4bI">
<line cb-classname="GraphicLineEntity" class="signalline" id="4bX" x1="1180" x2="1200" y1="890" y2="890"/>
<polygon cb-classname="GraphicPolygonEntity" class="signal" id="4bs" points="1200,890 1189,886 1189,894"/>
<g cb-classname="DynamicText" cb-source="DU-8VP-ByPL" class="signal" id="4bS" text-anchor="end">
<text baseline-shift="5%" cb-classname="GraphicTextEntity" class="signal" fill="black" font-style="normal" font-weight="normal" id="4bQ" text-anchor="end" text-decoration="normal" x="1195" y="882"/>
</g>
</g>
<g cb-classname="ControlPin" cb-pin-name="Hf-f77-qbn" id="4bZ">
<line cb-classname="GraphicLineEntity" class="signalline" id="4bw" x1="1240" x2="1260" y1="890" y2="890"/>
<g cb-classname="DynamicText" cb-source="Uv-lNR-9lPN" class="signal" id="4ip">
<text baseline-shift="5%" cb-classname="GraphicTextEntity" class="signal" fill="black" font-style="normal" font-weight="normal" id="4iA" text-decoration="normal" x="1252" y="882"/>
</g>
<g cb-classname="SignalSegment" cb-start-x="1260" cb-start-y="680" id="4iK">
<line cb-classname="GraphicLineEntity" class="signalline" id="4iI" stroke="#1e12bf" stroke-dasharray="5,4" x1="1260" x2="1430" y1="890" y2="890"/>
<g cb-classname="SignalConnection" cb-graphic-line="$463$" cb-input-pin="$iB5$" id="4iX"/>
</g>
</g>
</g>
<g cb-alg-dCD="$450$cb-alg-out$" cb-alg-dCW="$392$cb-alg-out$" cb-algorithm-id="00A" cb-classname="FastBooleanAlgorithm" cb-function-name="AND" id="4is">
<rect cb-classname="GraphicRectangleEntity" class="algorithm" height="60" id="4iS" width="80" x="1450" y="820"/>
<text baseline-shift="-50%" cb-classname="GraphicTextEntity" class="algorithm" id="4iQ" text-anchor="middle" x="1490" y="849">
AND
</text>
<line cb-classname="GraphicLineEntity" class="algorithmline" id="4iZ" x1="1450" x2="1450" y1="790" y2="910"/>
<g cb-classname="ControlPin" cb-pin-name="DU-SzB-NvL" id="4iw">
<line cb-classname="GraphicLineEntity" class="signalline" id="42p" x1="1430" x2="1450" y1="810" y2="810"/>
<polygon cb-classname="GraphicPolygonEntity" class="signal" id="42A" points="1450,810 1439,806 1439,814"/>
<g cb-classname="DynamicText" cb-source="iW-CNv-CSIZ" class="signal" id="42K" text-anchor="end">
<text baseline-shift="5%" cb-classname="GraphicTextEntity" class="signal" fill="black" font-style="normal" font-weight="normal" id="42I" text-anchor="end" text-decoration="normal" x="1443" y="802"/>
</g>
</g>
<g cb-classname="ControlPin" cb-pin-name="02-ybJ-Mci" id="42X">
<line cb-classname="GraphicLineEntity" class="signalline" id="42s" x1="1530" x2="1550" y1="850" y2="850"/>
<g cb-classname="DynamicText" cb-source="zW-KdR-8MDW" class="signal" id="42S">
<text baseline-shift="5%" cb-classname="GraphicTextEntity" class="signal" fill="black" font-style="normal" font-weight="normal" id="42Q" text-decoration="normal" x="1542" y="842"/>
</g>
<g cb-classname="SignalSegment" id="7jp">
<line cb-classname="GraphicLineEntity" class="signalline" id="7jA" stroke="#1e12bf" stroke-dasharray="5,4" x1="1550" x2="1590" y1="850" y2="850"/>
<g cb-classname="SignalSegment" id="7jK">
<line cb-classname="GraphicLineEntity" class="signalline" id="7jI" stroke="#1e12bf" stroke-dasharray="5,4" x1="1590" x2="1590" y1="850" y2="440"/>
<g cb-classname="SignalSegment" id="7jX">
<line cb-classname="GraphicLineEntity" class="signalline" id="7js" stroke="#1e12bf" stroke-dasharray="5,4" x1="1590" x2="1780" y1="440" y2="440"/>
<g cb-classname="SignalConnection" cb-graphic-line="$745$" cb-input-pin="$bDd$" id="7jS"/>
</g>
</g>
</g>
</g>
<g cb-classname="ControlPin" cb-pin-name="ls-lxx-spJ" id="42Z">
<line cb-classname="GraphicLineEntity" class="signalline" id="42w" x1="1430" x2="1450" y1="890" y2="890"/>
<polygon cb-classname="GraphicPolygonEntity" class="signal" id="4Ep" points="1450,890 1439,886 1439,894"/>
<g cb-classname="DynamicText" cb-source="cJ-6jB-SGdz" class="signal" id="4EA" text-anchor="end">
<text baseline-shift="5%" cb-classname="GraphicTextEntity" class="signal" fill="black" font-style="normal" font-weight="normal" id="4EK" text-anchor="end" text-decoration="normal" x="1440" y="880"/>
</g>
</g>
<g cb-classname="ControlPin" cb-pin-name="B5-MuP-NR1" id="4EI">
<line cb-classname="GraphicLineEntity" class="signalline" id="4EX" x1="1430" x2="1450" y1="850" y2="850"/>
<polygon cb-classname="GraphicPolygonEntity" class="signal" id="4Es" points="1450,850 1439,846 1439,854"/>
<g cb-classname="DynamicText" cb-source="Uv-lNR-9lPN" class="signal" id="4ES" text-anchor="end">
<text baseline-shift="5%" cb-classname="GraphicTextEntity" class="signal" fill="black" font-style="normal" font-weight="normal" id="4EQ" text-anchor="end" text-decoration="normal" x="1440" y="840"/>
</g>
</g>
</g>
<g cb-alg-TANA="NO" cb-alg-TSU="P33LV1151_YLA" cb-algorithm-id="00B" cb-classname="ExternalPointInterface" cb-function-name="INPUT" id="4EZ">
<ellipse cb-classname="GraphicEllipseEntity" class="algorithm" cx="670" cy="1030" id="4Ew" rx="40" ry="40"/>
<rect cb-classname="GraphicRectangleEntity" class="algorithm" height="80" id="4Op" width="30" x="600" y="990"/>
<line cb-classname="GraphicLineEntity" class="algorithm" id="4OA" x1="600" x2="630" y1="1030" y2="1030"/>
<g cb-classname="ControlPin" cb-pin-name="0V-rq6-cbw" id="4OK">
<line cb-classname="GraphicLineEntity" class="signalline" id="4OI" x1="710" x2="1080" y1="1030" y2="1030"/>
<g cb-classname="SignalSegment" id="4OX">
<g cb-classname="SignalConnection" cb-graphic-line="$496$" cb-input-pin="$smI$" id="4Os"/>
<line cb-classname="GraphicLineEntity" class="signalline" id="4OS" stroke="#1e12bf" stroke-dasharray="5,4" x1="1080" x2="1430" y1="1030" y2="1030"/>
</g>
</g>
<g cb-classname="PointStatusIndicator" cb-indicator-type="Highway" cb-source="Hf-f77-qbn" id="4OQ" visibility="hidden">
<line cb-classname="GraphicLineEntity" class="algorithmline" id="4OZ" x1="630" x2="670" y1="1030" y2="990"/>
<line cb-classname="GraphicLineEntity" class="algorithmline" id="4Ow" x1="670" x2="710" y1="990" y2="1030"/>
<line cb-classname="GraphicLineEntity" class="algorithmline" id="5Qp" x1="710" x2="670" y1="1030" y2="1070"/>
<line cb-classname="GraphicLineEntity" class="algorithmline" id="5QA" x1="670" x2="630" y1="1070" y2="1030"/>
</g>
<g cb-classname="PointStatusIndicator" cb-indicator-type="hardware" cb-source="zW-u3B-Vqh" id="5QK" visibility="hidden">
<text cb-classname="GraphicTextEntity" class="algorithm" fill="#000000" font-family="arial" font-size="20" id="5QI" x="660" y="1040">
H
</text>
</g>
<g cb-classname="PointStatusIndicator" cb-indicator-type="alarm" cb-source="ls-lxx-I8L" id="5QX" visibility="hidden">
<text cb-classname="GraphicTextEntity" class="algorithm" fill="#000000" font-family="arial" font-size="20" id="5Qs" x="607" y="1019">
A
</text>
</g>
<g cb-classname="PointStatusIndicator" cb-indicator-type="ingraphic" cb-source="cG-yOV-lMo" id="5QS" visibility="hidden">
<text cb-classname="GraphicTextEntity" class="algorithm" fill="#000000" font-family="Arial" font-size="20" id="5QQ" x="605" y="1059">
G
</text>
</g>
<g baseline-shift="-100%" cb-anchor-x="100" cb-anchor-y="990" cb-classname="PointDescription" cb-content="extended" cb-labeled="false" cb-max-width="460" cb-source="DU-SzB-xIv" class="algorithm" font-style="normal" id="5QZ" text-anchor="start">
<text baseline-shift="-100%" cb-classname="GraphicTextEntity" class="algorithm" id="5Qw" text-anchor="start" x="100" y="990">
vlv. LV1151 filling wet FG clean.
</text>
<text baseline-shift="-100%" cb-classname="GraphicTextEntity" class="algorithm" id="5Vp" text-anchor="start" x="100" y="1026">
sod.hydr. TK1150
</text>
<text baseline-shift="-100%" cb-classname="GraphicTextEntity" class="algorithm" id="5VA" text-anchor="start" x="100" y="1062">
(Auto - !Manual)
</text>
</g>
<g cb-classname="DynamicText" cb-labeled="false" cb-pin-name="pia" cb-source="Uv-GeA-Y9i" class="algorithm" id="5VK" text-anchor="start">
<text baseline-shift="-100%" cb-classname="GraphicTextEntity" class="algorithm" fill="black" font-family="arial" font-size="20" font-style="normal" font-weight="normal" id="5VI" text-anchor="start" text-decoration="normal" x="715" y="992"/>
</g>
<g baseline-shift="-100%" cb-anchor-x="730" cb-anchor-y="1030" cb-classname="PointReferences" cb-max-width="350" cb-originator="true" cb-source="M1-gia-uhi" class="signal" id="5VX" text-anchor="start">
<text baseline-shift="-100%" cb-classname="GraphicTextEntity" class="algorithm" id="5Vs" text-anchor="start" x="730" y="1030">
12/125680
</text>
</g>
</g>
<g cb-alg-tada="NO" cb-alg-tjn="P33LV1151_YAF" cb-algorithm-id="00C" cb-classname="ExternalPointInterface" cb-function-name="INPUT" id="5VS">
<ellipse cb-classname="GraphicEllipseEntity" class="algorithm" cx="670" cy="1130" id="5VQ" rx="40" ry="40"/>
<rect cb-classname="GraphicRectangleEntity" class="algorithm" height="80" id="5VZ" width="30" x="600" y="1090"/>
<line cb-classname="GraphicLineEntity" class="algorithm" id="5Vw" x1="600" x2="630" y1="1130" y2="1130"/>
<g cb-classname="ControlPin" cb-pin-name="cJ-xRb-TSU" id="5Fp">
<line cb-classname="GraphicLineEntity" class="signalline" id="5FA" x1="710" x2="1080" y1="1130" y2="1130"/>
<g cb-classname="SignalSegment" id="5FK">
<line cb-classname="GraphicLineEntity" class="signalline" id="5FI" stroke="#1e12bf" stroke-dasharray="5,4" x1="1080" x2="1080" y1="1130" y2="1110"/>
<g cb-classname="SignalSegment" id="5FX">
<line cb-classname="GraphicLineEntity" class="signalline" id="5Fs" stroke="#1e12bf" stroke-dasharray="5,4" x1="1080" x2="1180" y1="1110" y2="1110"/>
<g cb-classname="SignalConnection" cb-graphic-line="$525$" cb-input-pin="$ue8$" id="5FS"/>
</g>
</g>
</g>
<g cb-classname="PointStatusIndicator" cb-indicator-type="Highway" cb-source="M1-gia-uhi" id="5FQ" visibility="hidden">
<line cb-classname="GraphicLineEntity" class="algorithmline" id="5FZ" x1="630" x2="670" y1="1130" y2="1090"/>
<line cb-classname="GraphicLineEntity" class="algorithmline" id="5Fw" x1="670" x2="710" y1="1090" y2="1130"/>
<line cb-classname="GraphicLineEntity" class="algorithmline" id="51p" x1="710" x2="670" y1="1130" y2="1170"/>
<line cb-classname="GraphicLineEntity" class="algorithmline" id="51A" x1="670" x2="630" y1="1170" y2="1130"/>
</g>
<g cb-classname="PointStatusIndicator" cb-indicator-type="hardware" cb-source="cG-yOV-lMo" id="51K" visibility="hidden">
<text cb-classname="GraphicTextEntity" class="algorithm" fill="#000000" font-family="arial" font-size="20" id="51I" x="660" y="1140">
H
</text>
</g>
<g cb-classname="PointStatusIndicator" cb-indicator-type="alarm" cb-source="DU-SzB-xIv" id="51X" visibility="visible">
<text cb-classname="GraphicTextEntity" class="algorithm" fill="#000000" font-family="arial" font-size="20" id="51s" x="607" y="1119">
A
</text>
</g>
<g cb-classname="PointStatusIndicator" cb-indicator-type="ingraphic" cb-source="Hf-f77-qbn" id="51S" visibility="hidden">
<text cb-classname="GraphicTextEntity" class="algorithm" fill="#000000" font-family="Arial" font-size="20" id="51Q" x="605" y="1159">
G
</text>
</g>
<g baseline-shift="-100%" cb-anchor-x="130" cb-anchor-y="1090" cb-classname="PointDescription" cb-content="extended" cb-labeled="false" cb-max-width="460" cb-source="Uv-GeA-Y9i" class="algorithm" font-style="normal" id="51Z" text-anchor="start">
<text baseline-shift="-100%" cb-classname="GraphicTextEntity" class="algorithm" id="51w" text-anchor="start" x="130" y="1090">
vlv. LV1151 filling wet FG clean.
</text>
<text baseline-shift="-100%" cb-classname="GraphicTextEntity" class="algorithm" id="5jp" text-anchor="start" x="130" y="1126">
sod.hydr. TK1150
</text>
<text baseline-shift="-100%" cb-classname="GraphicTextEntity" class="algorithm" id="5jA" text-anchor="start" x="130" y="1162">
(Alarm - !OK)
</text>
</g>
<g cb-classname="DynamicText" cb-labeled="false" cb-pin-name="YUH" cb-source="4h-ST3-9Aa" class="algorithm" id="5jK" text-anchor="start">
<text baseline-shift="-100%" cb-classname="GraphicTextEntity" class="algorithm" fill="black" font-family="arial" font-size="20" font-style="normal" font-weight="normal" id="5jI" text-anchor="start" text-decoration="normal" x="715" y="1092"/>
</g>
<g baseline-shift="-100%" cb-anchor-x="730" cb-anchor-y="1130" cb-classname="PointReferences" cb-max-width="350" cb-originator="true" cb-source="0V-rq6-cbw" class="signal" id="5jX" text-anchor="start">
<text baseline-shift="-100%" cb-classname="GraphicTextEntity" class="algorithm" id="5js" text-anchor="start" x="730" y="1130">
12/125680
</text>
</g>
</g>
<g cb-alg-iMA="$516$cb-alg-out$" cb-algorithm-id="00D" cb-classname="FastBooleanAlgorithm" cb-function-name="NOT" id="5jS">
<rect cb-classname="GraphicRectangleEntity" class="algorithm" height="40" id="5jQ" width="40" x="1200" y="1090"/>
<text baseline-shift="-50%" cb-classname="GraphicTextEntity" class="algorithm" font-size="28" id="5jZ" text-anchor="middle" x="1219" y="1102">
N
</text>
<g cb-classname="ControlPin" cb-pin-name="Hf-f77-dCW" id="5jw">
<line cb-classname="GraphicLineEntity" class="signalline" id="5bp" x1="1180" x2="1200" y1="1110" y2="1110"/>
<polygon cb-classname="GraphicPolygonEntity" class="signal" id="5bA" points="1200,1110 1189,1106 1189,1114"/>
<g cb-classname="DynamicText" cb-source="02-odC-RrEs" class="signal" id="5bK" text-anchor="end">
<text baseline-shift="5%" cb-classname="GraphicTextEntity" class="signal" fill="black" font-style="normal" font-weight="normal" id="5bI" text-anchor="end" text-decoration="normal" x="1195" y="1102"/>
</g>
</g>
<g cb-classname="ControlPin" cb-pin-name="zW-u3B-Vqh" id="5bX">
<line cb-classname="GraphicLineEntity" class="signalline" id="5bs" x1="1240" x2="1260" y1="1110" y2="1110"/>
<g cb-classname="DynamicText" cb-source="ls-q28-HCU0" class="signal" id="5bS">
<text baseline-shift="5%" cb-classname="GraphicTextEntity" class="signal" fill="black" font-style="normal" font-weight="normal" id="5bQ" text-decoration="normal" x="1252" y="1102"/>
</g>
<g cb-classname="SignalSegment" cb-start-x="1260" cb-start-y="680" id="5bZ">
<line cb-classname="GraphicLineEntity" class="signalline" id="5bw" stroke="#1e12bf" stroke-dasharray="5,4" x1="1260" x2="1430" y1="1110" y2="1110"/>
<g cb-classname="SignalConnection" cb-graphic-line="$559$" cb-input-pin="$s1z$" id="5ip"/>
</g>
</g>
</g>
<g cb-alg-yz9="$546$cb-alg-out$" cb-alg-yzY="$488$cb-alg-out$" cb-algorithm-id="010" cb-classname="FastBooleanAlgorithm" cb-function-name="AND" id="5iA">
<rect cb-classname="GraphicRectangleEntity" class="algorithm" height="60" id="5iK" width="80" x="1450" y="1040"/>
<text baseline-shift="-50%" cb-classname="GraphicTextEntity" class="algorithm" id="5iI" text-anchor="middle" x="1490" y="1069">
AND
</text>
<line cb-classname="GraphicLineEntity" class="algorithmline" id="5iX" x1="1450" x2="1450" y1="1010" y2="1130"/>
<g cb-classname="ControlPin" cb-pin-name="02-ybJ-a5X" id="5is">
<line cb-classname="GraphicLineEntity" class="signalline" id="5iS" x1="1430" x2="1450" y1="1030" y2="1030"/>
<polygon cb-classname="GraphicPolygonEntity" class="signal" id="5iQ" points="1450,1030 1439,1026 1439,1034"/>
<g cb-classname="DynamicText" cb-source="4h-za5-AROF" class="signal" id="5iZ" text-anchor="end">
<text baseline-shift="5%" cb-classname="GraphicTextEntity" class="signal" fill="black" font-style="normal" font-weight="normal" id="5iw" text-anchor="end" text-decoration="normal" x="1443" y="1022"/>
</g>
</g>
<g cb-classname="ControlPin" cb-pin-name="0V-rq6-cbw" id="52p">
<line cb-classname="GraphicLineEntity" class="signalline" id="52A" x1="1530" x2="1550" y1="1070" y2="1070"/>
<g cb-classname="DynamicText" cb-source="cJ-6jB-SGdz" class="signal" id="52K">
<text baseline-shift="5%" cb-classname="GraphicTextEntity" class="signal" fill="black" font-style="normal" font-weight="normal" id="52I" text-decoration="normal" x="1542" y="1062"/>
</g>
<g cb-classname="SignalSegment" id="7jQ">
<line cb-classname="GraphicLineEntity" class="signalline" id="7jZ" stroke="#1e12bf" stroke-dasharray="5,4" x1="1550" x2="1600" y1="1070" y2="1070"/>
<g cb-classname="SignalSegment" id="7jw">
<line cb-classname="GraphicLineEntity" class="signalline" id="7bp" stroke="#1e12bf" stroke-dasharray="5,4" x1="1600" x2="1600" y1="1070" y2="460"/>
<g cb-classname="SignalSegment" id="7bA">
<line cb-classname="GraphicLineEntity" class="signalline" id="7bK" stroke="#1e12bf" stroke-dasharray="5,4" x1="1600" x2="1780" y1="460" y2="460"/>
<g cb-classname="SignalConnection" cb-graphic-line="$752$" cb-input-pin="$Dz1$" id="7bI"/>
</g>
</g>
</g>
</g>
<g cb-classname="ControlPin" cb-pin-name="B5-MuP-NRO" id="52X">
<line cb-classname="GraphicLineEntity" class="signalline" id="52s" x1="1430" x2="1450" y1="1110" y2="1110"/>
<polygon cb-classname="GraphicPolygonEntity" class="signal" id="52S" points="1450,1110 1439,1106 1439,1114"/>
<g cb-classname="DynamicText" cb-source="Uv-lNR-9lPN" class="signal" id="52Q" text-anchor="end">
<text baseline-shift="5%" cb-classname="GraphicTextEntity" class="signal" fill="black" font-style="normal" font-weight="normal" id="52Z" text-anchor="end" text-decoration="normal" x="1440" y="1100"/>
</g>
</g>
<g cb-classname="ControlPin" cb-pin-name="M1-gia-28l" id="52w">
<line cb-classname="GraphicLineEntity" class="signalline" id="5Ep" x1="1430" x2="1450" y1="1070" y2="1070"/>
<polygon cb-classname="GraphicPolygonEntity" class="signal" id="5EA" points="1450,1070 1439,1066 1439,1074"/>
<g cb-classname="DynamicText" cb-source="ls-q28-HCU0" class="signal" id="5EK" text-anchor="end">
<text baseline-shift="5%" cb-classname="GraphicTextEntity" class="signal" fill="black" font-style="normal" font-weight="normal" id="5EI" text-anchor="end" text-decoration="normal" x="1440" y="1060"/>
</g>
</g>
</g>
<g cb-alg-Y9i="P33FV1152_YLA" cb-alg-Yw2x="NO" cb-algorithm-id="011" cb-classname="ExternalPointInterface" cb-function-name="INPUT" id="5EX">
<ellipse cb-classname="GraphicEllipseEntity" class="algorithm" cx="670" cy="1240" id="5Es" rx="40" ry="40"/>
<rect cb-classname="GraphicRectangleEntity" class="algorithm" height="80" id="5ES" width="30" x="600" y="1200"/>
<line cb-classname="GraphicLineEntity" class="algorithm" id="5EQ" x1="600" x2="630" y1="1240" y2="1240"/>
<g cb-classname="ControlPin" cb-pin-name="Hf-f77-qbn" id="5EZ">
<line cb-classname="GraphicLineEntity" class="signalline" id="5Ew" x1="710" x2="1080" y1="1240" y2="1240"/>
<g cb-classname="SignalSegment" id="5Op">
<g cb-classname="SignalConnection" cb-graphic-line="$592$" cb-input-pin="$vMm$" id="5OA"/>
<line cb-classname="GraphicLineEntity" class="signalline" id="5OK" stroke="#1e12bf" stroke-dasharray="5,4" x1="1080" x2="1430" y1="1240" y2="1240"/>
</g>
</g>
<g cb-classname="PointStatusIndicator" cb-indicator-type="Highway" cb-source="zW-u3B-Vqh" id="5OI" visibility="hidden">
<line cb-classname="GraphicLineEntity" class="algorithmline" id="5OX" x1="630" x2="670" y1="1240" y2="1200"/>
<line cb-classname="GraphicLineEntity" class="algorithmline" id="5Os" x1="670" x2="710" y1="1200" y2="1240"/>
<line cb-classname="GraphicLineEntity" class="algorithmline" id="5OS" x1="710" x2="670" y1="1240" y2="1280"/>
<line cb-classname="GraphicLineEntity" class="algorithmline" id="5OQ" x1="670" x2="630" y1="1280" y2="1240"/>
</g>
<g cb-classname="PointStatusIndicator" cb-indicator-type="hardware" cb-source="cJ-xRb-TSU" id="5OZ" visibility="hidden">
<text cb-classname="GraphicTextEntity" class="algorithm" fill="#000000" font-family="arial" font-size="20" id="5Ow" x="660" y="1250">
H
</text>
</g>
<g cb-classname="PointStatusIndicator" cb-indicator-type="alarm" cb-source="B5-MuP-tjn" id="6Qp" visibility="hidden">
<text cb-classname="GraphicTextEntity" class="algorithm" fill="#000000" font-family="arial" font-size="20" id="6QA" x="607" y="1229">
A
</text>
</g>
<g cb-classname="PointStatusIndicator" cb-indicator-type="ingraphic" cb-source="iW-Unn-EiZ" id="6QK" visibility="hidden">
<text cb-classname="GraphicTextEntity" class="algorithm" fill="#000000" font-family="Arial" font-size="20" id="6QI" x="605" y="1269">
G
</text>
</g>
<g baseline-shift="-100%" cb-anchor-x="100" cb-anchor-y="1200" cb-classname="PointDescription" cb-content="extended" cb-labeled="false" cb-max-width="460" cb-source="02-ybJ-Mci" class="algorithm" font-style="normal" id="6QX" text-anchor="start">
<text baseline-shift="-100%" cb-classname="GraphicTextEntity" class="algorithm" id="6Qs" text-anchor="start" x="100" y="1200">
vlv. FV1152 extract. wet FG clean.
</text>
<text baseline-shift="-100%" cb-classname="GraphicTextEntity" class="algorithm" id="6QS" text-anchor="start" x="100" y="1236">
sod.hydr.
</text>
<text baseline-shift="-100%" cb-classname="GraphicTextEntity" class="algorithm" id="6QQ" text-anchor="start" x="100" y="1272">
(Auto - !Manual)
</text>
</g>
<g cb-classname="DynamicText" cb-labeled="false" cb-pin-name="Evl" cb-source="ls-lxx-I8L" class="algorithm" id="6QZ" text-anchor="start">
<text baseline-shift="-100%" cb-classname="GraphicTextEntity" class="algorithm" fill="black" font-family="arial" font-size="20" font-style="normal" font-weight="normal" id="6Qw" text-anchor="start" text-decoration="normal" x="715" y="1202"/>
</g>
<g baseline-shift="-100%" cb-anchor-x="730" cb-anchor-y="1240" cb-classname="PointReferences" cb-max-width="350" cb-originator="true" cb-source="cG-yOV-lMo" class="signal" id="6Vp" text-anchor="start">
<text baseline-shift="-100%" cb-classname="GraphicTextEntity" class="algorithm" id="6VA" text-anchor="start" x="730" y="1240">
12/125660
</text>
</g>
</g>
<g cb-alg-SOlG="NO" cb-alg-Scu="P33FV1152_YAF" cb-algorithm-id="012" cb-classname="ExternalPointInterface" cb-function-name="INPUT" id="6VK">
<ellipse cb-classname="GraphicEllipseEntity" class="algorithm" cx="670" cy="1340" id="6VI" rx="40" ry="40"/>
<rect cb-classname="GraphicRectangleEntity" class="algorithm" height="80" id="6VX" width="30" x="600" y="1300"/>
<line cb-classname="GraphicLineEntity" class="algorithm" id="6Vs" x1="600" x2="630" y1="1340" y2="1340"/>
<g cb-classname="ControlPin" cb-pin-name="Uv-GeA-Y9i" id="6VS">
<line cb-classname="GraphicLineEntity" class="signalline" id="6VQ" x1="710" x2="1080" y1="1340" y2="1340"/>
<g cb-classname="SignalSegment" id="6VZ">
<line cb-classname="GraphicLineEntity" class="signalline" id="6Vw" stroke="#1e12bf" stroke-dasharray="5,4" x1="1080" x2="1080" y1="1340" y2="1320"/>
<g cb-classname="SignalSegment" id="6Fp">
<line cb-classname="GraphicLineEntity" class="signalline" id="6FA" stroke="#1e12bf" stroke-dasharray="5,4" x1="1080" x2="1180" y1="1320" y2="1320"/>
<g cb-classname="SignalConnection" cb-graphic-line="$621$" cb-input-pin="$Lx1$" id="6FK"/>
</g>
</g>
</g>
<g cb-classname="PointStatusIndicator" cb-indicator-type="Highway" cb-source="cG-yOV-lMo" id="6FI" visibility="hidden">
<line cb-classname="GraphicLineEntity" class="algorithmline" id="6FX" x1="630" x2="670" y1="1340" y2="1300"/>
<line cb-classname="GraphicLineEntity" class="algorithmline" id="6Fs" x1="670" x2="710" y1="1300" y2="1340"/>
<line cb-classname="GraphicLineEntity" class="algorithmline" id="6FS" x1="710" x2="670" y1="1340" y2="1380"/>
<line cb-classname="GraphicLineEntity" class="algorithmline" id="6FQ" x1="670" x2="630" y1="1380" y2="1340"/>
</g>
<g cb-classname="PointStatusIndicator" cb-indicator-type="hardware" cb-source="iW-Unn-EiZ" id="6FZ" visibility="hidden">
<text cb-classname="GraphicTextEntity" class="algorithm" fill="#000000" font-family="arial" font-size="20" id="6Fw" x="660" y="1350">
H
</text>
</g>
<g cb-classname="PointStatusIndicator" cb-indicator-type="alarm" cb-source="02-ybJ-Mci" id="61p" visibility="visible">
<text cb-classname="GraphicTextEntity" class="algorithm" fill="#000000" font-family="arial" font-size="20" id="61A" x="607" y="1329">
A
</text>
</g>
<g cb-classname="PointStatusIndicator" cb-indicator-type="ingraphic" cb-source="zW-u3B-Vqh" id="61K" visibility="hidden">
<text cb-classname="GraphicTextEntity" class="algorithm" fill="#000000" font-family="Arial" font-size="20" id="61I" x="605" y="1369">
G
</text>
</g>
<g baseline-shift="-100%" cb-anchor-x="130" cb-anchor-y="1300" cb-classname="PointDescription" cb-content="extended" cb-labeled="false" cb-max-width="460" cb-source="ls-lxx-I8L" class="algorithm" font-style="normal" id="61X" text-anchor="start">
<text baseline-shift="-100%" cb-classname="GraphicTextEntity" class="algorithm" id="61s" text-anchor="start" x="130" y="1300">
vlv. FV1152 extract. wet FG clean.
</text>
<text baseline-shift="-100%" cb-classname="GraphicTextEntity" class="algorithm" id="61S" text-anchor="start" x="130" y="1336">
sod.hydr.
</text>
<text baseline-shift="-100%" cb-classname="GraphicTextEntity" class="algorithm" id="61Q" text-anchor="start" x="130" y="1372">
(Alarm - !OK)
</text>
</g>
<g cb-classname="DynamicText" cb-labeled="false" cb-pin-name="wbY" cb-source="DU-SzB-xIv" class="algorithm" id="61Z" text-anchor="start">
<text baseline-shift="-100%" cb-classname="GraphicTextEntity" class="algorithm" fill="black" font-family="arial" font-size="20" font-style="normal" font-weight="normal" id="61w" text-anchor="start" text-decoration="normal" x="715" y="1302"/>
</g>
<g baseline-shift="-100%" cb-anchor-x="730" cb-anchor-y="1340" cb-classname="PointReferences" cb-max-width="350" cb-originator="true" cb-source="Hf-f77-qbn" class="signal" id="6jp" text-anchor="start">
<text baseline-shift="-100%" cb-classname="GraphicTextEntity" class="algorithm" id="6jA" text-anchor="start" x="730" y="1340">
12/125660
</text>
</g>
</g>
<g cb-alg-VPs="$612$cb-alg-out$" cb-algorithm-id="013" cb-classname="FastBooleanAlgorithm" cb-function-name="NOT" id="6jK">
<rect cb-classname="GraphicRectangleEntity" class="algorithm" height="40" id="6jI" width="40" x="1200" y="1300"/>
<text baseline-shift="-50%" cb-classname="GraphicTextEntity" class="algorithm" font-size="28" id="6jX" text-anchor="middle" x="1219" y="1312">
N
</text>
<g cb-classname="ControlPin" cb-pin-name="zW-u3B-3Aa" id="6js">
<line cb-classname="GraphicLineEntity" class="signalline" id="6jS" x1="1180" x2="1200" y1="1320" y2="1320"/>
<polygon cb-classname="GraphicPolygonEntity" class="signal" id="6jQ" points="1200,1320 1189,1316 1189,1324"/>
<g cb-classname="DynamicText" cb-source="0V-63A-poKG" class="signal" id="6jZ" text-anchor="end">
<text baseline-shift="5%" cb-classname="GraphicTextEntity" class="signal" fill="black" font-style="normal" font-weight="normal" id="6jw" text-anchor="end" text-decoration="normal" x="1195" y="1312"/>
</g>
</g>
<g cb-classname="ControlPin" cb-pin-name="cJ-xRb-TSU" id="6bp">
<line cb-classname="GraphicLineEntity" class="signalline" id="6bA" x1="1240" x2="1260" y1="1320" y2="1320"/>
<g cb-classname="DynamicText" cb-source="B5-QYS-vgxj" class="signal" id="6bK">
<text baseline-shift="5%" cb-classname="GraphicTextEntity" class="signal" fill="black" font-style="normal" font-weight="normal" id="6bI" text-decoration="normal" x="1252" y="1312"/>
</g>
<g cb-classname="SignalSegment" cb-start-x="1260" cb-start-y="680" id="6bX">
<line cb-classname="GraphicLineEntity" class="signalline" id="6bs" stroke="#1e12bf" stroke-dasharray="5,4" x1="1260" x2="1430" y1="1320" y2="1320"/>
<g cb-classname="SignalConnection" cb-graphic-line="$655$" cb-input-pin="$v3w$" id="6bS"/>
</g>
</g>
</g>
<g cb-alg-0B2="$642$cb-alg-out$" cb-alg-0Bm="$584$cb-alg-out$" cb-algorithm-id="014" cb-classname="FastBooleanAlgorithm" cb-function-name="AND" id="6bQ">
<rect cb-classname="GraphicRectangleEntity" class="algorithm" height="60" id="6bZ" width="80" x="1450" y="1250"/>
<text baseline-shift="-50%" cb-classname="GraphicTextEntity" class="algorithm" id="6bw" text-anchor="middle" x="1490" y="1279">
AND
</text>
<line cb-classname="GraphicLineEntity" class="algorithmline" id="6ip" x1="1450" x2="1450" y1="1220" y2="1340"/>
<g cb-classname="ControlPin" cb-pin-name="0V-rq6-uMG" id="6iA">
<line cb-classname="GraphicLineEntity" class="signalline" id="6iK" x1="1430" x2="1450" y1="1240" y2="1240"/>
<polygon cb-classname="GraphicPolygonEntity" class="signal" id="6iI" points="1450,1240 1439,1236 1439,1244"/>
<g cb-classname="DynamicText" cb-source="DU-8VP-ByPL" class="signal" id="6iX" text-anchor="end">
<text baseline-shift="5%" cb-classname="GraphicTextEntity" class="signal" fill="black" font-style="normal" font-weight="normal" id="6is" text-anchor="end" text-decoration="normal" x="1443" y="1232"/>
</g>
</g>
<g cb-classname="ControlPin" cb-pin-name="Hf-f77-qbn" id="6iS">
<line cb-classname="GraphicLineEntity" class="signalline" id="6iQ" x1="1530" x2="1550" y1="1280" y2="1280"/>
<g cb-classname="DynamicText" cb-source="Uv-lNR-9lPN" class="signal" id="6iZ">
<text baseline-shift="5%" cb-classname="GraphicTextEntity" class="signal" fill="black" font-style="normal" font-weight="normal" id="6iw" text-decoration="normal" x="1542" y="1272"/>
</g>
<g cb-classname="SignalSegment" id="7bX">
<line cb-classname="GraphicLineEntity" class="signalline" id="7bs" stroke="#1e12bf" stroke-dasharray="5,4" x1="1550" x2="1610" y1="1280" y2="1280"/>
<g cb-classname="SignalSegment" id="7bS">
<line cb-classname="GraphicLineEntity" class="signalline" id="7bQ" stroke="#1e12bf" stroke-dasharray="5,4" x1="1610" x2="1610" y1="1280" y2="500"/>
<g cb-classname="SignalSegment" id="7bZ">
<line cb-classname="GraphicLineEntity" class="signalline" id="7bw" stroke="#1e12bf" stroke-dasharray="5,4" x1="1610" x2="1780" y1="500" y2="500"/>
<g cb-classname="SignalConnection" cb-graphic-line="$759$" cb-input-pin="$cF6$" id="7ip"/>
</g>
</g>
</g>
</g>
<g cb-classname="ControlPin" cb-pin-name="M1-gia-28w" id="62p">
<line cb-classname="GraphicLineEntity" class="signalline" id="62A" x1="1430" x2="1450" y1="1320" y2="1320"/>
<polygon cb-classname="GraphicPolygonEntity" class="signal" id="62K" points="1450,1320 1439,1316 1439,1324"/>
<g cb-classname="DynamicText" cb-source="ls-q28-HCU0" class="signal" id="62I" text-anchor="end">
<text baseline-shift="5%" cb-classname="GraphicTextEntity" class="signal" fill="black" font-style="normal" font-weight="normal" id="62X" text-anchor="end" text-decoration="normal" x="1440" y="1310"/>
</g>
</g>
<g cb-classname="ControlPin" cb-pin-name="cG-yOV-PHq" id="62s">
<line cb-classname="GraphicLineEntity" class="signalline" id="62S" x1="1430" x2="1450" y1="1280" y2="1280"/>
<polygon cb-classname="GraphicPolygonEntity" class="signal" id="62Q" points="1450,1280 1439,1276 1439,1284"/>
<g cb-classname="DynamicText" cb-source="B5-QYS-vgxj" class="signal" id="62Z" text-anchor="end">
<text baseline-shift="5%" cb-classname="GraphicTextEntity" class="signal" fill="black" font-style="normal" font-weight="normal" id="62w" text-anchor="end" text-decoration="normal" x="1440" y="1270"/>
</g>
</g>
</g>
<g cb-alg-jB4="$341$cb-alg-out$" cb-alg-jB7="$561$cb-alg-out$" cb-alg-jBN="$97$cb-alg-out$" cb-alg-jBZ="$465$cb-alg-out$" cb-alg-jBn="$657$cb-alg-out$" cb-algorithm-id="015" cb-classname="FastBooleanAlgorithm" cb-function-name="AND" cb-modify-id="00000003" id="6Ep">
<rect cb-classname="GraphicRectangleEntity" class="algorithm" height="60" id="6EA" width="80" x="1800" y="450"/>
<text baseline-shift="-50%" cb-classname="GraphicTextEntity" class="algorithm" id="6EK" text-anchor="middle" x="1840" y="479">
AND
</text>
<line cb-classname="GraphicLineEntity" class="algorithmline" id="6EI" x1="1800" x2="1800" y1="380" y2="580"/>
<g cb-classname="ControlPin" cb-pin-name="zW-u3B-3Aa" id="6EX">
<line cb-classname="GraphicLineEntity" class="signalline" id="6Es" x1="1780" x2="1800" y1="400" y2="400"/>
<polygon cb-classname="GraphicPolygonEntity" class="signal" id="6ES" points="1800,400 1789,396 1789,404"/>
<g cb-classname="DynamicText" cb-source="0V-63A-poKG" class="signal" id="6EQ" text-anchor="end">
<text baseline-shift="5%" cb-classname="GraphicTextEntity" class="signal" fill="black" font-style="normal" font-weight="normal" id="6EZ" text-anchor="end" text-decoration="normal" x="1789" y="396"/>
</g>
</g>
<g cb-classname="ControlPin" cb-pin-name="cJ-xRb-TSU" id="6Ew">
<line cb-classname="GraphicLineEntity" class="signalline" id="6Op" x1="1880" x2="1900" y1="480" y2="480"/>
<g cb-classname="DynamicText" cb-source="B5-QYS-vgxj" class="signal" id="6OA">
<text baseline-shift="5%" cb-classname="GraphicTextEntity" class="signal" fill="black" font-style="normal" font-weight="normal" id="6OK" text-decoration="normal" x="1895" y="472"/>
</g>
<g cb-classname="SignalSegment" id="7EX">
<line cb-classname="GraphicLineEntity" class="signalline" id="82s" stroke="#1e12bf" stroke-dasharray="5,4" x1="1900" x2="1980" y1="480" y2="480"/>
<g cb-classname="SignalSegment" id="82S">
<line cb-classname="GraphicLineEntity" class="signalline" id="82Q" stroke="#1e12bf" stroke-dasharray="5,4" x1="1980" x2="1980" y1="480" y2="330"/>
<g cb-classname="SignalSegment" id="82Z">
<line cb-classname="GraphicLineEntity" class="signalline" id="82w" stroke="#1e12bf" stroke-dasharray="5,4" x1="1980" x2="2070" y1="330" y2="330"/>
<g cb-classname="SignalConnection" cb-graphic-line="$879$" cb-input-pin="$GA5$" id="8Ep"/>
</g>
<line cb-classname="GraphicLineEntity" class="signalline" id="7EQ" stroke="#1e12bf" stroke-dasharray="5,4" x1="1980" x2="2500" y1="480" y2="480"/>
<g cb-classname="SignalConnection" cb-graphic-line="$787$" cb-input-pin="$VHI$" id="7EZ"/>
<ellipse cb-classname="GraphicEllipseEntity" class="signal" cx="1980" cy="480" fill="#1e12bf" id="8EA" rx="5" ry="5" stroke="#1e12bf" stroke-dasharray="5,4"/>
</g>
</g>
</g>
<g cb-classname="ControlPin" cb-pin-name="iW-Unn-d9A" id="6OI">
<line cb-classname="GraphicLineEntity" class="signalline" id="6OX" x1="1780" x2="1800" y1="420" y2="420"/>
<polygon cb-classname="GraphicPolygonEntity" class="signal" id="6Os" points="1800,420 1789,416 1789,424"/>
<g cb-classname="DynamicText" cb-source="M1-cd9-5yJu" class="signal" id="6OS" text-anchor="end">
<text baseline-shift="5%" cb-classname="GraphicTextEntity" class="signal" fill="black" font-style="normal" font-weight="normal" id="6OQ" text-anchor="end" text-decoration="normal" x="1789" y="416"/>
</g>
</g>
<g cb-classname="ControlPin" cb-pin-name="4h-ST3-xHQ" id="6OZ">
<line cb-classname="GraphicLineEntity" class="signalline" id="6Ow" x1="1780" x2="1800" y1="440" y2="440"/>
<polygon cb-classname="GraphicPolygonEntity" class="signal" id="7Qp" points="1800,440 1789,436 1789,444"/>
<g cb-classname="DynamicText" cb-source="cG-LxH-M6B8" class="signal" id="7QA" text-anchor="end">
<text baseline-shift="5%" cb-classname="GraphicTextEntity" class="signal" fill="black" font-style="normal" font-weight="normal" id="7QK" text-anchor="end" text-decoration="normal" x="1789" y="436"/>
</g>
</g>
<g cb-classname="ControlPin" cb-pin-name="DU-SzB-Nvi" id="7QI">
<line cb-classname="GraphicLineEntity" class="signalline" id="7QX" x1="1780" x2="1800" y1="460" y2="460"/>
<polygon cb-classname="GraphicPolygonEntity" class="signal" id="7Qs" points="1800,460 1789,456 1789,464"/>
<g cb-classname="DynamicText" cb-source="iW-CNv-CSIZ" class="signal" id="7QS" text-anchor="end">
<text baseline-shift="5%" cb-classname="GraphicTextEntity" class="signal" fill="black" font-style="normal" font-weight="normal" id="7QQ" text-anchor="end" text-decoration="normal" x="1789" y="456"/>
</g>
</g>
<g cb-classname="ControlPin" cb-pin-name="02-ybJ-a5o" id="7QZ">
<line cb-classname="GraphicLineEntity" class="signalline" id="7Qw" x1="1780" x2="1800" y1="500" y2="500"/>
<polygon cb-classname="GraphicPolygonEntity" class="signal" id="7Vp" points="1800,500 1789,496 1789,504"/>
<g cb-classname="DynamicText" cb-source="4h-za5-AROF" class="signal" id="7VA" text-anchor="end">
<text baseline-shift="5%" cb-classname="GraphicTextEntity" class="signal" fill="black" font-style="normal" font-weight="normal" id="7VK" text-anchor="end" text-decoration="normal" x="1789" y="496"/>
</g>
</g>
<g cb-classname="ControlPin" cb-pin-name="0V-rq6-uMR" id="7VI">
<line cb-classname="GraphicLineEntity" class="signalline" id="7VX" x1="1780" x2="1800" y1="520" y2="520"/>
<polygon cb-classname="GraphicPolygonEntity" class="signal" id="7Vs" points="1800,520 1789,516 1789,524"/>
<g cb-classname="DynamicText" cb-source="DU-8VP-ByPL" class="signal" id="7VS" text-anchor="end">
<text baseline-shift="5%" cb-classname="GraphicTextEntity" class="signal" fill="black" font-style="normal" font-weight="normal" id="7VQ" text-anchor="end" text-decoration="normal" x="1789" y="516"/>
</g>
</g>
<g cb-classname="ControlPin" cb-pin-name="Hf-f77-dCE" id="7VZ">
<line cb-classname="GraphicLineEntity" class="signalline" id="7Vw" x1="1780" x2="1800" y1="540" y2="540"/>
<polygon cb-classname="GraphicPolygonEntity" class="signal" id="7Fp" points="1800,540 1789,536 1789,544"/>
<g cb-classname="DynamicText" cb-source="02-odC-RrEs" class="signal" id="7FA" text-anchor="end">
<text baseline-shift="5%" cb-classname="GraphicTextEntity" class="signal" fill="black" font-style="normal" font-weight="normal" id="7FK" text-anchor="end" text-decoration="normal" x="1789" y="536"/>
</g>
</g>
<g cb-classname="ControlPin" cb-pin-name="zW-u3B-3A3" id="7FI">
<line cb-classname="GraphicLineEntity" class="signalline" id="7FX" x1="1780" x2="1800" y1="560" y2="560"/>
<polygon cb-classname="GraphicPolygonEntity" class="signal" id="7Fs" points="1800,560 1789,556 1789,564"/>
<g cb-classname="DynamicText" cb-source="0V-63A-poKG" class="signal" id="7FS" text-anchor="end">
<text baseline-shift="5%" cb-classname="GraphicTextEntity" class="signal" fill="black" font-style="normal" font-weight="normal" id="7FQ" text-anchor="end" text-decoration="normal" x="1789" y="556"/>
</g>
</g>
</g>
<g cb-alg-9J3n5="TITLE8" cb-alg-9J3n7="TITLE5" cb-alg-9J3nD="TITLE2" cb-alg-9J3nE="TITLE7" cb-alg-9J3nL="TITLE6" cb-alg-9J3nP="MAIN-TITLE" cb-alg-9J3nT="TITLE4" cb-alg-9J3nW="READY CONDITIONS" cb-alg-9J3nX="TITLE3" cb-alg-D3c="DISABLED" cb-alg-E="0" cb-alg-K="0" cb-alg-N4qC5="NORMAL" cb-alg-N4qC7="NORMAL" cb-alg-N4qCD="NORMAL" cb-alg-N4qCE="NORMAL" cb-alg-N4qCL="NORMAL" cb-alg-N4qCT="NORMAL" cb-alg-N4qCW="NORMAL" cb-alg-N4qCX="NORMAL" cb-alg-NvL="$680$cb-alg-out$" cb-alg-NvlyjZ="DISABLED" cb-alg-VNTn0="850" cb-alg-Vvgxj="SCRUBBER_HYDR_VLV_KBD" cb-algorithm-id="018" cb-classname="AutomaticWindowAlgorithm" cb-function-name="PERMISSIVEWINDOW" id="8iS">
<rect cb-classname="GraphicRectangleEntity" class="annotation" fill="white" height="40" id="8iQ" width="220" x="2090" y="310"/>
<g cb-classname="ControlPin" cb-pin-name="ls-lxx-sp1" id="8iZ">
<line cb-classname="GraphicLineEntity" class="signalline" id="8iw" x1="2070" x2="2090" y1="330" y2="330"/>
<polygon cb-classname="GraphicPolygonEntity" class="signal" id="82p" points="2090,330 2079,324 2079,335"/>
<g cb-classname="DynamicText" cb-source="cJ-6jB-SGdz" id="82A">
<text cb-classname="GraphicTextEntity" class="signal" id="82K" text-anchor="end" x="2075" y="327"/>
</g>
</g>
<text baseline-shift="0%" cb-classname="GraphicTextEntity" class="annotation" fill="#000000" font-family="MS Shell Dlg 2" font-size="12" id="82I" x="2115" y="325">
READY CONDITIONS
</text>
<text baseline-shift="0%" cb-classname="GraphicTextEntity" class="annotation" fill="#000000" font-family="MS Shell Dlg 2" font-size="12" id="82X" x="2115" y="345">
PERMISSIVE WINDOW
</text>
</g>
<g cb-alg-ezCa="1" cb-alg-jdua="128" cb-alg-ybJ="SCRUBBER_HYDR_VLV_KBD" cb-algorithm-id="026" cb-classname="ControlAlgorithm" cb-function-name="KEYBOARD" cb-modify-id="00000002" id="7Ew">
<rect cb-classname="GraphicRectangleEntity" class="algorithm" height="100" id="7Op" width="100" x="610" y="1420"/>
<text cb-classname="GraphicTextEntity" class="algorithm" font-size="18" id="7OA" text-anchor="middle" x="660" y="1458">
KEY
</text>
<text cb-classname="GraphicTextEntity" class="algorithm" font-size="18" id="7OK" text-anchor="middle" x="660" y="1484">
BOARD
</text>
<g cb-classname="DynamicText" cb-source="cJ-xRb-Unn" class="algorithm" id="7OI">
<text baseline-shift="5%" cb-classname="GraphicTextEntity" class="algorithm" fill="black" font-family="Arial" font-size="12" font-style="normal" font-weight="normal" id="7OX" text-decoration="normal" x="610" y="1547"/>
</g>
<g cb-classname="ControlPin" cb-pin-name="B5-MuP-owF" id="7Os">
<line cb-classname="GraphicLineEntity" class="signalline" id="7OS" x1="710" x2="730" y1="1440" y2="1440"/>
<g cb-classname="DynamicText" cb-source="iW-CNv-CSIZ" id="7OQ">
<text cb-classname="GraphicTextEntity" class="signal" id="7OZ" text-anchor="start" x="724" y="1437"/>
</g>
<g cb-classname="SignalSegment" id="7Ow">
<line cb-classname="GraphicLineEntity" class="signalline" id="8Qp" stroke="#1e12bf" stroke-dasharray="5,4" x1="730" x2="1040" y1="1440" y2="1440"/>
<g cb-classname="SignalConnection" cb-graphic-line="$800$" cb-input-pin="$6LX$" id="8QA"/>
</g>
</g>
<g cb-classname="ControlPin" cb-pin-name="4h-ST3-5qT" id="8QK">
<line cb-classname="GraphicLineEntity" class="signalline" id="8QI" x1="710" x2="730" y1="1480" y2="1480"/>
<g cb-classname="DynamicText" cb-source="0V-63A-poKG" id="8QX">
<text cb-classname="GraphicTextEntity" class="signal" id="8Qs" text-anchor="start" x="724" y="1477"/>
</g>
<g cb-classname="SignalSegment" id="8QS">
<line cb-classname="GraphicLineEntity" class="signalline" id="8QQ" stroke="#1e12bf" stroke-dasharray="5,4" x1="730" x2="1040" y1="1480" y2="1480"/>
<g cb-classname="SignalConnection" cb-graphic-line="$807$" cb-input-pin="$Z9u$" id="8QZ"/>
</g>
</g>
</g>
<g cb-alg-NsYg="$789$cb-alg-pk2$" cb-alg-bXL="SCRUBBER_HYDR_VLV_BYP" cb-alg-uZQ1="RESET" cb-alg-wVL="$789$cb-alg-pk1$" cb-algorithm-id="027" cb-classname="FastBooleanAlgorithm" cb-function-name="FLIPFLOP" id="8Qw">
<rect cb-classname="GraphicRectangleEntity" class="algorithm" height="80" id="8Vp" width="80" x="1060" y="1420"/>
<text baseline-shift="-50%" cb-classname="GraphicTextEntity" class="algorithm" id="8VA" text-anchor="middle" x="1077" y="1435">
S
</text>
<text baseline-shift="-50%" cb-classname="GraphicTextEntity" class="algorithm" id="8VK" text-anchor="middle" x="1079" y="1476">
R
</text>
<text baseline-shift="-50%" cb-classname="GraphicTextEntity" class="algorithm" id="8VI" text-anchor="middle" x="1121" y="1437">
1
</text>
<text baseline-shift="-50%" cb-classname="GraphicTextEntity" class="algorithm" id="8VX" text-anchor="middle" x="1120" y="1477">
0
</text>
<g cb-classname="ControlPin" cb-pin-name="4h-ST3-9Aa" id="8Vs">
<line cb-classname="GraphicLineEntity" class="signalline" id="8VS" x1="1140" x2="1160" y1="1440" y2="1440"/>
<g cb-classname="DynamicText" cb-source="0V-63A-poKG" class="signal" id="8VQ">
<text baseline-shift="5%" cb-classname="GraphicTextEntity" class="signal" fill="black" font-style="normal" font-weight="normal" id="8VZ" text-decoration="normal" x="1155" y="1431"/>
</g>
<g cb-classname="SignalSegment" id="8Fw">
<line cb-classname="GraphicLineEntity" class="signalline" id="81p" stroke="#1e12bf" stroke-dasharray="5,4" x1="1160" x2="2400" y1="1440" y2="1440"/>
<g cb-classname="SignalSegment" id="81A">
<line cb-classname="GraphicLineEntity" class="signalline" id="81K" stroke="#1e12bf" stroke-dasharray="5,4" x1="2400" x2="2400" y1="1440" y2="560"/>
<g cb-classname="SignalSegment" id="81I">
<line cb-classname="GraphicLineEntity" class="signalline" id="81X" stroke="#1e12bf" stroke-dasharray="5,4" x1="2400" x2="2500" y1="560" y2="560"/>
<g cb-classname="SignalConnection" cb-graphic-line="$834$" cb-input-pin="$yZ7$" id="81s"/>
</g>
</g>
</g>
</g>
<g cb-classname="ControlPin" cb-pin-name="cJ-xRb-3hU" id="8Vw">
<line cb-classname="GraphicLineEntity" class="signalline" id="8Fp" x1="1040" x2="1060" y1="1440" y2="1440"/>
<polygon cb-classname="GraphicPolygonEntity" class="signal" id="8FA" points="1060,1440 1049,1436 1049,1444"/>
<g cb-classname="DynamicText" cb-source="Hf-r0B-RuUn" class="signal" id="8FK" text-anchor="end">
<text baseline-shift="5%" cb-classname="GraphicTextEntity" class="signal" fill="black" font-style="normal" font-weight="normal" id="8FI" text-anchor="end" text-decoration="normal" x="1044" y="1430"/>
</g>
</g>
<g cb-classname="ControlPin" cb-pin-name="Uv-GeA-Z8Zi" id="8FX">
<line cb-classname="GraphicLineEntity" class="signalline" id="8Fs" x1="1040" x2="1060" y1="1480" y2="1480"/>
<polygon cb-classname="GraphicPolygonEntity" class="signal" id="8FS" points="1060,1480 1049,1476 1049,1484"/>
<g cb-classname="DynamicText" cb-source="zW-KdR-8MDW" class="signal" id="8FQ" text-anchor="end">
<text baseline-shift="5%" cb-classname="GraphicTextEntity" class="signal" fill="black" font-style="normal" font-weight="normal" id="8FZ" text-anchor="end" text-decoration="normal" x="1041" y="1471"/>
</g>
</g>
</g>
<g cb-alg-0B2="$809$cb-alg-out$" cb-alg-0Bm="$680$cb-alg-out$" cb-alg-TSU="SCRUBBER_HYDR_VLV_RDY" cb-algorithm-id="016" cb-classname="FastBooleanAlgorithm" cb-function-name="OR" id="7iA">
<ellipse cb-classname="GraphicEllipseEntity" class="algorithm" cx="2560" cy="520" id="7iK" rx="40" ry="40"/>
<text baseline-shift="-50%" cb-classname="GraphicTextEntity" class="algorithm" id="7iI" text-anchor="middle" x="2560" y="519">
OR
</text>
<line cb-classname="GraphicLineEntity" class="algorithmline" id="7iX" x1="2520" x2="2520" y1="460" y2="580"/>
<g cb-classname="ControlPin" cb-pin-name="0V-rq6-uMG" id="7is">
<line cb-classname="GraphicLineEntity" class="signalline" id="7iS" x1="2500" x2="2520" y1="480" y2="480"/>
<polygon cb-classname="GraphicPolygonEntity" class="signal" id="7iQ" points="2520,480 2509,476 2509,484"/>
<g cb-classname="DynamicText" cb-source="DU-8VP-ByPL" class="signal" id="7iZ" text-anchor="end">
<text baseline-shift="5%" cb-classname="GraphicTextEntity" class="signal" fill="black" font-style="normal" font-weight="normal" id="7iw" text-anchor="end" text-decoration="normal" x="2519" y="474"/>
</g>
</g>
<g cb-classname="ControlPin" cb-pin-name="Hf-f77-qbn" id="72p">
<line cb-classname="GraphicLineEntity" class="signalline" id="72A" x1="2600" x2="2620" y1="520" y2="520"/>
<g cb-classname="DynamicText" cb-source="Uv-lNR-9lPN" class="signal" id="72K">
<text baseline-shift="5%" cb-classname="GraphicTextEntity" class="signal" fill="black" font-style="normal" font-weight="normal" id="72I" text-decoration="normal" x="2614" y="511"/>
</g>
<g cb-classname="SignalSegment" id="8iA">
<g cb-classname="SignalConnection" cb-graphic-line="$864$" cb-input-pin="$dbk$" id="8is"/>
<line cb-classname="GraphicLineEntity" class="signalline" id="8iX" stroke="#1e12bf" stroke-dasharray="5,4" x1="2620" x2="4250" y1="520" y2="520"/>
</g>
</g>
<g cb-classname="ControlPin" cb-pin-name="M1-gia-28w" id="72X">
<line cb-classname="GraphicLineEntity" class="signalline" id="72s" x1="2500" x2="2520" y1="560" y2="560"/>
<polygon cb-classname="GraphicPolygonEntity" class="signal" id="72S" points="2520,560 2509,556 2509,564"/>
<g cb-classname="DynamicText" cb-source="ls-q28-HCU0" class="signal" id="72Q" text-anchor="end">
<text baseline-shift="5%" cb-classname="GraphicTextEntity" class="signal" fill="black" font-style="normal" font-weight="normal" id="72Z" text-anchor="end" text-decoration="normal" x="2518" y="554"/>
</g>
</g>
<g cb-classname="ControlPin" cb-pin-name="cG-yOV-PHq" id="72w">
<line cb-classname="GraphicLineEntity" class="signalline" id="7Ep" x1="2500" x2="2520" y1="520" y2="520"/>
<polygon cb-classname="GraphicPolygonEntity" class="signal" id="7EA" points="2520,520 2509,516 2509,524"/>
<g cb-classname="DynamicText" cb-source="B5-QYS-vgxj" class="signal" id="7EK" text-anchor="end">
<text baseline-shift="5%" cb-classname="GraphicTextEntity" class="signal" fill="black" font-style="normal" font-weight="normal" id="7EI" text-anchor="end" text-decoration="normal" x="2518" y="514"/>
</g>
</g>
</g>
<g cb-alg-jB="$761$cb-alg-out$" cb-algorithm-id="017" cb-classname="ExternalPointInterface" cb-function-name="OUTPUT" id="81S">
<ellipse cb-classname="GraphicEllipseEntity" class="algorithm" cx="4660" cy="520" id="81Q" rx="40" ry="40"/>
<rect cb-classname="GraphicRectangleEntity" class="algorithm" height="80" id="81Z" width="30" x="4700" y="480"/>
<line cb-classname="GraphicLineEntity" class="algorithm" id="81w" x1="4700" x2="4730" y1="520" y2="520"/>
<g cb-classname="ControlPin" cb-pin-name="zW-u3B-3A" id="8jp">
<line cb-classname="GraphicLineEntity" class="signalline" id="8jA" x1="4250" x2="4620" y1="520" y2="520"/>
<polygon cb-classname="GraphicPolygonEntity" class="signal" id="8jK" points="4620,520 4609,514 4609,525"/>
</g>
<g cb-classname="PointStatusIndicator" cb-indicator-type="highway" cb-source="0V-rq6-uM" id="8jI" visibility="hidden">
<line cb-classname="GraphicLineEntity" class="algorithmline" id="8jX" x1="4620" x2="4660" y1="520" y2="480"/>
<line cb-classname="GraphicLineEntity" class="algorithmline" id="8js" x1="4660" x2="4700" y1="480" y2="520"/>
<line cb-classname="GraphicLineEntity" class="algorithmline" id="8jS" x1="4700" x2="4660" y1="520" y2="560"/>
<line cb-classname="GraphicLineEntity" class="algorithmline" id="8jQ" x1="4660" x2="4620" y1="560" y2="520"/>
</g>
<g cb-classname="PointStatusIndicator" cb-indicator-type="hardware" cb-source="Hf-f77-dC" id="8jZ" visibility="hidden">
<text cb-classname="GraphicTextEntity" class="algorithm" fill="#000000" font-family="Arial" font-size="20" id="8jw" x="4650" y="530">
H
</text>
</g>
<g cb-classname="PointStatusIndicator" cb-indicator-type="alarm" cb-source="Uv-GeA-dR" id="8bp" visibility="hidden">
<text cb-classname="GraphicTextEntity" class="algorithm" fill="#000000" font-family="Arial" font-size="20" id="8bA" x="4707" y="548">
A
</text>
</g>
<g cb-classname="PointStatusIndicator" cb-indicator-type="ingraphic" cb-source="M1-gia-28" id="8bK" visibility="visible">
<text cb-classname="GraphicTextEntity" class="algorithm" fill="#000000" font-family="Arial" font-size="20" id="8bI" x="4706" y="509">
G
</text>
</g>
<g cb-classname="DynamicText" cb-labeled="false" cb-pin-name="9r" cb-source="4h-ST3-xH" class="algorithm" id="8bX" text-anchor="end">
<text baseline-shift="-100%" cb-classname="GraphicTextEntity" class="algorithm" fill="black" font-family="MS Shell Dlg" font-size="20" font-style="normal" font-weight="normal" id="8bs" text-anchor="end" text-decoration="normal" x="4600" y="480"/>
</g>
<g baseline-shift="-100%" cb-anchor-x="4600" cb-anchor-y="520" cb-classname="PointReferences" cb-max-width="400" cb-originator="false" cb-source="0V-rq6-uM" class="signal" id="8bS" text-anchor="end">
<text baseline-shift="-100%" cb-classname="GraphicTextEntity" class="algorithm" id="8bQ" text-anchor="end" x="4600" y="520">
12/1248401
</text>
</g>
<g baseline-shift="-100%" cb-anchor-x="4750" cb-anchor-y="480" cb-classname="PointDescription" cb-content="extended" cb-labeled="false" cb-max-width="460" cb-source="cJ-xRb-0B" class="algorithm" id="8bZ" text-anchor="start">
<text baseline-shift="-100%" cb-classname="GraphicTextEntity" class="algorithm" id="8bw" text-anchor="start" x="4750" y="480">
SCRUBBER HYDRAULIC CIRCUIT
</text>
<text baseline-shift="-100%" cb-classname="GraphicTextEntity" class="algorithm" id="8ip" text-anchor="start" x="4750" y="516">
VALVES ready
</text>
</g>
</g>
</g>
<g cb-classname="IncludeDocument" cb-modify-time="12/03/2019 14:33:51" cb-objectname="frame" id="5">
<text cb-classname="GraphicTextEntity" class="frame" font-size="50" id="6" x="3660" y="3146">
HERA
</text>
<g baseline-shift="-50%" cb-classname="DynamicText" cb-source="M1-TNYq-3X" class="frame" id="7">
<text cb-classname="GraphicTextEntity" class="frame" fill="black" font-family="arial" font-size="25" font-style="normal" font-weight="normal" id="8" text-decoration="normal" x="4715" y="3325">
12
</text>
</g>
<g baseline-shift="-50%" cb-classname="DynamicText" cb-source="4h-BwuL-sk" class="frame" id="9" text-anchor="middle">
<text cb-classname="GraphicTextEntity" class="frame" fill="black" font-family="arial" font-size="48" font-style="normal" font-weight="normal" id="1Q" text-anchor="middle" text-decoration="normal" x="4900" y="3320">
12
</text>
</g>
<g baseline-shift="-50%" cb-classname="DynamicText" cb-source="0V-iy1q-PN" class="frame" id="1V" text-anchor="middle">
<text cb-classname="GraphicTextEntity" class="frame" fill="black" font-family="arial" font-size="48" font-style="normal" font-weight="normal" id="1F" text-anchor="middle" text-decoration="normal" x="5067" y="3324">
4
</text>
</g>
<g cb-classname="DynamicText" cb-source="cJ-wxY16-Udn3n" class="frame" id="11">
<text cb-classname="GraphicTextEntity" class="frame" fill="black" font-family="arial" font-size="48" font-style="normal" font-weight="normal" id="1j" text-decoration="normal" x="3660" y="3224">
SQ04 SCRUBBER HYDR CIRC VLV RDY
</text>
</g>
<g baseline-shift="-50%" cb-classname="DynamicText" cb-source="B5-y8NhU-CiIoNG" class="frame" id="1b" text-anchor="middle">
<text cb-classname="GraphicTextEntity" class="frame" fill="black" font-family="arial" font-size="48" font-style="normal" font-weight="normal" id="1i" text-anchor="middle" text-decoration="normal" x="5270" y="3324">
1248403
</text>
</g>
<g baseline-shift="0%" cb-classname="DynamicText" cb-source="iW-5hzdydM5" class="frame" id="12" text-anchor="middle">
<text cb-classname="GraphicTextEntity" class="frame" fill="black" font-family="arial" font-size="36" font-style="normal" font-weight="normal" id="1E" text-anchor="middle" text-decoration="normal" x="5270" y="3150">
A
</text>
</g>
<g baseline-shift="0%" cb-classname="DynamicText" cb-source="02-izTd82VA-aPKG" class="frame" id="1O" text-anchor="middle">
<text cb-classname="GraphicTextEntity" class="frame" fill="black" font-family="arial" font-size="20" font-style="normal" font-weight="normal" id="2Q" text-anchor="middle" text-decoration="normal" x="5270" y="3230">

</text>
</g>
<g baseline-shift="-50%" cb-classname="DynamicText" cb-source="zW-L9B28sub" class="frame" id="2V" text-anchor="end">
<text cb-classname="GraphicTextEntity" class="frame" fill="black" font-family="arial" font-size="26" font-style="normal" font-weight="normal" id="2F" text-anchor="end" text-decoration="normal" x="4500" y="3420">

</text>
</g>
<g baseline-shift="-50%" cb-classname="DynamicText" cb-source="ls-wZsxusFv" class="frame" id="21" text-anchor="end">
<text cb-classname="GraphicTextEntity" class="frame" fill="black" font-family="arial" font-size="26" font-style="normal" font-weight="normal" id="2j" text-anchor="end" text-decoration="normal" x="5353" y="3420">

</text>
</g>
<g cb-classname="GraphicShape" cb-tag="BORDER" id="2b">
<line cb-classname="GraphicLineEntity" class="frameline" id="2i" x1="40" x2="40" y1="40" y2="3460"/>
<line cb-classname="GraphicLineEntity" class="frameline" id="22" x1="40" x2="5380" y1="3460" y2="3460"/>
<line cb-classname="GraphicLineEntity" class="frameline" id="2E" x1="5380" x2="5380" y1="3460" y2="40"/>
<line cb-classname="GraphicLineEntity" class="frameline" id="2O" x1="5380" x2="40" y1="40" y2="40"/>
<line cb-classname="GraphicLineEntity" class="frame" id="3Q" x1="5430" x2="5440" y1="3510" y2="3510"/>
</g>
<g cb-classname="GraphicShape" cb-tag="TITLE BOX" id="3V">
<line cb-classname="GraphicLineEntity" class="frameline" id="3F" x1="2340" x2="2340" y1="3080" y2="3460"/>
<line cb-classname="GraphicLineEntity" class="frameline" id="31" x1="2340" x2="5380" y1="3080" y2="3080"/>
<line cb-classname="GraphicLineEntity" class="frameline" id="3j" x1="3650" x2="3650" y1="3460" y2="3080"/>
<line cb-classname="GraphicLineEntity" class="frameline" id="3b" x1="3650" x2="5380" y1="3240" y2="3240"/>
<line cb-classname="GraphicLineEntity" class="frameline" id="3i" x1="3650" x2="5380" y1="3390" y2="3390"/>
<line cb-classname="GraphicLineEntity" class="frameline" id="32" x1="3650" x2="5380" y1="3160" y2="3160"/>
<line cb-classname="GraphicLineEntity" class="frameline" id="3E" x1="3650" x2="4520" y1="3320" y2="3320"/>
<line cb-classname="GraphicLineEntity" class="frameline" id="3O" x1="4520" x2="5380" y1="3290" y2="3290"/>
<line cb-classname="GraphicLineEntity" class="frameline" id="4Q" x1="4520" x2="5380" y1="3240" y2="3240"/>
<line cb-classname="GraphicLineEntity" class="frameline" id="4V" x1="4520" x2="4520" y1="3240" y2="3460"/>
<line cb-classname="GraphicLineEntity" class="frameline" id="4F" x1="4810" x2="4810" y1="3240" y2="3390"/>
<line cb-classname="GraphicLineEntity" class="frameline" id="41" x1="4990" x2="4990" y1="3240" y2="3390"/>
<line cb-classname="GraphicLineEntity" class="frameline" id="4j" x1="5150" x2="5150" y1="3080" y2="3390"/>
</g>
<g cb-classname="GraphicShape" cb-tag="TEXT LABELS" id="4b">
<text baseline-shift="-50%" cb-classname="GraphicTextEntity" class="frame" font-size="25" id="4i" text-anchor="middle" x="4890" y="3252">
Drop
</text>
<text baseline-shift="-50%" cb-classname="GraphicTextEntity" class="frame" font-size="25" id="42" text-anchor="middle" x="5075" y="3252">
Task
</text>
<text baseline-shift="-50%" cb-classname="GraphicTextEntity" class="frame" font-size="25" id="4E" text-anchor="middle" x="5265" y="3252">
Sheet
</text>
<text cb-classname="GraphicTextEntity" class="frame" font-size="25" id="4O" x="5152" y="3107">
Rev.
</text>
<text cb-classname="GraphicTextEntity" class="frame" font-size="25" id="5Q" x="3653" y="3418">
Engineer
</text>
<text cb-classname="GraphicTextEntity" class="frame" font-size="25" id="5V" x="4528" y="3419">
Approved
</text>
<text cb-classname="GraphicTextEntity" class="frame" font-size="25" id="5F" x="5152" y="3187">
Date
</text>
<text baseline-shift="-50%" cb-classname="GraphicTextEntity" class="frame" font-size="25" id="51" text-anchor="middle" x="4660" y="3252">
Drawing Number
</text>
<text baseline-shift="-50%" cb-classname="GraphicTextEntity" class="frame" font-size="25" id="5j" text-anchor="middle" x="4680" y="3325">
CTL
</text>
</g>
<text baseline-shift="-50%" cb-classname="GraphicTextEntity" class="frame" font-size="48" id="5b" text-anchor="middle" x="3000" y="3100">
EMERSON PROCESS MANAGEMENT
</text>
<g baseline-shift="-100%" cb-anchor-x="2360" cb-anchor-y="3140" cb-classname="GroupText" cb-max-width="1260" fill="black" id="5i">
<text baseline-shift="-100%" cb-classname="GraphicTextEntity" class="frame" fill="black" font-family="arial" font-size="22" font-weight="normal" id="52" text-anchor="start" text-decoration="normal" x="2360" y="3140">
THIS DOCUMENT CONTAINS INFORMATION PROPRIETARY TO EMERSON PROCESS
</text>
<text baseline-shift="-100%" cb-classname="GraphicTextEntity" class="frame" fill="black" font-family="arial" font-size="22" font-weight="normal" id="5E" text-anchor="start" text-decoration="normal" x="2360" y="3176">
MANAGEMENT POWER &amp; WATER SOLUTIONS, INC. IT IS SUBMITTED IN CONFIDENCE AND
</text>
<text baseline-shift="-100%" cb-classname="GraphicTextEntity" class="frame" fill="black" font-family="arial" font-size="22" font-weight="normal" id="5O" text-anchor="start" text-decoration="normal" x="2360" y="3212">
TRUST, IS TO BE USED BY YOU SOLELY FOR THE PURPOSES FOR WHICH IT IS
</text>
<text baseline-shift="-100%" cb-classname="GraphicTextEntity" class="frame" fill="black" font-family="arial" font-size="22" font-weight="normal" id="6Q" text-anchor="start" text-decoration="normal" x="2360" y="3248">
FURNISHED AND IS TO BE RETURNED UPON REQUEST. THIS DOCUMENT AND ANY
</text>
<text baseline-shift="-100%" cb-classname="GraphicTextEntity" class="frame" fill="black" font-family="arial" font-size="22" font-weight="normal" id="6V" text-anchor="start" text-decoration="normal" x="2360" y="3284">
OTHER INFORMATION PROVIDED TO YOU IS NOT TO BE REPRODUCED, TRANSMITTED,
</text>
<text baseline-shift="-100%" cb-classname="GraphicTextEntity" class="frame" fill="black" font-family="arial" font-size="22" font-weight="normal" id="6F" text-anchor="start" text-decoration="normal" x="2360" y="3320">
DISCLOSED, OR USED OTHERWISE IN WHOLE OR IN PART WITHOUT THE PRIOR
</text>
<text baseline-shift="-100%" cb-classname="GraphicTextEntity" class="frame" fill="black" font-family="arial" font-size="22" font-weight="normal" id="61" text-anchor="start" text-decoration="normal" x="2360" y="3356">
WRITTEN AUTHORIZATION OF EMERSON PROCESS MANAGEMENT POWER &amp; WATER
</text>
<text baseline-shift="-100%" cb-classname="GraphicTextEntity" class="frame" fill="black" font-family="arial" font-size="22" font-weight="normal" id="6j" text-anchor="start" text-decoration="normal" x="2360" y="3392">
SOLUTIONS,INC.
</text>
</g>
</g>
</svg>