<?xml version="1.0" ?><svg cb-auto-time="01/08/2020 12:39:50" cb-classname="ControlFunction" cb-create-time="08/31/2015" cb-drop-id="2" cb-filename="Z:\OVATION\NET0\UNIT0\CONTROLFUNCTIONS\0381.svg" cb-function-id="0381" cb-key="342443321525" cb-modified-timestamp="1587023827" cb-modify-id="00000002" cb-ortho-mode="enabled" cb-path="Z:/OVATION/NET0/UNIT0/CONTROLFUNCTIONS" cb-revision="A" cb-sheet-number="103" cb-sheet-title="TYPICAL_SOV1" cb-snap-grid="10" cb-task-id="2" height="3606" id="1" width="5450" xmlns="http://www.w3.org/2000/svg">
<style cb-classname="EntityStyle" id="2" type="text/css">
	.algorithm { fill: white; stroke: black; stroke-width: 3 }
	.algorithm-function { fill: black; stroke: none }
	.algorithm-functionline { fill: none; stroke: black; stroke-linecap: round; stroke-width: 3 }
	.algorithm-name { fill: black; stroke: none }
	.algorithm-nameline { fill: none; stroke: black; stroke-linecap: round; stroke-width: 3 }
	.algorithm-sequence { fill: black; stroke: none; visibility: hidden }
	.algorithm-sequenceline { fill: none; stroke: black; stroke-linecap: round; stroke-width: 3; visibility: hidden }
	.algorithmline { fill: none; stroke: black; stroke-linecap: round; stroke-width: 3 }
	.annotation { fill: black; stroke: none }
	.annotationline { fill: none; stroke: black; stroke-linecap: round; stroke-width: 3 }
	.frame { fill: black; stroke: none }
	.frameline { fill: none; stroke: black; stroke-linecap: round; stroke-width: 3 }
	.signal { fill: black; stroke: none }
	.signalline { fill: none; stroke: black; stroke-linecap: round; stroke-width: 3 }
	text.algorithm { fill: black; font-family: Arial; font-size: 22; stroke: none }
	text.algorithm-function { fill: black; font-family: Arial; font-size: 22; stroke: none }
	text.algorithm-name { fill: black; font-family: Arial; font-size: 22; stroke: none }
	text.algorithm-sequence { fill: black; font-family: Arial; font-size: 22; stroke: none; visibility: hidden }
	text.annotation { fill: black; font-family: Arial; font-size: 22; stroke: none }
	text.frame { fill: black; font-family: Arial; font-size: 18; stroke: none }
	text.signal { fill: black; font-family: Arial; font-size: 12; stroke: none }
</style>
<g cb-classname="NamedObject" cb-objectname="Comments" id="3"/>
<g cb-classname="AlgorithmContainer" cb-objectname="Algorithms" id="4">
<g cb-alg-0gy="SIM-SOV1-EMRR" cb-alg-AyRp="0.0" cb-alg-fCd="SIM-SOV1-EMRR1" cb-alg-ofi7="69" cb-algorithm-id="004" cb-classname="ControlAlgorithm" cb-function-name="DVALGEN" cb-modify-id="00000001" id="7YX">
<rect cb-classname="GraphicRectangleEntity" class="algorithm" height="60" id="7Ya" width="100" x="1680" y="1230"/>
<text baseline-shift="-50%" cb-classname="GraphicTextEntity" class="algorithm" font-size="18" id="7Y0" text-anchor="middle" x="1730" y="1247">
DVAL
</text>
<text baseline-shift="-50%" cb-classname="GraphicTextEntity" class="algorithm" font-size="18" id="7Pj" text-anchor="middle" x="1730" y="1273">
GEN
</text>
<g cb-classname="ControlPin" cb-pin-name="AE-J1R-w6e" id="7P6">
<line cb-classname="GraphicLineEntity" class="signalline" id="7P8" x1="1780" x2="1800" y1="1260" y2="1260"/>
<g cb-classname="DynamicText" cb-source="cL-ulF-WyoC" class="signal" id="7PQ">
<text baseline-shift="5%" cb-classname="GraphicTextEntity" class="signal" fill="black" font-style="normal" font-weight="normal" id="7Pl" text-decoration="normal" x="1794" y="1250"/>
</g>
<g cb-classname="SignalSegment" id="9hQ">
<line cb-classname="GraphicLineEntity" class="signalline" id="9eZ" stroke="#1e12bf" stroke-dasharray="5,4" x1="1800" x2="2450" y1="1260" y2="1260"/>
<g cb-classname="SignalSegment" id="9eM">
<line cb-classname="GraphicLineEntity" class="signalline" id="9eX" stroke="#1e12bf" stroke-dasharray="5,4" x1="2450" x2="2450" y1="1260" y2="1160"/>
<g cb-classname="SignalSegment" id="9ea">
<line cb-classname="GraphicLineEntity" class="signalline" id="19j4" stroke="#1e12bf" stroke-dasharray="5,4" x1="2450" x2="2520" y1="1160" y2="1160"/>
<g cb-classname="SignalSegment" id="19jQ">
<line cb-classname="GraphicLineEntity" class="signalline" id="19jY" stroke="#1e12bf" stroke-dasharray="5,4" x1="2520" x2="2520" y1="1160" y2="360"/>
<g cb-classname="SignalSegment" id="19jr">
<line cb-classname="GraphicLineEntity" class="signalline" id="19jf" stroke="#1e12bf" stroke-dasharray="5,4" x1="2520" x2="2600" y1="360" y2="360"/>
<g cb-classname="SignalConnection" cb-graphic-line="$1105$" cb-input-pin="$6zWE$" id="19j8"/>
</g>
<line cb-classname="GraphicLineEntity" class="signalline" id="9e0" stroke="#1e12bf" stroke-dasharray="5,4" x1="2520" x2="2660" y1="1160" y2="1160"/>
<g cb-classname="SignalConnection" cb-graphic-line="$949$" cb-input-pin="$l8x$" id="9mj"/>
<ellipse cb-classname="GraphicEllipseEntity" class="signal" cx="2520" cy="1160" fill="#1e12bf" id="19jG" rx="5" ry="5" stroke="#1e12bf" stroke-dasharray="5,4"/>
</g>
</g>
</g>
</g>
</g>
</g>
<g cb-alg-7m1="SIM-SOV1-PERR" cb-alg-Ji7="SIM-SOV1-PERR1" cb-alg-KPZR="1" cb-alg-hFB0="69" cb-algorithm-id="005" cb-classname="ControlAlgorithm" cb-function-name="DVALGEN" cb-modify-id="00000001" id="7PZ">
<rect cb-classname="GraphicRectangleEntity" class="algorithm" height="60" id="7PM" width="100" x="1680" y="1350"/>
<text baseline-shift="-50%" cb-classname="GraphicTextEntity" class="algorithm" font-size="18" id="7PX" text-anchor="middle" x="1730" y="1367">
DVAL
</text>
<text baseline-shift="-50%" cb-classname="GraphicTextEntity" class="algorithm" font-size="18" id="7Pa" text-anchor="middle" x="1730" y="1393">
GEN
</text>
<g cb-classname="ControlPin" cb-pin-name="rG-icO-2RZ" id="7P0">
<line cb-classname="GraphicLineEntity" class="signalline" id="8Tj" x1="1780" x2="1800" y1="1380" y2="1380"/>
<g cb-classname="DynamicText" cb-source="57-HOg-kyN3" class="signal" id="8T6">
<text baseline-shift="5%" cb-classname="GraphicTextEntity" class="signal" fill="black" font-style="normal" font-weight="normal" id="8T8" text-decoration="normal" x="1794" y="1370"/>
</g>
<g cb-classname="SignalSegment" id="9m8">
<line cb-classname="GraphicLineEntity" class="signalline" id="198e" stroke="#1e12bf" stroke-dasharray="5,4" x1="1800" x2="2410" y1="1380" y2="1380"/>
<g cb-classname="SignalSegment" id="19Qz">
<line cb-classname="GraphicLineEntity" class="signalline" id="19Q4" stroke="#1e12bf" stroke-dasharray="5,4" x1="2410" x2="2410" y1="1380" y2="480"/>
<g cb-classname="SignalSegment" id="19QQ">
<line cb-classname="GraphicLineEntity" class="signalline" id="19QY" stroke="#1e12bf" stroke-dasharray="5,4" x1="2410" x2="2600" y1="480" y2="480"/>
<g cb-classname="SignalConnection" cb-graphic-line="$1133$" cb-input-pin="$UH1R$" id="19Qr"/>
</g>
<line cb-classname="GraphicLineEntity" class="signalline" id="19jt" stroke="#1e12bf" stroke-dasharray="5,4" x1="2410" x2="2490" y1="1380" y2="1380"/>
<g cb-classname="SignalSegment" id="19je">
<line cb-classname="GraphicLineEntity" class="signalline" id="196z" stroke="#1e12bf" stroke-dasharray="5,4" x1="2490" x2="2490" y1="1380" y2="380"/>
<g cb-classname="SignalSegment" id="1964">
<line cb-classname="GraphicLineEntity" class="signalline" id="196Q" stroke="#1e12bf" stroke-dasharray="5,4" x1="2490" x2="2600" y1="380" y2="380"/>
<g cb-classname="SignalConnection" cb-graphic-line="$1112$" cb-input-pin="$WQk8$" id="196Y"/>
</g>
<line cb-classname="GraphicLineEntity" class="signalline" id="9mQ" stroke="#1e12bf" stroke-dasharray="5,4" x1="2490" x2="2510" y1="1380" y2="1380"/>
<g cb-classname="SignalSegment" id="9ml">
<line cb-classname="GraphicLineEntity" class="signalline" id="9mZ" stroke="#1e12bf" stroke-dasharray="5,4" x1="2510" x2="2510" y1="1380" y2="1240"/>
<g cb-classname="SignalSegment" id="9mM">
<line cb-classname="GraphicLineEntity" class="signalline" id="9mX" stroke="#1e12bf" stroke-dasharray="5,4" x1="2510" x2="2660" y1="1240" y2="1240"/>
<g cb-classname="SignalConnection" cb-graphic-line="$957$" cb-input-pin="$Ukh$" id="9ma"/>
</g>
</g>
<ellipse cb-classname="GraphicEllipseEntity" class="signal" cx="2490" cy="1380" fill="#1e12bf" id="196r" rx="5" ry="5" stroke="#1e12bf" stroke-dasharray="5,4"/>
</g>
<ellipse cb-classname="GraphicEllipseEntity" class="signal" cx="2410" cy="1380" fill="#1e12bf" id="19Qf" rx="5" ry="5" stroke="#1e12bf" stroke-dasharray="5,4"/>
</g>
</g>
</g>
</g>
<g cb-alg-OIv="SIM-SOV1-AUTR" cb-alg-WzoI="69" cb-alg-o4S9="0.0" cb-alg-zCe="SIM-SOV1-AUTR1" cb-algorithm-id="009" cb-classname="ControlAlgorithm" cb-function-name="DVALGEN" cb-modify-id="00000001" id="8TQ">
<rect cb-classname="GraphicRectangleEntity" class="algorithm" height="60" id="8Tl" width="100" x="1680" y="1470"/>
<text baseline-shift="-50%" cb-classname="GraphicTextEntity" class="algorithm" font-size="18" id="8TZ" text-anchor="middle" x="1730" y="1487">
DVAL
</text>
<text baseline-shift="-50%" cb-classname="GraphicTextEntity" class="algorithm" font-size="18" id="8TM" text-anchor="middle" x="1730" y="1513">
GEN
</text>
<g cb-classname="ControlPin" cb-pin-name="Br-B5B-kfY" id="8TX">
<line cb-classname="GraphicLineEntity" class="signalline" id="8Ta" x1="1780" x2="1800" y1="1500" y2="1500"/>
<g cb-classname="DynamicText" cb-source="0D-ux6-l41e" class="signal" id="8T0">
<text baseline-shift="5%" cb-classname="GraphicTextEntity" class="signal" fill="black" font-style="normal" font-weight="normal" id="89j" text-decoration="normal" x="1794" y="1490"/>
</g>
<g cb-classname="SignalSegment" id="9m0">
<line cb-classname="GraphicLineEntity" class="signalline" id="94j" stroke="#1e12bf" stroke-dasharray="5,4" x1="1800" x2="2530" y1="1500" y2="1500"/>
<g cb-classname="SignalSegment" id="946">
<line cb-classname="GraphicLineEntity" class="signalline" id="948" stroke="#1e12bf" stroke-dasharray="5,4" x1="2530" x2="2530" y1="1500" y2="1320"/>
<g cb-classname="SignalSegment" id="94Q">
<line cb-classname="GraphicLineEntity" class="signalline" id="94l" stroke="#1e12bf" stroke-dasharray="5,4" x1="2530" x2="2660" y1="1320" y2="1320"/>
<g cb-classname="SignalConnection" cb-graphic-line="$964$" cb-input-pin="$6pg$" id="94Z"/>
</g>
</g>
</g>
</g>
</g>
<g cb-alg-JUC="SIM-SOV1-EMRS" cb-alg-bz0u="69" cb-alg-ltOC="0.0" cb-alg-mLU="SIM-SOV1-EMRS1" cb-algorithm-id="00D" cb-classname="ControlAlgorithm" cb-function-name="DVALGEN" cb-modify-id="00000001" id="896">
<rect cb-classname="GraphicRectangleEntity" class="algorithm" height="60" id="898" width="100" x="1680" y="1590"/>
<text baseline-shift="-50%" cb-classname="GraphicTextEntity" class="algorithm" font-size="18" id="89Q" text-anchor="middle" x="1730" y="1607">
DVAL
</text>
<text baseline-shift="-50%" cb-classname="GraphicTextEntity" class="algorithm" font-size="18" id="89l" text-anchor="middle" x="1730" y="1633">
GEN
</text>
<g cb-classname="ControlPin" cb-pin-name="43-oww-Y0K" id="89Z">
<line cb-classname="GraphicLineEntity" class="signalline" id="89M" x1="1780" x2="1800" y1="1620" y2="1620"/>
<g cb-classname="DynamicText" cb-source="AE-vcA-rGCY" class="signal" id="89X">
<text baseline-shift="5%" cb-classname="GraphicTextEntity" class="signal" fill="black" font-style="normal" font-weight="normal" id="89a" text-decoration="normal" x="1794" y="1610"/>
</g>
<g cb-classname="SignalSegment" id="94M">
<line cb-classname="GraphicLineEntity" class="signalline" id="196f" stroke="#1e12bf" stroke-dasharray="5,4" x1="1800" x2="2460" y1="1620" y2="1620"/>
<g cb-classname="SignalSegment" id="1968">
<line cb-classname="GraphicLineEntity" class="signalline" id="196G" stroke="#1e12bf" stroke-dasharray="5,4" x1="2460" x2="2460" y1="1620" y2="400"/>
<g cb-classname="SignalSegment" id="196t">
<line cb-classname="GraphicLineEntity" class="signalline" id="196e" stroke="#1e12bf" stroke-dasharray="5,4" x1="2460" x2="2600" y1="400" y2="400"/>
<g cb-classname="SignalConnection" cb-graphic-line="$1119$" cb-input-pin="$4n6o$" id="198z"/>
</g>
<line cb-classname="GraphicLineEntity" class="signalline" id="94X" stroke="#1e12bf" stroke-dasharray="5,4" x1="2460" x2="2550" y1="1620" y2="1620"/>
<g cb-classname="SignalSegment" id="94a">
<line cb-classname="GraphicLineEntity" class="signalline" id="940" stroke="#1e12bf" stroke-dasharray="5,4" x1="2550" x2="2550" y1="1620" y2="1430"/>
<g cb-classname="SignalSegment" id="9Ej">
<line cb-classname="GraphicLineEntity" class="signalline" id="9E6" stroke="#1e12bf" stroke-dasharray="5,4" x1="2550" x2="2660" y1="1430" y2="1430"/>
<g cb-classname="SignalConnection" cb-graphic-line="$971$" cb-input-pin="$7JA$" id="9E8"/>
</g>
</g>
<ellipse cb-classname="GraphicEllipseEntity" class="signal" cx="2460" cy="1620" fill="#1e12bf" id="1984" rx="5" ry="5" stroke="#1e12bf" stroke-dasharray="5,4"/>
</g>
</g>
</g>
</g>
<g cb-alg-aAA="SIM-SOV1-PERS" cb-alg-dk7N="69" cb-alg-ocq="SIM-SOV1-PERS1" cb-alg-vR5i="1" cb-algorithm-id="00E" cb-classname="ControlAlgorithm" cb-function-name="DVALGEN" cb-modify-id="00000001" id="890">
<rect cb-classname="GraphicRectangleEntity" class="algorithm" height="60" id="8xj" width="100" x="1680" y="1710"/>
<text baseline-shift="-50%" cb-classname="GraphicTextEntity" class="algorithm" font-size="18" id="8x6" text-anchor="middle" x="1730" y="1727">
DVAL
</text>
<text baseline-shift="-50%" cb-classname="GraphicTextEntity" class="algorithm" font-size="18" id="8x8" text-anchor="middle" x="1730" y="1753">
GEN
</text>
<g cb-classname="ControlPin" cb-pin-name="RL-0gy-ZbY" id="8xQ">
<line cb-classname="GraphicLineEntity" class="signalline" id="8xl" x1="1780" x2="1800" y1="1740" y2="1740"/>
<g cb-classname="DynamicText" cb-source="rG-mbe-gJ48" class="signal" id="8xZ">
<text baseline-shift="5%" cb-classname="GraphicTextEntity" class="signal" fill="black" font-style="normal" font-weight="normal" id="8xM" text-decoration="normal" x="1794" y="1730"/>
</g>
<g cb-classname="SignalSegment" id="9EQ">
<line cb-classname="GraphicLineEntity" class="signalline" id="19Q8" stroke="#1e12bf" stroke-dasharray="5,4" x1="1800" x2="2360" y1="1740" y2="1740"/>
<g cb-classname="SignalSegment" id="19QG">
<line cb-classname="GraphicLineEntity" class="signalline" id="19Qt" stroke="#1e12bf" stroke-dasharray="5,4" x1="2360" x2="2360" y1="1740" y2="500"/>
<g cb-classname="SignalSegment" id="19Qe">
<line cb-classname="GraphicLineEntity" class="signalline" id="19lz" stroke="#1e12bf" stroke-dasharray="5,4" x1="2360" x2="2600" y1="500" y2="500"/>
<g cb-classname="SignalConnection" cb-graphic-line="$1140$" cb-input-pin="$MGiS$" id="19l4"/>
</g>
<line cb-classname="GraphicLineEntity" class="signalline" id="198Q" stroke="#1e12bf" stroke-dasharray="5,4" x1="2360" x2="2440" y1="1740" y2="1740"/>
<g cb-classname="SignalSegment" id="198Y">
<line cb-classname="GraphicLineEntity" class="signalline" id="198r" stroke="#1e12bf" stroke-dasharray="5,4" x1="2440" x2="2440" y1="1740" y2="420"/>
<g cb-classname="SignalSegment" id="198f">
<line cb-classname="GraphicLineEntity" class="signalline" id="1988" stroke="#1e12bf" stroke-dasharray="5,4" x1="2440" x2="2600" y1="420" y2="420"/>
<g cb-classname="SignalConnection" cb-graphic-line="$1126$" cb-input-pin="$vFJW$" id="198G"/>
</g>
<line cb-classname="GraphicLineEntity" class="signalline" id="9El" stroke="#1e12bf" stroke-dasharray="5,4" x1="2440" x2="2570" y1="1740" y2="1740"/>
<g cb-classname="SignalSegment" id="9EZ">
<line cb-classname="GraphicLineEntity" class="signalline" id="9EM" stroke="#1e12bf" stroke-dasharray="5,4" x1="2570" x2="2570" y1="1740" y2="1510"/>
<g cb-classname="SignalSegment" id="9EX">
<line cb-classname="GraphicLineEntity" class="signalline" id="9Ea" stroke="#1e12bf" stroke-dasharray="5,4" x1="2570" x2="2660" y1="1510" y2="1510"/>
<g cb-classname="SignalConnection" cb-graphic-line="$978$" cb-input-pin="$DIc$" id="9E0"/>
</g>
</g>
<ellipse cb-classname="GraphicEllipseEntity" class="signal" cx="2440" cy="1740" fill="#1e12bf" id="198t" rx="5" ry="5" stroke="#1e12bf" stroke-dasharray="5,4"/>
</g>
<ellipse cb-classname="GraphicEllipseEntity" class="signal" cx="2360" cy="1740" fill="#1e12bf" id="19lQ" rx="5" ry="5" stroke="#1e12bf" stroke-dasharray="5,4"/>
</g>
</g>
</g>
</g>
<g cb-alg-9="0" cb-alg-S="0" cb-alg-ZK1t8="FORCING CLOSE" cb-alg-ZK1tI="AUTO OPEN CONDITION" cb-alg-ZK1tN="TITLE5" cb-alg-ZK1tP="TITLE6" cb-alg-ZK1tS="INFO VALVE WINDOW" cb-alg-ZK1tW="FORCING OPEN" cb-alg-ZK1tt="ENABLING OPEN" cb-alg-ZK1tu="ENABLING CLOSE" cb-alg-ZK1tx="AUTO CLOSE CONDITION" cb-alg-blv="DISABLED" cb-alg-jM0Xp="SIM-SOV1-EDEV" cb-alg-jzotK="850" cb-alg-zMH="$795$cb-alg-out$" cb-alg-zMK="$819$cb-alg-out$" cb-alg-zMM="$811$cb-alg-out$" cb-alg-zMZ="$787$cb-alg-out$" cb-alg-zMc="$819$cb-alg-out$" cb-alg-zMh="$795$cb-alg-out$" cb-alg-zMsUpY="DISABLED" cb-alg-zrf68="INVERT" cb-alg-zrf6I="NORMAL" cb-alg-zrf6N="INVERT" cb-alg-zrf6P="NORMAL" cb-alg-zrf6W="INVERT" cb-alg-zrf6t="NORMAL" cb-alg-zrf6u="NORMAL" cb-alg-zrf6x="NORMAL" cb-algorithm-id="010" cb-classname="AutomaticWindowAlgorithm" cb-function-name="PERMISSIVEWINDOW" id="1Tlf">
<rect cb-classname="GraphicRectangleEntity" class="algorithm" height="190" id="1Tl8" width="130" x="2630" y="330"/>
<text baseline-shift="0%" cb-classname="GraphicTextEntity" class="annotation" fill="#000000" font-family="MS Shell Dlg 2" font-size="8" id="1TlG" x="2640" y="360">
EMRR
</text>
<text baseline-shift="0%" cb-classname="GraphicTextEntity" class="annotation" fill="#000000" font-family="MS Shell Dlg 2" font-size="8" id="1Tlt" x="2640" y="380">
PERR
</text>
<text baseline-shift="0%" cb-classname="GraphicTextEntity" class="annotation" fill="#000000" font-family="MS Shell Dlg 2" font-size="8" id="1Tle" x="2640" y="400">
EMRS
</text>
<text baseline-shift="0%" cb-classname="GraphicTextEntity" class="annotation" fill="#000000" font-family="MS Shell Dlg 2" font-size="8" id="1TZz" x="2640" y="420">
PERS
</text>
<text baseline-shift="0%" cb-classname="GraphicTextEntity" class="annotation" fill="#000000" font-family="MS Shell Dlg 2" font-size="8" id="1TZ4" x="2640" y="440">
EMRL
</text>
<text baseline-shift="0%" cb-classname="GraphicTextEntity" class="annotation" fill="#000000" font-family="MS Shell Dlg 2" font-size="8" id="1TZQ" x="2640" y="460">
PERL
</text>
<text baseline-shift="0%" cb-classname="GraphicTextEntity" class="annotation" fill="#000000" font-family="MS Shell Dlg 2" font-size="12" id="1TZY" x="2720" y="350">
INFO
</text>
<text baseline-shift="0%" cb-classname="GraphicTextEntity" class="annotation" fill="#000000" font-family="MS Shell Dlg 2" font-size="12" id="1TZr" x="2710" y="370">
VALVE
</text>
<text baseline-shift="0%" cb-classname="GraphicTextEntity" class="annotation" fill="#000000" font-family="MS Shell Dlg 2" font-size="12" id="1TZf" x="2690" y="390">
WINDOW
</text>
<g cb-classname="GraphicShape" id="1TZ8">
<g cb-classname="DynamicText" cb-labeled="true" cb-source="RL-0gy-Qd0c3" id="1TZG">
<text cb-classname="GraphicTextEntity" class="algorithm" id="1TZt" text-anchor="start" x="2630" y="550"/>
</g>
</g>
<g cb-classname="ControlPin" cb-pin-name="rG-icO-5F8" id="1TZe">
<line cb-classname="GraphicLineEntity" class="signalline" id="1TMz" x1="2600" x2="2630" y1="360" y2="360"/>
<polygon cb-classname="GraphicPolygonEntity" class="signal" id="1TM4" points="2630,360 2619,354 2619,365"/>
<g cb-classname="DynamicText" cb-source="43-Y5F-ALih" id="1TMQ">
<text cb-classname="GraphicTextEntity" class="signal" id="1TMY" text-anchor="end" x="2615" y="357"/>
</g>
</g>
<g cb-classname="ControlPin" cb-pin-name="AE-J1R-BaW" id="1TMr">
<line cb-classname="GraphicLineEntity" class="signalline" id="1TMf" x1="2600" x2="2630" y1="380" y2="380"/>
<polygon cb-classname="GraphicPolygonEntity" class="signal" id="1TM8" points="2630,380 2619,374 2619,385"/>
<g cb-classname="DynamicText" cb-source="Br-kzM-6iL8" id="1TMG">
<text cb-classname="GraphicTextEntity" class="signal" id="1TMt" text-anchor="end" x="2615" y="377"/>
</g>
</g>
<g cb-classname="ControlPin" cb-pin-name="0D-tOu-bem" id="1TMe">
<line cb-classname="GraphicLineEntity" class="signalline" id="1TXz" x1="2600" x2="2630" y1="400" y2="400"/>
<polygon cb-classname="GraphicPolygonEntity" class="signal" id="1TX4" points="2630,400 2619,394 2619,405"/>
<g cb-classname="DynamicText" cb-source="rG-mbe-gJ48" id="1TXQ">
<text cb-classname="GraphicTextEntity" class="signal" id="1TXY" text-anchor="end" x="2615" y="397"/>
</g>
</g>
<g cb-classname="ControlPin" cb-pin-name="57-4SI-cA7" id="1TXr">
<line cb-classname="GraphicLineEntity" class="signalline" id="1TXf" x1="2600" x2="2630" y1="420" y2="420"/>
<polygon cb-classname="GraphicPolygonEntity" class="signal" id="1TX8" points="2630,420 2619,414 2619,425"/>
<g cb-classname="DynamicText" cb-source="AE-vcA-rGCY" id="1TXG">
<text cb-classname="GraphicTextEntity" class="signal" id="1TXt" text-anchor="end" x="2615" y="417"/>
</g>
</g>
<g cb-classname="ControlPin" cb-pin-name="cL-PZ0-x6N" id="1TXe">
<line cb-classname="GraphicLineEntity" class="signalline" id="1Taz" x1="2600" x2="2630" y1="440" y2="440"/>
<polygon cb-classname="GraphicPolygonEntity" class="signal" id="1Ta4" points="2630,440 2619,434 2619,445"/>
<g cb-classname="DynamicText" cb-source="0D-ux6-l41e" id="1TaQ">
<text cb-classname="GraphicTextEntity" class="signal" id="1TaY" text-anchor="end" x="2615" y="437"/>
</g>
</g>
<g cb-classname="ControlPin" cb-pin-name="32-yR7-Ogr" id="1Tar">
<line cb-classname="GraphicLineEntity" class="signalline" id="1Taf" x1="2600" x2="2630" y1="460" y2="460"/>
<polygon cb-classname="GraphicPolygonEntity" class="signal" id="1Ta8" points="2630,460 2619,454 2619,465"/>
<g cb-classname="DynamicText" cb-source="57-HOg-kyN3" id="1TaG">
<text cb-classname="GraphicTextEntity" class="signal" id="1Tat" text-anchor="end" x="2615" y="457"/>
</g>
</g>
<g cb-classname="ControlPin" cb-pin-name="gi-0ZX-BrH" id="1Tae">
<line cb-classname="GraphicLineEntity" class="signalline" id="1T0z" x1="2600" x2="2630" y1="480" y2="480"/>
<polygon cb-classname="GraphicPolygonEntity" class="signal" id="1T04" points="2630,480 2619,474 2619,485"/>
<g cb-classname="DynamicText" cb-source="cL-ulF-WyoC" id="1T0Q">
<text cb-classname="GraphicTextEntity" class="signal" id="1T0Y" text-anchor="end" x="2615" y="477"/>
</g>
</g>
<g cb-classname="ControlPin" cb-pin-name="nb-JUC-Ula" id="1T0r">
<line cb-classname="GraphicLineEntity" class="signalline" id="1T0f" x1="2600" x2="2630" y1="500" y2="500"/>
<polygon cb-classname="GraphicPolygonEntity" class="signal" id="1T08" points="2630,500 2619,494 2619,505"/>
<g cb-classname="DynamicText" cb-source="32-pUl-d0c3" id="1T0G">
<text cb-classname="GraphicTextEntity" class="signal" id="1T0t" text-anchor="end" x="2615" y="497"/>
</g>
</g>
<text baseline-shift="0%" cb-classname="GraphicTextEntity" class="annotation" fill="#000000" font-family="MS Shell Dlg 2" font-size="8" id="1T0e" x="2640" y="480">
AUTR
</text>
<text baseline-shift="0%" cb-classname="GraphicTextEntity" class="annotation" fill="#000000" font-family="MS Shell Dlg 2" font-size="8" id="19jz" x="2640" y="500">
AUTL
</text>
</g>
<g cb-alg-JicC="1" cb-alg-MUOO="69" cb-alg-yR7="SIM-SOV1-AUTS" cb-algorithm-id="00F" cb-classname="ControlAlgorithm" cb-function-name="DVALGEN" cb-modify-id="00000001" id="8xX">
<rect cb-classname="GraphicRectangleEntity" class="algorithm" height="60" id="8xa" width="100" x="1680" y="1830"/>
<text baseline-shift="-50%" cb-classname="GraphicTextEntity" class="algorithm" font-size="18" id="8x0" text-anchor="middle" x="1730" y="1847">
DVAL
</text>
<text baseline-shift="-50%" cb-classname="GraphicTextEntity" class="algorithm" font-size="18" id="8hj" text-anchor="middle" x="1730" y="1873">
GEN
</text>
<g cb-classname="ControlPin" cb-pin-name="9q-i2G-Izf" id="8h6">
<line cb-classname="GraphicLineEntity" class="signalline" id="8h8" x1="1780" x2="1800" y1="1860" y2="1860"/>
<g cb-classname="DynamicText" cb-source="Br-kzM-6iL8" class="signal" id="8hQ">
<text baseline-shift="5%" cb-classname="GraphicTextEntity" class="signal" fill="black" font-style="normal" font-weight="normal" id="8hl" text-decoration="normal" x="1794" y="1850"/>
</g>
<g cb-classname="SignalSegment" id="9Yj">
<line cb-classname="GraphicLineEntity" class="signalline" id="9Y6" stroke="#1e12bf" stroke-dasharray="5,4" x1="1800" x2="2600" y1="1860" y2="1860"/>
<g cb-classname="SignalSegment" id="9Y8">
<line cb-classname="GraphicLineEntity" class="signalline" id="9YQ" stroke="#1e12bf" stroke-dasharray="5,4" x1="2600" x2="2600" y1="1860" y2="1590"/>
<g cb-classname="SignalSegment" id="9Yl">
<line cb-classname="GraphicLineEntity" class="signalline" id="9YZ" stroke="#1e12bf" stroke-dasharray="5,4" x1="2600" x2="2660" y1="1590" y2="1590"/>
<g cb-classname="SignalConnection" cb-graphic-line="$985$" cb-input-pin="$81o$" id="9YM"/>
</g>
</g>
</g>
</g>
</g>
<g cb-alg-4SI="SIM-SOV1-FBCR" cb-alg-TowR="1" cb-alg-vO0w="69" cb-algorithm-id="011" cb-classname="ControlAlgorithm" cb-function-name="DVALGEN" cb-modify-id="00000001" id="8eQ">
<rect cb-classname="GraphicRectangleEntity" class="algorithm" height="60" id="8el" width="100" x="1680" y="2010"/>
<text baseline-shift="-50%" cb-classname="GraphicTextEntity" class="algorithm" font-size="18" id="8eZ" text-anchor="middle" x="1730" y="2027">
DVAL
</text>
<text baseline-shift="-50%" cb-classname="GraphicTextEntity" class="algorithm" font-size="18" id="8eM" text-anchor="middle" x="1730" y="2053">
GEN
</text>
<g cb-classname="ControlPin" cb-pin-name="nb-JUC-bpW" id="8eX">
<line cb-classname="GraphicLineEntity" class="signalline" id="8ea" x1="1780" x2="1800" y1="2040" y2="2040"/>
<g cb-classname="DynamicText" cb-source="RL-vfr-eo3O" class="signal" id="8e0">
<text baseline-shift="5%" cb-classname="GraphicTextEntity" class="signal" fill="black" font-style="normal" font-weight="normal" id="8mj" text-decoration="normal" x="1794" y="2030"/>
</g>
<g cb-classname="SignalSegment" id="8m6">
<g cb-classname="SignalConnection" cb-graphic-line="$853$" cb-input-pin="$DSU$" id="8m8"/>
<line cb-classname="GraphicLineEntity" class="signalline" id="8mQ" stroke="#1e12bf" stroke-dasharray="5,4" x1="1800" x2="2150" y1="2040" y2="2040"/>
</g>
</g>
</g>
<g cb-alg-COIb="0.000000" cb-alg-ab4v="69" cb-alg-icO="SIM-SOV1-REQM" cb-algorithm-id="012" cb-classname="ControlAlgorithm" cb-function-name="DVALGEN" cb-modify-id="00000001" id="8ml">
<rect cb-classname="GraphicRectangleEntity" class="algorithm" height="60" id="8mZ" width="100" x="1680" y="1000"/>
<text baseline-shift="-50%" cb-classname="GraphicTextEntity" class="algorithm" font-size="18" id="8mM" text-anchor="middle" x="1730" y="1017">
DVAL
</text>
<text baseline-shift="-50%" cb-classname="GraphicTextEntity" class="algorithm" font-size="18" id="8mX" text-anchor="middle" x="1730" y="1043">
GEN
</text>
<g cb-classname="ControlPin" cb-pin-name="cL-PZ0-fCd" id="8ma">
<line cb-classname="GraphicLineEntity" class="signalline" id="8m0" x1="1780" x2="1800" y1="1030" y2="1030"/>
<g cb-classname="DynamicText" cb-source="nb-CzW-rOrW" class="signal" id="84j">
<text baseline-shift="5%" cb-classname="GraphicTextEntity" class="signal" fill="black" font-style="normal" font-weight="normal" id="846" text-decoration="normal" x="1794" y="1020"/>
</g>
<g cb-classname="SignalSegment" id="9x6">
<g cb-classname="SignalConnection" cb-graphic-line="$924$" cb-input-pin="$r68$" id="9xZ"/>
<line cb-classname="GraphicLineEntity" class="signalline" id="9xl" stroke="#1e12bf" stroke-dasharray="5,4" x1="1800" x2="2660" y1="1030" y2="1030"/>
</g>
</g>
</g>
<g cb-alg-B5B="SIM-SOV1-REQA" cb-alg-dJUr="0.0" cb-alg-fztC="69" cb-algorithm-id="013" cb-classname="ControlAlgorithm" cb-function-name="DVALGEN" cb-modify-id="00000001" id="848">
<rect cb-classname="GraphicRectangleEntity" class="algorithm" height="60" id="84Q" width="100" x="1680" y="890"/>
<text baseline-shift="-50%" cb-classname="GraphicTextEntity" class="algorithm" font-size="18" id="84l" text-anchor="middle" x="1730" y="907">
DVAL
</text>
<text baseline-shift="-50%" cb-classname="GraphicTextEntity" class="algorithm" font-size="18" id="84Z" text-anchor="middle" x="1730" y="933">
GEN
</text>
<g cb-classname="ControlPin" cb-pin-name="57-4SI-fi2" id="84M">
<line cb-classname="GraphicLineEntity" class="signalline" id="84X" x1="1780" x2="1800" y1="920" y2="920"/>
<g cb-classname="DynamicText" cb-source="gi-XIk-ceuw" class="signal" id="84a">
<text baseline-shift="5%" cb-classname="GraphicTextEntity" class="signal" fill="black" font-style="normal" font-weight="normal" id="840" text-decoration="normal" x="1794" y="910"/>
</g>
<g cb-classname="SignalSegment" id="99l">
<line cb-classname="GraphicLineEntity" class="signalline" id="99Z" stroke="#1e12bf" stroke-dasharray="5,4" x1="1800" x2="2610" y1="920" y2="920"/>
<g cb-classname="SignalSegment" id="99M">
<line cb-classname="GraphicLineEntity" class="signalline" id="99X" stroke="#1e12bf" stroke-dasharray="5,4" x1="2610" x2="2610" y1="920" y2="950"/>
<g cb-classname="SignalSegment" id="99a">
<line cb-classname="GraphicLineEntity" class="signalline" id="990" stroke="#1e12bf" stroke-dasharray="5,4" x1="2610" x2="2650" y1="950" y2="950"/>
<g cb-classname="SignalConnection" cb-graphic-line="$919$" cb-input-pin="$78A$" id="9xj"/>
</g>
</g>
</g>
</g>
</g>
<g cb-alg-E0t3="1.0" cb-alg-OgQ="$391$cb-alg-cmdr$" cb-alg-Wg61="$391$cb-alg-cmdr$" cb-alg-e0uX="2" cb-alg-f5JX="96" cb-algorithm-id="015" cb-classname="ControlAlgorithm" cb-function-name="ONDELAY" cb-modify-id="00000001" id="8Ej">
<rect cb-classname="GraphicRectangleEntity" class="algorithm" height="60" id="8E6" width="60" x="1930" y="1940"/>
<text baseline-shift="-50%" cb-classname="GraphicTextEntity" class="algorithm" font-size="18" id="8E8" text-anchor="middle" x="1959" y="1952">
TD
</text>
<text cb-classname="GraphicTextEntity" class="algorithm" font-size="18" id="8EQ" text-anchor="middle" x="1959" y="1987">
ON
</text>
<g cb-classname="ControlPin" cb-pin-name="0D-tOu-beR" id="8El">
<line cb-classname="GraphicLineEntity" class="signalline" id="8EZ" x1="1910" x2="1930" y1="1960" y2="1960"/>
<polygon cb-classname="GraphicPolygonEntity" class="signal" id="8EM" points="1930,1960 1919,1956 1919,1964"/>
<g cb-classname="DynamicText" cb-source="rG-mbe-gJ48" class="signal" id="8EX" text-anchor="end">
<text baseline-shift="5%" cb-classname="GraphicTextEntity" class="signal" fill="black" font-style="normal" font-weight="normal" id="8Ea" text-anchor="end" text-decoration="normal" x="1894" y="1956"/>
</g>
</g>
<g cb-classname="ControlPin" cb-pin-name="57-4SI-fi2" id="8E0">
<line cb-classname="GraphicLineEntity" class="signalline" id="8Yj" x1="1990" x2="2010" y1="1960" y2="1960"/>
<g cb-classname="DynamicText" cb-source="gi-XIk-ceuw" class="signal" id="8Y6">
<text baseline-shift="5%" cb-classname="GraphicTextEntity" class="signal" fill="black" font-style="normal" font-weight="normal" id="8Y8" text-decoration="normal" x="2026" y="1956"/>
</g>
<g cb-classname="SignalSegment" id="19Z8">
<line cb-classname="GraphicLineEntity" class="signalline" id="19XY" stroke="#1e12bf" stroke-dasharray="5,4" x1="2010" x2="2020" y1="1960" y2="1960"/>
<g cb-classname="SignalConnection" cb-graphic-line="$1173$" cb-input-pin="$KhK4$" id="19Xr"/>
</g>
</g>
<g cb-classname="ControlPin" cb-pin-name="nb-JUC-pliS" id="8YM">
<line cb-classname="GraphicLineEntity" class="signalline" id="8YX" x1="1910" x2="1930" y1="1980" y2="1980"/>
<polygon cb-classname="GraphicPolygonEntity" class="signal" id="8Ya" points="1930,1980 1919,1976 1919,1984"/>
<g cb-classname="DynamicText" cb-source="32-pUl-d0c3" class="signal" id="8Y0" text-anchor="end">
<text baseline-shift="5%" cb-classname="GraphicTextEntity" class="signal" fill="black" font-style="normal" font-weight="normal" id="8Pj" text-anchor="end" text-decoration="normal" x="1894" y="1976"/>
</g>
</g>
</g>
<g cb-alg-E0t3="1.000000" cb-alg-OgQ="$870$cb-alg-out$" cb-alg-e0uX="2" cb-alg-f5JX="97" cb-algorithm-id="016" cb-classname="ControlAlgorithm" cb-function-name="OFFDELAY" cb-modify-id="00000002" id="19lY">
<rect cb-classname="GraphicRectangleEntity" class="algorithm" height="60" id="19lr" width="60" x="2040" y="1930"/>
<text baseline-shift="-50%" cb-classname="GraphicTextEntity" class="algorithm" font-size="18" id="19lf" text-anchor="middle" x="2070" y="1945">
TD
</text>
<text baseline-shift="-50%" cb-classname="GraphicTextEntity" class="algorithm" font-size="18" id="19l8" text-anchor="middle" x="2070" y="1967">
OFF
</text>
<g cb-classname="ControlPin" cb-pin-name="0D-tOu-beR" id="19lG">
<line cb-classname="GraphicLineEntity" class="signalline" id="19lt" x1="2020" x2="2040" y1="1960" y2="1960"/>
<polygon cb-classname="GraphicPolygonEntity" class="signal" id="19le" points="2040,1960 2029,1956 2029,1964"/>
<g cb-classname="DynamicText" cb-source="rG-mbe-gJ48" class="signal" id="19Zz" text-anchor="end">
<text baseline-shift="5%" cb-classname="GraphicTextEntity" class="signal" fill="black" font-style="normal" font-weight="normal" id="19Z4" text-anchor="end" text-decoration="normal" x="2004" y="1956"/>
</g>
</g>
<g cb-classname="ControlPin" cb-pin-name="57-4SI-fi2" id="19ZQ">
<line cb-classname="GraphicLineEntity" class="signalline" id="19ZY" x1="2100" x2="2120" y1="1960" y2="1960"/>
<g cb-classname="DynamicText" cb-source="gi-XIk-ceuw" class="signal" id="19Zr">
<text baseline-shift="5%" cb-classname="GraphicTextEntity" class="signal" fill="black" font-style="normal" font-weight="normal" id="19Zf" text-decoration="normal" x="2136" y="1956"/>
</g>
<g cb-classname="SignalSegment" id="19M4">
<line cb-classname="GraphicLineEntity" class="signalline" id="19Xf" stroke="#1e12bf" stroke-dasharray="5,4" x1="2120" x2="2130" y1="1960" y2="1960"/>
<g cb-classname="SignalSegment" id="19X8">
<g cb-classname="SignalConnection" cb-graphic-line="$1185$" cb-input-pin="$9Em$" id="19a8"/>
<line cb-classname="GraphicLineEntity" class="signalline" id="19af" stroke="#1e12bf" stroke-dasharray="5,4" x1="2130" x2="2150" y1="1960" y2="1960"/>
<g cb-classname="SignalSegment" id="19Xt">
<line cb-classname="GraphicLineEntity" class="signalline" id="19Xe" stroke="#1e12bf" stroke-dasharray="5,4" x1="2130" x2="2150" y1="2000" y2="2000"/>
<g cb-classname="SignalConnection" cb-graphic-line="$1179$" cb-input-pin="$qGi$" id="19az"/>
</g>
<line cb-classname="GraphicLineEntity" class="signalline" id="19XG" stroke="#1e12bf" stroke-dasharray="5,4" x1="2130" x2="2130" y1="1960" y2="2000"/>
<ellipse cb-classname="GraphicEllipseEntity" class="signal" cx="2130" cy="1960" fill="#1e12bf" id="19aG" rx="5" ry="5" stroke="#1e12bf" stroke-dasharray="5,4"/>
</g>
</g>
</g>
</g>
<g cb-alg-fCd="SIM-SOV-FBCR" cb-alg-x68="$1143$cb-alg-out$" cb-alg-x6W="$1143$cb-alg-out$" cb-alg-x6t="$843$cb-alg-out$" cb-algorithm-id="014" cb-classname="FastBooleanAlgorithm" cb-function-name="AND" cb-modify-id="00000001" id="8P6">
<rect cb-classname="GraphicRectangleEntity" class="algorithm" height="60" id="8P8" width="80" x="2170" y="1970"/>
<text baseline-shift="-50%" cb-classname="GraphicTextEntity" class="algorithm" id="8PQ" text-anchor="middle" x="2210" y="1999">
AND
</text>
<line cb-classname="GraphicLineEntity" class="algorithmline" id="8Pl" x1="2170" x2="2170" y1="1940" y2="2060"/>
<g cb-classname="ControlPin" cb-pin-name="AE-J1R-BaN" id="8PZ">
<line cb-classname="GraphicLineEntity" class="signalline" id="8PM" x1="2150" x2="2170" y1="1960" y2="1960"/>
<polygon cb-classname="GraphicPolygonEntity" class="signal" id="8PX" points="2170,1960 2159,1956 2159,1964"/>
<g cb-classname="DynamicText" cb-source="Br-kzM-6iL8" class="signal" id="8Pa" text-anchor="end">
<text baseline-shift="5%" cb-classname="GraphicTextEntity" class="signal" fill="black" font-style="normal" font-weight="normal" id="8P0" text-anchor="end" text-decoration="normal" x="2163" y="1952"/>
</g>
</g>
<g cb-classname="ControlPin" cb-pin-name="0D-tOu-zCe" id="9Tj">
<line cb-classname="GraphicLineEntity" class="signalline" id="9T6" x1="2250" x2="2270" y1="2000" y2="2000"/>
<g cb-classname="DynamicText" cb-source="32-pUl-d0c3" class="signal" id="9T8">
<text baseline-shift="5%" cb-classname="GraphicTextEntity" class="signal" fill="black" font-style="normal" font-weight="normal" id="9TQ" text-decoration="normal" x="2262" y="1992"/>
</g>
<g cb-classname="SignalSegment" id="1T6G">
<g cb-classname="SignalSegment" id="1T6e">
<line cb-classname="GraphicLineEntity" class="signalline" id="1T8z" stroke="#1e12bf" stroke-dasharray="5,4" x1="2410" x2="2410" y1="2000" y2="1920"/>
<g cb-classname="SignalSegment" id="1T84">
<line cb-classname="GraphicLineEntity" class="signalline" id="1T8Q" stroke="#1e12bf" stroke-dasharray="5,4" x1="2410" x2="2610" y1="1920" y2="1920"/>
<g cb-classname="SignalSegment" id="1T8Y">
<line cb-classname="GraphicLineEntity" class="signalline" id="1T8r" stroke="#1e12bf" stroke-dasharray="5,4" x1="2610" x2="2610" y1="1920" y2="1690"/>
<g cb-classname="SignalSegment" id="1T8f">
<line cb-classname="GraphicLineEntity" class="signalline" id="1T88" stroke="#1e12bf" stroke-dasharray="5,4" x1="2610" x2="2660" y1="1690" y2="1690"/>
<g cb-classname="SignalConnection" cb-graphic-line="$1026$" cb-input-pin="$eaY$" id="1T8G"/>
</g>
</g>
</g>
<g cb-classname="SignalConnection" cb-graphic-line="$1032$" cb-input-pin="$ZjSV$" id="1TQY"/>
<line cb-classname="GraphicLineEntity" class="signalline" id="1TQQ" stroke="#1e12bf" stroke-dasharray="5,4" x1="2410" x2="2540" y1="2000" y2="2000"/>
<ellipse cb-classname="GraphicEllipseEntity" class="signal" cx="2410" cy="2000" fill="#1e12bf" id="1TQr" rx="5" ry="5" stroke="#1e12bf" stroke-dasharray="5,4"/>
</g>
<line cb-classname="GraphicLineEntity" class="signalline" id="1T6t" stroke="#1e12bf" stroke-dasharray="5,4" x1="2270" x2="2410" y1="2000" y2="2000"/>
</g>
</g>
<g cb-classname="ControlPin" cb-pin-name="sd-OIv-IkW" id="9Tl">
<line cb-classname="GraphicLineEntity" class="signalline" id="9TZ" x1="2150" x2="2170" y1="2040" y2="2040"/>
<polygon cb-classname="GraphicPolygonEntity" class="signal" id="9TM" points="2170,2040 2159,2036 2159,2044"/>
<g cb-classname="DynamicText" cb-source="gi-XIk-ceuw" class="signal" id="9TX" text-anchor="end">
<text baseline-shift="5%" cb-classname="GraphicTextEntity" class="signal" fill="black" font-style="normal" font-weight="normal" id="9Ta" text-anchor="end" text-decoration="normal" x="2160" y="2030"/>
</g>
</g>
<g cb-classname="ControlPin" cb-pin-name="9q-i2G-kQh" id="9T0">
<line cb-classname="GraphicLineEntity" class="signalline" id="99j" x1="2150" x2="2170" y1="2000" y2="2000"/>
<polygon cb-classname="GraphicPolygonEntity" class="signal" id="996" points="2170,2000 2159,1996 2159,2004"/>
<g cb-classname="DynamicText" cb-source="nb-CzW-rOrW" class="signal" id="998" text-anchor="end">
<text baseline-shift="5%" cb-classname="GraphicTextEntity" class="signal" fill="black" font-style="normal" font-weight="normal" id="99Q" text-anchor="end" text-decoration="normal" x="2160" y="1990"/>
</g>
</g>
</g>
<g cb-alg-lFh="$891$cb-alg-out$" cb-alg-pRw="SIM-SOV-FBCS" cb-algorithm-id="001" cb-classname="FastBooleanAlgorithm" cb-function-name="NOT" cb-modify-id="00000001" id="1Tjf">
<rect cb-classname="GraphicRectangleEntity" class="algorithm" height="40" id="1Tj8" width="40" x="2560" y="1980"/>
<text baseline-shift="-50%" cb-classname="GraphicTextEntity" class="algorithm" font-size="28" id="1TjG" text-anchor="middle" x="2579" y="1992">
N
</text>
<g cb-classname="ControlPin" cb-pin-name="sd-OIv-IkV" id="1Tjt">
<line cb-classname="GraphicLineEntity" class="signalline" id="1Tje" x1="2540" x2="2560" y1="2000" y2="2000"/>
<polygon cb-classname="GraphicPolygonEntity" class="signal" id="1T6z" points="2560,2000 2549,1996 2549,2004"/>
<g cb-classname="DynamicText" cb-source="gi-XIk-ceuw" class="signal" id="1T64" text-anchor="end">
<text baseline-shift="5%" cb-classname="GraphicTextEntity" class="signal" fill="black" font-style="normal" font-weight="normal" id="1T6Q" text-anchor="end" text-decoration="normal" x="2555" y="1992"/>
</g>
</g>
<g cb-classname="ControlPin" cb-pin-name="9q-i2G-Izf" id="1T6Y">
<line cb-classname="GraphicLineEntity" class="signalline" id="1T6r" x1="2600" x2="2620" y1="2000" y2="2000"/>
<g cb-classname="DynamicText" cb-source="Br-kzM-6iL8" class="signal" id="1T6f">
<text baseline-shift="5%" cb-classname="GraphicTextEntity" class="signal" fill="black" font-style="normal" font-weight="normal" id="1T68" text-decoration="normal" x="2612" y="1992"/>
</g>
<g cb-classname="SignalSegment" id="1TQf">
<line cb-classname="GraphicLineEntity" class="signalline" id="1TQ8" stroke="#1e12bf" stroke-dasharray="5,4" x1="2620" x2="2660" y1="2000" y2="2000"/>
<g cb-classname="SignalSegment" id="1TQG">
<line cb-classname="GraphicLineEntity" class="signalline" id="1TQt" stroke="#1e12bf" stroke-dasharray="5,4" x1="2660" x2="2660" y1="2000" y2="1770"/>
<g cb-classname="SignalConnection" cb-graphic-line="$1038$" cb-input-pin="$D1c$" id="1Tlr"/>
</g>
</g>
</g>
</g>
<g cb-alg-1iLG="SIM-SOV1-DERR" cb-alg-2rLf="SIM-SOV1-KBRD" cb-alg-3iWB="$862$cb-alg-out$" cb-alg-3iWc="$854$cb-alg-out$" cb-alg-B6zV8h-5o0I="0" cb-alg-B6zV8h-M6gI="YES" cb-alg-B6zV8h-M7cI="1.000000" cb-alg-B6zV8h-M7cx="1.000000" cb-alg-B6zV8h-M7gI="1.000000" cb-alg-B6zV8h-M7gl="1.000000" cb-alg-B6zV8h-M7gx="1.000000" cb-alg-B6zV8h-MUOO="120" cb-alg-B6zV8h-Ur0Q="DONT_STOP" cb-alg-B6zV8h-g6YZ="OUTPUT" cb-alg-B6zV8h-gRgI="GO_MANUAL" cb-alg-B6zV8h-kC8="30.0" cb-alg-B6zV8h-t6Er="2" cb-alg-B6zV8h-t6SV="5.0" cb-alg-B6zV8h-t6Sr="2.000000" cb-alg-B6zV8h-t6UV="5.000000" cb-alg-B6zV8h-t6Ur="2.0" cb-alg-B6zV8h-t6jV="3" cb-alg-B6zV8h-t6jr="2" cb-alg-B6zV8h-tRVA="4.000000" cb-alg-B6zV8h-tRhI="60.000000" cb-alg-B6zV8h-tRhl="4.000000" cb-alg-B6zV8h-tRhx="4.000000" cb-alg-B6zV8h-tb8K="CONTACTS" cb-alg-B6zV8h-tq0="1.0" cb-alg-B6zV8h-tqAI="4.000000" cb-alg-B6zV8h-tqAl="4.000000" cb-alg-B6zV8h-tqAx="60.000000" cb-alg-B6zV8h-yigU="ACK_BY_ACKT" cb-alg-BF6G="SIM-SOV1-CMDR" cb-alg-L5l="TIMEOUT" cb-alg-N95B="SIM-SOV1-PSTA" cb-alg-NiLG="$795$cb-alg-out$" cb-alg-NiLa="$819$cb-alg-out$" cb-alg-NyL="3" cb-alg-NyL7b="0" cb-alg-R15G="$803$cb-alg-out$" cb-alg-R15a="$827$cb-alg-out$" cb-alg-Z157="CONSTANT" cb-alg-ZKL="30.0" cb-alg-lnIG="0" cb-alg-lnm="1" cb-alg-lr0G="$891$cb-alg-out$" cb-alg-lr0a="$1005$cb-alg-out$" cb-alg-p9Yt="4" cb-alg-pE8R="10" cb-alg-pFdf="0" cb-alg-tFLG="$787$cb-alg-out$" cb-alg-tFLa="$811$cb-alg-out$" cb-alg-thKd="SIM-SOV1-EDEV" cb-alg-vJJ="SIM-SOV1-SOV" cb-alg-vJJ-ZlMc="3" cb-alg-vJJ-dMv9="DONT_STOP" cb-alg-vJJ-mqm="30.0" cb-alg-vSuj="DONT_STOP" cb-alg-vqP7="SIM-SOV1-STAT" cb-algorithm-id="003" cb-classname="ControlMacroReference" cb-function-name="SOV_1" cb-macro-crc="63752" cb-modify-id="00000001" id="3P6">
<rect cb-classname="GraphicRectangleEntity" class="annotation" fill="white" height="930" id="3P8" width="540" x="2690" y="920"/>
<text baseline-shift="0%" cb-classname="GraphicTextEntity" class="annotation" fill="#000000" font-family="MS Shell Dlg 2" font-size="26" id="3PQ" x="2870" y="960">
Macro: SOV_1
</text>
<text baseline-shift="0%" cb-classname="GraphicTextEntity" class="annotation" fill="#000000" font-family="MS Shell Dlg 2" font-size="36" id="3Pl" x="2840" y="1040">
Typical: SLV1
</text>
<text baseline-shift="0%" cb-classname="GraphicTextEntity" class="annotation" fill="#000000" font-family="MS Shell Dlg 2" font-size="12" id="3PZ" x="2710" y="950">
AUTO
</text>
<text baseline-shift="0%" cb-classname="GraphicTextEntity" class="annotation" fill="#000000" font-family="MS Shell Dlg 2" font-size="12" id="3PM" x="2710" y="1030">
MANUAL
</text>
<text baseline-shift="0%" cb-classname="GraphicTextEntity" class="annotation" fill="#000000" font-family="MS Shell Dlg 2" font-size="12" id="3PX" transform="translate(2800,1260)rotate(-90)">
OPEN
</text>
<text baseline-shift="0%" cb-classname="GraphicTextEntity" class="annotation" fill="#000000" font-family="MS Shell Dlg 2" font-size="12" id="3Pa" transform="translate(2800,1530)rotate(-90)">
CLOSE
</text>
<text baseline-shift="0%" cb-classname="GraphicTextEntity" class="annotation" fill="#000000" font-family="MS Shell Dlg 2" font-size="12" id="3P0" transform="translate(2800,1000)rotate(-90)">
MODE
</text>
<text baseline-shift="0%" cb-classname="GraphicTextEntity" class="annotation" fill="#000000" font-family="MS Shell Dlg 2" font-size="12" id="4Tj" x="2710" y="1160">
EMRG
</text>
<text baseline-shift="0%" cb-classname="GraphicTextEntity" class="annotation" fill="#000000" font-family="MS Shell Dlg 2" font-size="12" id="4T6" x="2710" y="1240">
PERM
</text>
<text baseline-shift="0%" cb-classname="GraphicTextEntity" class="annotation" fill="#000000" font-family="MS Shell Dlg 2" font-size="12" id="4T8" x="2710" y="1320">
OPEN
</text>
<text baseline-shift="0%" cb-classname="GraphicTextEntity" class="annotation" fill="#000000" font-family="MS Shell Dlg 2" font-size="12" id="4TQ" x="2710" y="1430">
EMRG
</text>
<text baseline-shift="0%" cb-classname="GraphicTextEntity" class="annotation" fill="#000000" font-family="MS Shell Dlg 2" font-size="12" id="4Tl" x="2710" y="1510">
PERM
</text>
<text baseline-shift="0%" cb-classname="GraphicTextEntity" class="annotation" fill="#000000" font-family="MS Shell Dlg 2" font-size="12" id="4TZ" x="2710" y="1590">
CLOSE
</text>
<text baseline-shift="0%" cb-classname="GraphicTextEntity" class="annotation" fill="#000000" font-family="MS Shell Dlg 2" font-size="12" id="4TM" x="2710" y="1690">
FB OPEN
</text>
<text baseline-shift="0%" cb-classname="GraphicTextEntity" class="annotation" fill="#000000" font-family="MS Shell Dlg 2" font-size="12" id="4TX" x="2710" y="1770">
FB CLOSE
</text>
<text baseline-shift="0%" cb-classname="GraphicTextEntity" class="annotation" fill="#000000" font-family="MS Shell Dlg 2" font-size="12" id="4Ta" x="3140" y="1160">
CMD OPEN
</text>
<text baseline-shift="0%" cb-classname="GraphicTextEntity" class="annotation" fill="#000000" font-family="MS Shell Dlg 2" font-size="12" id="4T0" x="3180" y="1400">
PSTA
</text>
<text baseline-shift="0%" cb-classname="GraphicTextEntity" class="annotation" fill="#000000" font-family="MS Shell Dlg 2" font-size="12" id="49j" x="3180" y="1480">
STAT
</text>
<text baseline-shift="0%" cb-classname="GraphicTextEntity" class="annotation" fill="#000000" font-family="MS Shell Dlg 2" font-size="12" id="496" x="3180" y="1560">
DERR
</text>
<rect cb-classname="GraphicRectangleEntity" class="annotation" fill="none" height="140" id="498" width="90" x="2690" y="920"/>
<rect cb-classname="GraphicRectangleEntity" class="annotation" fill="none" height="240" id="49Q" width="90" x="2690" y="1120"/>
<rect cb-classname="GraphicRectangleEntity" class="annotation" fill="none" height="220" id="49l" width="90" x="2690" y="1400"/>
<rect cb-classname="GraphicRectangleEntity" class="annotation" fill="none" height="140" id="49Z" width="90" x="2690" y="1660"/>
<rect cb-classname="GraphicRectangleEntity" class="annotation" fill="none" height="140" id="49M" width="30" x="2780" y="920"/>
<rect cb-classname="GraphicRectangleEntity" class="annotation" fill="none" height="240" id="49X" width="30" x="2780" y="1120"/>
<rect cb-classname="GraphicRectangleEntity" class="annotation" fill="none" height="220" id="49a" width="30" x="2780" y="1400"/>
<rect cb-classname="GraphicRectangleEntity" class="annotation" fill="none" height="70" id="490" width="100" x="3130" y="1120"/>
<rect cb-classname="GraphicRectangleEntity" class="annotation" fill="none" height="240" id="4xj" width="100" x="3130" y="1350"/>
<line cb-classname="GraphicLineEntity" class="annotation" id="4x6" x1="2690" x2="2780" y1="990" y2="990"/>
<line cb-classname="GraphicLineEntity" class="annotation" id="4x8" x1="2690" x2="2780" y1="1200" y2="1200"/>
<line cb-classname="GraphicLineEntity" class="annotation" id="4xQ" x1="2690" x2="2780" y1="1280" y2="1280"/>
<line cb-classname="GraphicLineEntity" class="annotation" id="4xl" x1="2690" x2="2780" y1="1470" y2="1470"/>
<line cb-classname="GraphicLineEntity" class="annotation" id="4xZ" x1="2690" x2="2780" y1="1550" y2="1550"/>
<line cb-classname="GraphicLineEntity" class="annotation" id="4xM" x1="2690" x2="2780" y1="1730" y2="1730"/>
<g cb-classname="GraphicShape" id="4xX">
<g cb-classname="DynamicText" cb-labeled="false" cb-source="9q-i2G-hrYn" id="4xa">
<text cb-classname="GraphicTextEntity" class="algorithm" id="4x0" text-anchor="start" x="2840" y="1740"/>
</g>
</g>
<g cb-classname="GraphicShape" id="4hj">
<g cb-classname="DynamicText" cb-labeled="true" cb-source="nb-JUC-YgI" id="4h6">
<text cb-classname="GraphicTextEntity" class="algorithm" id="4h8" text-anchor="start" x="2850" y="1600"/>
</g>
<g cb-classname="DynamicText" cb-labeled="true" cb-source="RL-0gy-y93u" id="4hQ">
<text cb-classname="GraphicTextEntity" class="algorithm" id="4hl" text-anchor="start" x="2850" y="1630"/>
</g>
<g cb-classname="DynamicText" cb-labeled="true" cb-source="rG-icO-qZS" id="4hZ">
<text cb-classname="GraphicTextEntity" class="algorithm" id="4hM" text-anchor="start" x="2850" y="1450"/>
</g>
<g cb-classname="DynamicText" cb-labeled="true" cb-source="57-4SI-fi2K" id="4hX">
<text cb-classname="GraphicTextEntity" class="algorithm" id="4ha" text-anchor="start" x="2850" y="1480"/>
</g>
<g cb-classname="DynamicText" cb-labeled="true" cb-source="gi-0ZX-2YEZ" id="4h0">
<text cb-classname="GraphicTextEntity" class="algorithm" id="4ej" text-anchor="start" x="2850" y="1540"/>
</g>
<g cb-classname="DynamicText" cb-labeled="true" cb-source="9q-i2G-UtN" id="4e6">
<text cb-classname="GraphicTextEntity" class="algorithm" id="4e8" text-anchor="start" x="2850" y="1570"/>
</g>
</g>
<g cb-classname="ControlPin" cb-pin-name="Br-B5B-Zp14" id="4eQ">
<line cb-classname="GraphicLineEntity" class="signalline" id="4el" x1="2650" x2="2690" y1="950" y2="950"/>
<polygon cb-classname="GraphicPolygonEntity" class="signal" id="4eZ" points="2690,950 2679,944 2679,955"/>
<g cb-classname="DynamicText" cb-source="RL-vfr-eo3O" id="4eM">
<text cb-classname="GraphicTextEntity" class="signal" id="4eX" text-anchor="end" x="2675" y="947"/>
</g>
</g>
<g cb-classname="ControlPin" cb-pin-name="rG-icO-mOa9" id="4ea">
<line cb-classname="GraphicLineEntity" class="signalline" id="4e0" x1="2660" x2="2690" y1="1030" y2="1030"/>
<polygon cb-classname="GraphicPolygonEntity" class="signal" id="4mj" points="2690,1030 2679,1024 2679,1035"/>
<g cb-classname="DynamicText" cb-source="43-Y5F-ALih" id="4m6">
<text cb-classname="GraphicTextEntity" class="signal" id="4m8" text-anchor="end" x="2675" y="1027"/>
</g>
</g>
<g cb-classname="ControlPin" cb-pin-name="AE-J1R-e6eN" id="4mQ">
<line cb-classname="GraphicLineEntity" class="signalline" id="4ml" x1="2660" x2="2690" y1="1320" y2="1320"/>
<polygon cb-classname="GraphicPolygonEntity" class="signal" id="4mZ" points="2690,1320 2679,1314 2679,1325"/>
<g cb-classname="DynamicText" cb-source="Br-kzM-6iL8" id="4mM">
<text cb-classname="GraphicTextEntity" class="signal" id="4mX" text-anchor="end" x="2675" y="1317"/>
</g>
</g>
<g cb-classname="ControlPin" cb-pin-name="0D-tOu-OCeU" id="4ma">
<line cb-classname="GraphicLineEntity" class="signalline" id="4m0" x1="2660" x2="2690" y1="1590" y2="1590"/>
<polygon cb-classname="GraphicPolygonEntity" class="signal" id="44j" points="2690,1590 2679,1584 2679,1595"/>
<g cb-classname="DynamicText" cb-source="rG-mbe-gJ48" id="446">
<text cb-classname="GraphicTextEntity" class="signal" id="448" text-anchor="end" x="2675" y="1587"/>
</g>
</g>
<g cb-classname="ControlPin" cb-pin-name="57-4SI-39vY" id="44Q">
<line cb-classname="GraphicLineEntity" class="signalline" id="44l" x1="2660" x2="2690" y1="1160" y2="1160"/>
<polygon cb-classname="GraphicPolygonEntity" class="signal" id="44Z" points="2690,1160 2679,1154 2679,1165"/>
<g cb-classname="DynamicText" cb-source="AE-vcA-rGCY" id="44M">
<text cb-classname="GraphicTextEntity" class="signal" id="44X" text-anchor="end" x="2675" y="1157"/>
</g>
</g>
<g cb-classname="ControlPin" cb-pin-name="cL-PZ0-vAq8" id="44a">
<line cb-classname="GraphicLineEntity" class="signalline" id="440" x1="2660" x2="2690" y1="1240" y2="1240"/>
<polygon cb-classname="GraphicPolygonEntity" class="signal" id="4Ej" points="2690,1240 2679,1234 2679,1245"/>
<g cb-classname="DynamicText" cb-source="0D-ux6-l41e" id="4E6">
<text cb-classname="GraphicTextEntity" class="signal" id="4E8" text-anchor="end" x="2675" y="1237"/>
</g>
</g>
<g cb-classname="ControlPin" cb-pin-name="32-yR7-W3uN" id="4EQ">
<line cb-classname="GraphicLineEntity" class="signalline" id="4El" x1="2660" x2="2690" y1="1430" y2="1430"/>
<polygon cb-classname="GraphicPolygonEntity" class="signal" id="4EZ" points="2690,1430 2679,1424 2679,1435"/>
<g cb-classname="DynamicText" cb-source="57-HOg-kyN3" id="4EM">
<text cb-classname="GraphicTextEntity" class="signal" id="4EX" text-anchor="end" x="2675" y="1427"/>
</g>
</g>
<g cb-classname="ControlPin" cb-pin-name="gi-0ZX-z31V" id="4Ea">
<line cb-classname="GraphicLineEntity" class="signalline" id="4E0" x1="2660" x2="2690" y1="1510" y2="1510"/>
<polygon cb-classname="GraphicPolygonEntity" class="signal" id="4Yj" points="2690,1510 2679,1504 2679,1515"/>
<g cb-classname="DynamicText" cb-source="cL-ulF-WyoC" id="4Y6">
<text cb-classname="GraphicTextEntity" class="signal" id="4Y8" text-anchor="end" x="2675" y="1507"/>
</g>
</g>
<g cb-classname="ControlPin" cb-pin-name="nb-JUC-Y3A6" id="4YQ">
<line cb-classname="GraphicLineEntity" class="signalline" id="4Yl" x1="2660" x2="2690" y1="1690" y2="1690"/>
<polygon cb-classname="GraphicPolygonEntity" class="signal" id="4YZ" points="2690,1690 2679,1684 2679,1695"/>
<g cb-classname="DynamicText" cb-source="32-pUl-d0c3" id="4YM">
<text cb-classname="GraphicTextEntity" class="signal" id="4YX" text-anchor="end" x="2675" y="1687"/>
</g>
</g>
<g cb-classname="ControlPin" cb-pin-name="sd-OIv-XE0f" id="4Ya">
<line cb-classname="GraphicLineEntity" class="signalline" id="4Y0" x1="2660" x2="2690" y1="1770" y2="1770"/>
<polygon cb-classname="GraphicPolygonEntity" class="signal" id="4Pj" points="2690,1770 2679,1764 2679,1775"/>
<g cb-classname="DynamicText" cb-source="gi-XIk-ceuw" id="4P6">
<text cb-classname="GraphicTextEntity" class="signal" id="4P8" text-anchor="end" x="2675" y="1767"/>
</g>
</g>
<g cb-classname="ControlPin" cb-pin-name="9q-i2G-TCoh" id="4PQ">
<line cb-classname="GraphicLineEntity" class="signalline" id="4Pl" x1="3230" x2="3270" y1="1160" y2="1160"/>
<g cb-classname="DynamicText" cb-source="Br-kzM-6iL8" id="4PZ">
<text cb-classname="GraphicTextEntity" class="signal" id="4PM" text-anchor="start" x="3244" y="1157"/>
</g>
<g cb-classname="SignalSegment" id="4PX">
<line cb-classname="GraphicLineEntity" class="signalline" id="9YX" stroke="#1e12bf" stroke-dasharray="5,4" x1="3270" x2="3390" y1="1160" y2="1160"/>
<g cb-classname="SignalSegment" id="9Ya">
<line cb-classname="GraphicLineEntity" class="signalline" id="9Y0" stroke="#1e12bf" stroke-dasharray="5,4" x1="3390" x2="3390" y1="1160" y2="610"/>
<g cb-classname="SignalSegment" id="9Pj">
<line cb-classname="GraphicLineEntity" class="signalline" id="9P6" stroke="#1e12bf" stroke-dasharray="5,4" x1="3390" x2="1640" y1="610" y2="610"/>
<g cb-classname="SignalSegment" id="9P8">
<line cb-classname="GraphicLineEntity" class="signalline" id="9PQ" stroke="#1e12bf" stroke-dasharray="5,4" x1="1640" x2="1640" y1="610" y2="1960"/>
<g cb-classname="SignalSegment" id="9Pl">
<line cb-classname="GraphicLineEntity" class="signalline" id="9Pa" stroke="#1e12bf" stroke-dasharray="5,4" x1="1640" x2="1740" y1="1960" y2="1960"/>
<g cb-classname="SignalSegment" id="9P0">
<line cb-classname="GraphicLineEntity" class="signalline" id="1Tjz" stroke="#1e12bf" stroke-dasharray="5,4" x1="1740" x2="1740" y1="1960" y2="1980"/>
<g cb-classname="SignalSegment" id="1Tj4">
<line cb-classname="GraphicLineEntity" class="signalline" id="1TjQ" stroke="#1e12bf" stroke-dasharray="5,4" x1="1740" x2="1910" y1="1980" y2="1980"/>
<g cb-classname="SignalConnection" cb-graphic-line="$1002$" cb-input-pin="$t96$" id="1TjY"/>
</g>
<line cb-classname="GraphicLineEntity" class="signalline" id="9PZ" stroke="#1e12bf" stroke-dasharray="5,4" x1="1740" x2="1910" y1="1960" y2="1960"/>
<g cb-classname="SignalConnection" cb-graphic-line="$995$" cb-input-pin="$xA7$" id="9PM"/>
<ellipse cb-classname="GraphicEllipseEntity" class="signal" cx="1740" cy="1960" fill="#1e12bf" id="1Tjr" rx="5" ry="5" stroke="#1e12bf" stroke-dasharray="5,4"/>
</g>
</g>
</g>
</g>
<line cb-classname="GraphicLineEntity" class="signalline" id="4P0" stroke="#1e12bf" stroke-dasharray="5,4" x1="3390" x2="4720" y1="1160" y2="1160"/>
<g cb-classname="SignalConnection" cb-graphic-line="$499$" cb-input-pin="$pmc$" id="4Pa"/>
<ellipse cb-classname="GraphicEllipseEntity" class="signal" cx="3390" cy="1160" fill="#1e12bf" id="9PX" rx="5" ry="5" stroke="#1e12bf" stroke-dasharray="5,4"/>
</g>
</g>
</g>
<g cb-classname="ControlPin" cb-pin-name="rG-icO-UNiJ" id="5Tj">
<line cb-classname="GraphicLineEntity" class="signalline" id="5T6" x1="3230" x2="3270" y1="1480" y2="1480"/>
<g cb-classname="DynamicText" cb-source="57-HOg-kyN3" id="5T8">
<text cb-classname="GraphicTextEntity" class="signal" id="5TQ" text-anchor="start" x="3244" y="1477"/>
</g>
<g cb-classname="SignalSegment" id="5Tl">
<line cb-classname="GraphicLineEntity" class="signalline" id="5TZ" x1="3270" x2="3580" y1="1480" y2="1480"/>
<g cb-classname="SignalSegment" id="5TM">
<line cb-classname="GraphicLineEntity" class="signalline" id="5TX" x1="3580" x2="3580" y1="1480" y2="1530"/>
<g cb-classname="SignalSegment" id="5Ta">
<line cb-classname="GraphicLineEntity" class="signalline" id="5T0" x1="3580" x2="4720" y1="1530" y2="1530"/>
<g cb-classname="SignalConnection" cb-graphic-line="$509$" cb-input-pin="$rKi$" id="59j"/>
</g>
</g>
</g>
</g>
<g cb-classname="ControlPin" cb-pin-name="RL-0gy-vWmu" id="596">
<line cb-classname="GraphicLineEntity" class="signalline" id="598" x1="3230" x2="3270" y1="1560" y2="1560"/>
<g cb-classname="DynamicText" cb-source="rG-mbe-gJ48" id="59Q">
<text cb-classname="GraphicTextEntity" class="signal" id="59l" text-anchor="start" x="3244" y="1557"/>
</g>
<g cb-classname="SignalSegment" id="59Z">
<line cb-classname="GraphicLineEntity" class="signalline" id="59M" x1="3270" x2="3540" y1="1560" y2="1560"/>
<g cb-classname="SignalSegment" id="59X">
<line cb-classname="GraphicLineEntity" class="signalline" id="59a" x1="3540" x2="3540" y1="1560" y2="1660"/>
<g cb-classname="SignalSegment" id="590">
<line cb-classname="GraphicLineEntity" class="signalline" id="5xj" x1="3540" x2="3540" y1="1660" y2="1790"/>
<g cb-classname="SignalConnection" cb-graphic-line="$520$" cb-input-pin="$Mrr$" id="5x6"/>
<g cb-classname="SignalConnection" cb-graphic-line="$523$" cb-input-pin="$8xE$" id="5x8"/>
<line cb-classname="GraphicLineEntity" class="signalline" id="5xQ" x1="3540" x2="4720" y1="1660" y2="1660"/>
<ellipse cb-classname="GraphicEllipseEntity" class="signal" cx="3540" cy="1660" id="5xl" rx="5" ry="5" stroke="black"/>
</g>
</g>
</g>
</g>
<g cb-classname="ControlPin" cb-pin-name="32-yR7-YUNi" id="5xZ">
<line cb-classname="GraphicLineEntity" class="signalline" id="5xM" x1="3230" x2="3270" y1="1400" y2="1400"/>
<g cb-classname="DynamicText" cb-source="sd-0zd-Fi9U" id="5xX">
<text cb-classname="GraphicTextEntity" class="signal" id="5xa" text-anchor="start" x="3244" y="1397"/>
</g>
<g cb-classname="SignalSegment" id="5x0">
<g cb-classname="SignalConnection" cb-graphic-line="$531$" cb-input-pin="$6h1$" id="5hj"/>
<line cb-classname="GraphicLineEntity" class="signalline" id="5h6" x1="3270" x2="4720" y1="1400" y2="1400"/>
</g>
</g>
<line cb-classname="GraphicLineEntity" class="annotation" id="5h8" x1="3230" x2="3130" y1="1430" y2="1430"/>
<line cb-classname="GraphicLineEntity" class="annotation" id="5hQ" x1="3230" x2="3130" y1="1510" y2="1510"/>
<g cb-classname="GraphicShape" id="1eQz">
<g cb-classname="DynamicText" cb-labeled="true" cb-source="Br-B5B-t6jV" id="1eQ4">
<text cb-classname="GraphicTextEntity" class="algorithm" id="1eQQ" text-anchor="start" x="2850" y="1510"/>
</g>
</g>
</g>
<g cb-alg-kS="$391$cb-alg-cmdr$" cb-algorithm-id="002" cb-classname="ExternalPointInterface" cb-function-name="OUTPUT" id="5hl">
<ellipse cb-classname="GraphicEllipseEntity" class="algorithm" cx="4780" cy="1160" id="5hZ" rx="40" ry="40"/>
<rect cb-classname="GraphicRectangleEntity" class="algorithm" height="80" id="5hM" width="30" x="4820" y="1120"/>
<line cb-classname="GraphicLineEntity" class="algorithm" id="5hX" x1="4820" x2="4850" y1="1160" y2="1160"/>
<g cb-classname="PointStatusIndicator" cb-indicator-type="highway" cb-source="32-yR7-Og" id="5ha" visibility="hidden">
<line cb-classname="GraphicLineEntity" class="algorithmline" id="5h0" x1="4740" x2="4780" y1="1160" y2="1120"/>
<line cb-classname="GraphicLineEntity" class="algorithmline" id="5ej" x1="4780" x2="4820" y1="1120" y2="1160"/>
<line cb-classname="GraphicLineEntity" class="algorithmline" id="5e6" x1="4820" x2="4780" y1="1160" y2="1200"/>
<line cb-classname="GraphicLineEntity" class="algorithmline" id="5e8" x1="4780" x2="4740" y1="1200" y2="1160"/>
</g>
<g cb-classname="PointStatusIndicator" cb-indicator-type="hardware" cb-source="gi-0ZX-Br" id="5eQ" visibility="hidden">
<line cb-classname="GraphicLineEntity" class="algorithmline" id="5el" x1="4820" x2="4740" y1="1120" y2="1120"/>
<line cb-classname="GraphicLineEntity" class="algorithmline" id="5eZ" x1="4740" x2="4740" y1="1120" y2="1200"/>
<line cb-classname="GraphicLineEntity" class="algorithmline" id="5eM" x1="4740" x2="4820" y1="1200" y2="1200"/>
</g>
<g cb-classname="PointStatusIndicator" cb-indicator-type="alarm" cb-source="Br-B5B-fr" id="5eX" visibility="hidden">
<text cb-classname="GraphicTextEntity" class="algorithm" fill="#000000" font-family="Arial" font-size="20" id="5ea" x="4827" y="1149">
A
</text>
</g>
<g cb-classname="PointStatusIndicator" cb-indicator-type="ingraphic" cb-source="0D-tOu-be" id="5e0" visibility="hidden">
<text cb-classname="GraphicTextEntity" class="algorithm" fill="#000000" font-family="Arial" font-size="20" id="5mj" x="4825" y="1190">
G
</text>
</g>
<g cb-classname="DynamicText" cb-labeled="false" cb-pin-name="P4" cb-source="32-yR7-Og" class="algorithm" id="5m6" text-anchor="end">
<text baseline-shift="0%" cb-classname="GraphicTextEntity" class="algorithm" fill="black" font-family="Arial" font-size="20" font-style="normal" font-weight="normal" id="5m8" text-anchor="end" text-decoration="normal" x="4717" y="1139"/>
</g>
<g baseline-shift="-100%" cb-anchor-x="4718" cb-anchor-y="1176" cb-classname="PointReferences" cb-max-width="240" cb-originator="false" cb-source="sd-OIv-Ik" class="signal" id="5mQ" text-anchor="end">
<text baseline-shift="-100%" cb-classname="GraphicTextEntity" class="algorithm" id="5ml" text-anchor="end" x="4718" y="1176">
-
</text>
</g>
<g baseline-shift="-50%" cb-anchor-x="4871" cb-anchor-y="1158" cb-classname="PointDescription" cb-content="extended" cb-labeled="false" cb-max-width="340" cb-source="43-oww-Sc" class="algorithm" id="5mZ" text-anchor="start">
<text baseline-shift="-50%" cb-classname="GraphicTextEntity" class="algorithm" id="5mM" text-anchor="start" x="4871" y="1141">
@ Ovation Control Builder
</text>
<text baseline-shift="-50%" cb-classname="GraphicTextEntity" class="algorithm" id="5mX" text-anchor="start" x="4871" y="1177">
@
</text>
</g>
<g cb-classname="ControlPin" cb-pin-name="9q-i2G-kQ" id="5ma">
<line cb-classname="GraphicLineEntity" class="signalline" id="5m0" x1="4720" x2="4740" y1="1160" y2="1160"/>
<polygon cb-classname="GraphicPolygonEntity" class="signal" id="54j" points="4740,1160 4729,1154 4729,1165"/>
</g>
</g>
<g cb-alg-fx="$391$cb-alg-psta$" cb-algorithm-id="006" cb-classname="ExternalPointInterface" cb-function-name="OUTPUT" id="546">
<ellipse cb-classname="GraphicEllipseEntity" class="algorithm" cx="4780" cy="1400" id="548" rx="40" ry="40"/>
<rect cb-classname="GraphicRectangleEntity" class="algorithm" height="80" id="54Q" width="30" x="4820" y="1360"/>
<line cb-classname="GraphicLineEntity" class="algorithm" id="54l" x1="4820" x2="4850" y1="1400" y2="1400"/>
<g cb-classname="PointStatusIndicator" cb-indicator-type="highway" cb-source="rG-icO-5F" id="54Z" visibility="hidden">
<line cb-classname="GraphicLineEntity" class="algorithmline" id="54M" x1="4740" x2="4780" y1="1400" y2="1360"/>
<line cb-classname="GraphicLineEntity" class="algorithmline" id="54X" x1="4780" x2="4820" y1="1360" y2="1400"/>
<line cb-classname="GraphicLineEntity" class="algorithmline" id="54a" x1="4820" x2="4780" y1="1400" y2="1440"/>
<line cb-classname="GraphicLineEntity" class="algorithmline" id="540" x1="4780" x2="4740" y1="1440" y2="1400"/>
</g>
<g cb-classname="PointStatusIndicator" cb-indicator-type="hardware" cb-source="AE-J1R-Ba" id="5Ej" visibility="hidden">
<line cb-classname="GraphicLineEntity" class="algorithmline" id="5E6" x1="4820" x2="4740" y1="1360" y2="1360"/>
<line cb-classname="GraphicLineEntity" class="algorithmline" id="5E8" x1="4740" x2="4740" y1="1360" y2="1440"/>
<line cb-classname="GraphicLineEntity" class="algorithmline" id="5EQ" x1="4740" x2="4820" y1="1440" y2="1440"/>
</g>
<g cb-classname="PointStatusIndicator" cb-indicator-type="alarm" cb-source="nb-JUC-Ul" id="5El" visibility="hidden">
<text cb-classname="GraphicTextEntity" class="algorithm" fill="#000000" font-family="Arial" font-size="20" id="5EZ" x="4827" y="1389">
A
</text>
</g>
<g cb-classname="PointStatusIndicator" cb-indicator-type="ingraphic" cb-source="RL-0gy-zd" id="5EM" visibility="hidden">
<text cb-classname="GraphicTextEntity" class="algorithm" fill="#000000" font-family="Arial" font-size="20" id="5EX" x="4825" y="1430">
G
</text>
</g>
<g cb-classname="DynamicText" cb-labeled="false" cb-pin-name="nQ" cb-source="rG-icO-5F" class="algorithm" id="5Ea" text-anchor="end">
<text baseline-shift="0%" cb-classname="GraphicTextEntity" class="algorithm" fill="black" font-family="Arial" font-size="20" font-style="normal" font-weight="normal" id="5E0" text-anchor="end" text-decoration="normal" x="4717" y="1379"/>
</g>
<g baseline-shift="-100%" cb-anchor-x="4718" cb-anchor-y="1416" cb-classname="PointReferences" cb-max-width="240" cb-originator="false" cb-source="57-4SI-cA" class="signal" id="5Yj" text-anchor="end">
<text baseline-shift="-100%" cb-classname="GraphicTextEntity" class="algorithm" id="5Y6" text-anchor="end" x="4718" y="1416">
-
</text>
</g>
<g baseline-shift="-50%" cb-anchor-x="4871" cb-anchor-y="1398" cb-classname="PointDescription" cb-content="extended" cb-labeled="false" cb-max-width="340" cb-source="gi-0ZX-Br" class="algorithm" id="5Y8" text-anchor="start">
<text baseline-shift="-50%" cb-classname="GraphicTextEntity" class="algorithm" id="5YQ" text-anchor="start" x="4871" y="1398">
SIM SOV typical
</text>
</g>
<g cb-classname="ControlPin" cb-pin-name="cL-PZ0-x6" id="5YZ">
<line cb-classname="GraphicLineEntity" class="signalline" id="5YM" x1="4720" x2="4740" y1="1400" y2="1400"/>
<polygon cb-classname="GraphicPolygonEntity" class="signal" id="5YX" points="4740,1400 4729,1394 4729,1405"/>
</g>
</g>
<g cb-alg-Fh="$391$cb-alg-stat$" cb-algorithm-id="007" cb-classname="ExternalPointInterface" cb-function-name="OUTPUT" id="5Ya">
<ellipse cb-classname="GraphicEllipseEntity" class="algorithm" cx="4780" cy="1530" id="5Y0" rx="40" ry="40"/>
<rect cb-classname="GraphicRectangleEntity" class="algorithm" height="80" id="5Pj" width="30" x="4820" y="1490"/>
<line cb-classname="GraphicLineEntity" class="algorithm" id="5P6" x1="4820" x2="4850" y1="1530" y2="1530"/>
<g cb-classname="PointStatusIndicator" cb-indicator-type="highway" cb-source="sd-OIv-Ik" id="5P8" visibility="hidden">
<line cb-classname="GraphicLineEntity" class="algorithmline" id="5PQ" x1="4740" x2="4780" y1="1530" y2="1490"/>
<line cb-classname="GraphicLineEntity" class="algorithmline" id="5Pl" x1="4780" x2="4820" y1="1490" y2="1530"/>
<line cb-classname="GraphicLineEntity" class="algorithmline" id="5PZ" x1="4820" x2="4780" y1="1530" y2="1570"/>
<line cb-classname="GraphicLineEntity" class="algorithmline" id="5PM" x1="4780" x2="4740" y1="1570" y2="1530"/>
</g>
<g cb-classname="PointStatusIndicator" cb-indicator-type="hardware" cb-source="9q-i2G-kQ" id="5PX" visibility="hidden">
<line cb-classname="GraphicLineEntity" class="algorithmline" id="5Pa" x1="4820" x2="4740" y1="1490" y2="1490"/>
<line cb-classname="GraphicLineEntity" class="algorithmline" id="5P0" x1="4740" x2="4740" y1="1490" y2="1570"/>
<line cb-classname="GraphicLineEntity" class="algorithmline" id="6Tj" x1="4740" x2="4820" y1="1570" y2="1570"/>
</g>
<g cb-classname="PointStatusIndicator" cb-indicator-type="alarm" cb-source="0D-tOu-be" id="6T6" visibility="hidden">
<text cb-classname="GraphicTextEntity" class="algorithm" fill="#000000" font-family="Arial" font-size="20" id="6T8" x="4827" y="1519">
A
</text>
</g>
<g cb-classname="PointStatusIndicator" cb-indicator-type="ingraphic" cb-source="32-yR7-Og" id="6TQ" visibility="hidden">
<text cb-classname="GraphicTextEntity" class="algorithm" fill="#000000" font-family="Arial" font-size="20" id="6Tl" x="4825" y="1560">
G
</text>
</g>
<g cb-classname="DynamicText" cb-labeled="false" cb-pin-name="SS" cb-source="sd-OIv-Ik" class="algorithm" id="6TZ" text-anchor="end">
<text baseline-shift="0%" cb-classname="GraphicTextEntity" class="algorithm" fill="black" font-family="Arial" font-size="20" font-style="normal" font-weight="normal" id="6TM" text-anchor="end" text-decoration="normal" x="4717" y="1509"/>
</g>
<g baseline-shift="-100%" cb-anchor-x="4718" cb-anchor-y="1546" cb-classname="PointReferences" cb-max-width="240" cb-originator="false" cb-source="43-oww-Sc" class="signal" id="6TX" text-anchor="end">
<text baseline-shift="-100%" cb-classname="GraphicTextEntity" class="algorithm" id="6Ta" text-anchor="end" x="4718" y="1546">
-
</text>
</g>
<g baseline-shift="-50%" cb-anchor-x="4871" cb-anchor-y="1528" cb-classname="PointDescription" cb-content="extended" cb-labeled="false" cb-max-width="340" cb-source="AE-J1R-Ba" class="algorithm" id="6T0" text-anchor="start">
<text baseline-shift="-50%" cb-classname="GraphicTextEntity" class="algorithm" id="69j" text-anchor="start" x="4871" y="1511">
@ Ovation Control Builder
</text>
<text baseline-shift="-50%" cb-classname="GraphicTextEntity" class="algorithm" id="696" text-anchor="start" x="4871" y="1547">
@
</text>
</g>
<g cb-classname="ControlPin" cb-pin-name="Br-B5B-fr" id="698">
<line cb-classname="GraphicLineEntity" class="signalline" id="69Q" x1="4720" x2="4740" y1="1530" y2="1530"/>
<polygon cb-classname="GraphicPolygonEntity" class="signal" id="69l" points="4740,1530 4729,1524 4729,1535"/>
</g>
</g>
<g cb-alg-lF="$391$cb-alg-derr$" cb-algorithm-id="008" cb-classname="ExternalPointInterface" cb-function-name="OUTPUT" id="69Z">
<ellipse cb-classname="GraphicEllipseEntity" class="algorithm" cx="4780" cy="1660" id="69M" rx="40" ry="40"/>
<rect cb-classname="GraphicRectangleEntity" class="algorithm" height="80" id="69X" width="30" x="4820" y="1620"/>
<line cb-classname="GraphicLineEntity" class="algorithm" id="69a" x1="4820" x2="4850" y1="1660" y2="1660"/>
<g cb-classname="PointStatusIndicator" cb-indicator-type="highway" cb-source="57-4SI-cA" id="690" visibility="hidden">
<line cb-classname="GraphicLineEntity" class="algorithmline" id="6xj" x1="4740" x2="4780" y1="1660" y2="1620"/>
<line cb-classname="GraphicLineEntity" class="algorithmline" id="6x6" x1="4780" x2="4820" y1="1620" y2="1660"/>
<line cb-classname="GraphicLineEntity" class="algorithmline" id="6x8" x1="4820" x2="4780" y1="1660" y2="1700"/>
<line cb-classname="GraphicLineEntity" class="algorithmline" id="6xQ" x1="4780" x2="4740" y1="1700" y2="1660"/>
</g>
<g cb-classname="PointStatusIndicator" cb-indicator-type="hardware" cb-source="cL-PZ0-x6" id="6xl" visibility="hidden">
<line cb-classname="GraphicLineEntity" class="algorithmline" id="6xZ" x1="4820" x2="4740" y1="1620" y2="1620"/>
<line cb-classname="GraphicLineEntity" class="algorithmline" id="6xM" x1="4740" x2="4740" y1="1620" y2="1700"/>
<line cb-classname="GraphicLineEntity" class="algorithmline" id="6xX" x1="4740" x2="4820" y1="1700" y2="1700"/>
</g>
<g cb-classname="PointStatusIndicator" cb-indicator-type="alarm" cb-source="RL-0gy-zd" id="6xa" visibility="hidden">
<text cb-classname="GraphicTextEntity" class="algorithm" fill="#000000" font-family="Arial" font-size="20" id="6x0" x="4827" y="1649">
A
</text>
</g>
<g cb-classname="PointStatusIndicator" cb-indicator-type="ingraphic" cb-source="rG-icO-5F" id="6hj" visibility="hidden">
<text cb-classname="GraphicTextEntity" class="algorithm" fill="#000000" font-family="Arial" font-size="20" id="6h6" x="4825" y="1690">
G
</text>
</g>
<g cb-classname="DynamicText" cb-labeled="false" cb-pin-name="n0" cb-source="57-4SI-cA" class="algorithm" id="6h8" text-anchor="end">
<text baseline-shift="0%" cb-classname="GraphicTextEntity" class="algorithm" fill="black" font-family="Arial" font-size="20" font-style="normal" font-weight="normal" id="6hQ" text-anchor="end" text-decoration="normal" x="4717" y="1639"/>
</g>
<g baseline-shift="-100%" cb-anchor-x="4718" cb-anchor-y="1676" cb-classname="PointReferences" cb-max-width="240" cb-originator="false" cb-source="gi-0ZX-Br" class="signal" id="6hl" text-anchor="end">
<text baseline-shift="-100%" cb-classname="GraphicTextEntity" class="algorithm" id="6hZ" text-anchor="end" x="4718" y="1676">
-
</text>
</g>
<g baseline-shift="-50%" cb-anchor-x="4871" cb-anchor-y="1658" cb-classname="PointDescription" cb-content="extended" cb-labeled="false" cb-max-width="340" cb-source="9q-i2G-kQ" class="algorithm" id="6hM" text-anchor="start">
<text baseline-shift="-50%" cb-classname="GraphicTextEntity" class="algorithm" id="6hX" text-anchor="start" x="4871" y="1641">
@ Ovation Control Builder
</text>
<text baseline-shift="-50%" cb-classname="GraphicTextEntity" class="algorithm" id="6ha" text-anchor="start" x="4871" y="1677">
@
</text>
</g>
<g cb-classname="ControlPin" cb-pin-name="nb-JUC-Ul" id="6h0">
<line cb-classname="GraphicLineEntity" class="signalline" id="6ej" x1="4720" x2="4740" y1="1660" y2="1660"/>
<polygon cb-classname="GraphicPolygonEntity" class="signal" id="6e6" points="4740,1660 4729,1654 4729,1665"/>
</g>
</g>
<g cb-alg-9tud="XAFB-SIM-SOV1" cb-alg-bKmZ="$391$cb-alg-derr$" cb-alg-bKmZW="SIM-SOV1-DERR1" cb-alg-bKmZt="SIM-SOV1-DERR2" cb-algorithm-id="00A" cb-classname="ControlMacroReference" cb-function-name="DERR_ALARMS" cb-macro-crc="37481" cb-modify-id="00000001" id="6e8">
<rect cb-classname="GraphicRectangleEntity" class="algorithm" height="120" id="6eQ" width="80" x="3500" y="1820"/>
<text baseline-shift="0%" cb-classname="GraphicTextEntity" class="algorithm" font-size="12" id="6el" x="3520" y="1850">
DERR
</text>
<text baseline-shift="0%" cb-classname="GraphicTextEntity" class="algorithm" font-size="12" id="6eZ" x="3510" y="1870">
ALARMS
</text>
<g cb-classname="ControlPin" cb-pin-name="43-oww-IUY1" id="6eM">
<line cb-classname="GraphicLineEntity" class="signalline" id="6eX" x1="3540" x2="3540" y1="1790" y2="1820"/>
<polygon cb-classname="GraphicPolygonEntity" class="signal" id="6ea" points="3540,1820 3545,1809 3534,1809"/>
<g cb-classname="DynamicText" cb-source="9q-bSc-ajnz" id="6e0">
<text cb-classname="GraphicTextEntity" class="signal" id="6mj" text-anchor="start" transform="translate(3537,1805)rotate(-90)"/>
</g>
</g>
<g cb-classname="ControlPin" cb-pin-name="Br-B5B-Mp8xR" id="6m6">
<line cb-classname="GraphicLineEntity" class="signalline" id="6m8" x1="3580" x2="3610" y1="1840" y2="1840"/>
<g cb-classname="DynamicText" cb-source="0D-ux6-l41e" id="6mQ">
<text cb-classname="GraphicTextEntity" class="signal" id="6ml" text-anchor="start" x="3594" y="1837"/>
</g>
<g cb-classname="SignalSegment" id="6mZ">
<g cb-classname="SignalConnection" cb-graphic-line="$657$" cb-input-pin="$b4P$" id="6mM"/>
<line cb-classname="GraphicLineEntity" class="signalline" id="6mX" x1="3610" x2="3950" y1="1840" y2="1840"/>
</g>
</g>
<g cb-classname="ControlPin" cb-pin-name="57-4SI-Q8vYA" id="6ma">
<line cb-classname="GraphicLineEntity" class="signalline" id="6m0" x1="3580" x2="3610" y1="1860" y2="1860"/>
<g cb-classname="DynamicText" cb-source="gi-XIk-ceuw" id="64j">
<text cb-classname="GraphicTextEntity" class="signal" id="646" text-anchor="start" x="3594" y="1857"/>
</g>
<g cb-classname="SignalSegment" id="648">
<g cb-classname="SignalConnection" cb-graphic-line="$664$" cb-input-pin="$4a4$" id="64Q"/>
<line cb-classname="GraphicLineEntity" class="signalline" id="64l" x1="3610" x2="3950" y1="1860" y2="1860"/>
</g>
</g>
<g cb-classname="ControlPin" cb-pin-name="nb-JUC-FOyE" id="64Z">
<line cb-classname="GraphicLineEntity" class="signalline" id="64M" x1="3540" x2="3540" y1="1940" y2="1970"/>
<g cb-classname="DynamicText" cb-source="RL-vfr-eo3O" id="64X">
<text cb-classname="GraphicTextEntity" class="signal" id="64a" text-anchor="end" transform="translate(3537,1954)rotate(-90)"/>
</g>
<g cb-classname="SignalSegment" id="640">
<line cb-classname="GraphicLineEntity" class="signalline" id="6Ej" stroke="#1e12bf" stroke-dasharray="5,4" x1="3540" x2="3540" y1="1970" y2="2140"/>
<g cb-classname="SignalSegment" id="6E6">
<line cb-classname="GraphicLineEntity" class="signalline" id="6E8" stroke="#1e12bf" stroke-dasharray="5,4" x1="3540" x2="4720" y1="2140" y2="2140"/>
<g cb-classname="SignalConnection" cb-graphic-line="$672$" cb-input-pin="$wRi$" id="6EQ"/>
</g>
</g>
</g>
</g>
<g cb-alg-5="0" cb-alg-QORNJ="850" cb-alg-Qd0c3="SIM-SOV1-DERR" cb-alg-V="0" cb-alg-WWhN6="TITLE4" cb-alg-WWhN8="1-16 DERR ALARMS" cb-alg-WWhNB="DEVICE ERROR ALARMS WINDOW" cb-alg-WWhNI="TITLE5" cb-alg-WWhNM="TITLE7" cb-alg-WWhNP="TITLE3" cb-alg-WWhNe="TITLE8" cb-alg-WWhNg="17-24 DERR ALARMS" cb-alg-WWhNh="TITLE6" cb-alg-vTX="DISABLED" cb-alg-z92F6="NORMAL" cb-alg-z92F8="INVERT" cb-alg-z92FI="NORMAL" cb-alg-z92FM="NORMAL" cb-alg-z92FP="NORMAL" cb-alg-z92Fe="NORMAL" cb-alg-z92Fg="INVERT" cb-alg-z92Fh="NORMAL" cb-alg-zdk="$642$cb-alg-derr2$" cb-alg-zdt="$642$cb-alg-derr1$" cb-alg-zdyt3J="DISABLED" cb-algorithm-id="00B" cb-classname="AutomaticWindowAlgorithm" cb-function-name="PERMISSIVEWINDOW" id="6El">
<rect cb-classname="GraphicRectangleEntity" class="algorithm" height="190" id="6EZ" width="120" x="3980" y="1810"/>
<g cb-classname="ControlPin" cb-pin-name="cL-PZ0-x6W" id="6EM">
<line cb-classname="GraphicLineEntity" class="signalline" id="6EX" x1="3950" x2="3980" y1="1840" y2="1840"/>
<polygon cb-classname="GraphicPolygonEntity" class="signal" id="6Ea" points="3980,1840 3969,1834 3969,1845"/>
<g cb-classname="DynamicText" cb-source="0D-ux6-l41e" id="6E0">
<text cb-classname="GraphicTextEntity" class="signal" id="6Yj" text-anchor="end" x="3965" y="1837"/>
</g>
</g>
<g cb-classname="ControlPin" cb-pin-name="32-yR7-Ogh" id="6Y6">
<line cb-classname="GraphicLineEntity" class="signalline" id="6Y8" x1="3950" x2="3980" y1="1860" y2="1860"/>
<polygon cb-classname="GraphicPolygonEntity" class="signal" id="6YQ" points="3980,1860 3969,1854 3969,1865"/>
<g cb-classname="DynamicText" cb-source="57-HOg-kyN3" id="6Yl">
<text cb-classname="GraphicTextEntity" class="signal" id="6YZ" text-anchor="end" x="3965" y="1857"/>
</g>
</g>
<g cb-classname="GraphicShape" id="6YM">
<g cb-classname="DynamicText" cb-labeled="true" cb-source="AE-J1R-Fajnz" id="6YX">
<text cb-classname="GraphicTextEntity" class="algorithm" id="6Ya" text-anchor="start" x="3980" y="2030"/>
</g>
</g>
<text baseline-shift="0%" cb-classname="GraphicTextEntity" class="algorithm" font-family="ms shell dlg 2" font-size="8" id="6Y0" x="3990" y="1840">
DERR1
</text>
<text baseline-shift="0%" cb-classname="GraphicTextEntity" class="algorithm" font-family="ms shell dlg 2" font-size="8" id="6Pj" x="3990" y="1860">
DERR2
</text>
<text baseline-shift="0%" cb-classname="GraphicTextEntity" class="algorithm" font-family="ms shell dlg 2" font-size="12" id="6P6" x="4030" y="1830">
DERR
</text>
<text baseline-shift="0%" cb-classname="GraphicTextEntity" class="algorithm" font-family="ms shell dlg 2" font-size="12" id="6P8" x="4030" y="1850">
ALARMS
</text>
<text baseline-shift="0%" cb-classname="GraphicTextEntity" class="algorithm" font-family="ms shell dlg 2" font-size="12" id="6PQ" x="4030" y="1870">
WINDOW
</text>
</g>
<g cb-alg-zM="$642$cb-alg-xafb$" cb-algorithm-id="00C" cb-classname="ExternalPointInterface" cb-function-name="OUTPUT" id="6Pl">
<ellipse cb-classname="GraphicEllipseEntity" class="algorithm" cx="4780" cy="2140" id="6PZ" rx="40" ry="40"/>
<rect cb-classname="GraphicRectangleEntity" class="algorithm" height="80" id="6PM" width="30" x="4820" y="2100"/>
<line cb-classname="GraphicLineEntity" class="algorithm" id="6PX" x1="4820" x2="4850" y1="2140" y2="2140"/>
<g cb-classname="PointStatusIndicator" cb-indicator-type="highway" cb-source="43-oww-Sc" id="6Pa" visibility="hidden">
<line cb-classname="GraphicLineEntity" class="algorithmline" id="6P0" x1="4740" x2="4780" y1="2140" y2="2100"/>
<line cb-classname="GraphicLineEntity" class="algorithmline" id="7Tj" x1="4780" x2="4820" y1="2100" y2="2140"/>
<line cb-classname="GraphicLineEntity" class="algorithmline" id="7T6" x1="4820" x2="4780" y1="2140" y2="2180"/>
<line cb-classname="GraphicLineEntity" class="algorithmline" id="7T8" x1="4780" x2="4740" y1="2180" y2="2140"/>
</g>
<g cb-classname="PointStatusIndicator" cb-indicator-type="hardware" cb-source="Br-B5B-fr" id="7TQ" visibility="hidden">
<line cb-classname="GraphicLineEntity" class="algorithmline" id="7Tl" x1="4820" x2="4740" y1="2100" y2="2100"/>
<line cb-classname="GraphicLineEntity" class="algorithmline" id="7TZ" x1="4740" x2="4740" y1="2100" y2="2180"/>
<line cb-classname="GraphicLineEntity" class="algorithmline" id="7TM" x1="4740" x2="4820" y1="2180" y2="2180"/>
</g>
<g cb-classname="PointStatusIndicator" cb-indicator-type="alarm" cb-source="32-yR7-Og" id="7TX" visibility="hidden">
<text cb-classname="GraphicTextEntity" class="algorithm" fill="#000000" font-family="Arial" font-size="20" id="7Ta" x="4827" y="2129">
A
</text>
</g>
<g cb-classname="PointStatusIndicator" cb-indicator-type="ingraphic" cb-source="sd-OIv-Ik" id="7T0" visibility="hidden">
<text cb-classname="GraphicTextEntity" class="algorithm" fill="#000000" font-family="Arial" font-size="20" id="79j" x="4825" y="2170">
G
</text>
</g>
<g cb-classname="DynamicText" cb-labeled="false" cb-pin-name="9H" cb-source="43-oww-Sc" class="algorithm" id="796" text-anchor="end">
<text baseline-shift="0%" cb-classname="GraphicTextEntity" class="algorithm" fill="black" font-family="Arial" font-size="20" font-style="normal" font-weight="normal" id="798" text-anchor="end" text-decoration="normal" x="4717" y="2119"/>
</g>
<g baseline-shift="-100%" cb-anchor-x="4718" cb-anchor-y="2156" cb-classname="PointReferences" cb-max-width="240" cb-originator="false" cb-source="AE-J1R-Ba" class="signal" id="79Q" text-anchor="end">
<text baseline-shift="-100%" cb-classname="GraphicTextEntity" class="algorithm" id="79l" text-anchor="end" x="4718" y="2156">
-
</text>
</g>
<g baseline-shift="-50%" cb-anchor-x="4871" cb-anchor-y="2138" cb-classname="PointDescription" cb-content="extended" cb-labeled="false" cb-max-width="340" cb-source="cL-PZ0-x6" class="algorithm" id="79Z" text-anchor="start">
<text baseline-shift="-50%" cb-classname="GraphicTextEntity" class="algorithm" id="79M" text-anchor="start" x="4871" y="2121">
@ Ovation Control Builder
</text>
<text baseline-shift="-50%" cb-classname="GraphicTextEntity" class="algorithm" id="79X" text-anchor="start" x="4871" y="2157">
@
</text>
</g>
<g cb-classname="ControlPin" cb-pin-name="RL-0gy-zd" id="790">
<line cb-classname="GraphicLineEntity" class="signalline" id="7xj" x1="4720" x2="4740" y1="2140" y2="2140"/>
<polygon cb-classname="GraphicPolygonEntity" class="signal" id="7x6" points="4740,2140 4729,2134 4729,2145"/>
</g>
</g>
</g>
<g cb-classname="IncludeDocument" cb-modify-time="12/03/2019 14:33:51" cb-objectname="frame" id="5">
<text cb-classname="GraphicTextEntity" class="frame" font-size="50" id="1PQr" x="3660" y="3146">
HERA
</text>
<g baseline-shift="-50%" cb-classname="DynamicText" cb-source="AE-AqYz-kr" class="frame" id="1PQf">
<text cb-classname="GraphicTextEntity" class="frame" fill="black" font-family="arial" font-size="25" font-style="normal" font-weight="normal" id="1PQ8" text-decoration="normal" x="4715" y="3325">
2
</text>
</g>
<g baseline-shift="-50%" cb-classname="DynamicText" cb-source="cL-6Gmu-fa" class="frame" id="1PQG" text-anchor="middle">
<text cb-classname="GraphicTextEntity" class="frame" fill="black" font-family="arial" font-size="48" font-style="normal" font-weight="normal" id="1PQt" text-anchor="middle" text-decoration="normal" x="4900" y="3320">
2
</text>
</g>
<g baseline-shift="-50%" cb-classname="DynamicText" cb-source="nb-ZtwK-bv" class="frame" id="1PQe" text-anchor="middle">
<text cb-classname="GraphicTextEntity" class="frame" fill="black" font-family="arial" font-size="48" font-style="normal" font-weight="normal" id="1Plz" text-anchor="middle" text-decoration="normal" x="5067" y="3324">
2
</text>
</g>
<g cb-classname="DynamicText" cb-source="RL-w8pCW-YIZ2U" class="frame" id="1Pl4">
<text cb-classname="GraphicTextEntity" class="frame" fill="black" font-family="arial" font-size="48" font-style="normal" font-weight="normal" id="1PlQ" text-decoration="normal" x="3660" y="3224">
TYPICAL_SOV1
</text>
</g>
<g baseline-shift="-50%" cb-classname="DynamicText" cb-source="rG-6y8WY-kiNDh2" class="frame" id="1PlY" text-anchor="middle">
<text cb-classname="GraphicTextEntity" class="frame" fill="black" font-family="arial" font-size="48" font-style="normal" font-weight="normal" id="1Plr" text-anchor="middle" text-decoration="normal" x="5270" y="3324">
103
</text>
</g>
<g baseline-shift="0%" cb-classname="DynamicText" cb-source="57-xWOINS1r" class="frame" id="1Plf" text-anchor="middle">
<text cb-classname="GraphicTextEntity" class="frame" fill="black" font-family="arial" font-size="36" font-style="normal" font-weight="normal" id="1Pl8" text-anchor="middle" text-decoration="normal" x="5270" y="3150">
A
</text>
</g>
<g baseline-shift="0%" cb-classname="DynamicText" cb-source="gi-mOLSfBIQ-PBRW" class="frame" id="1PlG" text-anchor="middle">
<text cb-classname="GraphicTextEntity" class="frame" fill="black" font-family="arial" font-size="20" font-style="normal" font-weight="normal" id="1Plt" text-anchor="middle" text-decoration="normal" x="5270" y="3230">

</text>
</g>
<g baseline-shift="-50%" cb-classname="DynamicText" cb-source="9q-3AGBawYh" class="frame" id="1Ple" text-anchor="end">
<text cb-classname="GraphicTextEntity" class="frame" fill="black" font-family="arial" font-size="26" font-style="normal" font-weight="normal" id="1PZz" text-anchor="end" text-decoration="normal" x="4500" y="3420">

</text>
</g>
<g baseline-shift="-50%" cb-classname="DynamicText" cb-source="Br-GvqxAeCx" class="frame" id="1PZ4" text-anchor="end">
<text cb-classname="GraphicTextEntity" class="frame" fill="black" font-family="arial" font-size="26" font-style="normal" font-weight="normal" id="1PZQ" text-anchor="end" text-decoration="normal" x="5353" y="3420">

</text>
</g>
<g cb-classname="GraphicShape" cb-tag="BORDER" id="1PZY">
<line cb-classname="GraphicLineEntity" class="frameline" id="1PZr" x1="40" x2="40" y1="40" y2="3460"/>
<line cb-classname="GraphicLineEntity" class="frameline" id="1PZf" x1="40" x2="5380" y1="3460" y2="3460"/>
<line cb-classname="GraphicLineEntity" class="frameline" id="1PZ8" x1="5380" x2="5380" y1="3460" y2="40"/>
<line cb-classname="GraphicLineEntity" class="frameline" id="1PZG" x1="5380" x2="40" y1="40" y2="40"/>
<line cb-classname="GraphicLineEntity" class="frame" id="1PZt" x1="5430" x2="5440" y1="3510" y2="3510"/>
</g>
<g cb-classname="GraphicShape" cb-tag="TITLE BOX" id="1PZe">
<line cb-classname="GraphicLineEntity" class="frameline" id="1PMz" x1="2340" x2="2340" y1="3080" y2="3460"/>
<line cb-classname="GraphicLineEntity" class="frameline" id="1PM4" x1="2340" x2="5380" y1="3080" y2="3080"/>
<line cb-classname="GraphicLineEntity" class="frameline" id="1PMQ" x1="3650" x2="3650" y1="3460" y2="3080"/>
<line cb-classname="GraphicLineEntity" class="frameline" id="1PMY" x1="3650" x2="5380" y1="3240" y2="3240"/>
<line cb-classname="GraphicLineEntity" class="frameline" id="1PMr" x1="3650" x2="5380" y1="3390" y2="3390"/>
<line cb-classname="GraphicLineEntity" class="frameline" id="1PMf" x1="3650" x2="5380" y1="3160" y2="3160"/>
<line cb-classname="GraphicLineEntity" class="frameline" id="1PM8" x1="3650" x2="4520" y1="3320" y2="3320"/>
<line cb-classname="GraphicLineEntity" class="frameline" id="1PMG" x1="4520" x2="5380" y1="3290" y2="3290"/>
<line cb-classname="GraphicLineEntity" class="frameline" id="1PMt" x1="4520" x2="5380" y1="3240" y2="3240"/>
<line cb-classname="GraphicLineEntity" class="frameline" id="1PMe" x1="4520" x2="4520" y1="3240" y2="3460"/>
<line cb-classname="GraphicLineEntity" class="frameline" id="1PXz" x1="4810" x2="4810" y1="3240" y2="3390"/>
<line cb-classname="GraphicLineEntity" class="frameline" id="1PX4" x1="4990" x2="4990" y1="3240" y2="3390"/>
<line cb-classname="GraphicLineEntity" class="frameline" id="1PXQ" x1="5150" x2="5150" y1="3080" y2="3390"/>
</g>
<g cb-classname="GraphicShape" cb-tag="TEXT LABELS" id="1PXY">
<text baseline-shift="-50%" cb-classname="GraphicTextEntity" class="frame" font-size="25" id="1PXr" text-anchor="middle" x="4890" y="3252">
Drop
</text>
<text baseline-shift="-50%" cb-classname="GraphicTextEntity" class="frame" font-size="25" id="1PXf" text-anchor="middle" x="5075" y="3252">
Task
</text>
<text baseline-shift="-50%" cb-classname="GraphicTextEntity" class="frame" font-size="25" id="1PX8" text-anchor="middle" x="5265" y="3252">
Sheet
</text>
<text cb-classname="GraphicTextEntity" class="frame" font-size="25" id="1PXG" x="5152" y="3107">
Rev.
</text>
<text cb-classname="GraphicTextEntity" class="frame" font-size="25" id="1PXt" x="3653" y="3418">
Engineer
</text>
<text cb-classname="GraphicTextEntity" class="frame" font-size="25" id="1PXe" x="4528" y="3419">
Approved
</text>
<text cb-classname="GraphicTextEntity" class="frame" font-size="25" id="1Paz" x="5152" y="3187">
Date
</text>
<text baseline-shift="-50%" cb-classname="GraphicTextEntity" class="frame" font-size="25" id="1Pa4" text-anchor="middle" x="4660" y="3252">
Drawing Number
</text>
<text baseline-shift="-50%" cb-classname="GraphicTextEntity" class="frame" font-size="25" id="1PaQ" text-anchor="middle" x="4680" y="3325">
CTL
</text>
</g>
<text baseline-shift="-50%" cb-classname="GraphicTextEntity" class="frame" font-size="48" id="1PaY" text-anchor="middle" x="3000" y="3100">
EMERSON PROCESS MANAGEMENT
</text>
<g baseline-shift="-100%" cb-anchor-x="2360" cb-anchor-y="3140" cb-classname="GroupText" cb-max-width="1260" fill="black" id="1Par">
<text baseline-shift="-100%" cb-classname="GraphicTextEntity" class="frame" fill="black" font-family="arial" font-size="22" font-weight="normal" id="1Paf" text-anchor="start" text-decoration="normal" x="2360" y="3140">
THIS DOCUMENT CONTAINS INFORMATION PROPRIETARY TO EMERSON PROCESS
</text>
<text baseline-shift="-100%" cb-classname="GraphicTextEntity" class="frame" fill="black" font-family="arial" font-size="22" font-weight="normal" id="1Pa8" text-anchor="start" text-decoration="normal" x="2360" y="3176">
MANAGEMENT POWER &amp; WATER SOLUTIONS, INC. IT IS SUBMITTED IN CONFIDENCE AND
</text>
<text baseline-shift="-100%" cb-classname="GraphicTextEntity" class="frame" fill="black" font-family="arial" font-size="22" font-weight="normal" id="1PaG" text-anchor="start" text-decoration="normal" x="2360" y="3212">
TRUST, IS TO BE USED BY YOU SOLELY FOR THE PURPOSES FOR WHICH IT IS
</text>
<text baseline-shift="-100%" cb-classname="GraphicTextEntity" class="frame" fill="black" font-family="arial" font-size="22" font-weight="normal" id="1Pat" text-anchor="start" text-decoration="normal" x="2360" y="3248">
FURNISHED AND IS TO BE RETURNED UPON REQUEST. THIS DOCUMENT AND ANY
</text>
<text baseline-shift="-100%" cb-classname="GraphicTextEntity" class="frame" fill="black" font-family="arial" font-size="22" font-weight="normal" id="1Pae" text-anchor="start" text-decoration="normal" x="2360" y="3284">
OTHER INFORMATION PROVIDED TO YOU IS NOT TO BE REPRODUCED, TRANSMITTED,
</text>
<text baseline-shift="-100%" cb-classname="GraphicTextEntity" class="frame" fill="black" font-family="arial" font-size="22" font-weight="normal" id="1P0z" text-anchor="start" text-decoration="normal" x="2360" y="3320">
DISCLOSED, OR USED OTHERWISE IN WHOLE OR IN PART WITHOUT THE PRIOR
</text>
<text baseline-shift="-100%" cb-classname="GraphicTextEntity" class="frame" fill="black" font-family="arial" font-size="22" font-weight="normal" id="1P04" text-anchor="start" text-decoration="normal" x="2360" y="3356">
WRITTEN AUTHORIZATION OF EMERSON PROCESS MANAGEMENT POWER &amp; WATER
</text>
<text baseline-shift="-100%" cb-classname="GraphicTextEntity" class="frame" fill="black" font-family="arial" font-size="22" font-weight="normal" id="1P0Q" text-anchor="start" text-decoration="normal" x="2360" y="3392">
SOLUTIONS,INC.
</text>
</g>
</g>
</svg>