<?xml version="1.0" ?><svg cb-auto-time="04/16/2020 10:26:00" cb-classname="ControlFunction" cb-create-time="09/02/2015" cb-drop-id="2" cb-filename="Z:\OVATION\NET0\UNIT0\CONTROLFUNCTIONS\038C.svg" cb-function-id="038C" cb-key="424433215255" cb-modified-timestamp="1587023825" cb-modify-id="00000002" cb-ortho-mode="enabled" cb-path="Z:/OVATION/NET0/UNIT0/CONTROLFUNCTIONS" cb-revision="A" cb-sheet-number="101" cb-sheet-title="TYPICAL_MAN_VLV" cb-snap-grid="10" cb-task-id="2" height="3522" id="1" width="5450" xmlns="http://www.w3.org/2000/svg">
<style cb-classname="EntityStyle" id="2" type="text/css">
	.algorithm { fill: white; stroke: black; stroke-width: 3 }
	.algorithm-function { fill: black; stroke: none }
	.algorithm-functionline { fill: none; stroke: black; stroke-linecap: round; stroke-width: 3 }
	.algorithm-name { fill: black; stroke: none }
	.algorithm-nameline { fill: none; stroke: black; stroke-linecap: round; stroke-width: 3 }
	.algorithm-sequence { fill: black; stroke: none; visibility: hidden }
	.algorithm-sequenceline { fill: none; stroke: black; stroke-linecap: round; stroke-width: 3; visibility: hidden }
	.algorithmline { fill: none; stroke: black; stroke-linecap: round; stroke-width: 3 }
	.annotation { fill: black; stroke: none }
	.annotationline { fill: none; stroke: black; stroke-linecap: round; stroke-width: 3 }
	.frame { fill: black; stroke: none }
	.frameline { fill: none; stroke: black; stroke-linecap: round; stroke-width: 3 }
	.signal { fill: black; stroke: none }
	.signalline { fill: none; stroke: black; stroke-linecap: round; stroke-width: 3 }
	text.algorithm { fill: black; font-family: Arial; font-size: 22; stroke: none }
	text.algorithm-function { fill: black; font-family: Arial; font-size: 22; stroke: none }
	text.algorithm-name { fill: black; font-family: Arial; font-size: 22; stroke: none }
	text.algorithm-sequence { fill: black; font-family: Arial; font-size: 22; stroke: none; visibility: hidden }
	text.annotation { fill: black; font-family: Arial; font-size: 22; stroke: none }
	text.frame { fill: black; font-family: Arial; font-size: 18; stroke: none }
	text.signal { fill: black; font-family: Arial; font-size: 12; stroke: none }
</style>
<g cb-classname="NamedObject" cb-objectname="Comments" id="3"/>
<g cb-classname="AlgorithmContainer" cb-objectname="Algorithms" id="4">
<g cb-alg-5YRV="0.000000" cb-alg-7e5u="69" cb-algorithm-id="002" cb-classname="ControlAlgorithm" cb-function-name="DVALGEN" cb-modify-id="00000001" id="1jP">
<rect cb-classname="GraphicRectangleEntity" class="algorithm" height="60" id="1jy" width="100" x="1130" y="690"/>
<text baseline-shift="-50%" cb-classname="GraphicTextEntity" class="algorithm" font-size="18" id="1bD" text-anchor="middle" x="1180" y="707">
DVAL
</text>
<text baseline-shift="-50%" cb-classname="GraphicTextEntity" class="algorithm" font-size="18" id="1bX" text-anchor="middle" x="1180" y="733">
GEN
</text>
<g cb-classname="ControlPin" cb-pin-name="tk-AjN-55w" id="1bU">
<line cb-classname="GraphicLineEntity" class="signalline" id="1ba" x1="1230" x2="1250" y1="720" y2="720"/>
<g cb-classname="DynamicText" cb-source="yb-7dT-WYXP" class="signal" id="1b4">
<text baseline-shift="5%" cb-classname="GraphicTextEntity" class="signal" fill="black" font-style="normal" font-weight="normal" id="1bx" text-decoration="normal" x="1244" y="710"/>
</g>
<g cb-classname="SignalSegment" id="1bA">
<line cb-classname="GraphicLineEntity" class="signalline" id="1bZ" stroke="#1e12bf" stroke-dasharray="5,4" x1="1250" x2="2450" y1="720" y2="720"/>
<g cb-classname="SignalConnection" cb-graphic-line="$137$" cb-input-pin="$UJK$" id="1bP"/>
</g>
</g>
</g>
<g cb-alg-AUI="SIM-MAN-VLV-FBLR" cb-alg-ldYE="69" cb-alg-v095="1" cb-algorithm-id="001" cb-classname="ControlAlgorithm" cb-function-name="DVALGEN" cb-modify-id="00000001" id="5FX">
<rect cb-classname="GraphicRectangleEntity" class="algorithm" height="60" id="5FU" width="100" x="1130" y="1890"/>
<text baseline-shift="-50%" cb-classname="GraphicTextEntity" class="algorithm" font-size="18" id="5Fa" text-anchor="middle" x="1180" y="1907">
DVAL
</text>
<text baseline-shift="-50%" cb-classname="GraphicTextEntity" class="algorithm" font-size="18" id="5F4" text-anchor="middle" x="1180" y="1933">
GEN
</text>
<g cb-classname="ControlPin" cb-pin-name="cS-zN2-uu6" id="5Fx">
<line cb-classname="GraphicLineEntity" class="signalline" id="5FA" x1="1230" x2="1250" y1="1920" y2="1920"/>
<g cb-classname="DynamicText" cb-source="cL-Y0d-t0aT" class="signal" id="5FZ">
<text baseline-shift="5%" cb-classname="GraphicTextEntity" class="signal" fill="black" font-style="normal" font-weight="normal" id="5FP" text-decoration="normal" x="1244" y="1910"/>
</g>
<g cb-classname="SignalSegment" id="5zZ">
<line cb-classname="GraphicLineEntity" class="signalline" id="5zP" stroke="#1e12bf" stroke-dasharray="5,4" x1="1250" x2="2170" y1="1920" y2="1920"/>
<g cb-classname="SignalSegment" id="5zy">
<line cb-classname="GraphicLineEntity" class="signalline" id="5jD" stroke="#1e12bf" stroke-dasharray="5,4" x1="2170" x2="2170" y1="1920" y2="2000"/>
<g cb-classname="SignalSegment" id="5jX">
<line cb-classname="GraphicLineEntity" class="signalline" id="5jU" stroke="#1e12bf" stroke-dasharray="5,4" x1="2170" x2="2450" y1="2000" y2="2000"/>
<g cb-classname="SignalConnection" cb-graphic-line="$522$" cb-input-pin="$nBM$" id="5ja"/>
</g>
</g>
</g>
</g>
</g>
<g cb-alg-cGH0="0" cb-alg-dMt="SIM-MAN-VLV-FBLL" cb-alg-zWKO="69" cb-algorithm-id="004" cb-classname="ControlAlgorithm" cb-function-name="DVALGEN" cb-modify-id="00000001" id="5Fy">
<rect cb-classname="GraphicRectangleEntity" class="algorithm" height="60" id="5zD" width="100" x="1130" y="2240"/>
<text baseline-shift="-50%" cb-classname="GraphicTextEntity" class="algorithm" font-size="18" id="5zX" text-anchor="middle" x="1180" y="2257">
DVAL
</text>
<text baseline-shift="-50%" cb-classname="GraphicTextEntity" class="algorithm" font-size="18" id="5zU" text-anchor="middle" x="1180" y="2283">
GEN
</text>
<g cb-classname="ControlPin" cb-pin-name="8P-Yn8-LVk" id="5za">
<line cb-classname="GraphicLineEntity" class="signalline" id="5z4" x1="1230" x2="1250" y1="2270" y2="2270"/>
<g cb-classname="DynamicText" cb-source="IW-AeK-DX4E" class="signal" id="5zx">
<text baseline-shift="5%" cb-classname="GraphicTextEntity" class="signal" fill="black" font-style="normal" font-weight="normal" id="5zA" text-decoration="normal" x="1244" y="2260"/>
</g>
<g cb-classname="SignalSegment" id="5j4">
<line cb-classname="GraphicLineEntity" class="signalline" id="5jx" stroke="#1e12bf" stroke-dasharray="5,4" x1="1250" x2="2170" y1="2270" y2="2270"/>
<g cb-classname="SignalSegment" id="5jA">
<line cb-classname="GraphicLineEntity" class="signalline" id="5jZ" stroke="#1e12bf" stroke-dasharray="5,4" x1="2170" x2="2170" y1="2270" y2="2080"/>
<g cb-classname="SignalSegment" id="5jP">
<line cb-classname="GraphicLineEntity" class="signalline" id="5jy" stroke="#1e12bf" stroke-dasharray="5,4" x1="2170" x2="2450" y1="2080" y2="2080"/>
<g cb-classname="SignalConnection" cb-graphic-line="$529$" cb-input-pin="$QDk$" id="5bD"/>
</g>
</g>
</g>
</g>
</g>
<g cb-alg-cGH0="0.000000" cb-alg-zWKO="69" cb-algorithm-id="005" cb-classname="ControlAlgorithm" cb-function-name="DVALGEN" cb-modify-id="00000002" id="1jXa">
<rect cb-classname="GraphicRectangleEntity" class="algorithm" height="60" id="1jXc" width="100" x="1140" y="800"/>
<text baseline-shift="-50%" cb-classname="GraphicTextEntity" class="algorithm" font-size="18" id="1jXm" text-anchor="middle" x="1190" y="817">
DVAL
</text>
<text baseline-shift="-50%" cb-classname="GraphicTextEntity" class="algorithm" font-size="18" id="1jXp" text-anchor="middle" x="1190" y="843">
GEN
</text>
<g cb-classname="ControlPin" cb-pin-name="8P-Yn8-LVk" id="1jXD">
<line cb-classname="GraphicLineEntity" class="signalline" id="1jXf" x1="1240" x2="1260" y1="830" y2="830"/>
<g cb-classname="DynamicText" cb-source="IW-AeK-DX4E" class="signal" id="1jXb">
<text baseline-shift="5%" cb-classname="GraphicTextEntity" class="signal" fill="black" font-style="normal" font-weight="normal" id="1jXv" text-decoration="normal" x="1254" y="820"/>
</g>
<g cb-classname="SignalSegment" id="1jXS">
<g cb-classname="SignalConnection" cb-graphic-line="$1222$" cb-input-pin="$UpS$" id="1jUm"/>
<line cb-classname="GraphicLineEntity" class="signalline" id="1jUc" stroke="#1e12bf" stroke-dasharray="5,4" x1="1260" x2="2450" y1="830" y2="830"/>
</g>
</g>
</g>
<g cb-alg-55w2="CONSTANT" cb-alg-5OI="30.0" cb-alg-9xwo="FEEDBACK" cb-alg-EBGl="SIM-MAN-VLV-EDEV" cb-alg-EBGl-wWJ="0" cb-alg-EDIt="$1211$cb-alg-out$" cb-alg-HRKE2I-7S3J="1.0" cb-alg-HRKE2I-7S3R="1.000000" cb-alg-HRKE2I-7SrJ="1.0" cb-alg-HRKE2I-7SrR="1.0" cb-alg-HRKE2I-7c3J="NO" cb-alg-HRKE2I-7gPv="120" cb-alg-HRKE2I-FzGz="DONT_STOP" cb-alg-HRKE2I-J4GJ="0" cb-alg-HRKE2I-Qa9x="4" cb-alg-HRKE2I-QasR="4" cb-alg-HRKE2I-Qasr="4" cb-alg-HRKE2I-QcAL="2.0" cb-alg-HRKE2I-QcAW="5.0" cb-alg-HRKE2I-QcVL="2.0" cb-alg-HRKE2I-QcVW="3" cb-alg-HRKE2I-QccL="2.0" cb-alg-HRKE2I-QccW="5.0" cb-alg-HRKE2I-QcjL="2.0" cb-alg-HRKE2I-QjNx="4" cb-alg-HRKE2I-QjdJ="4" cb-alg-HRKE2I-Qjdr="4" cb-alg-HRKE2I-QtpA="DISCONNECT" cb-alg-HRKE2I-Uwp="3.000000" cb-alg-HRKE2I-XZ39="ACK_BY_ACKT" cb-alg-HRKE2I-ca3J="GO_MANUAL" cb-alg-HRKE2I-epp="30.0" cb-alg-HeFGkI-7gPv="65" cb-alg-HeFGkI-AZru="0.000000" cb-alg-HeFHvI-2Zt2="1.000000" cb-alg-HeFHvI-7gPv="76" cb-alg-HeFHvI-QW6x="105" cb-alg-HeFHvI-QjP3="2.500000" cb-alg-HeFHvI-UjuA="ON" cb-alg-HeFHvI-qX6x="-5" cb-alg-HeFHvI-qgPr="0.000000" cb-alg-HeFpvI-7gPv="84" cb-alg-HeFpvI-OzV4="0.000000" cb-alg-HeFpvI-OzVv="1.000000" cb-alg-HeFpvI-OzY4="0.000000" cb-alg-HeFpvI-OzYv="1.000000" cb-alg-HeFpvI-Ozc4="0.000000" cb-alg-HeFpvI-Ozcv="1.000000" cb-alg-HeFpvI-Ozj4="0.000000" cb-alg-HeFpvI-Ozjv="1.000000" cb-alg-HeFpvI-QW6x="105" cb-alg-HeFpvI-QjP3="2.500000" cb-alg-HeFpvI-qX6x="-5" cb-alg-QTIt="SIM-MAN-VLV-DERR" cb-alg-QwcA="2" cb-alg-SIA="1" cb-alg-SIZ2="SIM-MAN-VLV-STAT" cb-alg-SLAb="DONT_STOP" cb-alg-Wne="TIMEOUT" cb-alg-a8c="0" cb-alg-av5="SIM-MAN-VLV-MOV" cb-alg-av5-0EF6="DONT_STOP" cb-alg-av5-Lxd="30.0" cb-alg-av5-q3d="3.000000" cb-alg-fTho6P="$128$cb-alg-out$" cb-alg-q2I="3.000000" cb-alg-q2I2G="0" cb-alg-qxwY="SIM-MAN-VLV-PSTA" cb-alg-rwIz="SIM-MAN-VLV-KBRD" cb-alg-x46="1" cb-alg-x4ht="0" cb-alg-xw6V="$509$cb-alg-out$" cb-alg-xw6t="$501$cb-alg-out$" cb-alg-yDlz="0" cb-alg-ynXV="60" cb-alg-yqA="1" cb-alg-yqPt="60" cb-algorithm-id="003" cb-classname="ControlMacroReference" cb-function-name="MOV_1" cb-macro-crc="3987" cb-modify-id="00000001" id="1by">
<rect cb-classname="GraphicRectangleEntity" class="annotation" fill="white" height="1660" id="1iD" width="470" x="2480" y="530"/>
<text baseline-shift="0%" cb-classname="GraphicTextEntity" class="annotation" fill="#000000" font-family="MS Shell Dlg 2" font-size="12" id="1iX" x="2490" y="560">
AUTO
</text>
<text baseline-shift="0%" cb-classname="GraphicTextEntity" class="annotation" fill="#000000" font-family="MS Shell Dlg 2" font-size="12" id="1iU" x="2490" y="640">
MANUAL
</text>
<text baseline-shift="0%" cb-classname="GraphicTextEntity" class="annotation" fill="#000000" font-family="MS Shell Dlg 2" font-size="12" id="1ia" x="2490" y="720">
REMOTE
</text>
<text baseline-shift="0%" cb-classname="GraphicTextEntity" class="annotation" fill="#000000" font-family="MS Shell Dlg 2" font-size="12" id="1i4" x="2490" y="830">
EMRG
</text>
<text baseline-shift="0%" cb-classname="GraphicTextEntity" class="annotation" fill="#000000" font-family="MS Shell Dlg 2" font-size="12" id="1ix" x="2490" y="910">
PERM
</text>
<text baseline-shift="0%" cb-classname="GraphicTextEntity" class="annotation" fill="#000000" font-family="MS Shell Dlg 2" font-size="12" id="1iA" x="2490" y="990">
OPEN
</text>
<text baseline-shift="0%" cb-classname="GraphicTextEntity" class="annotation" fill="#000000" font-family="MS Shell Dlg 2" font-size="12" id="1iZ" x="2490" y="1110">
EMRG
</text>
<text baseline-shift="0%" cb-classname="GraphicTextEntity" class="annotation" fill="#000000" font-family="MS Shell Dlg 2" font-size="12" id="1iP" x="2490" y="1190">
PERM
</text>
<text baseline-shift="0%" cb-classname="GraphicTextEntity" class="annotation" fill="#000000" font-family="MS Shell Dlg 2" font-size="12" id="1iy" x="2490" y="1270">
STOP
</text>
<text baseline-shift="0%" cb-classname="GraphicTextEntity" class="annotation" fill="#000000" font-family="MS Shell Dlg 2" font-size="12" id="1yD" x="2490" y="1380">
EMRG
</text>
<text baseline-shift="0%" cb-classname="GraphicTextEntity" class="annotation" fill="#000000" font-family="MS Shell Dlg 2" font-size="12" id="1yX" x="2490" y="1460">
PERM
</text>
<text baseline-shift="0%" cb-classname="GraphicTextEntity" class="annotation" fill="#000000" font-family="MS Shell Dlg 2" font-size="12" id="1yU" x="2490" y="1540">
CLOSE
</text>
<text baseline-shift="0%" cb-classname="GraphicTextEntity" class="annotation" fill="#000000" font-family="MS Shell Dlg 2" font-size="12" id="1ya" x="2490" y="1650">
NO PWR
</text>
<text baseline-shift="0%" cb-classname="GraphicTextEntity" class="annotation" fill="#000000" font-family="MS Shell Dlg 2" font-size="12" id="1y4" x="2490" y="1730">
READY
</text>
<text baseline-shift="0%" cb-classname="GraphicTextEntity" class="annotation" fill="#000000" font-family="MS Shell Dlg 2" font-size="12" id="1yx" x="2490" y="2000">
FB OP
</text>
<text baseline-shift="0%" cb-classname="GraphicTextEntity" class="annotation" fill="#000000" font-family="MS Shell Dlg 2" font-size="12" id="1yA" x="2490" y="2080">
FB CL
</text>
<text baseline-shift="0%" cb-classname="GraphicTextEntity" class="annotation" fill="#000000" font-family="MS Shell Dlg 2" font-size="12" id="1yZ" x="2890" y="1650">
PSTA
</text>
<text baseline-shift="0%" cb-classname="GraphicTextEntity" class="annotation" fill="#000000" font-family="MS Shell Dlg 2" font-size="12" id="1yP" x="2890" y="1730">
STAT
</text>
<text baseline-shift="0%" cb-classname="GraphicTextEntity" class="annotation" fill="#000000" font-family="MS Shell Dlg 2" font-size="12" id="1yy" x="2890" y="1810">
DERR
</text>
<rect cb-classname="GraphicRectangleEntity" class="annotation" fill="none" height="230" id="18D" width="80" x="2480" y="530"/>
<rect cb-classname="GraphicRectangleEntity" class="annotation" fill="none" height="200" id="18X" width="80" x="2480" y="810"/>
<rect cb-classname="GraphicRectangleEntity" class="annotation" fill="none" height="210" id="18U" width="80" x="2480" y="1090"/>
<rect cb-classname="GraphicRectangleEntity" class="annotation" fill="none" height="220" id="18a" width="80" x="2480" y="1350"/>
<rect cb-classname="GraphicRectangleEntity" class="annotation" fill="none" height="150" id="184" width="80" x="2480" y="1610"/>
<rect cb-classname="GraphicRectangleEntity" class="annotation" fill="none" height="140" id="18x" width="80" x="2480" y="1970"/>
<rect cb-classname="GraphicRectangleEntity" class="annotation" fill="none" height="230" id="18A" width="90" x="2860" y="1610"/>
<line cb-classname="GraphicLineEntity" class="annotation" id="18Z" x1="2480" x2="2560" y1="600" y2="600"/>
<line cb-classname="GraphicLineEntity" class="annotation" id="18P" x1="2480" x2="2560" y1="680" y2="680"/>
<line cb-classname="GraphicLineEntity" class="annotation" id="18y" x1="2480" x2="2560" y1="870" y2="870"/>
<line cb-classname="GraphicLineEntity" class="annotation" id="1SD" x1="2480" x2="2560" y1="940" y2="940"/>
<line cb-classname="GraphicLineEntity" class="annotation" id="1SX" x1="2480" x2="2560" y1="1150" y2="1150"/>
<line cb-classname="GraphicLineEntity" class="annotation" id="1SU" x1="2480" x2="2560" y1="1220" y2="1220"/>
<line cb-classname="GraphicLineEntity" class="annotation" id="1Sa" x1="2480" x2="2560" y1="1420" y2="1420"/>
<line cb-classname="GraphicLineEntity" class="annotation" id="1S4" x1="2480" x2="2560" y1="1500" y2="1500"/>
<line cb-classname="GraphicLineEntity" class="annotation" id="1Sx" x1="2480" x2="2560" y1="1680" y2="1680"/>
<line cb-classname="GraphicLineEntity" class="annotation" id="1SA" x1="2480" x2="2560" y1="2040" y2="2040"/>
<line cb-classname="GraphicLineEntity" class="annotation" id="1SZ" x1="2860" x2="2950" y1="1680" y2="1680"/>
<line cb-classname="GraphicLineEntity" class="annotation" id="1SP" x1="2860" x2="2950" y1="1760" y2="1760"/>
<text baseline-shift="0%" cb-classname="GraphicTextEntity" class="annotation" fill="#000000" font-family="MS Shell Dlg 2" font-size="26" id="1Sy" x="2610" y="570">
Macro: MOV_1
</text>
<text baseline-shift="0%" cb-classname="GraphicTextEntity" class="annotation" fill="#000000" font-family="MS Shell Dlg 2" font-size="36" id="1ND" x="2620" y="690">
Typical:
</text>
<text baseline-shift="0%" cb-classname="GraphicTextEntity" class="annotation" fill="#000000" font-family="MS Shell Dlg 2" font-size="36" id="1NX" x="2790" y="690">
VLV1
</text>
<g cb-classname="GraphicShape" id="1NU">
<g cb-classname="DynamicText" cb-labeled="false" cb-source="Bm-Kgb-yQT5" id="1Na">
<text cb-classname="GraphicTextEntity" class="algorithm" id="1N4" text-anchor="start" x="2590" y="2040"/>
</g>
</g>
<g cb-classname="GraphicShape" id="1Nx">
<g cb-classname="DynamicText" cb-labeled="true" cb-source="yb-AUI-yVp" id="1NA">
<text cb-classname="GraphicTextEntity" class="algorithm" id="1NZ" text-anchor="start" x="2590" y="1730"/>
</g>
<g cb-classname="DynamicText" cb-labeled="true" cb-source="8P-Yn8-LVkQ" id="1NP">
<text cb-classname="GraphicTextEntity" class="algorithm" id="1Ny" text-anchor="start" x="2590" y="1760"/>
</g>
<g cb-classname="DynamicText" cb-labeled="true" cb-source="IW-ZVV-NFXu" id="1tD">
<text cb-classname="GraphicTextEntity" class="algorithm" id="1tX" text-anchor="start" x="2590" y="1790"/>
</g>
<g cb-classname="DynamicText" cb-labeled="true" cb-source="4y-5T1-XpBR" id="1tU">
<text cb-classname="GraphicTextEntity" class="algorithm" id="1ta" text-anchor="start" x="2590" y="1820"/>
</g>
<g cb-classname="DynamicText" cb-labeled="true" cb-source="xm-Wc7-3Kxd" id="1t4">
<text cb-classname="GraphicTextEntity" class="algorithm" id="1tx" text-anchor="start" x="2590" y="1850"/>
</g>
<g cb-classname="DynamicText" cb-labeled="true" cb-source="Bm-Kgb-ffG" id="1tA">
<text cb-classname="GraphicTextEntity" class="algorithm" id="1tZ" text-anchor="start" x="2590" y="1880"/>
</g>
<g cb-classname="DynamicText" cb-labeled="true" cb-source="TJ-qy4-Byx0" id="1tP">
<text cb-classname="GraphicTextEntity" class="algorithm" id="1ty" text-anchor="start" x="2590" y="1910"/>
</g>
<g cb-classname="DynamicText" cb-labeled="true" cb-source="lN-09E-6hT" id="2FD">
<text cb-classname="GraphicTextEntity" class="algorithm" id="2FX" text-anchor="start" x="2590" y="1940"/>
</g>
<g cb-classname="DynamicText" cb-labeled="true" cb-source="cX-86a-jLgj" id="2FU">
<text cb-classname="GraphicTextEntity" class="algorithm" id="2Fa" text-anchor="start" x="2590" y="1970"/>
</g>
</g>
<rect cb-classname="GraphicRectangleEntity" class="annotation" fill="none" height="230" id="2F4" width="40" x="2560" y="530"/>
<rect cb-classname="GraphicRectangleEntity" class="annotation" fill="none" height="200" id="2Fx" width="40" x="2560" y="810"/>
<rect cb-classname="GraphicRectangleEntity" class="annotation" fill="none" height="210" id="2FA" width="40" x="2560" y="1090"/>
<rect cb-classname="GraphicRectangleEntity" class="annotation" fill="none" height="220" id="2FZ" width="40" x="2560" y="1350"/>
<text baseline-shift="0%" cb-classname="GraphicTextEntity" class="annotation" fill="#000000" font-family="MS Shell Dlg 2" id="2FP" transform="translate(2590,670)rotate(-90)">
MODE
</text>
<text baseline-shift="0%" cb-classname="GraphicTextEntity" class="annotation" fill="#000000" font-family="MS Shell Dlg 2" id="2Fy" transform="translate(2590,940)rotate(-90)">
OPEN
</text>
<text baseline-shift="0%" cb-classname="GraphicTextEntity" class="annotation" fill="#000000" font-family="MS Shell Dlg 2" id="2zD" transform="translate(2590,1500)rotate(-90)">
CLOSE
</text>
<text baseline-shift="0%" cb-classname="GraphicTextEntity" class="annotation" fill="#000000" font-family="MS Shell Dlg 2" id="2zX" transform="translate(2590,1220)rotate(-90)">
STOP
</text>
<rect cb-classname="GraphicRectangleEntity" class="annotation" fill="none" height="70" id="2zU" width="170" x="2630" y="2120"/>
<line cb-classname="GraphicLineEntity" class="annotation" id="2za" x1="2710" x2="2710" y1="2120" y2="2190"/>
<text baseline-shift="0%" cb-classname="GraphicTextEntity" class="annotation" fill="#000000" font-family="MS Shell Dlg 2" font-size="12" id="2z4" x="2660" y="2160">
IN1
</text>
<text baseline-shift="0%" cb-classname="GraphicTextEntity" class="annotation" fill="#000000" font-family="MS Shell Dlg 2" font-size="12" id="2zx" x="2740" y="2160">
IN2
</text>
<g cb-classname="ControlPin" cb-pin-name="IW-ZVV-C5x" id="2zA">
<line cb-classname="GraphicLineEntity" class="signalline" id="2zZ" x1="2670" x2="2670" y1="2220" y2="2190"/>
<polygon cb-classname="GraphicPolygonEntity" class="signal" id="2zP" points="2670,2190 2664,2200 2675,2200"/>
<g cb-classname="DynamicText" cb-source="cS-8C5-bZiR" id="2zy">
<text cb-classname="GraphicTextEntity" class="signal" id="2jD" text-anchor="end" transform="translate(2667,2204)rotate(-90)"/>
</g>
</g>
<g cb-classname="ControlPin" cb-pin-name="cL-GHO-Eyk8" id="2jX">
<line cb-classname="GraphicLineEntity" class="signalline" id="2jU" x1="2450" x2="2480" y1="560" y2="560"/>
<polygon cb-classname="GraphicPolygonEntity" class="signal" id="2ja" points="2480,560 2469,554 2469,565"/>
<g cb-classname="DynamicText" cb-source="TJ-3fJ-LZnl" id="2j4">
<text cb-classname="GraphicTextEntity" class="signal" id="2jx" text-anchor="end" x="2465" y="557"/>
</g>
</g>
<g cb-classname="ControlPin" cb-pin-name="lN-09E-tl7h" id="2jA">
<line cb-classname="GraphicLineEntity" class="signalline" id="2jZ" x1="2450" x2="2480" y1="640" y2="640"/>
<polygon cb-classname="GraphicPolygonEntity" class="signal" id="2jP" points="2480,640 2469,634 2469,645"/>
<g cb-classname="DynamicText" cb-source="IW-AeK-DX4E" id="2jy">
<text cb-classname="GraphicTextEntity" class="signal" id="2bD" text-anchor="end" x="2465" y="637"/>
</g>
</g>
<g cb-classname="ControlPin" cb-pin-name="4y-5T1-ZT3R" id="2bX">
<line cb-classname="GraphicLineEntity" class="signalline" id="2bU" x1="2450" x2="2480" y1="990" y2="990"/>
<polygon cb-classname="GraphicPolygonEntity" class="signal" id="2ba" points="2480,990 2469,984 2469,995"/>
<g cb-classname="DynamicText" cb-source="cL-Y0d-t0aT" id="2b4">
<text cb-classname="GraphicTextEntity" class="signal" id="2bx" text-anchor="end" x="2465" y="987"/>
</g>
</g>
<g cb-classname="ControlPin" cb-pin-name="tk-AjN-Y5wV" id="2bA">
<line cb-classname="GraphicLineEntity" class="signalline" id="2bZ" x1="2450" x2="2480" y1="1540" y2="1540"/>
<polygon cb-classname="GraphicPolygonEntity" class="signal" id="2bP" points="2480,1540 2469,1534 2469,1545"/>
<g cb-classname="DynamicText" cb-source="lN-2lL-d5wI" id="2by">
<text cb-classname="GraphicTextEntity" class="signal" id="2iD" text-anchor="end" x="2465" y="1537"/>
</g>
</g>
<g cb-classname="ControlPin" cb-pin-name="cX-86a-Phfj" id="2iX">
<line cb-classname="GraphicLineEntity" class="signalline" id="2iU" x1="2450" x2="2480" y1="830" y2="830"/>
<polygon cb-classname="GraphicPolygonEntity" class="signal" id="2ia" points="2480,830 2469,824 2469,835"/>
<g cb-classname="DynamicText" cb-source="4y-qXD-zPLJ" id="2i4">
<text cb-classname="GraphicTextEntity" class="signal" id="2ix" text-anchor="end" x="2465" y="827"/>
</g>
</g>
<g cb-classname="ControlPin" cb-pin-name="xm-Wc7-pi6d" id="2iA">
<line cb-classname="GraphicLineEntity" class="signalline" id="2iZ" x1="2450" x2="2480" y1="1380" y2="1380"/>
<polygon cb-classname="GraphicPolygonEntity" class="signal" id="2iP" points="2480,1380 2469,1374 2469,1385"/>
<g cb-classname="DynamicText" cb-source="tk-Grt-T8hw" id="2iy">
<text cb-classname="GraphicTextEntity" class="signal" id="2yD" text-anchor="end" x="2465" y="1377"/>
</g>
</g>
<g cb-classname="ControlPin" cb-pin-name="yb-AUI-AwjM" id="2yX">
<line cb-classname="GraphicLineEntity" class="signalline" id="2yU" x1="2450" x2="2480" y1="910" y2="910"/>
<polygon cb-classname="GraphicPolygonEntity" class="signal" id="2ya" points="2480,910 2469,904 2469,915"/>
<g cb-classname="DynamicText" cb-source="cX-GCd-EWgM" id="2y4">
<text cb-classname="GraphicTextEntity" class="signal" id="2yx" text-anchor="end" x="2465" y="907"/>
</g>
</g>
<g cb-classname="ControlPin" cb-pin-name="Hw-YRu-UMpJ" id="2yA">
<line cb-classname="GraphicLineEntity" class="signalline" id="2yZ" x1="2450" x2="2480" y1="1460" y2="1460"/>
<polygon cb-classname="GraphicPolygonEntity" class="signal" id="2yP" points="2480,1460 2469,1454 2469,1465"/>
<g cb-classname="DynamicText" cb-source="xm-FOz-2OYL" id="2yy">
<text cb-classname="GraphicTextEntity" class="signal" id="28D" text-anchor="end" x="2465" y="1457"/>
</g>
</g>
<g cb-classname="ControlPin" cb-pin-name="Bm-Kgb-0OIp" id="28X">
<line cb-classname="GraphicLineEntity" class="signalline" id="28U" x1="2450" x2="2480" y1="1270" y2="1270"/>
<polygon cb-classname="GraphicPolygonEntity" class="signal" id="28a" points="2480,1270 2469,1264 2469,1275"/>
<g cb-classname="DynamicText" cb-source="yb-7dT-WYXP" id="284">
<text cb-classname="GraphicTextEntity" class="signal" id="28x" text-anchor="end" x="2465" y="1267"/>
</g>
</g>
<g cb-classname="ControlPin" cb-pin-name="8P-Yn8-lwdF" id="28A">
<line cb-classname="GraphicLineEntity" class="signalline" id="28Z" x1="2450" x2="2480" y1="1110" y2="1110"/>
<polygon cb-classname="GraphicPolygonEntity" class="signal" id="28P" points="2480,1110 2469,1104 2469,1115"/>
<g cb-classname="DynamicText" cb-source="Hw-uaE-5Z5p" id="28y">
<text cb-classname="GraphicTextEntity" class="signal" id="2SD" text-anchor="end" x="2465" y="1107"/>
</g>
</g>
<g cb-classname="ControlPin" cb-pin-name="cS-zN2-GpRM" id="2SX">
<line cb-classname="GraphicLineEntity" class="signalline" id="2SU" x1="2450" x2="2480" y1="1190" y2="1190"/>
<polygon cb-classname="GraphicPolygonEntity" class="signal" id="2Sa" points="2480,1190 2469,1184 2469,1195"/>
<g cb-classname="DynamicText" cb-source="Bm-56w-JYDG" id="2S4">
<text cb-classname="GraphicTextEntity" class="signal" id="2Sx" text-anchor="end" x="2465" y="1187"/>
</g>
</g>
<g cb-classname="ControlPin" cb-pin-name="TJ-qy4-qGnLAI" id="2SA">
<line cb-classname="GraphicLineEntity" class="signalline" id="2SZ" x1="2450" x2="2480" y1="720" y2="720"/>
<polygon cb-classname="GraphicPolygonEntity" class="signal" id="2SP" points="2480,720 2469,714 2469,725"/>
<g cb-classname="DynamicText" cb-source="8P-qSW-Kzho" id="2Sy">
<text cb-classname="GraphicTextEntity" class="signal" id="2ND" text-anchor="end" x="2465" y="717"/>
</g>
</g>
<g cb-classname="ControlPin" cb-pin-name="IW-ZVV-0fRl" id="2NX">
<line cb-classname="GraphicLineEntity" class="signalline" id="2NU" x1="2450" x2="2480" y1="1730" y2="1730"/>
<polygon cb-classname="GraphicPolygonEntity" class="signal" id="2Na" points="2480,1730 2469,1724 2469,1735"/>
<g cb-classname="DynamicText" cb-source="cS-8C5-bZiR" id="2N4">
<text cb-classname="GraphicTextEntity" class="signal" id="2Nx" text-anchor="end" x="2465" y="1727"/>
</g>
</g>
<g cb-classname="ControlPin" cb-pin-name="cL-GHO-SX9q" id="2NA">
<line cb-classname="GraphicLineEntity" class="signalline" id="2NZ" x1="2450" x2="2480" y1="2000" y2="2000"/>
<polygon cb-classname="GraphicPolygonEntity" class="signal" id="2NP" points="2480,2000 2469,1994 2469,2005"/>
<g cb-classname="DynamicText" cb-source="TJ-3fJ-LZnl" id="2Ny">
<text cb-classname="GraphicTextEntity" class="signal" id="2tD" text-anchor="end" x="2465" y="1997"/>
</g>
</g>
<g cb-classname="ControlPin" cb-pin-name="lN-09E-6mTN" id="2tX">
<line cb-classname="GraphicLineEntity" class="signalline" id="2tU" x1="2450" x2="2480" y1="2080" y2="2080"/>
<polygon cb-classname="GraphicPolygonEntity" class="signal" id="2ta" points="2480,2080 2469,2074 2469,2085"/>
<g cb-classname="DynamicText" cb-source="IW-AeK-DX4E" id="2t4">
<text cb-classname="GraphicTextEntity" class="signal" id="2tx" text-anchor="end" x="2465" y="2077"/>
</g>
</g>
<g cb-classname="ControlPin" cb-pin-name="4y-5T1-zGzR" id="2tA">
<line cb-classname="GraphicLineEntity" class="signalline" id="2tZ" x1="2450" x2="2480" y1="1650" y2="1650"/>
<polygon cb-classname="GraphicPolygonEntity" class="signal" id="2tP" points="2480,1650 2469,1644 2469,1655"/>
<g cb-classname="DynamicText" cb-source="cL-Y0d-t0aT" id="2ty">
<text cb-classname="GraphicTextEntity" class="signal" id="3FD" text-anchor="end" x="2465" y="1647"/>
</g>
</g>
<g cb-classname="ControlPin" cb-pin-name="tk-AjN-lLQ" id="3FX">
<line cb-classname="GraphicLineEntity" class="signalline" id="3FU" x1="2750" x2="2750" y1="2220" y2="2190"/>
<polygon cb-classname="GraphicPolygonEntity" class="signal" id="3Fa" points="2750,2190 2744,2200 2755,2200"/>
<g cb-classname="DynamicText" cb-source="lN-2lL-d5wI" id="3F4">
<text cb-classname="GraphicTextEntity" class="signal" id="3Fx" text-anchor="end" transform="translate(2747,2204)rotate(-90)"/>
</g>
</g>
<g cb-classname="ControlPin" cb-pin-name="cX-86a-qkXX" id="3FA">
<line cb-classname="GraphicLineEntity" class="signalline" id="3FZ" x1="2950" x2="2990" y1="1730" y2="1730"/>
<g cb-classname="DynamicText" cb-source="Hw-uaE-5Z5p" id="3FP">
<text cb-classname="GraphicTextEntity" class="signal" id="3Fy" text-anchor="start" x="2964" y="1727"/>
</g>
<g cb-classname="SignalSegment" id="3zD">
<line cb-classname="GraphicLineEntity" class="signalline" id="3zX" x1="2990" x2="3370" y1="1730" y2="1730"/>
<g cb-classname="SignalSegment" id="3zU">
<line cb-classname="GraphicLineEntity" class="signalline" id="3za" x1="3370" x2="3370" y1="1730" y2="1780"/>
<g cb-classname="SignalSegment" id="3z4">
<line cb-classname="GraphicLineEntity" class="signalline" id="3zx" x1="3370" x2="4510" y1="1780" y2="1780"/>
<g cb-classname="SignalConnection" cb-graphic-line="$315$" cb-input-pin="$zCD$" id="3zA"/>
</g>
</g>
</g>
</g>
<g cb-classname="ControlPin" cb-pin-name="lN-09E-zlMd" id="3zZ">
<line cb-classname="GraphicLineEntity" class="signalline" id="3zP" x1="2950" x2="2990" y1="1810" y2="1810"/>
<g cb-classname="DynamicText" cb-source="cX-GCd-EWgM" id="3zy">
<text cb-classname="GraphicTextEntity" class="signal" id="3jD" text-anchor="start" x="2964" y="1807"/>
</g>
<g cb-classname="SignalSegment" id="3jX">
<line cb-classname="GraphicLineEntity" class="signalline" id="3jU" x1="2990" x2="3330" y1="1810" y2="1810"/>
<g cb-classname="SignalSegment" id="3ja">
<line cb-classname="GraphicLineEntity" class="signalline" id="3j4" x1="3330" x2="3330" y1="1810" y2="1910"/>
<g cb-classname="SignalSegment" id="3jx">
<line cb-classname="GraphicLineEntity" class="signalline" id="3jA" x1="3330" x2="3330" y1="1910" y2="2040"/>
<g cb-classname="SignalConnection" cb-graphic-line="$326$" cb-input-pin="$pnz$" id="3jZ"/>
<g cb-classname="SignalConnection" cb-graphic-line="$329$" cb-input-pin="$WcM$" id="3jP"/>
<line cb-classname="GraphicLineEntity" class="signalline" id="3jy" x1="3330" x2="4510" y1="1910" y2="1910"/>
<ellipse cb-classname="GraphicEllipseEntity" class="signal" cx="3330" cy="1910" id="3bD" rx="5" ry="5" stroke="black"/>
</g>
</g>
</g>
</g>
<g cb-classname="ControlPin" cb-pin-name="8P-Yn8-qqkX" id="3bX">
<line cb-classname="GraphicLineEntity" class="signalline" id="3bU" x1="2950" x2="2990" y1="1650" y2="1650"/>
<g cb-classname="DynamicText" cb-source="IW-AeK-DX4E" id="3ba">
<text cb-classname="GraphicTextEntity" class="signal" id="3b4" text-anchor="start" x="2964" y="1647"/>
</g>
<g cb-classname="SignalSegment" id="3bx">
<g cb-classname="SignalConnection" cb-graphic-line="$337$" cb-input-pin="$G3K$" id="3bA"/>
<line cb-classname="GraphicLineEntity" class="signalline" id="3bZ" x1="2990" x2="4510" y1="1650" y2="1650"/>
</g>
</g>
</g>
<g cb-alg-iU="$139$cb-alg-psta$" cb-algorithm-id="006" cb-classname="ExternalPointInterface" cb-function-name="OUTPUT" id="3bP">
<ellipse cb-classname="GraphicEllipseEntity" class="algorithm" cx="4570" cy="1650" id="3by" rx="40" ry="40"/>
<rect cb-classname="GraphicRectangleEntity" class="algorithm" height="80" id="3iD" width="30" x="4610" y="1610"/>
<line cb-classname="GraphicLineEntity" class="algorithm" id="3iX" x1="4610" x2="4640" y1="1650" y2="1650"/>
<g cb-classname="PointStatusIndicator" cb-indicator-type="highway" cb-source="yb-AUI-Cd" id="3iU" visibility="hidden">
<line cb-classname="GraphicLineEntity" class="algorithmline" id="3ia" x1="4530" x2="4570" y1="1650" y2="1610"/>
<line cb-classname="GraphicLineEntity" class="algorithmline" id="3i4" x1="4570" x2="4610" y1="1610" y2="1650"/>
<line cb-classname="GraphicLineEntity" class="algorithmline" id="3ix" x1="4610" x2="4570" y1="1650" y2="1690"/>
<line cb-classname="GraphicLineEntity" class="algorithmline" id="3iA" x1="4570" x2="4530" y1="1690" y2="1650"/>
</g>
<g cb-classname="PointStatusIndicator" cb-indicator-type="hardware" cb-source="Hw-YRu-Oz" id="3iZ" visibility="hidden">
<line cb-classname="GraphicLineEntity" class="algorithmline" id="3iP" x1="4610" x2="4530" y1="1610" y2="1610"/>
<line cb-classname="GraphicLineEntity" class="algorithmline" id="3iy" x1="4530" x2="4530" y1="1610" y2="1690"/>
<line cb-classname="GraphicLineEntity" class="algorithmline" id="3yD" x1="4530" x2="4610" y1="1690" y2="1690"/>
</g>
<g cb-classname="PointStatusIndicator" cb-indicator-type="alarm" cb-source="cL-GHO-fJ" id="3yX" visibility="hidden">
<text cb-classname="GraphicTextEntity" class="algorithm" fill="#000000" font-family="Arial" font-size="20" id="3yU" x="4617" y="1639">
A
</text>
</g>
<g cb-classname="PointStatusIndicator" cb-indicator-type="ingraphic" cb-source="tk-AjN-lL" id="3ya" visibility="hidden">
<text cb-classname="GraphicTextEntity" class="algorithm" fill="#000000" font-family="Arial" font-size="20" id="3y4" x="4615" y="1680">
G
</text>
</g>
<g cb-classname="DynamicText" cb-labeled="false" cb-pin-name="2Q" cb-source="yb-AUI-Cd" class="algorithm" id="3yx" text-anchor="end">
<text baseline-shift="0%" cb-classname="GraphicTextEntity" class="algorithm" fill="black" font-family="Arial" font-size="20" font-style="normal" font-weight="normal" id="3yA" text-anchor="end" text-decoration="normal" x="4507" y="1629"/>
</g>
<g baseline-shift="-100%" cb-anchor-x="4508" cb-anchor-y="1666" cb-classname="PointReferences" cb-max-width="240" cb-originator="false" cb-source="8P-Yn8-aE" class="signal" id="3yZ" text-anchor="end">
<text baseline-shift="-100%" cb-classname="GraphicTextEntity" class="algorithm" id="3yP" text-anchor="end" x="4508" y="1666">
-
</text>
</g>
<g baseline-shift="-50%" cb-anchor-x="4661" cb-anchor-y="1648" cb-classname="PointDescription" cb-content="extended" cb-labeled="false" cb-max-width="340" cb-source="IW-ZVV-C5" class="algorithm" id="3yy" text-anchor="start">
<text baseline-shift="-50%" cb-classname="GraphicTextEntity" class="algorithm" id="38D" text-anchor="start" x="4661" y="1631">
@ Ovation Control Builder
</text>
<text baseline-shift="-50%" cb-classname="GraphicTextEntity" class="algorithm" id="38X" text-anchor="start" x="4661" y="1667">
@
</text>
</g>
<g cb-classname="ControlPin" cb-pin-name="cS-zN2-t2" id="38U">
<line cb-classname="GraphicLineEntity" class="signalline" id="38a" x1="4510" x2="4530" y1="1650" y2="1650"/>
<polygon cb-classname="GraphicPolygonEntity" class="signal" id="384" points="4530,1650 4519,1644 4519,1655"/>
</g>
</g>
<g cb-alg-g2="$139$cb-alg-stat$" cb-algorithm-id="007" cb-classname="ExternalPointInterface" cb-function-name="OUTPUT" id="38x">
<ellipse cb-classname="GraphicEllipseEntity" class="algorithm" cx="4570" cy="1780" id="38A" rx="40" ry="40"/>
<rect cb-classname="GraphicRectangleEntity" class="algorithm" height="80" id="38Z" width="30" x="4610" y="1740"/>
<line cb-classname="GraphicLineEntity" class="algorithm" id="38P" x1="4610" x2="4640" y1="1780" y2="1780"/>
<g cb-classname="PointStatusIndicator" cb-indicator-type="highway" cb-source="lN-09E-eK" id="38y" visibility="hidden">
<line cb-classname="GraphicLineEntity" class="algorithmline" id="3SD" x1="4530" x2="4570" y1="1780" y2="1740"/>
<line cb-classname="GraphicLineEntity" class="algorithmline" id="3SX" x1="4570" x2="4610" y1="1740" y2="1780"/>
<line cb-classname="GraphicLineEntity" class="algorithmline" id="3SU" x1="4610" x2="4570" y1="1780" y2="1820"/>
<line cb-classname="GraphicLineEntity" class="algorithmline" id="3Sa" x1="4570" x2="4530" y1="1820" y2="1780"/>
</g>
<g cb-classname="PointStatusIndicator" cb-indicator-type="hardware" cb-source="4y-5T1-gb" id="3S4" visibility="hidden">
<line cb-classname="GraphicLineEntity" class="algorithmline" id="3Sx" x1="4610" x2="4530" y1="1740" y2="1740"/>
<line cb-classname="GraphicLineEntity" class="algorithmline" id="3SA" x1="4530" x2="4530" y1="1740" y2="1820"/>
<line cb-classname="GraphicLineEntity" class="algorithmline" id="3SZ" x1="4530" x2="4610" y1="1820" y2="1820"/>
</g>
<g cb-classname="PointStatusIndicator" cb-indicator-type="alarm" cb-source="Bm-Kgb-dT" id="3SP" visibility="hidden">
<text cb-classname="GraphicTextEntity" class="algorithm" fill="#000000" font-family="Arial" font-size="20" id="3Sy" x="4617" y="1769">
A
</text>
</g>
<g cb-classname="PointStatusIndicator" cb-indicator-type="ingraphic" cb-source="TJ-qy4-SW" id="3ND" visibility="hidden">
<text cb-classname="GraphicTextEntity" class="algorithm" fill="#000000" font-family="Arial" font-size="20" id="3NX" x="4615" y="1810">
G
</text>
</g>
<g cb-classname="DynamicText" cb-labeled="false" cb-pin-name="Fh" cb-source="lN-09E-eK" class="algorithm" id="3NU" text-anchor="end">
<text baseline-shift="0%" cb-classname="GraphicTextEntity" class="algorithm" fill="black" font-family="Arial" font-size="20" font-style="normal" font-weight="normal" id="3Na" text-anchor="end" text-decoration="normal" x="4507" y="1759"/>
</g>
<g baseline-shift="-100%" cb-anchor-x="4508" cb-anchor-y="1796" cb-classname="PointReferences" cb-max-width="240" cb-originator="false" cb-source="cX-86a-XD" class="signal" id="3N4" text-anchor="end">
<text baseline-shift="-100%" cb-classname="GraphicTextEntity" class="algorithm" id="3Nx" text-anchor="end" x="4508" y="1796">
-
</text>
</g>
<g baseline-shift="-50%" cb-anchor-x="4661" cb-anchor-y="1778" cb-classname="PointDescription" cb-content="extended" cb-labeled="false" cb-max-width="340" cb-source="Hw-YRu-Oz" class="algorithm" id="3NA" text-anchor="start">
<text baseline-shift="-50%" cb-classname="GraphicTextEntity" class="algorithm" id="3NZ" text-anchor="start" x="4661" y="1761">
@ Ovation Control Builder
</text>
<text baseline-shift="-50%" cb-classname="GraphicTextEntity" class="algorithm" id="3NP" text-anchor="start" x="4661" y="1797">
@
</text>
</g>
<g cb-classname="ControlPin" cb-pin-name="xm-Wc7-6q" id="3Ny">
<line cb-classname="GraphicLineEntity" class="signalline" id="3tD" x1="4510" x2="4530" y1="1780" y2="1780"/>
<polygon cb-classname="GraphicPolygonEntity" class="signal" id="3tX" points="4530,1780 4519,1774 4519,1785"/>
</g>
</g>
<g cb-alg-K9="$139$cb-alg-derr$" cb-algorithm-id="008" cb-classname="ExternalPointInterface" cb-function-name="OUTPUT" id="3tU">
<ellipse cb-classname="GraphicEllipseEntity" class="algorithm" cx="4570" cy="1910" id="3ta" rx="40" ry="40"/>
<rect cb-classname="GraphicRectangleEntity" class="algorithm" height="80" id="3t4" width="30" x="4610" y="1870"/>
<line cb-classname="GraphicLineEntity" class="algorithm" id="3tx" x1="4610" x2="4640" y1="1910" y2="1910"/>
<g cb-classname="PointStatusIndicator" cb-indicator-type="highway" cb-source="8P-Yn8-aE" id="3tA" visibility="hidden">
<line cb-classname="GraphicLineEntity" class="algorithmline" id="3tZ" x1="4530" x2="4570" y1="1910" y2="1870"/>
<line cb-classname="GraphicLineEntity" class="algorithmline" id="3tP" x1="4570" x2="4610" y1="1870" y2="1910"/>
<line cb-classname="GraphicLineEntity" class="algorithmline" id="3ty" x1="4610" x2="4570" y1="1910" y2="1950"/>
<line cb-classname="GraphicLineEntity" class="algorithmline" id="4FD" x1="4570" x2="4530" y1="1950" y2="1910"/>
</g>
<g cb-classname="PointStatusIndicator" cb-indicator-type="hardware" cb-source="cS-zN2-t2" id="4FX" visibility="hidden">
<line cb-classname="GraphicLineEntity" class="algorithmline" id="4FU" x1="4610" x2="4530" y1="1870" y2="1870"/>
<line cb-classname="GraphicLineEntity" class="algorithmline" id="4Fa" x1="4530" x2="4530" y1="1870" y2="1950"/>
<line cb-classname="GraphicLineEntity" class="algorithmline" id="4F4" x1="4530" x2="4610" y1="1950" y2="1950"/>
</g>
<g cb-classname="PointStatusIndicator" cb-indicator-type="alarm" cb-source="tk-AjN-lL" id="4Fx" visibility="hidden">
<text cb-classname="GraphicTextEntity" class="algorithm" fill="#000000" font-family="Arial" font-size="20" id="4FA" x="4617" y="1899">
A
</text>
</g>
<g cb-classname="PointStatusIndicator" cb-indicator-type="ingraphic" cb-source="yb-AUI-Cd" id="4FZ" visibility="hidden">
<text cb-classname="GraphicTextEntity" class="algorithm" fill="#000000" font-family="Arial" font-size="20" id="4FP" x="4615" y="1940">
G
</text>
</g>
<g cb-classname="DynamicText" cb-labeled="false" cb-pin-name="TW" cb-source="8P-Yn8-aE" class="algorithm" id="4Fy" text-anchor="end">
<text baseline-shift="0%" cb-classname="GraphicTextEntity" class="algorithm" fill="black" font-family="Arial" font-size="20" font-style="normal" font-weight="normal" id="4zD" text-anchor="end" text-decoration="normal" x="4507" y="1889"/>
</g>
<g baseline-shift="-100%" cb-anchor-x="4508" cb-anchor-y="1926" cb-classname="PointReferences" cb-max-width="240" cb-originator="false" cb-source="IW-ZVV-C5" class="signal" id="4zX" text-anchor="end">
<text baseline-shift="-100%" cb-classname="GraphicTextEntity" class="algorithm" id="4zU" text-anchor="end" x="4508" y="1926">
-
</text>
</g>
<g baseline-shift="-50%" cb-anchor-x="4661" cb-anchor-y="1908" cb-classname="PointDescription" cb-content="extended" cb-labeled="false" cb-max-width="340" cb-source="4y-5T1-gb" class="algorithm" id="4za" text-anchor="start">
<text baseline-shift="-50%" cb-classname="GraphicTextEntity" class="algorithm" id="4z4" text-anchor="start" x="4661" y="1891">
@ Ovation Control Builder
</text>
<text baseline-shift="-50%" cb-classname="GraphicTextEntity" class="algorithm" id="4zx" text-anchor="start" x="4661" y="1927">
@
</text>
</g>
<g cb-classname="ControlPin" cb-pin-name="cL-GHO-fJ" id="4zA">
<line cb-classname="GraphicLineEntity" class="signalline" id="4zZ" x1="4510" x2="4530" y1="1910" y2="1910"/>
<polygon cb-classname="GraphicPolygonEntity" class="signal" id="4zP" points="4530,1910 4519,1904 4519,1915"/>
</g>
</g>
<g cb-alg-FK5N="XAFBSIM-MAN-VLV" cb-alg-xo14="$139$cb-alg-derr$" cb-alg-xo14a="SIM-MAN-VLV-DERR1" cb-alg-xo14u="SIM-MAN-VLV-DERR2" cb-algorithm-id="00A" cb-classname="ControlMacroReference" cb-function-name="DERR_ALARMS" cb-macro-crc="37481" cb-modify-id="00000001" id="4zy">
<rect cb-classname="GraphicRectangleEntity" class="algorithm" height="120" id="4jD" width="80" x="3290" y="2070"/>
<text baseline-shift="0%" cb-classname="GraphicTextEntity" class="algorithm" font-size="12" id="4jX" x="3310" y="2100">
DERR
</text>
<text baseline-shift="0%" cb-classname="GraphicTextEntity" class="algorithm" font-size="12" id="4jU" x="3300" y="2120">
ALARMS
</text>
<g cb-classname="ControlPin" cb-pin-name="cX-86a-kIfj" id="4ja">
<line cb-classname="GraphicLineEntity" class="signalline" id="4j4" x1="3330" x2="3330" y1="2040" y2="2070"/>
<polygon cb-classname="GraphicPolygonEntity" class="signal" id="4jx" points="3330,2070 3335,2059 3324,2059"/>
<g cb-classname="DynamicText" cb-source="4y-qXD-zPLJ" id="4jA">
<text cb-classname="GraphicTextEntity" class="signal" id="4jZ" text-anchor="start" transform="translate(3327,2055)rotate(-90)"/>
</g>
</g>
<g cb-classname="ControlPin" cb-pin-name="xm-Wc7-VJ6Pk" id="4jP">
<line cb-classname="GraphicLineEntity" class="signalline" id="4jy" x1="3370" x2="3400" y1="2090" y2="2090"/>
<g cb-classname="DynamicText" cb-source="Bm-56w-JYDG" id="4bD">
<text cb-classname="GraphicTextEntity" class="signal" id="4bX" text-anchor="start" x="3384" y="2087"/>
</g>
<g cb-classname="SignalSegment" id="4bU">
<g cb-classname="SignalConnection" cb-graphic-line="$434$" cb-input-pin="$Isb$" id="4ba"/>
<line cb-classname="GraphicLineEntity" class="signalline" id="4b4" x1="3400" x2="3740" y1="2090" y2="2090"/>
</g>
</g>
<g cb-classname="ControlPin" cb-pin-name="8P-Yn8-GPdfA" id="4bx">
<line cb-classname="GraphicLineEntity" class="signalline" id="4bA" x1="3370" x2="3400" y1="2110" y2="2110"/>
<g cb-classname="DynamicText" cb-source="IW-AeK-DX4E" id="4bZ">
<text cb-classname="GraphicTextEntity" class="signal" id="4bP" text-anchor="start" x="3384" y="2107"/>
</g>
<g cb-classname="SignalSegment" id="4by">
<g cb-classname="SignalConnection" cb-graphic-line="$441$" cb-input-pin="$pJ4$" id="4iD"/>
<line cb-classname="GraphicLineEntity" class="signalline" id="4iX" x1="3400" x2="3740" y1="2110" y2="2110"/>
</g>
</g>
<g cb-classname="ControlPin" cb-pin-name="cL-GHO-G0xw" id="4iU">
<line cb-classname="GraphicLineEntity" class="signalline" id="4ia" x1="3330" x2="3330" y1="2190" y2="2220"/>
<g cb-classname="DynamicText" cb-source="tk-Grt-T8hw" id="4i4">
<text cb-classname="GraphicTextEntity" class="signal" id="4ix" text-anchor="end" transform="translate(3327,2204)rotate(-90)"/>
</g>
<g cb-classname="SignalSegment" id="4iA">
<line cb-classname="GraphicLineEntity" class="signalline" id="4iZ" stroke="#1e12bf" stroke-dasharray="5,4" x1="3330" x2="3330" y1="2220" y2="2390"/>
<g cb-classname="SignalSegment" id="4iP">
<line cb-classname="GraphicLineEntity" class="signalline" id="4iy" stroke="#1e12bf" stroke-dasharray="5,4" x1="3330" x2="4510" y1="2390" y2="2390"/>
<g cb-classname="SignalConnection" cb-graphic-line="$449$" cb-input-pin="$3ci$" id="4yD"/>
</g>
</g>
</g>
</g>
<g cb-alg-B="0" cb-alg-M="0" cb-alg-QxA="DISABLED" cb-alg-l4ld3="NORMAL" cb-alg-l4ldJ="NORMAL" cb-alg-l4ldM="NORMAL" cb-alg-l4ldS="NORMAL" cb-alg-l4lde="NORMAL" cb-alg-l4ldk="INVERT" cb-alg-l4ldr="INVERT" cb-alg-l4ldv="NORMAL" cb-alg-lLQ="$419$cb-alg-derr2$" cb-alg-lLcAlA="DISABLED" cb-alg-lLz="$419$cb-alg-derr1$" cb-alg-pLZnl="SIM-MAN-VLV-DERR" cb-alg-pS72Y="850" cb-alg-yTt23="TITLE6" cb-alg-yTt2J="TITLE5" cb-alg-yTt2M="TITLE7" cb-alg-yTt2S="TITLE3" cb-alg-yTt2e="TITLE4" cb-alg-yTt2i="DEVICE ERROR ALARMS WINDOW" cb-alg-yTt2k="1-16 DERR ALARMS" cb-alg-yTt2r="17-24 DERR ALARMS" cb-alg-yTt2v="TITLE8" cb-algorithm-id="00B" cb-classname="AutomaticWindowAlgorithm" cb-function-name="PERMISSIVEWINDOW" id="4yX">
<rect cb-classname="GraphicRectangleEntity" class="algorithm" height="190" id="4yU" width="120" x="3770" y="2060"/>
<g cb-classname="ControlPin" cb-pin-name="cS-zN2-t2W" id="4ya">
<line cb-classname="GraphicLineEntity" class="signalline" id="4y4" x1="3740" x2="3770" y1="2090" y2="2090"/>
<polygon cb-classname="GraphicPolygonEntity" class="signal" id="4yx" points="3770,2090 3759,2084 3759,2095"/>
<g cb-classname="DynamicText" cb-source="Bm-56w-JYDG" id="4yA">
<text cb-classname="GraphicTextEntity" class="signal" id="4yZ" text-anchor="end" x="3755" y="2087"/>
</g>
</g>
<g cb-classname="ControlPin" cb-pin-name="TJ-qy4-SWE" id="4yP">
<line cb-classname="GraphicLineEntity" class="signalline" id="4yy" x1="3740" x2="3770" y1="2110" y2="2110"/>
<polygon cb-classname="GraphicPolygonEntity" class="signal" id="48D" points="3770,2110 3759,2104 3759,2115"/>
<g cb-classname="DynamicText" cb-source="8P-qSW-Kzho" id="48X">
<text cb-classname="GraphicTextEntity" class="signal" id="48U" text-anchor="end" x="3755" y="2107"/>
</g>
</g>
<g cb-classname="GraphicShape" id="48a">
<g cb-classname="DynamicText" cb-labeled="true" cb-source="Hw-YRu-6zPLJ" id="484">
<text cb-classname="GraphicTextEntity" class="algorithm" id="48x" text-anchor="start" x="3770" y="2280"/>
</g>
</g>
<text baseline-shift="0%" cb-classname="GraphicTextEntity" class="algorithm" font-family="ms shell dlg 2" font-size="8" id="48A" x="3780" y="2090">
DERR1
</text>
<text baseline-shift="0%" cb-classname="GraphicTextEntity" class="algorithm" font-family="ms shell dlg 2" font-size="8" id="48Z" x="3780" y="2110">
DERR2
</text>
<text baseline-shift="0%" cb-classname="GraphicTextEntity" class="algorithm" font-family="ms shell dlg 2" font-size="12" id="48P" x="3820" y="2080">
DERR
</text>
<text baseline-shift="0%" cb-classname="GraphicTextEntity" class="algorithm" font-family="ms shell dlg 2" font-size="12" id="48y" x="3820" y="2100">
ALARMS
</text>
<text baseline-shift="0%" cb-classname="GraphicTextEntity" class="algorithm" font-family="ms shell dlg 2" font-size="12" id="4SD" x="3820" y="2120">
WINDOW
</text>
</g>
<g cb-alg-WV="$419$cb-alg-xafb$" cb-algorithm-id="00C" cb-classname="ExternalPointInterface" cb-function-name="OUTPUT" id="4SX">
<ellipse cb-classname="GraphicEllipseEntity" class="algorithm" cx="4570" cy="2390" id="4SU" rx="40" ry="40"/>
<rect cb-classname="GraphicRectangleEntity" class="algorithm" height="80" id="4Sa" width="30" x="4610" y="2350"/>
<line cb-classname="GraphicLineEntity" class="algorithm" id="4S4" x1="4610" x2="4640" y1="2390" y2="2390"/>
<g cb-classname="PointStatusIndicator" cb-indicator-type="highway" cb-source="cX-86a-XD" id="4Sx" visibility="hidden">
<line cb-classname="GraphicLineEntity" class="algorithmline" id="4SA" x1="4530" x2="4570" y1="2390" y2="2350"/>
<line cb-classname="GraphicLineEntity" class="algorithmline" id="4SZ" x1="4570" x2="4610" y1="2350" y2="2390"/>
<line cb-classname="GraphicLineEntity" class="algorithmline" id="4SP" x1="4610" x2="4570" y1="2390" y2="2430"/>
<line cb-classname="GraphicLineEntity" class="algorithmline" id="4Sy" x1="4570" x2="4530" y1="2430" y2="2390"/>
</g>
<g cb-classname="PointStatusIndicator" cb-indicator-type="hardware" cb-source="xm-Wc7-6q" id="4ND" visibility="hidden">
<line cb-classname="GraphicLineEntity" class="algorithmline" id="4NX" x1="4610" x2="4530" y1="2350" y2="2350"/>
<line cb-classname="GraphicLineEntity" class="algorithmline" id="4NU" x1="4530" x2="4530" y1="2350" y2="2430"/>
<line cb-classname="GraphicLineEntity" class="algorithmline" id="4Na" x1="4530" x2="4610" y1="2430" y2="2430"/>
</g>
<g cb-classname="PointStatusIndicator" cb-indicator-type="alarm" cb-source="TJ-qy4-SW" id="4N4" visibility="hidden">
<text cb-classname="GraphicTextEntity" class="algorithm" fill="#000000" font-family="Arial" font-size="20" id="4Nx" x="4617" y="2379">
A
</text>
</g>
<g cb-classname="PointStatusIndicator" cb-indicator-type="ingraphic" cb-source="lN-09E-eK" id="4NA" visibility="hidden">
<text cb-classname="GraphicTextEntity" class="algorithm" fill="#000000" font-family="Arial" font-size="20" id="4NZ" x="4615" y="2420">
G
</text>
</g>
<g cb-classname="DynamicText" cb-labeled="false" cb-pin-name="Qn" cb-source="cX-86a-XD" class="algorithm" id="4NP" text-anchor="end">
<text baseline-shift="0%" cb-classname="GraphicTextEntity" class="algorithm" fill="black" font-family="Arial" font-size="20" font-style="normal" font-weight="normal" id="4Ny" text-anchor="end" text-decoration="normal" x="4507" y="2369"/>
</g>
<g baseline-shift="-100%" cb-anchor-x="4508" cb-anchor-y="2406" cb-classname="PointReferences" cb-max-width="240" cb-originator="false" cb-source="Hw-YRu-Oz" class="signal" id="4tD" text-anchor="end">
<text baseline-shift="-100%" cb-classname="GraphicTextEntity" class="algorithm" id="4tX" text-anchor="end" x="4508" y="2406">
-
</text>
</g>
<g baseline-shift="-50%" cb-anchor-x="4661" cb-anchor-y="2388" cb-classname="PointDescription" cb-content="extended" cb-labeled="false" cb-max-width="340" cb-source="cS-zN2-t2" class="algorithm" id="4tU" text-anchor="start">
<text baseline-shift="-50%" cb-classname="GraphicTextEntity" class="algorithm" id="4ta" text-anchor="start" x="4661" y="2371">
@ Ovation Control Builder
</text>
<text baseline-shift="-50%" cb-classname="GraphicTextEntity" class="algorithm" id="4t4" text-anchor="start" x="4661" y="2407">
@
</text>
</g>
<g cb-classname="ControlPin" cb-pin-name="Bm-Kgb-dT" id="4tx">
<line cb-classname="GraphicLineEntity" class="signalline" id="4tA" x1="4510" x2="4530" y1="2390" y2="2390"/>
<polygon cb-classname="GraphicPolygonEntity" class="signal" id="4tZ" points="4530,2390 4519,2384 4519,2395"/>
</g>
</g>
</g>
<g cb-classname="IncludeDocument" cb-modify-time="12/03/2019 14:33:51" cb-objectname="frame" id="5">
<text cb-classname="GraphicTextEntity" class="frame" font-size="50" id="1zxc" x="3660" y="3146">
HERA
</text>
<g baseline-shift="-50%" cb-classname="DynamicText" cb-source="Hw-zjCF-gQ" class="frame" id="1zxm">
<text cb-classname="GraphicTextEntity" class="frame" fill="black" font-family="arial" font-size="25" font-style="normal" font-weight="normal" id="1zxp" text-decoration="normal" x="4715" y="3325">
2
</text>
</g>
<g baseline-shift="-50%" cb-classname="DynamicText" cb-source="cS-kdeW-6l" class="frame" id="1zxD" text-anchor="middle">
<text cb-classname="GraphicTextEntity" class="frame" fill="black" font-family="arial" font-size="48" font-style="normal" font-weight="normal" id="1zxf" text-anchor="middle" text-decoration="normal" x="4900" y="3320">
2
</text>
</g>
<g baseline-shift="-50%" cb-classname="DynamicText" cb-source="cL-zKH9-dQ" class="frame" id="1zxb" text-anchor="middle">
<text cb-classname="GraphicTextEntity" class="frame" fill="black" font-family="arial" font-size="48" font-style="normal" font-weight="normal" id="1zxv" text-anchor="middle" text-decoration="normal" x="5067" y="3324">
2
</text>
</g>
<g cb-classname="DynamicText" cb-source="tk-HS4yy-we6TI" class="frame" id="1zxS">
<text cb-classname="GraphicTextEntity" class="frame" fill="black" font-family="arial" font-size="48" font-style="normal" font-weight="normal" id="1zAr" text-decoration="normal" x="3660" y="3224">
TYPICAL_MAN_VLV
</text>
</g>
<g baseline-shift="-50%" cb-classname="DynamicText" cb-source="yb-jxETw-KVhqMp" class="frame" id="1zAa" text-anchor="middle">
<text cb-classname="GraphicTextEntity" class="frame" fill="black" font-family="arial" font-size="48" font-style="normal" font-weight="normal" id="1zAc" text-anchor="middle" text-decoration="normal" x="5270" y="3324">
101
</text>
</g>
<g baseline-shift="0%" cb-classname="DynamicText" cb-source="8P-fT5e0XO5" class="frame" id="1zAm" text-anchor="middle">
<text cb-classname="GraphicTextEntity" class="frame" fill="black" font-family="arial" font-size="36" font-style="normal" font-weight="normal" id="1zAp" text-anchor="middle" text-decoration="normal" x="5270" y="3150">
A
</text>
</g>
<g baseline-shift="0%" cb-classname="DynamicText" cb-source="IW-IwPXAOtb-6VfW" class="frame" id="1zAD" text-anchor="middle">
<text cb-classname="GraphicTextEntity" class="frame" fill="black" font-family="arial" font-size="20" font-style="normal" font-weight="normal" id="1zAf" text-anchor="middle" text-decoration="normal" x="5270" y="3230">

</text>
</g>
<g baseline-shift="-50%" cb-classname="DynamicText" cb-source="4y-lE1OzEpR" class="frame" id="1zAb" text-anchor="end">
<text cb-classname="GraphicTextEntity" class="frame" fill="black" font-family="arial" font-size="26" font-style="normal" font-weight="normal" id="1zAv" text-anchor="end" text-decoration="normal" x="4500" y="3420">

</text>
</g>
<g baseline-shift="-50%" cb-classname="DynamicText" cb-source="xm-doptpTRP" class="frame" id="1zAS" text-anchor="end">
<text cb-classname="GraphicTextEntity" class="frame" fill="black" font-family="arial" font-size="26" font-style="normal" font-weight="normal" id="1zZr" text-anchor="end" text-decoration="normal" x="5353" y="3420">

</text>
</g>
<g cb-classname="GraphicShape" cb-tag="BORDER" id="1zZa">
<line cb-classname="GraphicLineEntity" class="frameline" id="1zZc" x1="40" x2="40" y1="40" y2="3460"/>
<line cb-classname="GraphicLineEntity" class="frameline" id="1zZm" x1="40" x2="5380" y1="3460" y2="3460"/>
<line cb-classname="GraphicLineEntity" class="frameline" id="1zZp" x1="5380" x2="5380" y1="3460" y2="40"/>
<line cb-classname="GraphicLineEntity" class="frameline" id="1zZD" x1="5380" x2="40" y1="40" y2="40"/>
<line cb-classname="GraphicLineEntity" class="frame" id="1zZf" x1="5430" x2="5440" y1="3510" y2="3510"/>
</g>
<g cb-classname="GraphicShape" cb-tag="TITLE BOX" id="1zZb">
<line cb-classname="GraphicLineEntity" class="frameline" id="1zZv" x1="2340" x2="2340" y1="3080" y2="3460"/>
<line cb-classname="GraphicLineEntity" class="frameline" id="1zZS" x1="2340" x2="5380" y1="3080" y2="3080"/>
<line cb-classname="GraphicLineEntity" class="frameline" id="1zPr" x1="3650" x2="3650" y1="3460" y2="3080"/>
<line cb-classname="GraphicLineEntity" class="frameline" id="1zPa" x1="3650" x2="5380" y1="3240" y2="3240"/>
<line cb-classname="GraphicLineEntity" class="frameline" id="1zPc" x1="3650" x2="5380" y1="3390" y2="3390"/>
<line cb-classname="GraphicLineEntity" class="frameline" id="1zPm" x1="3650" x2="5380" y1="3160" y2="3160"/>
<line cb-classname="GraphicLineEntity" class="frameline" id="1zPp" x1="3650" x2="4520" y1="3320" y2="3320"/>
<line cb-classname="GraphicLineEntity" class="frameline" id="1zPD" x1="4520" x2="5380" y1="3290" y2="3290"/>
<line cb-classname="GraphicLineEntity" class="frameline" id="1zPf" x1="4520" x2="5380" y1="3240" y2="3240"/>
<line cb-classname="GraphicLineEntity" class="frameline" id="1zPb" x1="4520" x2="4520" y1="3240" y2="3460"/>
<line cb-classname="GraphicLineEntity" class="frameline" id="1zPv" x1="4810" x2="4810" y1="3240" y2="3390"/>
<line cb-classname="GraphicLineEntity" class="frameline" id="1zPS" x1="4990" x2="4990" y1="3240" y2="3390"/>
<line cb-classname="GraphicLineEntity" class="frameline" id="1zyr" x1="5150" x2="5150" y1="3080" y2="3390"/>
</g>
<g cb-classname="GraphicShape" cb-tag="TEXT LABELS" id="1zya">
<text baseline-shift="-50%" cb-classname="GraphicTextEntity" class="frame" font-size="25" id="1zyc" text-anchor="middle" x="4890" y="3252">
Drop
</text>
<text baseline-shift="-50%" cb-classname="GraphicTextEntity" class="frame" font-size="25" id="1zym" text-anchor="middle" x="5075" y="3252">
Task
</text>
<text baseline-shift="-50%" cb-classname="GraphicTextEntity" class="frame" font-size="25" id="1zyp" text-anchor="middle" x="5265" y="3252">
Sheet
</text>
<text cb-classname="GraphicTextEntity" class="frame" font-size="25" id="1zyD" x="5152" y="3107">
Rev.
</text>
<text cb-classname="GraphicTextEntity" class="frame" font-size="25" id="1zyf" x="3653" y="3418">
Engineer
</text>
<text cb-classname="GraphicTextEntity" class="frame" font-size="25" id="1zyb" x="4528" y="3419">
Approved
</text>
<text cb-classname="GraphicTextEntity" class="frame" font-size="25" id="1zyv" x="5152" y="3187">
Date
</text>
<text baseline-shift="-50%" cb-classname="GraphicTextEntity" class="frame" font-size="25" id="1zyS" text-anchor="middle" x="4660" y="3252">
Drawing Number
</text>
<text baseline-shift="-50%" cb-classname="GraphicTextEntity" class="frame" font-size="25" id="1jDr" text-anchor="middle" x="4680" y="3325">
CTL
</text>
</g>
<text baseline-shift="-50%" cb-classname="GraphicTextEntity" class="frame" font-size="48" id="1jDa" text-anchor="middle" x="3000" y="3100">
EMERSON PROCESS MANAGEMENT
</text>
<g baseline-shift="-100%" cb-anchor-x="2360" cb-anchor-y="3140" cb-classname="GroupText" cb-max-width="1260" fill="black" id="1jDc">
<text baseline-shift="-100%" cb-classname="GraphicTextEntity" class="frame" fill="black" font-family="arial" font-size="22" font-weight="normal" id="1jDm" text-anchor="start" text-decoration="normal" x="2360" y="3140">
THIS DOCUMENT CONTAINS INFORMATION PROPRIETARY TO EMERSON PROCESS
</text>
<text baseline-shift="-100%" cb-classname="GraphicTextEntity" class="frame" fill="black" font-family="arial" font-size="22" font-weight="normal" id="1jDp" text-anchor="start" text-decoration="normal" x="2360" y="3176">
MANAGEMENT POWER &amp; WATER SOLUTIONS, INC. IT IS SUBMITTED IN CONFIDENCE AND
</text>
<text baseline-shift="-100%" cb-classname="GraphicTextEntity" class="frame" fill="black" font-family="arial" font-size="22" font-weight="normal" id="1jDD" text-anchor="start" text-decoration="normal" x="2360" y="3212">
TRUST, IS TO BE USED BY YOU SOLELY FOR THE PURPOSES FOR WHICH IT IS
</text>
<text baseline-shift="-100%" cb-classname="GraphicTextEntity" class="frame" fill="black" font-family="arial" font-size="22" font-weight="normal" id="1jDf" text-anchor="start" text-decoration="normal" x="2360" y="3248">
FURNISHED AND IS TO BE RETURNED UPON REQUEST. THIS DOCUMENT AND ANY
</text>
<text baseline-shift="-100%" cb-classname="GraphicTextEntity" class="frame" fill="black" font-family="arial" font-size="22" font-weight="normal" id="1jDb" text-anchor="start" text-decoration="normal" x="2360" y="3284">
OTHER INFORMATION PROVIDED TO YOU IS NOT TO BE REPRODUCED, TRANSMITTED,
</text>
<text baseline-shift="-100%" cb-classname="GraphicTextEntity" class="frame" fill="black" font-family="arial" font-size="22" font-weight="normal" id="1jDv" text-anchor="start" text-decoration="normal" x="2360" y="3320">
DISCLOSED, OR USED OTHERWISE IN WHOLE OR IN PART WITHOUT THE PRIOR
</text>
<text baseline-shift="-100%" cb-classname="GraphicTextEntity" class="frame" fill="black" font-family="arial" font-size="22" font-weight="normal" id="1jDS" text-anchor="start" text-decoration="normal" x="2360" y="3356">
WRITTEN AUTHORIZATION OF EMERSON PROCESS MANAGEMENT POWER &amp; WATER
</text>
<text baseline-shift="-100%" cb-classname="GraphicTextEntity" class="frame" fill="black" font-family="arial" font-size="22" font-weight="normal" id="1jXr" text-anchor="start" text-decoration="normal" x="2360" y="3392">
SOLUTIONS,INC.
</text>
</g>
</g>
</svg>