<?xml version="1.0" ?><svg cb-auto-time="03/26/2020 16:52:52" cb-classname="ControlFunction" cb-create-time="03/24/2020" cb-drop-id="12" cb-filename="Z:\OVATION\NET0\UNIT0\CONTROLFUNCTIONS\040D.svg" cb-function-id="040D" cb-key="332152551123" cb-modified-timestamp="1587027046" cb-modify-id="00000004" cb-path="Z:/OVATION/NET0/UNIT0/CONTROLFUNCTIONS" cb-revision="A" cb-sheet-number="1237109" cb-sheet-title="Dry Flue Gas enable logic -1" cb-snap-grid="10" cb-task-id="3" height="3522" id="1" width="5450" xmlns="http://www.w3.org/2000/svg">
<style cb-classname="EntityStyle" id="2" type="text/css">
	.algorithm { fill: white; stroke: black; stroke-width: 3 }
	.algorithm-function { fill: black; stroke: none }
	.algorithm-functionline { fill: none; stroke: black; stroke-linecap: round; stroke-width: 3 }
	.algorithm-name { fill: black; stroke: none }
	.algorithm-nameline { fill: none; stroke: black; stroke-linecap: round; stroke-width: 3 }
	.algorithm-sequence { fill: black; stroke: none; visibility: hidden }
	.algorithm-sequenceline { fill: none; stroke: black; stroke-linecap: round; stroke-width: 3; visibility: hidden }
	.algorithmline { fill: none; stroke: black; stroke-linecap: round; stroke-width: 3 }
	.annotation { fill: black; stroke: none }
	.annotationline { fill: none; stroke: black; stroke-linecap: round; stroke-width: 3 }
	.description { fill: black; stroke: none }
	.descriptionline { fill: none; stroke: black; stroke-linecap: round; stroke-width: 3 }
	.frame { fill: black; stroke: none }
	.frameline { fill: none; stroke: black; stroke-linecap: round; stroke-width: 3 }
	.signal { fill: black; stroke: none }
	.signalline { fill: none; stroke: black; stroke-linecap: round; stroke-width: 3 }
	text.algorithm { fill: black; font-family: Arial; font-size: 22; stroke: none }
	text.algorithm-function { fill: black; font-family: Arial; font-size: 22; stroke: none }
	text.algorithm-name { fill: black; font-family: Arial; font-size: 22; stroke: none }
	text.algorithm-sequence { fill: black; font-family: Arial; font-size: 22; stroke: none; visibility: hidden }
	text.annotation { fill: black; font-family: Arial; font-size: 22; stroke: none }
	text.description { fill: black; font-family: Arial; font-size: 28; stroke: none }
	text.frame { fill: black; font-family: Arial; font-size: 18; stroke: none }
	text.signal { fill: black; font-family: Arial; font-size: 12; stroke: none }
</style>
<g cb-classname="NamedObject" cb-objectname="Comments" id="3">
<text baseline-shift="0%" cb-classname="GraphicTextEntity" class="annotation" fill="#000000" font-family="MS Shell Dlg 2" font-size="24" id="6qk" x="1840" y="1113">
Control task 500msec
</text>
</g>
<g cb-classname="AlgorithmContainer" cb-objectname="Algorithms" id="4">
<g cb-alg-6mpi="65" cb-alg-EeiW="4" cb-algorithm-id="001" cb-classname="ControlAlgorithm" cb-function-name="AVALGEN" cb-modify-id="00000001" id="9L">
<polygon cb-classname="GraphicPolygonEntity" class="algorithm" id="9z" points="1800,360 1840,320 1800,280 1760,320"/>
<text baseline-shift="-50%" cb-classname="GraphicTextEntity" class="algorithm" font-size="44" id="9r" text-anchor="middle" x="1800" y="303">
A
</text>
<g cb-classname="ControlPin" cb-pin-name="GN-UOO-CyV" id="9j">
<line cb-classname="GraphicLineEntity" class="signalline" id="9c" x1="1800" x2="1800" y1="360" y2="380"/>
<g cb-classname="DynamicText" cb-source="sV-Mip-hg0J" class="signal" id="9q" text-anchor="end">
<text cb-classname="GraphicTextEntity" class="signal" fill="black" font-style="normal" font-weight="normal" id="96" text-anchor="end" text-decoration="normal" transform="translate(1797,374)rotate(-90)"/>
</g>
<g cb-classname="SignalSegment" id="1zb">
<g cb-classname="SignalConnection" cb-graphic-line="$151$" cb-input-pin="$3jL$" id="1r2"/>
<line cb-classname="GraphicLineEntity" class="signalline" id="1rD" x1="1800" x2="1800" y1="380" y2="580"/>
</g>
</g>
<g cb-classname="GraphicShape" id="1Ad">
<g cb-classname="DynamicText" cb-labeled="true" cb-source="ak-bez-1UkW" id="1Ab">
<text cb-classname="GraphicTextEntity" class="algorithm" id="1AX" text-anchor="start" x="1750" y="270"/>
</g>
</g>
</g>
<g cb-alg-DbeH="12" cb-alg-IIUz="65" cb-algorithm-id="002" cb-classname="ControlAlgorithm" cb-function-name="AVALGEN" cb-modify-id="00000001" id="1QK">
<polygon cb-classname="GraphicPolygonEntity" class="algorithm" id="1QD" points="2040,360 2080,320 2040,280 2000,320"/>
<text baseline-shift="-50%" cb-classname="GraphicTextEntity" class="algorithm" font-size="44" id="1Q2" text-anchor="middle" x="2040" y="303">
A
</text>
<g cb-classname="ControlPin" cb-pin-name="vw-UkU-yRd" id="1QW">
<line cb-classname="GraphicLineEntity" class="signalline" id="1QQ" x1="2040" x2="2040" y1="360" y2="380"/>
<g cb-classname="DynamicText" cb-source="QA-vfD-qAD4" class="signal" id="1Qx" text-anchor="end">
<text cb-classname="GraphicTextEntity" class="signal" fill="black" font-style="normal" font-weight="normal" id="1Qk" text-anchor="end" text-decoration="normal" transform="translate(2037,374)rotate(-90)"/>
</g>
<g cb-classname="SignalSegment" id="1rW">
<line cb-classname="GraphicLineEntity" class="signalline" id="1rQ" x1="2040" x2="2040" y1="380" y2="640"/>
<g cb-classname="SignalSegment" id="1rx">
<line cb-classname="GraphicLineEntity" class="signalline" id="1rk" x1="2040" x2="1860" y1="640" y2="640"/>
<g cb-classname="SignalConnection" cb-graphic-line="$156$" cb-input-pin="$DXc$" id="1rd"/>
</g>
</g>
</g>
<g cb-classname="GraphicShape" id="1Qd">
<g cb-classname="DynamicText" cb-labeled="true" cb-source="Jf-pLP-SkLI" id="1Qb">
<text cb-classname="GraphicTextEntity" class="algorithm" id="1QX" text-anchor="start" x="1990" y="270"/>
</g>
</g>
</g>
<g cb-alg-uHK="P32TI1100XY_L" cb-alg-uWzL="NO" cb-algorithm-id="004" cb-classname="ExternalPointInterface" cb-function-name="INPUT" id="1jQ">
<ellipse cb-classname="GraphicEllipseEntity" class="algorithm" cx="400" cy="640" id="1jx" rx="40" ry="40"/>
<rect cb-classname="GraphicRectangleEntity" class="algorithm" height="80" id="1jk" width="30" x="330" y="600"/>
<line cb-classname="GraphicLineEntity" class="algorithm" id="1jd" x1="330" x2="360" y1="640" y2="640"/>
<g cb-classname="PointStatusIndicator" cb-indicator-type="Highway" cb-source="z3-gii-yZL" id="1jb" visibility="hidden">
<line cb-classname="GraphicLineEntity" class="algorithmline" id="1jX" x1="360" x2="400" y1="640" y2="600"/>
<line cb-classname="GraphicLineEntity" class="algorithmline" id="1cK" x1="400" x2="440" y1="600" y2="640"/>
<line cb-classname="GraphicLineEntity" class="algorithmline" id="1cD" x1="440" x2="400" y1="640" y2="680"/>
<line cb-classname="GraphicLineEntity" class="algorithmline" id="1c2" x1="400" x2="360" y1="680" y2="640"/>
</g>
<g cb-classname="PointStatusIndicator" cb-indicator-type="hardware" cb-source="ak-bez-7Hm" id="1cW" visibility="hidden">
<line cb-classname="GraphicLineEntity" class="algorithmline" id="1cQ" x1="360" x2="440" y1="600" y2="600"/>
<line cb-classname="GraphicLineEntity" class="algorithmline" id="1cx" x1="440" x2="440" y1="600" y2="680"/>
<line cb-classname="GraphicLineEntity" class="algorithmline" id="1ck" x1="440" x2="360" y1="680" y2="680"/>
</g>
<g cb-classname="PointStatusIndicator" cb-indicator-type="alarm" cb-source="Y6-XWN-FBL" id="1cd" visibility="hidden">
<text cb-classname="GraphicTextEntity" class="algorithm" fill="#000000" font-family="arial" font-size="20" id="1cb" x="337" y="629">
A
</text>
</g>
<g cb-classname="PointStatusIndicator" cb-indicator-type="ingraphic" cb-source="Uq-Jlo-8LQ" id="1cX" visibility="hidden">
<text cb-classname="GraphicTextEntity" class="algorithm" fill="#000000" font-family="Arial" font-size="20" id="1qK" x="335" y="669">
G
</text>
</g>
<g baseline-shift="-50%" cb-anchor-x="312" cb-anchor-y="634" cb-classname="PointDescription" cb-content="extended" cb-labeled="false" cb-max-width="230" cb-source="z3-gii-yZL" class="algorithm" id="1qD" text-anchor="end">
<text baseline-shift="-50%" cb-classname="GraphicTextEntity" class="algorithm" id="1q2" text-anchor="end" x="312" y="617">
Temperature FF
</text>
<text baseline-shift="-50%" cb-classname="GraphicTextEntity" class="algorithm" id="1qW" text-anchor="end" x="312" y="653">
Inlet
</text>
</g>
<g cb-classname="DynamicText" cb-labeled="false" cb-pin-name="L2h" cb-source="qx-jlZ-aIy" class="algorithm" id="1qx" text-anchor="start">
<text baseline-shift="0%" cb-classname="GraphicTextEntity" class="algorithm" fill="black" font-family="Arial" font-size="20" font-style="normal" font-weight="normal" id="1qk" text-anchor="start" text-decoration="normal" x="460" y="620"/>
</g>
<g baseline-shift="-100%" cb-anchor-x="460" cb-anchor-y="640" cb-classname="PointReferences" cb-max-width="230" cb-originator="true" cb-source="GN-UOO-CyV" class="signal" id="1qd" text-anchor="start">
<text baseline-shift="-100%" cb-classname="GraphicTextEntity" class="algorithm" id="1qb" text-anchor="start" x="460" y="640">
12/123114
</text>
</g>
<g cb-classname="ControlPin" cb-pin-name="Y6-XWN-FBL" id="16K">
<line cb-classname="GraphicLineEntity" class="signalline" id="16D" x1="440" x2="460" y1="640" y2="640"/>
<g cb-classname="SignalSegment" id="162">
<line cb-classname="GraphicLineEntity" class="signalline" id="8rQ" stroke="#1e12bf" stroke-dasharray="5,4" x1="460" x2="720" y1="640" y2="640"/>
<g cb-classname="SignalSegment" id="8rx">
<line cb-classname="GraphicLineEntity" class="signalline" id="8rk" stroke="#1e12bf" stroke-dasharray="5,4" x1="720" x2="720" y1="640" y2="840"/>
<g cb-classname="SignalSegment" id="8rd">
<line cb-classname="GraphicLineEntity" class="signalline" id="8rb" stroke="#1e12bf" stroke-dasharray="5,4" x1="720" x2="790" y1="840" y2="840"/>
<g cb-classname="SignalConnection" cb-graphic-line="$858$" cb-input-pin="$bXL$" id="8rX"/>
<line cb-classname="GraphicLineEntity" class="signalline" id="8jD" stroke="#1e12bf" stroke-dasharray="5,4" x1="720" x2="720" y1="840" y2="860"/>
<g cb-classname="SignalSegment" id="8j2">
<line cb-classname="GraphicLineEntity" class="signalline" id="8jW" stroke="#1e12bf" stroke-dasharray="5,4" x1="720" x2="790" y1="860" y2="860"/>
<g cb-classname="SignalConnection" cb-graphic-line="$863$" cb-input-pin="$dqx$" id="8jQ"/>
</g>
<ellipse cb-classname="GraphicEllipseEntity" class="signal" cx="720" cy="840" fill="#1e12bf" id="8jx" rx="5" ry="5" stroke="#1e12bf" stroke-dasharray="5,4"/>
</g>
<line cb-classname="GraphicLineEntity" class="signalline" id="8LQ" stroke="#1e12bf" stroke-dasharray="5,4" x1="720" x2="1730" y1="640" y2="640"/>
<ellipse cb-classname="GraphicEllipseEntity" class="signal" cx="720" cy="640" fill="#1e12bf" id="8jK" rx="5" ry="5" stroke="#1e12bf" stroke-dasharray="5,4"/>
<g cb-classname="SignalConnection" cb-graphic-line="$834$" cb-input-pin="$Ynt$" id="9YD"/>
</g>
</g>
</g>
</g>
<g cb-alg-C4n="$110$cb-alg-out$" cb-alg-C4nN="0.000000" cb-alg-C4nP="60" cb-alg-GAR="ON" cb-alg-GRKW="ON" cb-alg-MiqP="$164$cb-alg-out$" cb-alg-Vt="$93$cb-alg-out$" cb-alg-Vt_N="0.000000" cb-alg-Vt_P="60" cb-alg-WmqP="42" cb-alg-YRno="-999999999" cb-alg-dHno="999999999" cb-alg-dNK3="2.500000" cb-alg-dNK8="2.500000" cb-alg-riTG="OFF" cb-algorithm-id="003" cb-classname="ControlAlgorithm" cb-function-name="TRANSFER" cb-modify-id="00000001" id="1YK">
<polygon cb-classname="GraphicPolygonEntity" class="algorithm" id="1YD" points="1800,600 1760,640 1800,680 1840,640"/>
<text baseline-shift="-50%" cb-classname="GraphicTextEntity" class="algorithm" font-size="33" id="1Y2" text-anchor="middle" x="1800" y="632">
T
</text>
<g cb-classname="ControlPin" cb-pin-name="oF-kLL-KWN" id="1YW">
<line cb-classname="GraphicLineEntity" class="signalline" id="1YQ" x1="1800" x2="1800" y1="680" y2="700"/>
<g cb-classname="DynamicText" cb-source="Y6-di5-MP1e" class="signal" id="1Yx" text-anchor="end">
<text baseline-shift="5%" cb-classname="GraphicTextEntity" class="signal" fill="black" font-style="normal" font-weight="normal" id="1Yk" text-anchor="end" text-decoration="normal" transform="translate(1791,693)rotate(-90)"/>
</g>
<g cb-classname="SignalSegment" id="3jQ">
<g cb-classname="SignalConnection" cb-graphic-line="$367$" cb-input-pin="$Elv$" id="3jb"/>
<line cb-classname="GraphicLineEntity" class="signalline" id="3jd" x1="1800" x2="1800" y1="700" y2="900"/>
</g>
</g>
<g cb-classname="ControlPin" cb-pin-name="qx-jlZ-15UN" id="1rX">
<line cb-classname="GraphicLineEntity" class="signalline" id="1jK" x1="1730" x2="1760" y1="640" y2="640"/>
<polygon cb-classname="GraphicPolygonEntity" class="signal" id="1jD" points="1760,640 1749,634 1749,645"/>
<g cb-classname="DynamicText" cb-source="oF-mzH-56Sj" id="1j2">
<text cb-classname="GraphicTextEntity" class="signal" id="1jW" text-anchor="end" x="1745" y="637"/>
</g>
</g>
<g cb-classname="ControlPin" cb-pin-name="cN-eii-yoI" id="1zW">
<line cb-classname="GraphicLineEntity" class="signalline" id="1zQ" x1="1860" x2="1840" y1="640" y2="640"/>
<polygon cb-classname="GraphicPolygonEntity" class="signal" id="1zx" points="1840,640 1850,645 1850,634"/>
<g cb-classname="DynamicText" cb-source="qx-aId-sXfY" id="1zk">
<text cb-classname="GraphicTextEntity" class="signal" id="1zd" text-anchor="start" x="1854" y="637"/>
</g>
</g>
<g cb-classname="ControlPin" cb-pin-name="sV-T5T-hF" id="1Ld">
<line cb-classname="GraphicLineEntity" class="signalline" id="1Lb" x1="1800" x2="1800" y1="580" y2="600"/>
<polygon cb-classname="GraphicPolygonEntity" class="signal" id="1LX" points="1800,600 1804,589 1796,589"/>
<g cb-classname="DynamicText" cb-source="Uq-0OM-9u5C" class="signal" id="1zK">
<text baseline-shift="5%" cb-classname="GraphicTextEntity" class="signal" fill="black" font-style="normal" font-weight="normal" id="1zD" text-decoration="normal" transform="translate(1791,581)rotate(-90)"/>
</g>
</g>
</g>
<g cb-alg-4DNl="$164$cb-alg-out$" cb-alg-A4jw="96" cb-alg-Rqfw="240" cb-alg-mD3="$164$cb-alg-out$" cb-alg-pGO="P32TPRE_TDACT" cb-alg-pLP="P32TPRE_TDON" cb-alg-xqUB="60" cb-algorithm-id="00D" cb-classname="ControlAlgorithm" cb-function-name="ONDELAY" cb-modify-id="00000004" id="8Lk">
<rect cb-classname="GraphicRectangleEntity" class="algorithm" height="60" id="8Ld" width="60" x="810" y="820"/>
<text baseline-shift="-50%" cb-classname="GraphicTextEntity" class="algorithm" font-size="18" id="8Lb" text-anchor="middle" x="839" y="832">
TD
</text>
<text cb-classname="GraphicTextEntity" class="algorithm" font-size="18" id="8LX" text-anchor="middle" x="839" y="867">
ON
</text>
<g cb-classname="GraphicShape" id="9rK">
<g cb-classname="DynamicText" cb-labeled="false" cb-source="oY-quw-kLL" id="9rD">
<text cb-classname="GraphicTextEntity" class="algorithm" id="9r2" text-anchor="start" x="760" y="800"/>
</g>
</g>
<g cb-classname="ControlPin" cb-pin-name="Y6-XWN-fDd" id="8zK">
<line cb-classname="GraphicLineEntity" class="signalline" id="8zD" x1="790" x2="810" y1="840" y2="840"/>
<polygon cb-classname="GraphicPolygonEntity" class="signal" id="8z2" points="810,840 799,836 799,844"/>
<g cb-classname="DynamicText" cb-source="QA-vfD-qAD4" class="signal" id="8zW" text-anchor="end">
<text baseline-shift="5%" cb-classname="GraphicTextEntity" class="signal" fill="black" font-style="normal" font-weight="normal" id="8zQ" text-anchor="end" text-decoration="normal" x="774" y="836"/>
</g>
</g>
<g cb-classname="ControlPin" cb-pin-name="cN-eii-th7" id="8zx">
<line cb-classname="GraphicLineEntity" class="signalline" id="8zk" x1="870" x2="890" y1="840" y2="840"/>
<g cb-classname="DynamicText" cb-source="oY-0T6-NTug" class="signal" id="8zd">
<text baseline-shift="5%" cb-classname="GraphicTextEntity" class="signal" fill="black" font-style="normal" font-weight="normal" id="8zb" text-decoration="normal" x="906" y="836"/>
</g>
<g cb-classname="SignalSegment" id="8jk">
<line cb-classname="GraphicLineEntity" class="signalline" id="1QKa" stroke="#1e12bf" stroke-dasharray="5,4" x1="890" x2="1010" y1="840" y2="840"/>
<g cb-classname="SignalSegment" id="1QKT">
<line cb-classname="GraphicLineEntity" class="signalline" id="1QKb" stroke="#1e12bf" stroke-dasharray="5,4" x1="1010" x2="1010" y1="840" y2="720"/>
<g cb-classname="SignalSegment" id="1QDi">
<line cb-classname="GraphicLineEntity" class="signalline" id="1QDR" stroke="#1e12bf" stroke-dasharray="5,4" x1="1010" x2="3720" y1="720" y2="720"/>
<g cb-classname="SignalSegment" id="1QDv">
<line cb-classname="GraphicLineEntity" class="signalline" id="1QDO" stroke="#1e12bf" stroke-dasharray="5,4" x1="3720" x2="3720" y1="720" y2="600"/>
<g cb-classname="SignalSegment" id="1QDX">
<line cb-classname="GraphicLineEntity" class="signalline" id="1QDw" stroke="#1e12bf" stroke-dasharray="5,4" x1="3720" x2="3810" y1="600" y2="600"/>
<g cb-classname="SignalConnection" cb-graphic-line="$1115$" cb-input-pin="$YlAd$" id="1QD7"/>
</g>
</g>
</g>
<line cb-classname="GraphicLineEntity" class="signalline" id="8qX" stroke="#1e12bf" stroke-dasharray="5,4" x1="1010" x2="1020" y1="840" y2="840"/>
<g cb-classname="SignalConnection" cb-graphic-line="$889$" cb-input-pin="$L85$" id="86D"/>
<ellipse cb-classname="GraphicEllipseEntity" class="signal" cx="1010" cy="840" fill="#1e12bf" id="1QDa" rx="5" ry="5" stroke="#1e12bf" stroke-dasharray="5,4"/>
</g>
</g>
</g>
<g cb-classname="ControlPin" cb-pin-name="ak-bez-Zp3l" id="8zX">
<line cb-classname="GraphicLineEntity" class="signalline" id="8rK" x1="790" x2="810" y1="860" y2="860"/>
<polygon cb-classname="GraphicPolygonEntity" class="signal" id="8rD" points="810,860 799,856 799,864"/>
<g cb-classname="DynamicText" cb-source="sV-Mip-hg0J" class="signal" id="8r2" text-anchor="end">
<text baseline-shift="5%" cb-classname="GraphicTextEntity" class="signal" fill="black" font-style="normal" font-weight="normal" id="8rW" text-anchor="end" text-decoration="normal" x="774" y="856"/>
</g>
</g>
</g>
<g cb-alg-6mpi="98" cb-alg-AzF="0" cb-alg-Bdt0O="RETRIGGABLE" cb-alg-JVI="$836$cb-alg-out$" cb-alg-LeNi="1.000000" cb-alg-feFT="1.000000" cb-alg-mW47="POSITIVE" cb-algorithm-id="00E" cb-classname="ControlAlgorithm" cb-function-name="ONESHOT" cb-modify-id="00000004" id="8cW">
<rect cb-classname="GraphicRectangleEntity" class="algorithm" height="40" id="8cQ" width="40" x="1040" y="820"/>
<line cb-classname="GraphicLineEntity" class="algorithmline" id="8cx" x1="1043" x2="1053" y1="850" y2="850"/>
<line cb-classname="GraphicLineEntity" class="algorithmline" id="8ck" x1="1053" x2="1053" y1="850" y2="830"/>
<line cb-classname="GraphicLineEntity" class="algorithmline" id="8cd" x1="1053" x2="1067" y1="830" y2="830"/>
<line cb-classname="GraphicLineEntity" class="algorithmline" id="8cb" x1="1067" x2="1067" y1="830" y2="850"/>
<line cb-classname="GraphicLineEntity" class="algorithmline" id="8cX" x1="1067" x2="1077" y1="850" y2="850"/>
<g cb-classname="ControlPin" cb-pin-name="vw-UkU-f9r" id="8qK">
<line cb-classname="GraphicLineEntity" class="signalline" id="8qD" x1="1020" x2="1040" y1="840" y2="840"/>
<polygon cb-classname="GraphicPolygonEntity" class="signal" id="8q2" points="1040,840 1029,836 1029,844"/>
<g cb-classname="DynamicText" cb-source="z3-Bf9-X0ax" class="signal" id="8qW" text-anchor="end">
<text baseline-shift="5%" cb-classname="GraphicTextEntity" class="signal" fill="black" font-style="normal" font-weight="normal" id="8qQ" text-anchor="end" text-decoration="normal" x="1041" y="827"/>
</g>
</g>
<g cb-classname="ControlPin" cb-pin-name="Jf-pLP-uHK" id="8qx">
<line cb-classname="GraphicLineEntity" class="signalline" id="8qk" x1="1080" x2="1100" y1="840" y2="840"/>
<g cb-classname="DynamicText" cb-source="qx-aId-sXfY" class="signal" id="8qd">
<text baseline-shift="5%" cb-classname="GraphicTextEntity" class="signal" fill="black" font-style="normal" font-weight="normal" id="8qb" text-decoration="normal" x="1092" y="829"/>
</g>
<g cb-classname="SignalSegment" cb-start-x="1100" cb-start-y="840" id="86K">
<line cb-classname="GraphicLineEntity" class="signalline" id="9Yd" stroke="#1e12bf" stroke-dasharray="5,4" x1="1100" x2="1200" y1="840" y2="840"/>
<g cb-classname="SignalSegment" id="9Yb">
<line cb-classname="GraphicLineEntity" class="signalline" id="9YX" stroke="#1e12bf" stroke-dasharray="5,4" x1="1200" x2="1200" y1="840" y2="920"/>
<g cb-classname="SignalSegment" id="9LK">
<line cb-classname="GraphicLineEntity" class="signalline" id="9zk" stroke="#1e12bf" stroke-dasharray="5,4" x1="1200" x2="1300" y1="920" y2="920"/>
<g cb-classname="SignalConnection" cb-graphic-line="$946$" cb-input-pin="$XRU$" id="9zb"/>
</g>
<line cb-classname="GraphicLineEntity" class="signalline" id="8jd" stroke="#1e12bf" stroke-dasharray="5,4" x1="1200" x2="3710" y1="840" y2="840"/>
<g cb-classname="SignalSegment" id="8jb">
<line cb-classname="GraphicLineEntity" class="signalline" id="8jX" stroke="#1e12bf" stroke-dasharray="5,4" x1="3710" x2="3710" y1="840" y2="1520"/>
<g cb-classname="SignalSegment" id="8cK">
<line cb-classname="GraphicLineEntity" class="signalline" id="8cD" stroke="#1e12bf" stroke-dasharray="5,4" x1="3710" x2="3810" y1="1520" y2="1520"/>
<g cb-classname="SignalConnection" cb-graphic-line="$871$" cb-input-pin="$dTw$" id="8c2"/>
</g>
</g>
<ellipse cb-classname="GraphicEllipseEntity" class="signal" cx="1200" cy="840" fill="#1e12bf" id="9LW" rx="5" ry="5" stroke="#1e12bf" stroke-dasharray="5,4"/>
</g>
</g>
</g>
</g>
<g cb-alg-ipS="$873$cb-alg-out$" cb-algorithm-id="010" cb-classname="FastBooleanAlgorithm" cb-function-name="NOT" id="9LQ">
<rect cb-classname="GraphicRectangleEntity" class="algorithm" height="40" id="9Lx" width="40" x="1320" y="900"/>
<text baseline-shift="-50%" cb-classname="GraphicTextEntity" class="algorithm" font-size="28" id="9Lk" text-anchor="middle" x="1339" y="912">
N
</text>
<g cb-classname="ControlPin" cb-pin-name="Jf-pLP-1N3" id="9Ld">
<line cb-classname="GraphicLineEntity" class="signalline" id="9Lb" x1="1300" x2="1320" y1="920" y2="920"/>
<polygon cb-classname="GraphicPolygonEntity" class="signal" id="9LX" points="1320,920 1309,916 1309,924"/>
<g cb-classname="DynamicText" cb-source="ak-91N-HUIf" class="signal" id="9zK" text-anchor="end">
<text baseline-shift="5%" cb-classname="GraphicTextEntity" class="signal" fill="black" font-style="normal" font-weight="normal" id="9zD" text-anchor="end" text-decoration="normal" x="1315" y="912"/>
</g>
</g>
<g cb-classname="ControlPin" cb-pin-name="oF-kLL-KWN" id="9z2">
<line cb-classname="GraphicLineEntity" class="signalline" id="9zW" x1="1360" x2="1380" y1="920" y2="920"/>
<g cb-classname="DynamicText" cb-source="Y6-di5-MP1e" class="signal" id="9zQ">
<text baseline-shift="5%" cb-classname="GraphicTextEntity" class="signal" fill="black" font-style="normal" font-weight="normal" id="9zx" text-decoration="normal" x="1372" y="912"/>
</g>
<g cb-classname="SignalSegment" cb-start-x="1380" cb-start-y="920" id="9zd">
<line cb-classname="GraphicLineEntity" class="signalline" id="9LD" stroke="#1e12bf" stroke-dasharray="5,4" x1="1380" x2="1420" y1="920" y2="920"/>
<g cb-classname="SignalConnection" cb-graphic-line="$931$" cb-input-pin="$qXT$" id="9zX"/>
</g>
</g>
</g>
<g cb-alg-CsOo="NO" cb-alg-CyV="P32TI1152_L" cb-algorithm-id="005" cb-classname="ExternalPointInterface" cb-function-name="INPUT" id="2YK">
<ellipse cb-classname="GraphicEllipseEntity" class="algorithm" cx="400" cy="1000" id="2YD" rx="40" ry="40"/>
<rect cb-classname="GraphicRectangleEntity" class="algorithm" height="80" id="2Y2" width="30" x="330" y="960"/>
<line cb-classname="GraphicLineEntity" class="algorithm" id="2YW" x1="330" x2="360" y1="1000" y2="1000"/>
<g cb-classname="PointStatusIndicator" cb-indicator-type="Highway" cb-source="qx-jlZ-aIy" id="2YQ" visibility="hidden">
<line cb-classname="GraphicLineEntity" class="algorithmline" id="2Yx" x1="360" x2="400" y1="1000" y2="960"/>
<line cb-classname="GraphicLineEntity" class="algorithmline" id="2Yk" x1="400" x2="440" y1="960" y2="1000"/>
<line cb-classname="GraphicLineEntity" class="algorithmline" id="2Yd" x1="440" x2="400" y1="1000" y2="1040"/>
<line cb-classname="GraphicLineEntity" class="algorithmline" id="2Yb" x1="400" x2="360" y1="1040" y2="1000"/>
</g>
<g cb-classname="PointStatusIndicator" cb-indicator-type="hardware" cb-source="Y6-XWN-FBL" id="2YX" visibility="hidden">
<line cb-classname="GraphicLineEntity" class="algorithmline" id="2LK" x1="360" x2="440" y1="960" y2="960"/>
<line cb-classname="GraphicLineEntity" class="algorithmline" id="2LD" x1="440" x2="440" y1="960" y2="1040"/>
<line cb-classname="GraphicLineEntity" class="algorithmline" id="2L2" x1="440" x2="360" y1="1040" y2="1040"/>
</g>
<g cb-classname="PointStatusIndicator" cb-indicator-type="alarm" cb-source="z3-gii-yZL" id="2LW" visibility="hidden">
<text cb-classname="GraphicTextEntity" class="algorithm" fill="#000000" font-family="arial" font-size="20" id="2LQ" x="337" y="989">
A
</text>
</g>
<g cb-classname="PointStatusIndicator" cb-indicator-type="ingraphic" cb-source="Jf-pLP-uHK" id="2Lx" visibility="hidden">
<text cb-classname="GraphicTextEntity" class="algorithm" fill="#000000" font-family="Arial" font-size="20" id="2Lk" x="335" y="1029">
G
</text>
</g>
<g baseline-shift="-50%" cb-anchor-x="312" cb-anchor-y="994" cb-classname="PointDescription" cb-content="extended" cb-labeled="false" cb-max-width="230" cb-source="qx-jlZ-aIy" class="algorithm" id="2Ld" text-anchor="end">
<text baseline-shift="-50%" cb-classname="GraphicTextEntity" class="algorithm" id="2Lb" text-anchor="end" x="312" y="959">
temp. TT1152
</text>
<text baseline-shift="-50%" cb-classname="GraphicTextEntity" class="algorithm" id="2LX" text-anchor="end" x="312" y="995">
preheat dry FG
</text>
<text baseline-shift="-50%" cb-classname="GraphicTextEntity" class="algorithm" id="2zk" text-anchor="end" x="312" y="1031">
clean. inlet
</text>
</g>
<g cb-classname="DynamicText" cb-labeled="false" cb-pin-name="njQ" cb-source="oF-kLL-KWN" class="algorithm" id="2zK" text-anchor="start">
<text baseline-shift="0%" cb-classname="GraphicTextEntity" class="algorithm" fill="black" font-family="Arial" font-size="20" font-style="normal" font-weight="normal" id="2zD" text-anchor="start" text-decoration="normal" x="460" y="980"/>
</g>
<g baseline-shift="-100%" cb-anchor-x="460" cb-anchor-y="1000" cb-classname="PointReferences" cb-max-width="230" cb-originator="true" cb-source="Y6-XWN-FBL" class="signal" id="2z2" text-anchor="start">
<text baseline-shift="-100%" cb-classname="GraphicTextEntity" class="algorithm" id="2zW" text-anchor="start" x="460" y="1000">
12/123115
</text>
</g>
<g cb-classname="ControlPin" cb-pin-name="Uq-Jlo-8LQ" id="2zQ">
<line cb-classname="GraphicLineEntity" class="signalline" id="2zx" x1="440" x2="460" y1="1000" y2="1000"/>
<g cb-classname="SignalSegment" id="2rX">
<line cb-classname="GraphicLineEntity" class="signalline" id="7Qk" stroke="#1e12bf" stroke-dasharray="5,4" x1="460" x2="790" y1="1000" y2="1000"/>
<g cb-classname="SignalConnection" cb-graphic-line="$716$" cb-input-pin="$VDl$" id="7jQ"/>
</g>
</g>
</g>
<g cb-alg-iED="$220$cb-alg-out$" cb-algorithm-id="006" cb-classname="FastBooleanAlgorithm" cb-function-name="NOT" cb-modify-id="00000001" id="2zd">
<rect cb-classname="GraphicRectangleEntity" class="algorithm" height="40" id="2zb" width="40" x="810" y="980"/>
<text baseline-shift="-50%" cb-classname="GraphicTextEntity" class="algorithm" font-size="28" id="2zX" text-anchor="middle" x="829" y="992">
N
</text>
<g cb-classname="ControlPin" cb-pin-name="qx-jlZ-zHY" id="2rK">
<line cb-classname="GraphicLineEntity" class="signalline" id="2rD" x1="790" x2="810" y1="1000" y2="1000"/>
<polygon cb-classname="GraphicPolygonEntity" class="signal" id="2r2" points="810,1000 799,996 799,1004"/>
<g cb-classname="DynamicText" cb-source="oF-mzH-56Sj" class="signal" id="2rW" text-anchor="end">
<text baseline-shift="5%" cb-classname="GraphicTextEntity" class="signal" fill="black" font-style="normal" font-weight="normal" id="2rQ" text-anchor="end" text-decoration="normal" x="805" y="992"/>
</g>
</g>
<g cb-classname="ControlPin" cb-pin-name="Y6-XWN-FBL" id="2rx">
<line cb-classname="GraphicLineEntity" class="signalline" id="2rk" x1="850" x2="870" y1="1000" y2="1000"/>
<g cb-classname="DynamicText" cb-source="Uq-0OM-9u5C" class="signal" id="2rd">
<text baseline-shift="5%" cb-classname="GraphicTextEntity" class="signal" fill="black" font-style="normal" font-weight="normal" id="2rb" text-decoration="normal" x="862" y="992"/>
</g>
<g cb-classname="SignalSegment" id="9Y2">
<g cb-classname="SignalConnection" cb-graphic-line="$925$" cb-input-pin="$7uq$" id="9Yk"/>
<line cb-classname="GraphicLineEntity" class="signalline" id="9Yx" stroke="#1e12bf" stroke-dasharray="5,4" x1="870" x2="1420" y1="1000" y2="1000"/>
</g>
</g>
</g>
<g cb-alg-zH8="$247$cb-alg-out$" cb-alg-zHY="$934$cb-alg-out$" cb-algorithm-id="00F" cb-classname="FastBooleanAlgorithm" cb-function-name="AND" cb-modify-id="00000004" id="86Q">
<rect cb-classname="GraphicRectangleEntity" class="algorithm" height="60" id="86x" width="80" x="1440" y="930"/>
<text baseline-shift="-50%" cb-classname="GraphicTextEntity" class="algorithm" id="86k" text-anchor="middle" x="1480" y="959">
AND
</text>
<line cb-classname="GraphicLineEntity" class="algorithmline" id="86d" x1="1440" x2="1440" y1="900" y2="1020"/>
<g cb-classname="ControlPin" cb-pin-name="Jf-pLP-1N3" id="86b">
<line cb-classname="GraphicLineEntity" class="signalline" id="86X" x1="1420" x2="1440" y1="920" y2="920"/>
<polygon cb-classname="GraphicPolygonEntity" class="signal" id="9AK" points="1440,920 1429,916 1429,924"/>
<g cb-classname="DynamicText" cb-source="ak-91N-HUIf" class="signal" id="9AD" text-anchor="end">
<text baseline-shift="5%" cb-classname="GraphicTextEntity" class="signal" fill="black" font-style="normal" font-weight="normal" id="9A2" text-anchor="end" text-decoration="normal" x="1433" y="912"/>
</g>
</g>
<g cb-classname="ControlPin" cb-pin-name="oF-kLL-KWN" id="9AW">
<line cb-classname="GraphicLineEntity" class="signalline" id="9AQ" x1="1520" x2="1540" y1="960" y2="960"/>
<g cb-classname="DynamicText" cb-source="Y6-di5-MP1e" class="signal" id="9Ax">
<text baseline-shift="5%" cb-classname="GraphicTextEntity" class="signal" fill="black" font-style="normal" font-weight="normal" id="9Ak" text-decoration="normal" x="1532" y="952"/>
</g>
<g cb-classname="SignalSegment" cb-start-x="1300" cb-start-y="960" id="9Qb">
<line cb-classname="GraphicLineEntity" class="signalline" id="7jk" stroke="#1e12bf" stroke-dasharray="5,4" x1="1540" x2="1730" y1="960" y2="960"/>
<g cb-classname="SignalConnection" cb-graphic-line="$766$" cb-input-pin="$Vvn$" id="9YK"/>
</g>
</g>
<g cb-classname="ControlPin" cb-pin-name="Uq-Jlo-jq8" id="9Ad">
<line cb-classname="GraphicLineEntity" class="signalline" id="9Ab" x1="1420" x2="1440" y1="1000" y2="1000"/>
<polygon cb-classname="GraphicPolygonEntity" class="signal" id="9AX" points="1440,1000 1429,996 1429,1004"/>
<g cb-classname="DynamicText" cb-source="cN-zmD-6UqB" class="signal" id="9QK" text-anchor="end">
<text baseline-shift="5%" cb-classname="GraphicTextEntity" class="signal" fill="black" font-style="normal" font-weight="normal" id="9QD" text-anchor="end" text-decoration="normal" x="1430" y="990"/>
</g>
</g>
<g cb-classname="ControlPin" cb-pin-name="oY-quw-Vsj" id="9Q2">
<line cb-classname="GraphicLineEntity" class="signalline" id="9QW" x1="1420" x2="1440" y1="960" y2="960"/>
<polygon cb-classname="GraphicPolygonEntity" class="signal" id="9QQ" points="1440,960 1429,956 1429,964"/>
<g cb-classname="DynamicText" cb-source="GN-iVs-pJux" class="signal" id="9Qx" text-anchor="end">
<text baseline-shift="5%" cb-classname="GraphicTextEntity" class="signal" fill="black" font-style="normal" font-weight="normal" id="9Qk" text-anchor="end" text-decoration="normal" x="1430" y="950"/>
</g>
</g>
</g>
<g cb-alg-0Kpi="$894$cb-alg-out$" cb-alg-6mpi="42" cb-alg-C8R="P32TPRE" cb-alg-CWV="ON" cb-alg-CdNt="ON" cb-alg-L4NO="2.500000" cb-alg-L4Ny="2.500000" cb-alg-LzFG="999999999" cb-alg-MG="$120$cb-alg-out$" cb-alg-MG_i="1.000000" cb-alg-MG_k="0" cb-alg-cK4e="OFF" cb-alg-fdFG="-999999999" cb-alg-tBF="$288$cb-alg-out$" cb-alg-tBFi="1.000000" cb-alg-tBFk="-0.008333333" cb-algorithm-id="008" cb-classname="ControlAlgorithm" cb-function-name="TRANSFER" cb-modify-id="00000001" id="2qb">
<polygon cb-classname="GraphicPolygonEntity" class="algorithm" id="2qX" points="1800,920 1760,960 1800,1000 1840,960"/>
<text baseline-shift="-50%" cb-classname="GraphicTextEntity" class="algorithm" font-size="33" id="26K" text-anchor="middle" x="1800" y="952">
T
</text>
<g cb-classname="ControlPin" cb-pin-name="GN-UOO-CyV" id="26D">
<line cb-classname="GraphicLineEntity" class="signalline" id="262" x1="1800" x2="1800" y1="1000" y2="1020"/>
<g cb-classname="DynamicText" cb-source="sV-Mip-hg0J" class="signal" id="26W" text-anchor="end">
<text baseline-shift="5%" cb-classname="GraphicTextEntity" class="signal" fill="black" font-style="normal" font-weight="normal" id="26Q" text-anchor="end" text-decoration="normal" transform="translate(1791,1013)rotate(-90)"/>
</g>
<g cb-classname="SignalSegment" id="4Ak">
<line cb-classname="GraphicLineEntity" class="signalline" id="6cd" x1="1800" x2="1800" y1="1020" y2="1080"/>
<g cb-classname="SignalSegment" id="6cb">
<line cb-classname="GraphicLineEntity" class="signalline" id="6cX" x1="1800" x2="2160" y1="1080" y2="1080"/>
<g cb-classname="SignalSegment" id="6qK">
<line cb-classname="GraphicLineEntity" class="signalline" id="6qD" x1="2160" x2="2160" y1="1080" y2="960"/>
<g cb-classname="SignalSegment" id="6q2">
<line cb-classname="GraphicLineEntity" class="signalline" id="6qW" x1="2160" x2="1860" y1="960" y2="960"/>
<g cb-classname="SignalConnection" cb-graphic-line="$683$" cb-input-pin="$Q5W$" id="6qQ"/>
</g>
</g>
<line cb-classname="GraphicLineEntity" class="signalline" id="6jQ" x1="1800" x2="1800" y1="1080" y2="1440"/>
<g cb-classname="SignalSegment" id="6jx">
<line cb-classname="GraphicLineEntity" class="signalline" id="6jk" x1="1800" x2="2020" y1="1440" y2="1440"/>
<g cb-classname="SignalConnection" cb-graphic-line="$666$" cb-input-pin="$r3d$" id="6jd"/>
<line cb-classname="GraphicLineEntity" class="signalline" id="6rx" x1="1800" x2="1800" y1="1440" y2="1740"/>
<g cb-classname="SignalSegment" id="6rk">
<line cb-classname="GraphicLineEntity" class="signalline" id="4AX" x1="1800" x2="1800" y1="1740" y2="1780"/>
<g cb-classname="SignalConnection" cb-graphic-line="$409$" cb-input-pin="$qLZ$" id="4QK"/>
<g cb-classname="SignalConnection" cb-graphic-line="$659$" cb-input-pin="$BYa$" id="6jK"/>
<line cb-classname="GraphicLineEntity" class="signalline" id="6rX" x1="1800" x2="2150" y1="1740" y2="1740"/>
<ellipse cb-classname="GraphicEllipseEntity" class="signal" cx="1800" cy="1740" id="6jD" rx="5" ry="5" stroke="black"/>
</g>
<ellipse cb-classname="GraphicEllipseEntity" class="signal" cx="1800" cy="1440" id="6jX" rx="5" ry="5" stroke="black"/>
</g>
<ellipse cb-classname="GraphicEllipseEntity" class="signal" cx="1800" cy="1080" id="6qx" rx="5" ry="5" stroke="black"/>
</g>
</g>
</g>
<g cb-classname="ControlPin" cb-pin-name="vw-UkU-MVuq" id="26x">
<line cb-classname="GraphicLineEntity" class="signalline" id="26k" x1="1730" x2="1760" y1="960" y2="960"/>
<polygon cb-classname="GraphicPolygonEntity" class="signal" id="26d" points="1760,960 1749,954 1749,965"/>
<g cb-classname="DynamicText" cb-source="z3-Bf9-X0ax" id="26b">
<text cb-classname="GraphicTextEntity" class="signal" id="26X" text-anchor="end" x="1745" y="957"/>
</g>
</g>
<g cb-classname="ControlPin" cb-pin-name="Jf-pLP-MfR" id="3AK">
<line cb-classname="GraphicLineEntity" class="signalline" id="3AD" x1="1860" x2="1840" y1="960" y2="960"/>
<polygon cb-classname="GraphicPolygonEntity" class="signal" id="3A2" points="1840,960 1850,965 1850,954"/>
<g cb-classname="DynamicText" cb-source="ak-91N-HUIf" id="3AW">
<text cb-classname="GraphicTextEntity" class="signal" id="3AQ" text-anchor="start" x="1854" y="957"/>
</g>
</g>
<g cb-classname="ControlPin" cb-pin-name="oF-kLL-5e" id="3Ax">
<line cb-classname="GraphicLineEntity" class="signalline" id="3Ak" x1="1800" x2="1800" y1="900" y2="920"/>
<polygon cb-classname="GraphicPolygonEntity" class="signal" id="3Ad" points="1800,920 1804,909 1796,909"/>
<g cb-classname="DynamicText" cb-source="vw-Pgh-DaNx" class="signal" id="3Ab">
<text baseline-shift="5%" cb-classname="GraphicTextEntity" class="signal" fill="black" font-style="normal" font-weight="normal" id="3AX" text-decoration="normal" transform="translate(1791,901)rotate(-90)"/>
</g>
</g>
<g cb-classname="GraphicShape" id="3zK">
<g cb-classname="DynamicText" cb-labeled="true" cb-source="qx-jlZ-AZo3" id="3zD">
<text cb-classname="GraphicTextEntity" class="algorithm" id="3z2" text-anchor="start" x="1840" y="1010"/>
</g>
<g cb-classname="DynamicText" cb-labeled="true" cb-source="GN-UOO-pK_1" id="3zW">
<text cb-classname="GraphicTextEntity" class="algorithm" id="3zQ" text-anchor="start" x="1840" y="1040"/>
</g>
</g>
</g>
<g cb-alg-eM="$288$cb-alg-out$" cb-algorithm-id="007" cb-classname="ExternalPointInterface" cb-function-name="OUTPUT" id="3cb">
<ellipse cb-classname="GraphicEllipseEntity" class="algorithm" cx="1800" cy="1840" id="3cX" rx="40" ry="40"/>
<rect cb-classname="GraphicRectangleEntity" class="algorithm" height="30" id="3qK" rx="0" width="80" x="1760" y="1880"/>
<line cb-classname="GraphicLineEntity" class="algorithm" id="3qD" x1="1800" x2="1800" y1="1880" y2="1910"/>
<g cb-classname="PointStatusIndicator" cb-indicator-type="hardware" cb-source="GN-UOO-i5" id="3q2" visibility="hidden">
<line cb-classname="GraphicLineEntity" class="algorithmline" id="3qW" x1="1760" x2="1760" y1="1880" y2="1800"/>
<line cb-classname="GraphicLineEntity" class="algorithmline" id="3qQ" x1="1760" x2="1840" y1="1800" y2="1800"/>
<line cb-classname="GraphicLineEntity" class="algorithmline" id="3qx" x1="1840" x2="1840" y1="1800" y2="1880"/>
</g>
<g cb-classname="PointStatusIndicator" cb-indicator-type="Highway" cb-source="vw-UkU-f9" id="3qk" visibility="hidden">
<line cb-classname="GraphicLineEntity" class="algorithmline" id="3qd" x1="1760" x2="1800" y1="1840" y2="1800"/>
<line cb-classname="GraphicLineEntity" class="algorithmline" id="3qb" x1="1800" x2="1840" y1="1800" y2="1840"/>
<line cb-classname="GraphicLineEntity" class="algorithmline" id="3qX" x1="1840" x2="1800" y1="1840" y2="1880"/>
<line cb-classname="GraphicLineEntity" class="algorithmline" id="36K" x1="1800" x2="1760" y1="1880" y2="1840"/>
</g>
<g cb-classname="PointStatusIndicator" cb-indicator-type="alarm" cb-source="Jf-pLP-1N" id="36D" visibility="hidden">
<text cb-classname="GraphicTextEntity" class="algorithm" fill="#000000" font-family="Arial" font-size="20" id="362" x="1773" y="1904">
A
</text>
</g>
<g cb-classname="PointStatusIndicator" cb-indicator-type="ingraphic" cb-source="qx-jlZ-zH" id="36W" visibility="visible">
<text cb-classname="GraphicTextEntity" class="algorithm" fill="#000000" font-family="Arial" font-size="20" id="36Q" x="1810" y="1905">
G
</text>
</g>
<g baseline-shift="-100%" cb-anchor-x="1800" cb-anchor-y="1960" cb-classname="PointDescription" cb-content="extended" cb-labeled="false" cb-max-width="240" cb-source="GN-UOO-i5" class="algorithm" id="36x" text-anchor="middle">
<text baseline-shift="-100%" cb-classname="GraphicTextEntity" class="algorithm" id="36k" text-anchor="middle" x="1800" y="1960">
Pre-heating time
</text>
<text baseline-shift="-100%" cb-classname="GraphicTextEntity" class="algorithm" id="36d" text-anchor="middle" x="1800" y="1996">
0.00 - 720 min
</text>
</g>
<g cb-classname="DynamicText" cb-labeled="false" cb-pin-name="cw" cb-source="Y6-XWN-fD" class="algorithm" id="36b" text-anchor="middle">
<text baseline-shift="-50%" cb-classname="GraphicTextEntity" class="algorithm" fill="black" font-family="Arial" font-size="20" font-style="normal" font-weight="normal" id="36X" text-anchor="middle" text-decoration="normal" x="1800" y="1930"/>
</g>
<g baseline-shift="0%" cb-anchor-x="1820" cb-anchor-y="1780" cb-classname="PointReferences" cb-max-width="240" cb-originator="false" cb-source="Uq-Jlo-jq" class="signal" id="4AK" text-anchor="start">
<text baseline-shift="0%" cb-classname="GraphicTextEntity" class="algorithm" id="4AD" text-anchor="start" x="1820" y="1780">
-
</text>
</g>
<g cb-classname="ControlPin" cb-pin-name="cN-eii-Id" id="4AW">
<line cb-classname="GraphicLineEntity" class="signalline" id="4AQ" x1="1800" x2="1800" y1="1780" y2="1800"/>
<polygon cb-classname="GraphicPolygonEntity" class="signal" id="4Ax" points="1800,1800 1804,1789 1796,1789"/>
</g>
</g>
<g cb-alg-L7N3="0" cb-alg-L7o0="0.1" cb-alg-YiUN="60" cb-alg-aIy="P32TPRE_L" cb-alg-zHY="$288$cb-alg-out$" cb-algorithm-id="009" cb-classname="ControlAlgorithm" cb-function-name="LOWMON" cb-modify-id="00000002" id="4QW">
<rect cb-classname="GraphicRectangleEntity" class="algorithm" height="40" id="4QQ" width="80" x="2040" y="1420"/>
<line cb-classname="GraphicLineEntity" class="algorithmline" id="4Qx" x1="2088" x2="2068" y1="1420" y2="1460"/>
<line cb-classname="GraphicLineEntity" class="algorithmline" id="4Qk" x1="2092" x2="2072" y1="1420" y2="1460"/>
<text baseline-shift="-50%" cb-classname="GraphicTextEntity" class="algorithm" id="4Qd" text-anchor="middle" x="2105" y="1439">
L
</text>
<g cb-classname="ControlPin" cb-pin-name="oY-quw-VsG" id="4Qb">
<line cb-classname="GraphicLineEntity" class="signalline" id="4QX" x1="2020" x2="2040" y1="1440" y2="1440"/>
<polygon cb-classname="GraphicPolygonEntity" class="signal" id="4YK" points="2040,1440 2029,1436 2029,1444"/>
<g cb-classname="DynamicText" cb-source="GN-iVs-pJux" class="signal" id="4YD" text-anchor="end">
<text baseline-shift="5%" cb-classname="GraphicTextEntity" class="signal" fill="black" font-style="normal" font-weight="normal" id="4Y2" text-anchor="end" text-decoration="normal" x="2037" y="1432"/>
</g>
</g>
<g cb-classname="ControlPin" cb-pin-name="sV-T5T-eIG" id="4YW">
<line cb-classname="GraphicLineEntity" class="signalline" id="4YQ" x1="2120" x2="2140" y1="1440" y2="1440"/>
<g cb-classname="DynamicText" cb-source="vw-Pgh-DaNx" class="signal" id="4Yx">
<text baseline-shift="5%" cb-classname="GraphicTextEntity" class="signal" fill="black" font-style="normal" font-weight="normal" id="4Yk" text-decoration="normal" x="2135" y="1432"/>
</g>
<g cb-classname="SignalSegment" id="4jK">
<g cb-classname="SignalSegment" id="6cW">
<line cb-classname="GraphicLineEntity" class="signalline" id="6cQ" stroke="#1e12bf" stroke-dasharray="5,4" x1="2220" x2="2220" y1="1440" y2="1690"/>
<line cb-classname="GraphicLineEntity" class="signalline" id="6rW" stroke="#1e12bf" stroke-dasharray="5,4" x1="2220" x2="3440" y1="1440" y2="1440"/>
<g cb-classname="SignalConnection" cb-graphic-line="$653$" cb-input-pin="$rph$" id="6rQ"/>
<g cb-classname="SignalConnection" cb-graphic-line="$674$" cb-input-pin="$nAJ$" id="6cx"/>
<ellipse cb-classname="GraphicEllipseEntity" class="signal" cx="2220" cy="1440" fill="#1e12bf" id="6ck" rx="5" ry="5" stroke="#1e12bf" stroke-dasharray="5,4"/>
</g>
<line cb-classname="GraphicLineEntity" class="signalline" id="6c2" stroke="#1e12bf" stroke-dasharray="5,4" x1="2140" x2="2220" y1="1440" y2="1440"/>
</g>
</g>
<g cb-classname="GraphicShape" id="4LQ">
<g cb-classname="DynamicText" cb-labeled="true" cb-source="oF-kLL-kens" id="4Lx">
<text cb-classname="GraphicTextEntity" class="algorithm" id="4Lk" text-anchor="start" x="2020" y="1410"/>
</g>
</g>
</g>
<g cb-alg-PmD="0" cb-alg-QpG="0" cb-alg-dRL3="TITLE" cb-alg-dv0C="0" cb-alg-eii="P32TPRE_FCPL" cb-alg-eii3="$575$cb-alg-alg$" cb-alg-eii8="$575$cb-alg-alg$" cb-alg-zUO="$413$cb-alg-out$" cb-alg-zUyl="$288$cb-alg-out$" cb-algorithm-id="036" cb-classname="FaceplateAlgorithm" cb-function-name="FACEPLATE" id="5cx">
<rect cb-classname="GraphicRectangleEntity" class="annotation" fill="white" height="60" id="5ck" width="250" x="2170" y="1710"/>
<text baseline-shift="0%" cb-classname="GraphicTextEntity" class="annotation" fill="#000000" font-family="MS Shell Dlg 2" font-size="20" id="5cd" x="2225" y="1760">
ALARM-FCPL
</text>
<g cb-classname="ControlPin" cb-pin-name="oF-kLL-JloK" id="5cb">
<line cb-classname="GraphicLineEntity" class="signalline" id="5cX" x1="2440" x2="2420" y1="1740" y2="1740"/>
<polygon cb-classname="GraphicPolygonEntity" class="signal" id="5qK" points="2420,1740 2430,1745 2430,1734"/>
<g cb-classname="DynamicText" cb-source="vw-Pgh-DaNx" id="5qD">
<text cb-classname="GraphicTextEntity" class="signal" id="5q2" text-anchor="start" x="2434" y="1737"/>
</g>
</g>
<g cb-classname="ControlPin" cb-pin-name="QA-6cX-uWQw" id="5qW">
<line cb-classname="GraphicLineEntity" class="signalline" id="5qQ" x1="2440" x2="2420" y1="1760" y2="1760"/>
<polygon cb-classname="GraphicPolygonEntity" class="signal" id="5qx" points="2420,1760 2430,1765 2430,1754"/>
<g cb-classname="DynamicText" cb-source="Jf-H4w-dkiZ" id="5qk">
<text cb-classname="GraphicTextEntity" class="signal" id="5qd" text-anchor="start" x="2434" y="1757"/>
</g>
</g>
<g cb-classname="ControlPin" cb-pin-name="qx-jlZ-MuY" id="5qb">
<line cb-classname="GraphicLineEntity" class="signalline" id="5qX" x1="2220" x2="2220" y1="1690" y2="1710"/>
<polygon cb-classname="GraphicPolygonEntity" class="signal" id="56K" points="2220,1710 2225,1699 2214,1699"/>
<g cb-classname="DynamicText" cb-source="oF-mzH-56Sj" id="56D">
<text cb-classname="GraphicTextEntity" class="signal" id="562" text-anchor="start" transform="translate(2217,1695)rotate(-90)"/>
</g>
</g>
<g cb-classname="ControlPin" cb-pin-name="Y6-XWN-B0w" id="56W">
<line cb-classname="GraphicLineEntity" class="signalline" id="56Q" x1="2250" x2="2250" y1="1690" y2="1710"/>
<polygon cb-classname="GraphicPolygonEntity" class="signal" id="56x" points="2250,1710 2255,1699 2244,1699"/>
<g cb-classname="DynamicText" cb-source="QA-vfD-qAD4" id="56k">
<text cb-classname="GraphicTextEntity" class="signal" id="56d" text-anchor="start" transform="translate(2247,1695)rotate(-90)"/>
</g>
</g>
<g cb-classname="ControlPin" cb-pin-name="cN-eii-95Q" id="56b">
<line cb-classname="GraphicLineEntity" class="signalline" id="56X" x1="2280" x2="2280" y1="1690" y2="1710"/>
<polygon cb-classname="GraphicPolygonEntity" class="signal" id="6AK" points="2280,1710 2285,1699 2274,1699"/>
<g cb-classname="DynamicText" cb-source="qx-aId-sXfY" id="6AD">
<text cb-classname="GraphicTextEntity" class="signal" id="6A2" text-anchor="start" transform="translate(2277,1695)rotate(-90)"/>
</g>
</g>
<g cb-classname="ControlPin" cb-pin-name="GN-UOO-PIS" id="6AW">
<line cb-classname="GraphicLineEntity" class="signalline" id="6AQ" x1="2310" x2="2310" y1="1690" y2="1710"/>
<polygon cb-classname="GraphicPolygonEntity" class="signal" id="6Ax" points="2310,1710 2315,1699 2304,1699"/>
<g cb-classname="DynamicText" cb-source="Y6-di5-MP1e" id="6Ak">
<text cb-classname="GraphicTextEntity" class="signal" id="6Ad" text-anchor="start" transform="translate(2307,1695)rotate(-90)"/>
</g>
</g>
<g cb-classname="ControlPin" cb-pin-name="Uq-Jlo-kNb" id="6Ab">
<line cb-classname="GraphicLineEntity" class="signalline" id="6AX" x1="2340" x2="2340" y1="1690" y2="1710"/>
<polygon cb-classname="GraphicPolygonEntity" class="signal" id="6QK" points="2340,1710 2345,1699 2334,1699"/>
<g cb-classname="DynamicText" cb-source="cN-zmD-6UqB" id="6QD">
<text cb-classname="GraphicTextEntity" class="signal" id="6Q2" text-anchor="start" transform="translate(2337,1695)rotate(-90)"/>
</g>
</g>
<g cb-classname="ControlPin" cb-pin-name="oY-quw-miB" id="6QW">
<line cb-classname="GraphicLineEntity" class="signalline" id="6QQ" x1="2370" x2="2370" y1="1690" y2="1710"/>
<polygon cb-classname="GraphicPolygonEntity" class="signal" id="6Qx" points="2370,1710 2375,1699 2364,1699"/>
<g cb-classname="DynamicText" cb-source="GN-iVs-pJux" id="6Qk">
<text cb-classname="GraphicTextEntity" class="signal" id="6Qd" text-anchor="start" transform="translate(2367,1695)rotate(-90)"/>
</g>
</g>
<g cb-classname="ControlPin" cb-pin-name="sV-T5T-vSCH" id="6Qb">
<line cb-classname="GraphicLineEntity" class="signalline" id="6QX" x1="2150" x2="2170" y1="1740" y2="1740"/>
<polygon cb-classname="GraphicPolygonEntity" class="signal" id="6YK" points="2170,1740 2159,1734 2159,1745"/>
<g cb-classname="DynamicText" cb-source="Uq-0OM-9u5C" id="6YD">
<text cb-classname="GraphicTextEntity" class="signal" id="6Y2" text-anchor="end" x="2155" y="1737"/>
</g>
</g>
<g cb-classname="ControlPin" cb-pin-name="z3-gii-AgB" id="6YW">
<line cb-classname="GraphicLineEntity" class="signalline" id="6YQ" x1="2420" x2="2440" y1="1720" y2="1720"/>
<g cb-classname="DynamicText" cb-source="Jf-H4w-dkiZ" id="6Yx">
<text cb-classname="GraphicTextEntity" class="signal" id="6Yk" text-anchor="start" x="2434" y="1717"/>
</g>
<g cb-classname="SignalSegment" id="6Yd">
<line cb-classname="GraphicLineEntity" class="signalline" id="6Yb" x1="2440" x2="2480" y1="1720" y2="1720"/>
<g cb-classname="SignalSegment" id="6YX">
<line cb-classname="GraphicLineEntity" class="signalline" id="6LK" x1="2480" x2="2480" y1="1720" y2="1740"/>
<g cb-classname="SignalSegment" id="6LD">
<line cb-classname="GraphicLineEntity" class="signalline" id="6L2" x1="2480" x2="2440" y1="1740" y2="1740"/>
<g cb-classname="SignalConnection" cb-graphic-line="$632$" cb-input-pin="$hoI$" id="6LW"/>
<line cb-classname="GraphicLineEntity" class="signalline" id="6LQ" x1="2480" x2="2480" y1="1740" y2="1760"/>
<g cb-classname="SignalSegment" id="6Lx">
<line cb-classname="GraphicLineEntity" class="signalline" id="6Lk" x1="2480" x2="2440" y1="1760" y2="1760"/>
<g cb-classname="SignalConnection" cb-graphic-line="$636$" cb-input-pin="$rbO$" id="6Ld"/>
</g>
<ellipse cb-classname="GraphicEllipseEntity" class="signal" cx="2480" cy="1740" id="6Lb" rx="5" ry="5" stroke="black"/>
</g>
</g>
</g>
</g>
<text baseline-shift="0%" cb-classname="GraphicTextEntity" class="annotation" fill="#000000" font-family="MS Shell Dlg 2" font-size="12" id="6LX" x="2180" y="1745">
LA
</text>
<text baseline-shift="0%" cb-classname="GraphicTextEntity" class="annotation" fill="#000000" font-family="MS Shell Dlg 2" font-size="12" id="6zK" x="2212" y="1725">
L1
</text>
<text baseline-shift="0%" cb-classname="GraphicTextEntity" class="annotation" fill="#000000" font-family="MS Shell Dlg 2" font-size="12" id="6zD" x="2242" y="1725">
H1
</text>
<text baseline-shift="0%" cb-classname="GraphicTextEntity" class="annotation" fill="#000000" font-family="MS Shell Dlg 2" font-size="12" id="6z2" x="2302" y="1725">
H2
</text>
<text baseline-shift="0%" cb-classname="GraphicTextEntity" class="annotation" fill="#000000" font-family="MS Shell Dlg 2" font-size="12" id="6zW" x="2362" y="1725">
H3
</text>
<text baseline-shift="0%" cb-classname="GraphicTextEntity" class="annotation" fill="#000000" font-family="MS Shell Dlg 2" font-size="12" id="6zQ" x="2272" y="1725">
L2
</text>
<text baseline-shift="0%" cb-classname="GraphicTextEntity" class="annotation" fill="#000000" font-family="MS Shell Dlg 2" font-size="12" id="6zx" x="2332" y="1725">
L3
</text>
</g>
<g cb-alg-LZpN="1" cb-alg-T5T="P32TPRE_KBD" cb-alg-YiUN="128" cb-algorithm-id="039" cb-classname="ControlAlgorithm" cb-function-name="KEYBOARD" cb-modify-id="00000002" id="4jx">
<rect cb-classname="GraphicRectangleEntity" class="algorithm" height="100" id="4jk" width="100" x="2640" y="1500"/>
<text cb-classname="GraphicTextEntity" class="algorithm" font-size="18" id="4jd" text-anchor="middle" x="2690" y="1538">
KEY
</text>
<text cb-classname="GraphicTextEntity" class="algorithm" font-size="18" id="4jb" text-anchor="middle" x="2690" y="1564">
BOARD
</text>
<g cb-classname="DynamicText" cb-source="Jf-pLP-UOO" class="algorithm" id="4jX">
<text baseline-shift="5%" cb-classname="GraphicTextEntity" class="algorithm" fill="black" font-family="Arial" font-size="12" font-style="normal" font-weight="normal" id="4cK" text-decoration="normal" x="2640" y="1627"/>
</g>
<g cb-classname="ControlPin" cb-pin-name="qx-jlZ-MmY" id="4cD">
<line cb-classname="GraphicLineEntity" class="signalline" id="4c2" x1="2740" x2="2760" y1="1520" y2="1520"/>
<g cb-classname="DynamicText" cb-source="GN-iVs-pJux" id="4cW">
<text cb-classname="GraphicTextEntity" class="signal" id="4cQ" text-anchor="start" x="2754" y="1517"/>
</g>
<g cb-classname="SignalSegment" id="4cx">
<line cb-classname="GraphicLineEntity" class="signalline" id="5YW" stroke="#1e12bf" stroke-dasharray="5,4" x1="2760" x2="3080" y1="1520" y2="1520"/>
<g cb-classname="SignalConnection" cb-graphic-line="$523$" cb-input-pin="$rZv$" id="5YQ"/>
</g>
</g>
<g cb-classname="ControlPin" cb-pin-name="Uq-Jlo-kR8" id="4cb">
<line cb-classname="GraphicLineEntity" class="signalline" id="4cX" x1="2740" x2="2760" y1="1560" y2="1560"/>
<g cb-classname="DynamicText" cb-source="z3-Bf9-X0ax" id="4qK">
<text cb-classname="GraphicTextEntity" class="signal" id="4qD" text-anchor="start" x="2754" y="1557"/>
</g>
<g cb-classname="SignalSegment" id="4q2">
<line cb-classname="GraphicLineEntity" class="signalline" id="5Yx" stroke="#1e12bf" stroke-dasharray="5,4" x1="2760" x2="3080" y1="1560" y2="1560"/>
<g cb-classname="SignalConnection" cb-graphic-line="$525$" cb-input-pin="$vOL$" id="5Yk"/>
</g>
</g>
</g>
<g cb-alg-FTO="$465$cb-alg-pk1$" cb-alg-NnCZ="$465$cb-alg-pk2$" cb-alg-RFaB="RESET" cb-alg-tWO="P32TPRE_BYP" cb-algorithm-id="03A" cb-classname="FastBooleanAlgorithm" cb-function-name="FLIPFLOP" id="4qx">
<rect cb-classname="GraphicRectangleEntity" class="algorithm" height="80" id="4qk" width="80" x="3100" y="1500"/>
<text baseline-shift="-50%" cb-classname="GraphicTextEntity" class="algorithm" id="4qd" text-anchor="middle" x="3117" y="1515">
S
</text>
<text baseline-shift="-50%" cb-classname="GraphicTextEntity" class="algorithm" id="4qb" text-anchor="middle" x="3119" y="1556">
R
</text>
<text baseline-shift="-50%" cb-classname="GraphicTextEntity" class="algorithm" id="4qX" text-anchor="middle" x="3161" y="1517">
1
</text>
<text baseline-shift="-50%" cb-classname="GraphicTextEntity" class="algorithm" id="46K" text-anchor="middle" x="3160" y="1557">
0
</text>
<g cb-classname="ControlPin" cb-pin-name="Uq-Jlo-8LQ" id="46D">
<line cb-classname="GraphicLineEntity" class="signalline" id="462" x1="3180" x2="3200" y1="1520" y2="1520"/>
<g cb-classname="DynamicText" cb-source="z3-Bf9-X0ax" class="signal" id="46W">
<text baseline-shift="5%" cb-classname="GraphicTextEntity" class="signal" fill="black" font-style="normal" font-weight="normal" id="46Q" text-decoration="normal" x="3195" y="1511"/>
</g>
<g cb-classname="SignalSegment" id="5Ad">
<line cb-classname="GraphicLineEntity" class="signalline" id="5LD" stroke="#1e12bf" stroke-dasharray="5,4" x1="3200" x2="3440" y1="1520" y2="1520"/>
<g cb-classname="SignalConnection" cb-graphic-line="$531$" cb-input-pin="$Bmi$" id="5L2"/>
</g>
</g>
<g cb-classname="ControlPin" cb-pin-name="Jf-pLP-GfK" id="46x">
<line cb-classname="GraphicLineEntity" class="signalline" id="46k" x1="3080" x2="3100" y1="1520" y2="1520"/>
<polygon cb-classname="GraphicPolygonEntity" class="signal" id="46d" points="3100,1520 3089,1516 3089,1524"/>
<g cb-classname="DynamicText" cb-source="ak-91N-HUIf" class="signal" id="46b" text-anchor="end">
<text baseline-shift="5%" cb-classname="GraphicTextEntity" class="signal" fill="black" font-style="normal" font-weight="normal" id="46X" text-anchor="end" text-decoration="normal" x="3084" y="1510"/>
</g>
</g>
<g cb-classname="ControlPin" cb-pin-name="oF-kLL-szxG" id="5AK">
<line cb-classname="GraphicLineEntity" class="signalline" id="5AD" x1="3080" x2="3100" y1="1560" y2="1560"/>
<polygon cb-classname="GraphicPolygonEntity" class="signal" id="5A2" points="3100,1560 3089,1556 3089,1564"/>
<g cb-classname="DynamicText" cb-source="vw-Pgh-DaNx" class="signal" id="5AW" text-anchor="end">
<text baseline-shift="5%" cb-classname="GraphicTextEntity" class="signal" fill="black" font-style="normal" font-weight="normal" id="5AQ" text-anchor="end" text-decoration="normal" x="3081" y="1551"/>
</g>
</g>
</g>
<g cb-alg-1N3="$413$cb-alg-out$" cb-alg-1Np="$485$cb-alg-out$" cb-algorithm-id="00A" cb-classname="FastBooleanAlgorithm" cb-function-name="OR" id="4Ld">
<ellipse cb-classname="GraphicEllipseEntity" class="algorithm" cx="3500" cy="1480" id="4Lb" rx="40" ry="40"/>
<text baseline-shift="-50%" cb-classname="GraphicTextEntity" class="algorithm" id="4LX" text-anchor="middle" x="3500" y="1479">
OR
</text>
<line cb-classname="GraphicLineEntity" class="algorithmline" id="4zK" x1="3460" x2="3460" y1="1420" y2="1540"/>
<g cb-classname="ControlPin" cb-pin-name="z3-gii-KNx" id="4zD">
<line cb-classname="GraphicLineEntity" class="signalline" id="4z2" x1="3440" x2="3460" y1="1440" y2="1440"/>
<polygon cb-classname="GraphicPolygonEntity" class="signal" id="4zW" points="3460,1440 3449,1436 3449,1444"/>
<g cb-classname="DynamicText" cb-source="oY-0T6-NTug" class="signal" id="4zQ" text-anchor="end">
<text baseline-shift="5%" cb-classname="GraphicTextEntity" class="signal" fill="black" font-style="normal" font-weight="normal" id="4zx" text-anchor="end" text-decoration="normal" x="3459" y="1434"/>
</g>
</g>
<g cb-classname="ControlPin" cb-pin-name="ak-bez-7Hm" id="4zk">
<line cb-classname="GraphicLineEntity" class="signalline" id="4zd" x1="3540" x2="3560" y1="1480" y2="1480"/>
<g cb-classname="DynamicText" cb-source="oF-mzH-56Sj" class="signal" id="4zb">
<text baseline-shift="5%" cb-classname="GraphicTextEntity" class="signal" fill="black" font-style="normal" font-weight="normal" id="4zX" text-decoration="normal" x="3554" y="1471"/>
</g>
<g cb-classname="SignalSegment" id="5jb">
<line cb-classname="GraphicLineEntity" class="signalline" id="7qX" stroke="#1e12bf" stroke-dasharray="5,4" x1="3560" x2="3810" y1="1480" y2="1480"/>
<g cb-classname="SignalConnection" cb-graphic-line="$789$" cb-input-pin="$oLX$" id="76K"/>
</g>
</g>
<g cb-classname="ControlPin" cb-pin-name="Y6-XWN-fDw" id="4rK">
<line cb-classname="GraphicLineEntity" class="signalline" id="4rD" x1="3440" x2="3460" y1="1520" y2="1520"/>
<polygon cb-classname="GraphicPolygonEntity" class="signal" id="4r2" points="3460,1520 3449,1516 3449,1524"/>
<g cb-classname="DynamicText" cb-source="QA-vfD-qAD4" class="signal" id="4rW" text-anchor="end">
<text baseline-shift="5%" cb-classname="GraphicTextEntity" class="signal" fill="black" font-style="normal" font-weight="normal" id="4rQ" text-anchor="end" text-decoration="normal" x="3458" y="1514"/>
</g>
</g>
<g cb-classname="ControlPin" cb-pin-name="cN-eii-IdQ" id="4rx">
<line cb-classname="GraphicLineEntity" class="signalline" id="4rk" x1="3440" x2="3460" y1="1480" y2="1480"/>
<polygon cb-classname="GraphicPolygonEntity" class="signal" id="4rd" points="3460,1480 3449,1476 3449,1484"/>
<g cb-classname="DynamicText" cb-source="qx-aId-sXfY" class="signal" id="4rb" text-anchor="end">
<text baseline-shift="5%" cb-classname="GraphicTextEntity" class="signal" fill="black" font-style="normal" font-weight="normal" id="4rX" text-anchor="end" text-decoration="normal" x="3458" y="1474"/>
</g>
</g>
</g>
<g cb-alg-Br47="$873$cb-alg-out$" cb-alg-C8R="P32TPRE_FSON" cb-alg-LCHT="RESET" cb-alg-cBR="$437$cb-alg-out$" cb-algorithm-id="00C" cb-classname="FastBooleanAlgorithm" cb-function-name="FLIPFLOP" cb-modify-id="00000004" id="7jX">
<rect cb-classname="GraphicRectangleEntity" class="algorithm" height="80" id="7cK" width="80" x="3830" y="1460"/>
<text baseline-shift="-50%" cb-classname="GraphicTextEntity" class="algorithm" id="7cD" text-anchor="middle" x="3847" y="1475">
S
</text>
<text baseline-shift="-50%" cb-classname="GraphicTextEntity" class="algorithm" id="7c2" text-anchor="middle" x="3849" y="1516">
R
</text>
<text baseline-shift="-50%" cb-classname="GraphicTextEntity" class="algorithm" id="7cW" text-anchor="middle" x="3891" y="1477">
1
</text>
<text baseline-shift="-50%" cb-classname="GraphicTextEntity" class="algorithm" id="7cQ" text-anchor="middle" x="3890" y="1517">
0
</text>
<g cb-classname="ControlPin" cb-pin-name="Y6-XWN-FBL" id="7cx">
<line cb-classname="GraphicLineEntity" class="signalline" id="7ck" x1="3910" x2="3930" y1="1480" y2="1480"/>
<g cb-classname="DynamicText" cb-source="Uq-0OM-9u5C" class="signal" id="7cd">
<text baseline-shift="5%" cb-classname="GraphicTextEntity" class="signal" fill="black" font-style="normal" font-weight="normal" id="7cb" text-decoration="normal" x="3925" y="1471"/>
</g>
<g cb-classname="SignalSegment" id="1QW7">
<g cb-classname="SignalConnection" cb-graphic-line="$1139$" cb-input-pin="$hBD$" id="1QQi"/>
<line cb-classname="GraphicLineEntity" class="signalline" id="1QWb" stroke="#1e12bf" stroke-dasharray="5,4" x1="3930" x2="4410" y1="1480" y2="1480"/>
</g>
</g>
<g cb-classname="ControlPin" cb-pin-name="z3-gii-hCL" id="7cX">
<line cb-classname="GraphicLineEntity" class="signalline" id="7qK" x1="3810" x2="3830" y1="1480" y2="1480"/>
<polygon cb-classname="GraphicPolygonEntity" class="signal" id="7qD" points="3830,1480 3819,1476 3819,1484"/>
<g cb-classname="DynamicText" cb-source="oY-0T6-NTug" class="signal" id="7q2" text-anchor="end">
<text baseline-shift="5%" cb-classname="GraphicTextEntity" class="signal" fill="black" font-style="normal" font-weight="normal" id="7qW" text-anchor="end" text-decoration="normal" x="3814" y="1470"/>
</g>
</g>
<g cb-classname="ControlPin" cb-pin-name="ak-bez-yoYV" id="7qQ">
<line cb-classname="GraphicLineEntity" class="signalline" id="7qx" x1="3810" x2="3830" y1="1520" y2="1520"/>
<polygon cb-classname="GraphicPolygonEntity" class="signal" id="7qk" points="3830,1520 3819,1516 3819,1524"/>
<g cb-classname="DynamicText" cb-source="sV-Mip-hg0J" class="signal" id="7qd" text-anchor="end">
<text baseline-shift="5%" cb-classname="GraphicTextEntity" class="signal" fill="black" font-style="normal" font-weight="normal" id="7qb" text-anchor="end" text-decoration="normal" x="3811" y="1511"/>
</g>
</g>
</g>
<g cb-alg-Id="$769$cb-alg-out$" cb-algorithm-id="00B" cb-classname="ExternalPointInterface" cb-function-name="OUTPUT" id="5zK">
<ellipse cb-classname="GraphicEllipseEntity" class="algorithm" cx="4470" cy="1480" id="5zD" rx="40" ry="40"/>
<rect cb-classname="GraphicRectangleEntity" class="algorithm" height="80" id="5z2" width="30" x="4510" y="1440"/>
<line cb-classname="GraphicLineEntity" class="algorithm" id="5zW" x1="4510" x2="4540" y1="1480" y2="1480"/>
<g cb-classname="PointStatusIndicator" cb-indicator-type="highway" cb-source="QA-6cX-JX" id="5zQ" visibility="hidden">
<line cb-classname="GraphicLineEntity" class="algorithmline" id="5zx" x1="4430" x2="4470" y1="1480" y2="1440"/>
<line cb-classname="GraphicLineEntity" class="algorithmline" id="5zk" x1="4470" x2="4510" y1="1440" y2="1480"/>
<line cb-classname="GraphicLineEntity" class="algorithmline" id="5zd" x1="4510" x2="4470" y1="1480" y2="1520"/>
<line cb-classname="GraphicLineEntity" class="algorithmline" id="5zb" x1="4470" x2="4430" y1="1520" y2="1480"/>
</g>
<g cb-classname="PointStatusIndicator" cb-indicator-type="hardware" cb-source="qx-jlZ-zH" id="5zX" visibility="hidden">
<line cb-classname="GraphicLineEntity" class="algorithmline" id="5rK" x1="4510" x2="4430" y1="1440" y2="1440"/>
<line cb-classname="GraphicLineEntity" class="algorithmline" id="5rD" x1="4430" x2="4430" y1="1440" y2="1520"/>
<line cb-classname="GraphicLineEntity" class="algorithmline" id="5r2" x1="4430" x2="4510" y1="1520" y2="1520"/>
</g>
<g cb-classname="PointStatusIndicator" cb-indicator-type="alarm" cb-source="sV-T5T-OM" id="5rW" visibility="hidden">
<text cb-classname="GraphicTextEntity" class="algorithm" fill="#000000" font-family="Arial" font-size="20" id="5rQ" x="4517" y="1469">
A
</text>
</g>
<g cb-classname="PointStatusIndicator" cb-indicator-type="ingraphic" cb-source="vw-UkU-f9" id="5rx" visibility="visible">
<text cb-classname="GraphicTextEntity" class="algorithm" fill="#000000" font-family="Arial" font-size="20" id="5rk" x="4515" y="1510">
G
</text>
</g>
<g cb-classname="DynamicText" cb-labeled="false" cb-pin-name="F3" cb-source="QA-6cX-JX" class="algorithm" id="5rd" text-anchor="end">
<text baseline-shift="0%" cb-classname="GraphicTextEntity" class="algorithm" fill="black" font-family="Arial" font-size="20" font-style="normal" font-weight="normal" id="5rb" text-anchor="end" text-decoration="normal" x="4407" y="1459"/>
</g>
<g baseline-shift="-100%" cb-anchor-x="4408" cb-anchor-y="1496" cb-classname="PointReferences" cb-max-width="240" cb-originator="false" cb-source="cN-eii-Id" class="signal" id="5rX" text-anchor="end">
<text baseline-shift="-100%" cb-classname="GraphicTextEntity" class="algorithm" id="5jK" text-anchor="end" x="4408" y="1496">
12/1248303
</text>
<text baseline-shift="-100%" cb-classname="GraphicTextEntity" class="algorithm" id="1QQR" text-anchor="end" x="4408" y="1532">
12/1248304
</text>
<text baseline-shift="-100%" cb-classname="GraphicTextEntity" class="algorithm" id="1QQO" text-anchor="end" x="4408" y="1568">
12/1248347
</text>
</g>
<g baseline-shift="-50%" cb-anchor-x="4561" cb-anchor-y="1478" cb-classname="PointDescription" cb-content="extended" cb-labeled="false" cb-max-width="240" cb-source="qx-jlZ-zH" class="algorithm" id="5j2" text-anchor="start">
<text baseline-shift="-50%" cb-classname="GraphicTextEntity" class="algorithm" id="5jW" text-anchor="start" x="4561" y="1461">
Pre-heating
</text>
<text baseline-shift="-50%" cb-classname="GraphicTextEntity" class="algorithm" id="5jQ" text-anchor="start" x="4561" y="1497">
finished
</text>
</g>
<g cb-classname="ControlPin" cb-pin-name="oF-kLL-gh" id="5jx">
<line cb-classname="GraphicLineEntity" class="signalline" id="5jk" x1="4410" x2="4430" y1="1480" y2="1480"/>
<polygon cb-classname="GraphicPolygonEntity" class="signal" id="5jd" points="4430,1480 4419,1474 4419,1485"/>
</g>
</g>
<g cb-alg-g0z="FF_PREHEATING_SEQ_XS50" cb-alg-gS1z="NO" cb-algorithm-id="012" cb-classname="ExternalPointInterface" cb-function-name="INPUT" id="9qD">
<ellipse cb-classname="GraphicEllipseEntity" class="algorithm" cx="2720" cy="480" id="9q2" rx="40" ry="40"/>
<rect cb-classname="GraphicRectangleEntity" class="algorithm" height="80" id="9qW" width="30" x="2650" y="440"/>
<line cb-classname="GraphicLineEntity" class="algorithm" id="9qQ" x1="2650" x2="2680" y1="480" y2="480"/>
<g cb-classname="PointStatusIndicator" cb-indicator-type="Highway" cb-source="Uq-Jlo-8LQ" id="9qx" visibility="hidden">
<line cb-classname="GraphicLineEntity" class="algorithmline" id="9qk" x1="2680" x2="2720" y1="480" y2="440"/>
<line cb-classname="GraphicLineEntity" class="algorithmline" id="9qd" x1="2720" x2="2760" y1="440" y2="480"/>
<line cb-classname="GraphicLineEntity" class="algorithmline" id="9qb" x1="2760" x2="2720" y1="480" y2="520"/>
<line cb-classname="GraphicLineEntity" class="algorithmline" id="9qX" x1="2720" x2="2680" y1="520" y2="480"/>
</g>
<g cb-classname="PointStatusIndicator" cb-indicator-type="hardware" cb-source="oY-quw-cm4" id="96K" visibility="hidden">
<line cb-classname="GraphicLineEntity" class="algorithmline" id="96D" x1="2680" x2="2760" y1="440" y2="440"/>
<line cb-classname="GraphicLineEntity" class="algorithmline" id="962" x1="2760" x2="2760" y1="440" y2="520"/>
<line cb-classname="GraphicLineEntity" class="algorithmline" id="96W" x1="2760" x2="2680" y1="520" y2="520"/>
</g>
<g cb-classname="PointStatusIndicator" cb-indicator-type="alarm" cb-source="oF-kLL-KWN" id="96Q" visibility="hidden">
<text cb-classname="GraphicTextEntity" class="algorithm" fill="#000000" font-family="arial" font-size="20" id="96x" x="2657" y="469">
A
</text>
</g>
<g cb-classname="PointStatusIndicator" cb-indicator-type="ingraphic" cb-source="Y6-XWN-FBL" id="96k" visibility="hidden">
<text cb-classname="GraphicTextEntity" class="algorithm" fill="#000000" font-family="Arial" font-size="20" id="96d" x="2655" y="509">
G
</text>
</g>
<g baseline-shift="-50%" cb-anchor-x="2632" cb-anchor-y="474" cb-classname="PointDescription" cb-content="extended" cb-labeled="false" cb-max-width="230" cb-source="Uq-Jlo-8LQ" class="algorithm" id="96b" text-anchor="end">
<text baseline-shift="-50%" cb-classname="GraphicTextEntity" class="algorithm" id="96X" text-anchor="end" x="2632" y="457">
FF Preheating
</text>
<text baseline-shift="-50%" cb-classname="GraphicTextEntity" class="algorithm" id="1AKi" text-anchor="end" x="2632" y="493">
Sytem
</text>
</g>
<g cb-classname="DynamicText" cb-labeled="false" cb-pin-name="DIH" cb-source="Jf-pLP-uHK" class="algorithm" id="1AKv" text-anchor="start">
<text baseline-shift="0%" cb-classname="GraphicTextEntity" class="algorithm" fill="black" font-family="Arial" font-size="20" font-style="normal" font-weight="normal" id="1AKO" text-anchor="start" text-decoration="normal" x="2780" y="460"/>
</g>
<g baseline-shift="-100%" cb-anchor-x="2780" cb-anchor-y="480" cb-classname="PointReferences" cb-max-width="230" cb-originator="true" cb-source="qx-jlZ-aIy" class="signal" id="1AKX" text-anchor="start">
<text baseline-shift="-100%" cb-classname="GraphicTextEntity" class="algorithm" id="1AKw" text-anchor="start" x="2780" y="480">
12/1248310
</text>
</g>
<g cb-classname="ControlPin" cb-pin-name="oF-kLL-KWN" id="1AKa">
<line cb-classname="GraphicLineEntity" class="signalline" id="1AKT" x1="2760" x2="2780" y1="480" y2="480"/>
<g cb-classname="SignalSegment" id="1AxT">
<g cb-classname="SignalConnection" cb-graphic-line="$1061$" cb-input-pin="$3WrX$" id="1Akv"/>
<line cb-classname="GraphicLineEntity" class="signalline" id="1AkR" stroke="#1e12bf" stroke-dasharray="5,4" x1="2780" x2="3220" y1="480" y2="480"/>
</g>
</g>
</g>
<g cb-alg-uHK="FF_PREHEATING_SEQ_PRON" cb-alg-uWzL="NO" cb-algorithm-id="013" cb-classname="ExternalPointInterface" cb-function-name="INPUT" id="1AKb">
<ellipse cb-classname="GraphicEllipseEntity" class="algorithm" cx="2720" cy="600" id="1ADi" rx="40" ry="40"/>
<rect cb-classname="GraphicRectangleEntity" class="algorithm" height="80" id="1ADR" width="30" x="2650" y="560"/>
<line cb-classname="GraphicLineEntity" class="algorithm" id="1ADv" x1="2650" x2="2680" y1="600" y2="600"/>
<g cb-classname="PointStatusIndicator" cb-indicator-type="Highway" cb-source="z3-gii-yZL" id="1ADO" visibility="hidden">
<line cb-classname="GraphicLineEntity" class="algorithmline" id="1ADX" x1="2680" x2="2720" y1="600" y2="560"/>
<line cb-classname="GraphicLineEntity" class="algorithmline" id="1ADw" x1="2720" x2="2760" y1="560" y2="600"/>
<line cb-classname="GraphicLineEntity" class="algorithmline" id="1AD7" x1="2760" x2="2720" y1="600" y2="640"/>
<line cb-classname="GraphicLineEntity" class="algorithmline" id="1ADa" x1="2720" x2="2680" y1="640" y2="600"/>
</g>
<g cb-classname="PointStatusIndicator" cb-indicator-type="hardware" cb-source="ak-bez-7Hm" id="1ADT" visibility="hidden">
<line cb-classname="GraphicLineEntity" class="algorithmline" id="1ADb" x1="2680" x2="2760" y1="560" y2="560"/>
<line cb-classname="GraphicLineEntity" class="algorithmline" id="1A2i" x1="2760" x2="2760" y1="560" y2="640"/>
<line cb-classname="GraphicLineEntity" class="algorithmline" id="1A2R" x1="2760" x2="2680" y1="640" y2="640"/>
</g>
<g cb-classname="PointStatusIndicator" cb-indicator-type="alarm" cb-source="Y6-XWN-FBL" id="1A2v" visibility="hidden">
<text cb-classname="GraphicTextEntity" class="algorithm" fill="#000000" font-family="arial" font-size="20" id="1A2O" x="2657" y="589">
A
</text>
</g>
<g cb-classname="PointStatusIndicator" cb-indicator-type="ingraphic" cb-source="Uq-Jlo-8LQ" id="1A2X" visibility="hidden">
<text cb-classname="GraphicTextEntity" class="algorithm" fill="#000000" font-family="Arial" font-size="20" id="1A2w" x="2655" y="629">
G
</text>
</g>
<g baseline-shift="-50%" cb-anchor-x="2632" cb-anchor-y="594" cb-classname="PointDescription" cb-content="extended" cb-labeled="false" cb-max-width="230" cb-source="z3-gii-yZL" class="algorithm" id="1A27" text-anchor="end">
<text baseline-shift="-50%" cb-classname="GraphicTextEntity" class="algorithm" id="1A2a" text-anchor="end" x="2632" y="577">
FF Preheating
</text>
<text baseline-shift="-50%" cb-classname="GraphicTextEntity" class="algorithm" id="1A2T" text-anchor="end" x="2632" y="613">
Sytem
</text>
</g>
<g cb-classname="DynamicText" cb-labeled="false" cb-pin-name="ptE" cb-source="oY-quw-cm4" class="algorithm" id="1A2b" text-anchor="start">
<text baseline-shift="0%" cb-classname="GraphicTextEntity" class="algorithm" fill="black" font-family="Arial" font-size="20" font-style="normal" font-weight="normal" id="1AWi" text-anchor="start" text-decoration="normal" x="2780" y="580"/>
</g>
<g baseline-shift="-100%" cb-anchor-x="2780" cb-anchor-y="600" cb-classname="PointReferences" cb-max-width="230" cb-originator="true" cb-source="ak-bez-7Hm" class="signal" id="1AWR" text-anchor="start">
<text baseline-shift="-100%" cb-classname="GraphicTextEntity" class="algorithm" id="1AWv" text-anchor="start" x="2780" y="600">
12/1248310
</text>
</g>
<g cb-classname="ControlPin" cb-pin-name="oF-kLL-KWN" id="1AWO">
<line cb-classname="GraphicLineEntity" class="signalline" id="1AWX" x1="2760" x2="2780" y1="600" y2="600"/>
<g cb-classname="SignalSegment" id="1AkO">
<line cb-classname="GraphicLineEntity" class="signalline" id="1AkX" stroke="#1e12bf" stroke-dasharray="5,4" x1="2780" x2="3200" y1="600" y2="600"/>
<g cb-classname="SignalSegment" id="1Akw">
<line cb-classname="GraphicLineEntity" class="signalline" id="1Ak7" stroke="#1e12bf" stroke-dasharray="5,4" x1="3200" x2="3200" y1="600" y2="560"/>
<g cb-classname="SignalSegment" id="1Aka">
<line cb-classname="GraphicLineEntity" class="signalline" id="1AkT" stroke="#1e12bf" stroke-dasharray="5,4" x1="3200" x2="3220" y1="560" y2="560"/>
<g cb-classname="SignalConnection" cb-graphic-line="$1068$" cb-input-pin="$Iupd$" id="1Akb"/>
</g>
</g>
</g>
</g>
</g>
<g cb-alg-1N3="$981$cb-alg-out$" cb-alg-1Np="$1009$cb-alg-out$" cb-algorithm-id="014" cb-classname="FastBooleanAlgorithm" cb-function-name="OR" id="1AWw">
<ellipse cb-classname="GraphicEllipseEntity" class="algorithm" cx="3280" cy="520" id="1AW7" rx="40" ry="40"/>
<text baseline-shift="-50%" cb-classname="GraphicTextEntity" class="algorithm" id="1AWa" text-anchor="middle" x="3280" y="519">
OR
</text>
<line cb-classname="GraphicLineEntity" class="algorithmline" id="1AWT" x1="3240" x2="3240" y1="460" y2="580"/>
<g cb-classname="ControlPin" cb-pin-name="z3-gii-KNx" id="1AWb">
<line cb-classname="GraphicLineEntity" class="signalline" id="1AQi" x1="3220" x2="3240" y1="480" y2="480"/>
<polygon cb-classname="GraphicPolygonEntity" class="signal" id="1AQR" points="3240,480 3229,476 3229,484"/>
<g cb-classname="DynamicText" cb-source="oY-0T6-NTug" class="signal" id="1AQv" text-anchor="end">
<text baseline-shift="5%" cb-classname="GraphicTextEntity" class="signal" fill="black" font-style="normal" font-weight="normal" id="1AQO" text-anchor="end" text-decoration="normal" x="3239" y="474"/>
</g>
</g>
<g cb-classname="ControlPin" cb-pin-name="ak-bez-7Hm" id="1AQX">
<line cb-classname="GraphicLineEntity" class="signalline" id="1AQw" x1="3320" x2="3340" y1="520" y2="520"/>
<g cb-classname="DynamicText" cb-source="oF-mzH-56Sj" class="signal" id="1AQ7">
<text baseline-shift="5%" cb-classname="GraphicTextEntity" class="signal" fill="black" font-style="normal" font-weight="normal" id="1AQa" text-decoration="normal" x="3334" y="511"/>
</g>
<g cb-classname="SignalSegment" id="1AXO">
<line cb-classname="GraphicLineEntity" class="signalline" id="1QWi" stroke="#1e12bf" stroke-dasharray="5,4" x1="3340" x2="3440" y1="520" y2="520"/>
<g cb-classname="SignalConnection" cb-graphic-line="$1130$" cb-input-pin="$DRoO$" id="1QWv"/>
</g>
</g>
<g cb-classname="ControlPin" cb-pin-name="Y6-XWN-fDw" id="1AQT">
<line cb-classname="GraphicLineEntity" class="signalline" id="1AQb" x1="3220" x2="3240" y1="560" y2="560"/>
<polygon cb-classname="GraphicPolygonEntity" class="signal" id="1Axi" points="3240,560 3229,556 3229,564"/>
<g cb-classname="DynamicText" cb-source="QA-vfD-qAD4" class="signal" id="1AxR" text-anchor="end">
<text baseline-shift="5%" cb-classname="GraphicTextEntity" class="signal" fill="black" font-style="normal" font-weight="normal" id="1Axv" text-anchor="end" text-decoration="normal" x="3238" y="554"/>
</g>
</g>
<g cb-classname="ControlPin" cb-pin-name="cN-eii-IdQ" id="1AxO">
<line cb-classname="GraphicLineEntity" class="signalline" id="1AxX" x1="3220" x2="3240" y1="520" y2="520"/>
<polygon cb-classname="GraphicPolygonEntity" class="signal" id="1Axw" points="3240,520 3229,516 3229,524"/>
<g cb-classname="DynamicText" cb-source="qx-aId-sXfY" class="signal" id="1Ax7" text-anchor="end">
<text baseline-shift="5%" cb-classname="GraphicTextEntity" class="signal" fill="black" font-style="normal" font-weight="normal" id="1Axa" text-anchor="end" text-decoration="normal" x="3238" y="514"/>
</g>
</g>
</g>
<g cb-alg-iED="$1035$cb-alg-out$" cb-algorithm-id="016" cb-classname="FastBooleanAlgorithm" cb-function-name="NOT" id="1QDT">
<rect cb-classname="GraphicRectangleEntity" class="algorithm" height="40" id="1QDb" width="40" x="3460" y="500"/>
<text baseline-shift="-50%" cb-classname="GraphicTextEntity" class="algorithm" font-size="28" id="1Q2i" text-anchor="middle" x="3479" y="512">
N
</text>
<g cb-classname="ControlPin" cb-pin-name="qx-jlZ-zHY" id="1Q2R">
<line cb-classname="GraphicLineEntity" class="signalline" id="1Q2v" x1="3440" x2="3460" y1="520" y2="520"/>
<polygon cb-classname="GraphicPolygonEntity" class="signal" id="1Q2O" points="3460,520 3449,516 3449,524"/>
<g cb-classname="DynamicText" cb-source="oF-mzH-56Sj" class="signal" id="1Q2X" text-anchor="end">
<text baseline-shift="5%" cb-classname="GraphicTextEntity" class="signal" fill="black" font-style="normal" font-weight="normal" id="1Q2w" text-anchor="end" text-decoration="normal" x="3455" y="512"/>
</g>
</g>
<g cb-classname="ControlPin" cb-pin-name="Y6-XWN-FBL" id="1Q27">
<line cb-classname="GraphicLineEntity" class="signalline" id="1Q2a" x1="3500" x2="3520" y1="520" y2="520"/>
<g cb-classname="DynamicText" cb-source="Uq-0OM-9u5C" class="signal" id="1Q2T">
<text baseline-shift="5%" cb-classname="GraphicTextEntity" class="signal" fill="black" font-style="normal" font-weight="normal" id="1Q2b" text-decoration="normal" x="3512" y="512"/>
</g>
<g cb-classname="SignalSegment" cb-start-x="3520" cb-start-y="520" id="1QWR">
<line cb-classname="GraphicLineEntity" class="signalline" id="1AXT" stroke="#1e12bf" stroke-dasharray="5,4" x1="3520" x2="3810" y1="520" y2="520"/>
<g cb-classname="SignalConnection" cb-graphic-line="$1098$" cb-input-pin="$RLpp$" id="1QWO"/>
</g>
</g>
</g>
<g cb-alg-mD3="$1118$cb-alg-out$" cb-alg-mD8="$836$cb-alg-out$" cb-alg-tWO="P32TPRE_REQ" cb-algorithm-id="015" cb-classname="FastBooleanAlgorithm" cb-function-name="AND" id="1Adi">
<rect cb-classname="GraphicRectangleEntity" class="algorithm" height="60" id="1AdR" width="80" x="3830" y="530"/>
<text baseline-shift="-50%" cb-classname="GraphicTextEntity" class="algorithm" id="1Adv" text-anchor="middle" x="3870" y="559">
AND
</text>
<line cb-classname="GraphicLineEntity" class="algorithmline" id="1AdO" x1="3830" x2="3830" y1="500" y2="620"/>
<g cb-classname="ControlPin" cb-pin-name="Y6-XWN-fDd" id="1AdX">
<line cb-classname="GraphicLineEntity" class="signalline" id="1Adw" x1="3810" x2="3830" y1="520" y2="520"/>
<polygon cb-classname="GraphicPolygonEntity" class="signal" id="1Ad7" points="3830,520 3819,516 3819,524"/>
<g cb-classname="DynamicText" cb-source="QA-vfD-qAD4" class="signal" id="1Ada" text-anchor="end">
<text baseline-shift="5%" cb-classname="GraphicTextEntity" class="signal" fill="black" font-style="normal" font-weight="normal" id="1AdT" text-anchor="end" text-decoration="normal" x="3823" y="512"/>
</g>
</g>
<g cb-classname="ControlPin" cb-pin-name="cN-eii-th7" id="1Adb">
<line cb-classname="GraphicLineEntity" class="signalline" id="1Abi" x1="3910" x2="3930" y1="560" y2="560"/>
<g cb-classname="DynamicText" cb-source="oY-0T6-NTug" class="signal" id="1AbR">
<text baseline-shift="5%" cb-classname="GraphicTextEntity" class="signal" fill="black" font-style="normal" font-weight="normal" id="1Abv" text-decoration="normal" x="3922" y="552"/>
</g>
<g cb-classname="SignalSegment" id="1QKi">
<g cb-classname="SignalConnection" cb-graphic-line="$1103$" cb-input-pin="$XNJ$" id="1QKX"/>
<line cb-classname="GraphicLineEntity" class="signalline" id="1QKO" stroke="#1e12bf" stroke-dasharray="5,4" x1="3930" x2="4410" y1="560" y2="560"/>
</g>
</g>
<g cb-classname="ControlPin" cb-pin-name="ak-bez-ip1" id="1AbO">
<line cb-classname="GraphicLineEntity" class="signalline" id="1AbX" x1="3810" x2="3830" y1="600" y2="600"/>
<polygon cb-classname="GraphicPolygonEntity" class="signal" id="1Abw" points="3830,600 3819,596 3819,604"/>
<g cb-classname="DynamicText" cb-source="sV-Mip-hg0J" class="signal" id="1Ab7" text-anchor="end">
<text baseline-shift="5%" cb-classname="GraphicTextEntity" class="signal" fill="black" font-style="normal" font-weight="normal" id="1Aba" text-anchor="end" text-decoration="normal" x="3820" y="590"/>
</g>
</g>
<g cb-classname="ControlPin" cb-pin-name="vw-UkU-f9x" id="1AbT">
<line cb-classname="GraphicLineEntity" class="signalline" id="1Abb" x1="3810" x2="3830" y1="560" y2="560"/>
<polygon cb-classname="GraphicPolygonEntity" class="signal" id="1AXi" points="3830,560 3819,556 3819,564"/>
<g cb-classname="DynamicText" cb-source="z3-Bf9-X0ax" class="signal" id="1AXR" text-anchor="end">
<text baseline-shift="5%" cb-classname="GraphicTextEntity" class="signal" fill="black" font-style="normal" font-weight="normal" id="1AXv" text-anchor="end" text-decoration="normal" x="3820" y="550"/>
</g>
</g>
</g>
<g cb-alg-mD="$1070$cb-alg-out$" cb-algorithm-id="011" cb-classname="ExternalPointInterface" cb-function-name="OUTPUT" id="9rW">
<ellipse cb-classname="GraphicEllipseEntity" class="algorithm" cx="4470" cy="560" id="9rQ" rx="40" ry="40"/>
<rect cb-classname="GraphicRectangleEntity" class="algorithm" height="80" id="9rx" width="30" x="4510" y="520"/>
<line cb-classname="GraphicLineEntity" class="algorithm" id="9rk" x1="4510" x2="4540" y1="560" y2="560"/>
<g cb-classname="PointStatusIndicator" cb-indicator-type="highway" cb-source="Y6-XWN-fD" id="9rd" visibility="hidden">
<line cb-classname="GraphicLineEntity" class="algorithmline" id="9rb" x1="4430" x2="4470" y1="560" y2="520"/>
<line cb-classname="GraphicLineEntity" class="algorithmline" id="9rX" x1="4470" x2="4510" y1="520" y2="560"/>
<line cb-classname="GraphicLineEntity" class="algorithmline" id="9jK" x1="4510" x2="4470" y1="560" y2="600"/>
<line cb-classname="GraphicLineEntity" class="algorithmline" id="9jD" x1="4470" x2="4430" y1="600" y2="560"/>
</g>
<g cb-classname="PointStatusIndicator" cb-indicator-type="hardware" cb-source="cN-eii-Id" id="9j2" visibility="hidden">
<line cb-classname="GraphicLineEntity" class="algorithmline" id="9jW" x1="4510" x2="4430" y1="520" y2="520"/>
<line cb-classname="GraphicLineEntity" class="algorithmline" id="9jQ" x1="4430" x2="4430" y1="520" y2="600"/>
<line cb-classname="GraphicLineEntity" class="algorithmline" id="9jx" x1="4430" x2="4510" y1="600" y2="600"/>
</g>
<g cb-classname="PointStatusIndicator" cb-indicator-type="alarm" cb-source="ak-bez-ip" id="9jk" visibility="visible">
<text cb-classname="GraphicTextEntity" class="algorithm" fill="#000000" font-family="Arial" font-size="20" id="9jd" x="4517" y="549">
A
</text>
</g>
<g cb-classname="PointStatusIndicator" cb-indicator-type="ingraphic" cb-source="oF-kLL-gh" id="9jb" visibility="visible">
<text cb-classname="GraphicTextEntity" class="algorithm" fill="#000000" font-family="Arial" font-size="20" id="9jX" x="4515" y="590">
G
</text>
</g>
<g cb-classname="DynamicText" cb-labeled="false" cb-pin-name="cw" cb-source="Y6-XWN-fD" class="algorithm" id="9cK" text-anchor="end">
<text baseline-shift="0%" cb-classname="GraphicTextEntity" class="algorithm" fill="black" font-family="Arial" font-size="20" font-style="normal" font-weight="normal" id="9cD" text-anchor="end" text-decoration="normal" x="4407" y="539"/>
</g>
<g baseline-shift="-100%" cb-anchor-x="4408" cb-anchor-y="576" cb-classname="PointReferences" cb-max-width="240" cb-originator="false" cb-source="Uq-Jlo-jq" class="signal" id="9c2" text-anchor="end">
<text baseline-shift="-100%" cb-classname="GraphicTextEntity" class="algorithm" id="9cW" text-anchor="end" x="4408" y="576">
-
</text>
</g>
<g baseline-shift="-50%" cb-anchor-x="4561" cb-anchor-y="558" cb-classname="PointDescription" cb-content="extended" cb-labeled="false" cb-max-width="240" cb-source="cN-eii-Id" class="algorithm" id="9cx" text-anchor="start">
<text baseline-shift="-50%" cb-classname="GraphicTextEntity" class="algorithm" id="9ck" text-anchor="start" x="4561" y="523">
Pre-heating
</text>
<text baseline-shift="-50%" cb-classname="GraphicTextEntity" class="algorithm" id="9cd" text-anchor="start" x="4561" y="559">
required
</text>
<text baseline-shift="-50%" cb-classname="GraphicTextEntity" class="algorithm" id="1QQv" text-anchor="start" x="4561" y="595">
(ALARM - !normal)
</text>
</g>
<g cb-classname="ControlPin" cb-pin-name="qx-jlZ-zH" id="9cb">
<line cb-classname="GraphicLineEntity" class="signalline" id="9cX" x1="4410" x2="4430" y1="560" y2="560"/>
<polygon cb-classname="GraphicPolygonEntity" class="signal" id="9qK" points="4430,560 4419,554 4419,565"/>
</g>
</g>
</g>
<g cb-classname="IncludeDocument" cb-modify-time="12/03/2019 14:33:51" cb-objectname="frame" id="5">
<text cb-classname="GraphicTextEntity" class="frame" font-size="50" id="6" x="3660" y="3146">
HERA
</text>
<g baseline-shift="-50%" cb-classname="DynamicText" cb-source="sV-YyC0-fl" class="frame" id="7">
<text cb-classname="GraphicTextEntity" class="frame" fill="black" font-family="arial" font-size="25" font-style="normal" font-weight="normal" id="8" text-decoration="normal" x="4715" y="3325">
12
</text>
</g>
<g baseline-shift="-50%" cb-classname="DynamicText" cb-source="vw-NseB-jK" class="frame" id="9" text-anchor="middle">
<text cb-classname="GraphicTextEntity" class="frame" fill="black" font-family="arial" font-size="48" font-style="normal" font-weight="normal" id="1A" text-anchor="middle" text-decoration="normal" x="4900" y="3320">
12
</text>
</g>
<g baseline-shift="-50%" cb-classname="DynamicText" cb-source="QA-Vg7y-Ke" class="frame" id="1Q" text-anchor="middle">
<text cb-classname="GraphicTextEntity" class="frame" fill="black" font-family="arial" font-size="48" font-style="normal" font-weight="normal" id="1Y" text-anchor="middle" text-decoration="normal" x="5067" y="3324">
3
</text>
</g>
<g cb-classname="DynamicText" cb-source="cN-reTCZ-7z4WY" class="frame" id="1L">
<text cb-classname="GraphicTextEntity" class="frame" fill="black" font-family="arial" font-size="48" font-style="normal" font-weight="normal" id="1z" text-decoration="normal" x="3660" y="3224">
Dry Flue Gas enable logic -1
</text>
</g>
<g baseline-shift="-50%" cb-classname="DynamicText" cb-source="oY-nkBo7-HHI4x3" class="frame" id="1r" text-anchor="middle">
<text cb-classname="GraphicTextEntity" class="frame" fill="black" font-family="arial" font-size="48" font-style="normal" font-weight="normal" id="1j" text-anchor="middle" text-decoration="normal" x="5270" y="3324">
1237109
</text>
</g>
<g baseline-shift="0%" cb-classname="DynamicText" cb-source="ak-Soez2iKh" class="frame" id="1c" text-anchor="middle">
<text cb-classname="GraphicTextEntity" class="frame" fill="black" font-family="arial" font-size="36" font-style="normal" font-weight="normal" id="1q" text-anchor="middle" text-decoration="normal" x="5270" y="3150">
A
</text>
</g>
<g baseline-shift="0%" cb-classname="DynamicText" cb-source="oF-WB1irOFD-dKD4" class="frame" id="16" text-anchor="middle">
<text cb-classname="GraphicTextEntity" class="frame" fill="black" font-family="arial" font-size="20" font-style="normal" font-weight="normal" id="2A" text-anchor="middle" text-decoration="normal" x="5270" y="3230">

</text>
</g>
<g baseline-shift="-50%" cb-classname="DynamicText" cb-source="Y6-ZpNOMjJ4" class="frame" id="2Q" text-anchor="end">
<text cb-classname="GraphicTextEntity" class="frame" fill="black" font-family="arial" font-size="26" font-style="normal" font-weight="normal" id="2Y" text-anchor="end" text-decoration="normal" x="4500" y="3420">

</text>
</g>
<g baseline-shift="-50%" cb-classname="DynamicText" cb-source="Uq-sflfJFx6" class="frame" id="2L" text-anchor="end">
<text cb-classname="GraphicTextEntity" class="frame" fill="black" font-family="arial" font-size="26" font-style="normal" font-weight="normal" id="2z" text-anchor="end" text-decoration="normal" x="5353" y="3420">

</text>
</g>
<g cb-classname="GraphicShape" cb-tag="BORDER" id="2r">
<line cb-classname="GraphicLineEntity" class="frameline" id="2j" x1="40" x2="40" y1="40" y2="3460"/>
<line cb-classname="GraphicLineEntity" class="frameline" id="2c" x1="40" x2="5380" y1="3460" y2="3460"/>
<line cb-classname="GraphicLineEntity" class="frameline" id="2q" x1="5380" x2="5380" y1="3460" y2="40"/>
<line cb-classname="GraphicLineEntity" class="frameline" id="26" x1="5380" x2="40" y1="40" y2="40"/>
<line cb-classname="GraphicLineEntity" class="frame" id="3A" x1="5430" x2="5440" y1="3510" y2="3510"/>
</g>
<g cb-classname="GraphicShape" cb-tag="TITLE BOX" id="3Q">
<line cb-classname="GraphicLineEntity" class="frameline" id="3Y" x1="2340" x2="2340" y1="3080" y2="3460"/>
<line cb-classname="GraphicLineEntity" class="frameline" id="3L" x1="2340" x2="5380" y1="3080" y2="3080"/>
<line cb-classname="GraphicLineEntity" class="frameline" id="3z" x1="3650" x2="3650" y1="3460" y2="3080"/>
<line cb-classname="GraphicLineEntity" class="frameline" id="3r" x1="3650" x2="5380" y1="3240" y2="3240"/>
<line cb-classname="GraphicLineEntity" class="frameline" id="3j" x1="3650" x2="5380" y1="3390" y2="3390"/>
<line cb-classname="GraphicLineEntity" class="frameline" id="3c" x1="3650" x2="5380" y1="3160" y2="3160"/>
<line cb-classname="GraphicLineEntity" class="frameline" id="3q" x1="3650" x2="4520" y1="3320" y2="3320"/>
<line cb-classname="GraphicLineEntity" class="frameline" id="36" x1="4520" x2="5380" y1="3290" y2="3290"/>
<line cb-classname="GraphicLineEntity" class="frameline" id="4A" x1="4520" x2="5380" y1="3240" y2="3240"/>
<line cb-classname="GraphicLineEntity" class="frameline" id="4Q" x1="4520" x2="4520" y1="3240" y2="3460"/>
<line cb-classname="GraphicLineEntity" class="frameline" id="4Y" x1="4810" x2="4810" y1="3240" y2="3390"/>
<line cb-classname="GraphicLineEntity" class="frameline" id="4L" x1="4990" x2="4990" y1="3240" y2="3390"/>
<line cb-classname="GraphicLineEntity" class="frameline" id="4z" x1="5150" x2="5150" y1="3080" y2="3390"/>
</g>
<g cb-classname="GraphicShape" cb-tag="TEXT LABELS" id="4r">
<text baseline-shift="-50%" cb-classname="GraphicTextEntity" class="frame" font-size="25" id="4j" text-anchor="middle" x="4890" y="3252">
Drop
</text>
<text baseline-shift="-50%" cb-classname="GraphicTextEntity" class="frame" font-size="25" id="4c" text-anchor="middle" x="5075" y="3252">
Task
</text>
<text baseline-shift="-50%" cb-classname="GraphicTextEntity" class="frame" font-size="25" id="4q" text-anchor="middle" x="5265" y="3252">
Sheet
</text>
<text cb-classname="GraphicTextEntity" class="frame" font-size="25" id="46" x="5152" y="3107">
Rev.
</text>
<text cb-classname="GraphicTextEntity" class="frame" font-size="25" id="5A" x="3653" y="3418">
Engineer
</text>
<text cb-classname="GraphicTextEntity" class="frame" font-size="25" id="5Q" x="4528" y="3419">
Approved
</text>
<text cb-classname="GraphicTextEntity" class="frame" font-size="25" id="5Y" x="5152" y="3187">
Date
</text>
<text baseline-shift="-50%" cb-classname="GraphicTextEntity" class="frame" font-size="25" id="5L" text-anchor="middle" x="4660" y="3252">
Drawing Number
</text>
<text baseline-shift="-50%" cb-classname="GraphicTextEntity" class="frame" font-size="25" id="5z" text-anchor="middle" x="4680" y="3325">
CTL
</text>
</g>
<text baseline-shift="-50%" cb-classname="GraphicTextEntity" class="frame" font-size="48" id="5r" text-anchor="middle" x="3000" y="3100">
EMERSON PROCESS MANAGEMENT
</text>
<g baseline-shift="-100%" cb-anchor-x="2360" cb-anchor-y="3140" cb-classname="GroupText" cb-max-width="1260" fill="black" id="5j">
<text baseline-shift="-100%" cb-classname="GraphicTextEntity" class="frame" fill="black" font-family="arial" font-size="22" font-weight="normal" id="5c" text-anchor="start" text-decoration="normal" x="2360" y="3140">
THIS DOCUMENT CONTAINS INFORMATION PROPRIETARY TO EMERSON PROCESS
</text>
<text baseline-shift="-100%" cb-classname="GraphicTextEntity" class="frame" fill="black" font-family="arial" font-size="22" font-weight="normal" id="5q" text-anchor="start" text-decoration="normal" x="2360" y="3176">
MANAGEMENT POWER &amp; WATER SOLUTIONS, INC. IT IS SUBMITTED IN CONFIDENCE AND
</text>
<text baseline-shift="-100%" cb-classname="GraphicTextEntity" class="frame" fill="black" font-family="arial" font-size="22" font-weight="normal" id="56" text-anchor="start" text-decoration="normal" x="2360" y="3212">
TRUST, IS TO BE USED BY YOU SOLELY FOR THE PURPOSES FOR WHICH IT IS
</text>
<text baseline-shift="-100%" cb-classname="GraphicTextEntity" class="frame" fill="black" font-family="arial" font-size="22" font-weight="normal" id="6A" text-anchor="start" text-decoration="normal" x="2360" y="3248">
FURNISHED AND IS TO BE RETURNED UPON REQUEST. THIS DOCUMENT AND ANY
</text>
<text baseline-shift="-100%" cb-classname="GraphicTextEntity" class="frame" fill="black" font-family="arial" font-size="22" font-weight="normal" id="6Q" text-anchor="start" text-decoration="normal" x="2360" y="3284">
OTHER INFORMATION PROVIDED TO YOU IS NOT TO BE REPRODUCED, TRANSMITTED,
</text>
<text baseline-shift="-100%" cb-classname="GraphicTextEntity" class="frame" fill="black" font-family="arial" font-size="22" font-weight="normal" id="6Y" text-anchor="start" text-decoration="normal" x="2360" y="3320">
DISCLOSED, OR USED OTHERWISE IN WHOLE OR IN PART WITHOUT THE PRIOR
</text>
<text baseline-shift="-100%" cb-classname="GraphicTextEntity" class="frame" fill="black" font-family="arial" font-size="22" font-weight="normal" id="6L" text-anchor="start" text-decoration="normal" x="2360" y="3356">
WRITTEN AUTHORIZATION OF EMERSON PROCESS MANAGEMENT POWER &amp; WATER
</text>
<text baseline-shift="-100%" cb-classname="GraphicTextEntity" class="frame" fill="black" font-family="arial" font-size="22" font-weight="normal" id="6z" text-anchor="start" text-decoration="normal" x="2360" y="3392">
SOLUTIONS,INC.
</text>
</g>
</g>
</svg>