<?xml version="1.0" ?><svg cb-auto-time="03/30/2020 15:08:44" cb-classname="ControlFunction" cb-create-time="03/30/2020" cb-drop-id="12" cb-filename="Z:\OVATION\NET0\UNIT0\CONTROLFUNCTIONS\0421.svg" cb-function-id="0421" cb-key="234244332152" cb-modified-timestamp="1587026736" cb-modify-id="00000001" cb-path="Z:/OVATION/NET0/UNIT0/CONTROLFUNCTIONS" cb-revision="A" cb-sheet-number="123161" cb-sheet-title="Dry flue gas interlocks - 2" cb-snap-grid="10" cb-task-id="3" height="3522" id="1" width="5450" xmlns="http://www.w3.org/2000/svg">
<style cb-classname="EntityStyle" id="2" type="text/css">
	.algorithm { fill: white; stroke: black; stroke-width: 3 }
	.algorithm-function { fill: black; stroke: none }
	.algorithm-functionline { fill: none; stroke: black; stroke-linecap: round; stroke-width: 3 }
	.algorithm-name { fill: black; stroke: none }
	.algorithm-nameline { fill: none; stroke: black; stroke-linecap: round; stroke-width: 3 }
	.algorithm-sequence { fill: black; stroke: none; visibility: hidden }
	.algorithm-sequenceline { fill: none; stroke: black; stroke-linecap: round; stroke-width: 3; visibility: hidden }
	.algorithmline { fill: none; stroke: black; stroke-linecap: round; stroke-width: 3 }
	.annotation { fill: black; stroke: none }
	.annotationline { fill: none; stroke: black; stroke-linecap: round; stroke-width: 3 }
	.description { fill: black; stroke: none }
	.descriptionline { fill: none; stroke: black; stroke-linecap: round; stroke-width: 3 }
	.frame { fill: black; stroke: none }
	.frameline { fill: none; stroke: black; stroke-linecap: round; stroke-width: 3 }
	.signal { fill: black; stroke: none }
	.signalline { fill: none; stroke: black; stroke-linecap: round; stroke-width: 3 }
	text.algorithm { fill: black; font-family: Arial; font-size: 22; stroke: none }
	text.algorithm-function { fill: black; font-family: Arial; font-size: 22; stroke: none }
	text.algorithm-name { fill: black; font-family: Arial; font-size: 22; stroke: none }
	text.algorithm-sequence { fill: black; font-family: Arial; font-size: 22; stroke: none; visibility: hidden }
	text.annotation { fill: black; font-family: Arial; font-size: 22; stroke: none }
	text.description { fill: black; font-family: Arial; font-size: 28; stroke: none }
	text.frame { fill: black; font-family: Arial; font-size: 18; stroke: none }
	text.signal { fill: black; font-family: Arial; font-size: 12; stroke: none }
</style>
<g cb-classname="NamedObject" cb-objectname="Comments" id="3"/>
<g cb-classname="AlgorithmContainer" cb-objectname="Algorithms" id="4">
<g cb-alg-o9yj="NO" cb-alg-onu="FF_PRELINE_CELL4_EN" cb-algorithm-id="014" cb-classname="ExternalPointInterface" cb-function-name="INPUT" id="6b">
<ellipse cb-classname="GraphicEllipseEntity" class="algorithm" cx="480" cy="140" id="6i" rx="40" ry="40"/>
<rect cb-classname="GraphicRectangleEntity" class="algorithm" height="80" id="62" width="30" x="410" y="100"/>
<line cb-classname="GraphicLineEntity" class="algorithm" id="6E" x1="410" x2="440" y1="140" y2="140"/>
<g cb-classname="PointStatusIndicator" cb-indicator-type="Highway" cb-source="iW-Unn-EiZ" id="6O" visibility="hidden">
<line cb-classname="GraphicLineEntity" class="algorithmline" id="7Q" x1="440" x2="480" y1="140" y2="100"/>
<line cb-classname="GraphicLineEntity" class="algorithmline" id="7V" x1="480" x2="520" y1="100" y2="140"/>
<line cb-classname="GraphicLineEntity" class="algorithmline" id="7F" x1="520" x2="480" y1="140" y2="180"/>
<line cb-classname="GraphicLineEntity" class="algorithmline" id="71" x1="480" x2="440" y1="180" y2="140"/>
</g>
<g cb-classname="PointStatusIndicator" cb-indicator-type="hardware" cb-source="4h-ST3-9Aa" id="7j" visibility="hidden">
<line cb-classname="GraphicLineEntity" class="algorithmline" id="7b" x1="440" x2="520" y1="100" y2="100"/>
<line cb-classname="GraphicLineEntity" class="algorithmline" id="7i" x1="520" x2="520" y1="100" y2="180"/>
<line cb-classname="GraphicLineEntity" class="algorithmline" id="72" x1="520" x2="440" y1="180" y2="180"/>
</g>
<g cb-classname="PointStatusIndicator" cb-indicator-type="alarm" cb-source="cJ-xRb-TSU" id="7E" visibility="hidden">
<text cb-classname="GraphicTextEntity" class="algorithm" fill="#000000" font-family="arial" font-size="20" id="7O" x="417" y="129">
A
</text>
</g>
<g cb-classname="PointStatusIndicator" cb-indicator-type="ingraphic" cb-source="B5-MuP-tjn" id="8Q" visibility="visible">
<text cb-classname="GraphicTextEntity" class="algorithm" fill="#000000" font-family="Arial" font-size="20" id="8V" x="415" y="169">
G
</text>
</g>
<g baseline-shift="-50%" cb-anchor-x="392" cb-anchor-y="134" cb-classname="PointDescription" cb-content="extended" cb-labeled="false" cb-max-width="230" cb-source="iW-Unn-EiZ" class="algorithm" id="8F" text-anchor="end">
<text baseline-shift="-50%" cb-classname="GraphicTextEntity" class="algorithm" id="81" text-anchor="end" x="392" y="117">
FF Pre-line Cell 4
</text>
<text baseline-shift="-50%" cb-classname="GraphicTextEntity" class="algorithm" id="8j" text-anchor="end" x="392" y="153">
ENABLED
</text>
</g>
<g cb-classname="DynamicText" cb-labeled="false" cb-pin-name="F5D" cb-source="M1-gia-uhi" class="algorithm" id="8b" text-anchor="start">
<text baseline-shift="0%" cb-classname="GraphicTextEntity" class="algorithm" fill="black" font-family="Arial" font-size="20" font-style="normal" font-weight="normal" id="8i" text-anchor="start" text-decoration="normal" x="540" y="120"/>
</g>
<g baseline-shift="-100%" cb-anchor-x="540" cb-anchor-y="140" cb-classname="PointReferences" cb-max-width="230" cb-originator="true" cb-source="4h-ST3-9Aa" class="signal" id="82" text-anchor="start">
<text baseline-shift="-100%" cb-classname="GraphicTextEntity" class="algorithm" id="8E" text-anchor="start" x="540" y="140">
12/1248306
</text>
</g>
<g cb-classname="ControlPin" cb-pin-name="0V-rq6-cbw" id="8O">
<line cb-classname="GraphicLineEntity" class="signalline" id="9Q" x1="520" x2="540" y1="140" y2="140"/>
<g cb-classname="SignalSegment" id="9V">
<g cb-classname="SignalConnection" cb-graphic-line="$93$" cb-input-pin="$sR9$" id="9F"/>
<line cb-classname="GraphicLineEntity" class="signalline" id="91" stroke="#1e12bf" stroke-dasharray="5,4" x1="540" x2="1470" y1="140" y2="140"/>
</g>
</g>
</g>
<g cb-alg-bJVB="NO" cb-alg-bXL="FF_PRELINE_SEQ_PRON" cb-algorithm-id="015" cb-classname="ExternalPointInterface" cb-function-name="INPUT" id="9j">
<ellipse cb-classname="GraphicEllipseEntity" class="algorithm" cx="480" cy="240" id="9b" rx="40" ry="40"/>
<rect cb-classname="GraphicRectangleEntity" class="algorithm" height="80" id="9i" width="30" x="410" y="200"/>
<line cb-classname="GraphicLineEntity" class="algorithm" id="92" x1="410" x2="440" y1="240" y2="240"/>
<g cb-classname="PointStatusIndicator" cb-indicator-type="Highway" cb-source="M1-gia-uhi" id="9E" visibility="hidden">
<line cb-classname="GraphicLineEntity" class="algorithmline" id="9O" x1="440" x2="480" y1="240" y2="200"/>
<line cb-classname="GraphicLineEntity" class="algorithmline" id="1Qp" x1="480" x2="520" y1="200" y2="240"/>
<line cb-classname="GraphicLineEntity" class="algorithmline" id="1QA" x1="520" x2="480" y1="240" y2="280"/>
<line cb-classname="GraphicLineEntity" class="algorithmline" id="1QK" x1="480" x2="440" y1="280" y2="240"/>
</g>
<g cb-classname="PointStatusIndicator" cb-indicator-type="hardware" cb-source="cG-yOV-lMo" id="1QI" visibility="hidden">
<line cb-classname="GraphicLineEntity" class="algorithmline" id="1QX" x1="440" x2="520" y1="200" y2="200"/>
<line cb-classname="GraphicLineEntity" class="algorithmline" id="1Qs" x1="520" x2="520" y1="200" y2="280"/>
<line cb-classname="GraphicLineEntity" class="algorithmline" id="1QS" x1="520" x2="440" y1="280" y2="280"/>
</g>
<g cb-classname="PointStatusIndicator" cb-indicator-type="alarm" cb-source="Hf-f77-qbn" id="1QQ" visibility="hidden">
<text cb-classname="GraphicTextEntity" class="algorithm" fill="#000000" font-family="arial" font-size="20" id="1QZ" x="417" y="229">
A
</text>
</g>
<g cb-classname="PointStatusIndicator" cb-indicator-type="ingraphic" cb-source="Uv-GeA-Y9i" id="1Qw" visibility="hidden">
<text cb-classname="GraphicTextEntity" class="algorithm" fill="#000000" font-family="Arial" font-size="20" id="1Vp" x="415" y="269">
G
</text>
</g>
<g baseline-shift="-50%" cb-anchor-x="392" cb-anchor-y="234" cb-classname="PointDescription" cb-content="extended" cb-labeled="false" cb-max-width="230" cb-source="M1-gia-uhi" class="algorithm" id="1VA" text-anchor="end">
<text baseline-shift="-50%" cb-classname="GraphicTextEntity" class="algorithm" id="1VK" text-anchor="end" x="392" y="217">
FF pre-line
</text>
<text baseline-shift="-50%" cb-classname="GraphicTextEntity" class="algorithm" id="1VI" text-anchor="end" x="392" y="253">
sequence
</text>
</g>
<g cb-classname="DynamicText" cb-labeled="false" cb-pin-name="Evl" cb-source="ls-lxx-I8L" class="algorithm" id="1VX" text-anchor="start">
<text baseline-shift="0%" cb-classname="GraphicTextEntity" class="algorithm" fill="black" font-family="Arial" font-size="20" font-style="normal" font-weight="normal" id="1Vs" text-anchor="start" text-decoration="normal" x="540" y="220"/>
</g>
<g baseline-shift="-100%" cb-anchor-x="540" cb-anchor-y="240" cb-classname="PointReferences" cb-max-width="230" cb-originator="true" cb-source="cG-yOV-lMo" class="signal" id="1VS" text-anchor="start">
<text baseline-shift="-100%" cb-classname="GraphicTextEntity" class="algorithm" id="1VQ" text-anchor="start" x="540" y="240">
12/1248320
</text>
</g>
<g cb-classname="ControlPin" cb-pin-name="DU-SzB-xIv" id="1VZ">
<line cb-classname="GraphicLineEntity" class="signalline" id="1Vw" x1="520" x2="540" y1="240" y2="240"/>
<g cb-classname="SignalSegment" id="1Fp">
<g cb-classname="SignalConnection" cb-graphic-line="$122$" cb-input-pin="$t4n$" id="1FA"/>
<line cb-classname="GraphicLineEntity" class="signalline" id="1FK" stroke="#1e12bf" stroke-dasharray="5,4" x1="540" x2="980" y1="240" y2="240"/>
</g>
</g>
</g>
<g cb-alg-c5Nn="NO" cb-alg-cK9="FF_PRELINE_SEQ_PROFF" cb-algorithm-id="016" cb-classname="ExternalPointInterface" cb-function-name="INPUT" id="1FI">
<ellipse cb-classname="GraphicEllipseEntity" class="algorithm" cx="480" cy="350" id="1FX" rx="40" ry="40"/>
<rect cb-classname="GraphicRectangleEntity" class="algorithm" height="80" id="1Fs" width="30" x="410" y="310"/>
<line cb-classname="GraphicLineEntity" class="algorithm" id="1FS" x1="410" x2="440" y1="350" y2="350"/>
<g cb-classname="PointStatusIndicator" cb-indicator-type="Highway" cb-source="ls-lxx-I8L" id="1FQ" visibility="hidden">
<line cb-classname="GraphicLineEntity" class="algorithmline" id="1FZ" x1="440" x2="480" y1="350" y2="310"/>
<line cb-classname="GraphicLineEntity" class="algorithmline" id="1Fw" x1="480" x2="520" y1="310" y2="350"/>
<line cb-classname="GraphicLineEntity" class="algorithmline" id="11p" x1="520" x2="480" y1="350" y2="390"/>
<line cb-classname="GraphicLineEntity" class="algorithmline" id="11A" x1="480" x2="440" y1="390" y2="350"/>
</g>
<g cb-classname="PointStatusIndicator" cb-indicator-type="hardware" cb-source="B5-MuP-tjn" id="11K" visibility="hidden">
<line cb-classname="GraphicLineEntity" class="algorithmline" id="11I" x1="440" x2="520" y1="310" y2="310"/>
<line cb-classname="GraphicLineEntity" class="algorithmline" id="11X" x1="520" x2="520" y1="310" y2="390"/>
<line cb-classname="GraphicLineEntity" class="algorithmline" id="11s" x1="520" x2="440" y1="390" y2="390"/>
</g>
<g cb-classname="PointStatusIndicator" cb-indicator-type="alarm" cb-source="02-ybJ-Mci" id="11S" visibility="hidden">
<text cb-classname="GraphicTextEntity" class="algorithm" fill="#000000" font-family="arial" font-size="20" id="11Q" x="417" y="339">
A
</text>
</g>
<g cb-classname="PointStatusIndicator" cb-indicator-type="ingraphic" cb-source="zW-u3B-Vqh" id="11Z" visibility="hidden">
<text cb-classname="GraphicTextEntity" class="algorithm" fill="#000000" font-family="Arial" font-size="20" id="11w" x="415" y="379">
G
</text>
</g>
<g baseline-shift="-50%" cb-anchor-x="392" cb-anchor-y="344" cb-classname="PointDescription" cb-content="extended" cb-labeled="false" cb-max-width="230" cb-source="ls-lxx-I8L" class="algorithm" id="1jp" text-anchor="end">
<text baseline-shift="-50%" cb-classname="GraphicTextEntity" class="algorithm" id="1jA" text-anchor="end" x="392" y="327">
FF pre-line
</text>
<text baseline-shift="-50%" cb-classname="GraphicTextEntity" class="algorithm" id="1jK" text-anchor="end" x="392" y="363">
sequence
</text>
</g>
<g cb-classname="DynamicText" cb-labeled="false" cb-pin-name="OY3" cb-source="cJ-xRb-TSU" class="algorithm" id="1jI" text-anchor="start">
<text baseline-shift="0%" cb-classname="GraphicTextEntity" class="algorithm" fill="black" font-family="Arial" font-size="20" font-style="normal" font-weight="normal" id="1jX" text-anchor="start" text-decoration="normal" x="540" y="330"/>
</g>
<g baseline-shift="-100%" cb-anchor-x="540" cb-anchor-y="350" cb-classname="PointReferences" cb-max-width="230" cb-originator="true" cb-source="B5-MuP-tjn" class="signal" id="1js" text-anchor="start">
<text baseline-shift="-100%" cb-classname="GraphicTextEntity" class="algorithm" id="1jS" text-anchor="start" x="540" y="350">
12/1248320
</text>
</g>
<g cb-classname="ControlPin" cb-pin-name="iW-Unn-EiZ" id="1jQ">
<line cb-classname="GraphicLineEntity" class="signalline" id="1jZ" x1="520" x2="540" y1="350" y2="350"/>
<g cb-classname="SignalSegment" id="1jw">
<line cb-classname="GraphicLineEntity" class="signalline" id="1bp" stroke="#1e12bf" stroke-dasharray="5,4" x1="540" x2="760" y1="350" y2="350"/>
<g cb-classname="SignalSegment" id="1bA">
<line cb-classname="GraphicLineEntity" class="signalline" id="1bK" stroke="#1e12bf" stroke-dasharray="5,4" x1="760" x2="760" y1="350" y2="260"/>
<g cb-classname="SignalSegment" id="1bI">
<line cb-classname="GraphicLineEntity" class="signalline" id="1bX" stroke="#1e12bf" stroke-dasharray="5,4" x1="760" x2="980" y1="260" y2="260"/>
<g cb-classname="SignalConnection" cb-graphic-line="$154$" cb-input-pin="$AqD$" id="1bs"/>
</g>
</g>
</g>
</g>
</g>
<g cb-alg-o9yj="NO" cb-alg-onu="FF_LINE_SEQ_PRON" cb-algorithm-id="017" cb-classname="ExternalPointInterface" cb-function-name="INPUT" id="1bS">
<ellipse cb-classname="GraphicEllipseEntity" class="algorithm" cx="480" cy="450" id="1bQ" rx="40" ry="40"/>
<rect cb-classname="GraphicRectangleEntity" class="algorithm" height="80" id="1bZ" width="30" x="410" y="410"/>
<line cb-classname="GraphicLineEntity" class="algorithm" id="1bw" x1="410" x2="440" y1="450" y2="450"/>
<g cb-classname="PointStatusIndicator" cb-indicator-type="Highway" cb-source="iW-Unn-EiZ" id="1ip" visibility="hidden">
<line cb-classname="GraphicLineEntity" class="algorithmline" id="1iA" x1="440" x2="480" y1="450" y2="410"/>
<line cb-classname="GraphicLineEntity" class="algorithmline" id="1iK" x1="480" x2="520" y1="410" y2="450"/>
<line cb-classname="GraphicLineEntity" class="algorithmline" id="1iI" x1="520" x2="480" y1="450" y2="490"/>
<line cb-classname="GraphicLineEntity" class="algorithmline" id="1iX" x1="480" x2="440" y1="490" y2="450"/>
</g>
<g cb-classname="PointStatusIndicator" cb-indicator-type="hardware" cb-source="4h-ST3-9Aa" id="1is" visibility="hidden">
<line cb-classname="GraphicLineEntity" class="algorithmline" id="1iS" x1="440" x2="520" y1="410" y2="410"/>
<line cb-classname="GraphicLineEntity" class="algorithmline" id="1iQ" x1="520" x2="520" y1="410" y2="490"/>
<line cb-classname="GraphicLineEntity" class="algorithmline" id="1iZ" x1="520" x2="440" y1="490" y2="490"/>
</g>
<g cb-classname="PointStatusIndicator" cb-indicator-type="alarm" cb-source="cJ-xRb-TSU" id="1iw" visibility="hidden">
<text cb-classname="GraphicTextEntity" class="algorithm" fill="#000000" font-family="arial" font-size="20" id="12p" x="417" y="439">
A
</text>
</g>
<g cb-classname="PointStatusIndicator" cb-indicator-type="ingraphic" cb-source="B5-MuP-tjn" id="12A" visibility="hidden">
<text cb-classname="GraphicTextEntity" class="algorithm" fill="#000000" font-family="Arial" font-size="20" id="12K" x="415" y="479">
G
</text>
</g>
<g baseline-shift="-50%" cb-anchor-x="392" cb-anchor-y="444" cb-classname="PointDescription" cb-content="extended" cb-labeled="false" cb-max-width="230" cb-source="iW-Unn-EiZ" class="algorithm" id="12I" text-anchor="end">
<text baseline-shift="-50%" cb-classname="GraphicTextEntity" class="algorithm" id="12X" text-anchor="end" x="392" y="444">
FF line sequence
</text>
</g>
<g cb-classname="DynamicText" cb-labeled="false" cb-pin-name="DWH" cb-source="02-ybJ-Mci" class="algorithm" id="12s" text-anchor="start">
<text baseline-shift="0%" cb-classname="GraphicTextEntity" class="algorithm" fill="black" font-family="Arial" font-size="20" font-style="normal" font-weight="normal" id="12S" text-anchor="start" text-decoration="normal" x="540" y="430"/>
</g>
<g baseline-shift="-100%" cb-anchor-x="540" cb-anchor-y="450" cb-classname="PointReferences" cb-max-width="230" cb-originator="true" cb-source="zW-u3B-Vqh" class="signal" id="12Q" text-anchor="start">
<text baseline-shift="-100%" cb-classname="GraphicTextEntity" class="algorithm" id="12Z" text-anchor="start" x="540" y="450">
12/1248330
</text>
</g>
<g cb-classname="ControlPin" cb-pin-name="ls-lxx-I8L" id="12w">
<line cb-classname="GraphicLineEntity" class="signalline" id="1Ep" x1="520" x2="540" y1="450" y2="450"/>
<g cb-classname="SignalSegment" id="1EA">
<line cb-classname="GraphicLineEntity" class="signalline" id="1EK" stroke="#1e12bf" stroke-dasharray="5,4" x1="540" x2="760" y1="450" y2="450"/>
<g cb-classname="SignalSegment" id="1EI">
<line cb-classname="GraphicLineEntity" class="signalline" id="1EX" stroke="#1e12bf" stroke-dasharray="5,4" x1="760" x2="760" y1="450" y2="280"/>
<g cb-classname="SignalSegment" id="1Es">
<line cb-classname="GraphicLineEntity" class="signalline" id="1ES" stroke="#1e12bf" stroke-dasharray="5,4" x1="760" x2="980" y1="280" y2="280"/>
<g cb-classname="SignalConnection" cb-graphic-line="$186$" cb-input-pin="$4nC$" id="1EQ"/>
</g>
</g>
</g>
</g>
</g>
<g cb-alg-c5Nn="NO" cb-alg-cK9="FF_LINE_SEQ_PROFF" cb-algorithm-id="018" cb-classname="ExternalPointInterface" cb-function-name="INPUT" id="1EZ">
<ellipse cb-classname="GraphicEllipseEntity" class="algorithm" cx="480" cy="560" id="1Ew" rx="40" ry="40"/>
<rect cb-classname="GraphicRectangleEntity" class="algorithm" height="80" id="1Op" width="30" x="410" y="520"/>
<line cb-classname="GraphicLineEntity" class="algorithm" id="1OA" x1="410" x2="440" y1="560" y2="560"/>
<g cb-classname="PointStatusIndicator" cb-indicator-type="Highway" cb-source="ls-lxx-I8L" id="1OK" visibility="hidden">
<line cb-classname="GraphicLineEntity" class="algorithmline" id="1OI" x1="440" x2="480" y1="560" y2="520"/>
<line cb-classname="GraphicLineEntity" class="algorithmline" id="1OX" x1="480" x2="520" y1="520" y2="560"/>
<line cb-classname="GraphicLineEntity" class="algorithmline" id="1Os" x1="520" x2="480" y1="560" y2="600"/>
<line cb-classname="GraphicLineEntity" class="algorithmline" id="1OS" x1="480" x2="440" y1="600" y2="560"/>
</g>
<g cb-classname="PointStatusIndicator" cb-indicator-type="hardware" cb-source="B5-MuP-tjn" id="1OQ" visibility="hidden">
<line cb-classname="GraphicLineEntity" class="algorithmline" id="1OZ" x1="440" x2="520" y1="520" y2="520"/>
<line cb-classname="GraphicLineEntity" class="algorithmline" id="1Ow" x1="520" x2="520" y1="520" y2="600"/>
<line cb-classname="GraphicLineEntity" class="algorithmline" id="2Qp" x1="520" x2="440" y1="600" y2="600"/>
</g>
<g cb-classname="PointStatusIndicator" cb-indicator-type="alarm" cb-source="02-ybJ-Mci" id="2QA" visibility="hidden">
<text cb-classname="GraphicTextEntity" class="algorithm" fill="#000000" font-family="arial" font-size="20" id="2QK" x="417" y="549">
A
</text>
</g>
<g cb-classname="PointStatusIndicator" cb-indicator-type="ingraphic" cb-source="zW-u3B-Vqh" id="2QI" visibility="hidden">
<text cb-classname="GraphicTextEntity" class="algorithm" fill="#000000" font-family="Arial" font-size="20" id="2QX" x="415" y="589">
G
</text>
</g>
<g baseline-shift="-50%" cb-anchor-x="392" cb-anchor-y="554" cb-classname="PointDescription" cb-content="extended" cb-labeled="false" cb-max-width="230" cb-source="ls-lxx-I8L" class="algorithm" id="2Qs" text-anchor="end">
<text baseline-shift="-50%" cb-classname="GraphicTextEntity" class="algorithm" id="2QS" text-anchor="end" x="392" y="554">
FF line sequence
</text>
</g>
<g cb-classname="DynamicText" cb-labeled="false" cb-pin-name="fuX" cb-source="cG-yOV-lMo" class="algorithm" id="2QQ" text-anchor="start">
<text baseline-shift="0%" cb-classname="GraphicTextEntity" class="algorithm" fill="black" font-family="Arial" font-size="20" font-style="normal" font-weight="normal" id="2QZ" text-anchor="start" text-decoration="normal" x="540" y="540"/>
</g>
<g baseline-shift="-100%" cb-anchor-x="540" cb-anchor-y="560" cb-classname="PointReferences" cb-max-width="230" cb-originator="true" cb-source="DU-SzB-xIv" class="signal" id="2Qw" text-anchor="start">
<text baseline-shift="-100%" cb-classname="GraphicTextEntity" class="algorithm" id="2Vp" text-anchor="start" x="540" y="560">
12/1248330
</text>
</g>
<g cb-classname="ControlPin" cb-pin-name="Hf-f77-qbn" id="2VA">
<line cb-classname="GraphicLineEntity" class="signalline" id="2VK" x1="520" x2="540" y1="560" y2="560"/>
<g cb-classname="SignalSegment" id="2VI">
<line cb-classname="GraphicLineEntity" class="signalline" id="2VX" stroke="#1e12bf" stroke-dasharray="5,4" x1="540" x2="760" y1="560" y2="560"/>
<g cb-classname="SignalSegment" id="2Vs">
<line cb-classname="GraphicLineEntity" class="signalline" id="2VS" stroke="#1e12bf" stroke-dasharray="5,4" x1="760" x2="760" y1="560" y2="300"/>
<g cb-classname="SignalSegment" id="2VQ">
<line cb-classname="GraphicLineEntity" class="signalline" id="2VZ" stroke="#1e12bf" stroke-dasharray="5,4" x1="760" x2="980" y1="300" y2="300"/>
<g cb-classname="SignalConnection" cb-graphic-line="$218$" cb-input-pin="$DVz$" id="2Vw"/>
</g>
</g>
</g>
</g>
</g>
<g cb-alg-dR4="$156$cb-alg-out$" cb-alg-dRb="$123$cb-alg-out$" cb-alg-dRq="$188$cb-alg-out$" cb-alg-dRv="$94$cb-alg-out$" cb-algorithm-id="019" cb-classname="FastBooleanAlgorithm" cb-function-name="OR" id="2Fp">
<ellipse cb-classname="GraphicEllipseEntity" class="algorithm" cx="1040" cy="320" id="2FA" rx="40" ry="40"/>
<text baseline-shift="-50%" cb-classname="GraphicTextEntity" class="algorithm" id="2FK" text-anchor="middle" x="1040" y="319">
OR
</text>
<line cb-classname="GraphicLineEntity" class="algorithmline" id="2FI" x1="1000" x2="1000" y1="220" y2="420"/>
<g cb-classname="ControlPin" cb-pin-name="Hf-f77-dCW" id="2FX">
<line cb-classname="GraphicLineEntity" class="signalline" id="2Fs" x1="980" x2="1000" y1="240" y2="240"/>
<polygon cb-classname="GraphicPolygonEntity" class="signal" id="2FS" points="1000,240 989,236 989,244"/>
<g cb-classname="DynamicText" cb-source="02-odC-RrEs" class="signal" id="2FQ" text-anchor="end">
<text baseline-shift="5%" cb-classname="GraphicTextEntity" class="signal" fill="black" font-style="normal" font-weight="normal" id="2FZ" text-anchor="end" text-decoration="normal" x="988" y="236"/>
</g>
</g>
<g cb-classname="ControlPin" cb-pin-name="zW-u3B-Vqh" id="2Fw">
<line cb-classname="GraphicLineEntity" class="signalline" id="21p" x1="1080" x2="1100" y1="320" y2="320"/>
<g cb-classname="DynamicText" cb-source="ls-q28-HCU0" class="signal" id="21A">
<text baseline-shift="5%" cb-classname="GraphicTextEntity" class="signal" fill="black" font-style="normal" font-weight="normal" id="21K" text-decoration="normal" x="1095" y="312"/>
</g>
<g cb-classname="SignalSegment" id="21I">
<line cb-classname="GraphicLineEntity" class="signalline" id="21X" stroke="#1e12bf" stroke-dasharray="5,4" x1="1100" x2="1140" y1="320" y2="320"/>
<g cb-classname="SignalSegment" id="21s">
<line cb-classname="GraphicLineEntity" class="signalline" id="21S" stroke="#1e12bf" stroke-dasharray="5,4" x1="1140" x2="1140" y1="320" y2="180"/>
<g cb-classname="SignalSegment" id="21Q">
<line cb-classname="GraphicLineEntity" class="signalline" id="21Z" stroke="#1e12bf" stroke-dasharray="5,4" x1="1140" x2="1470" y1="180" y2="180"/>
<g cb-classname="SignalConnection" cb-graphic-line="$238$" cb-input-pin="$nuj$" id="21w"/>
</g>
</g>
</g>
</g>
<g cb-classname="ControlPin" cb-pin-name="02-ybJ-a50" id="2jp">
<line cb-classname="GraphicLineEntity" class="signalline" id="2jA" x1="980" x2="1000" y1="260" y2="260"/>
<polygon cb-classname="GraphicPolygonEntity" class="signal" id="2jK" points="1000,260 989,256 989,264"/>
<g cb-classname="DynamicText" cb-source="4h-za5-AROF" class="signal" id="2jI" text-anchor="end">
<text baseline-shift="5%" cb-classname="GraphicTextEntity" class="signal" fill="black" font-style="normal" font-weight="normal" id="2jX" text-anchor="end" text-decoration="normal" x="988" y="256"/>
</g>
</g>
<g cb-classname="ControlPin" cb-pin-name="0V-rq6-uMf" id="2js">
<line cb-classname="GraphicLineEntity" class="signalline" id="2jS" x1="980" x2="1000" y1="280" y2="280"/>
<polygon cb-classname="GraphicPolygonEntity" class="signal" id="2jQ" points="1000,280 989,276 989,284"/>
<g cb-classname="DynamicText" cb-source="DU-8VP-ByPL" class="signal" id="2jZ" text-anchor="end">
<text baseline-shift="5%" cb-classname="GraphicTextEntity" class="signal" fill="black" font-style="normal" font-weight="normal" id="2jw" text-anchor="end" text-decoration="normal" x="988" y="276"/>
</g>
</g>
<g cb-classname="ControlPin" cb-pin-name="Hf-f77-dCT" id="2bp">
<line cb-classname="GraphicLineEntity" class="signalline" id="2bA" x1="980" x2="1000" y1="300" y2="300"/>
<polygon cb-classname="GraphicPolygonEntity" class="signal" id="2bK" points="1000,300 989,296 989,304"/>
<g cb-classname="DynamicText" cb-source="02-odC-RrEs" class="signal" id="2bI" text-anchor="end">
<text baseline-shift="5%" cb-classname="GraphicTextEntity" class="signal" fill="black" font-style="normal" font-weight="normal" id="2bX" text-anchor="end" text-decoration="normal" x="988" y="296"/>
</g>
</g>
<g cb-classname="ControlPin" cb-pin-name="zW-u3B-3Ay" id="2bs">
<line cb-classname="GraphicLineEntity" class="signalline" id="2bS" x1="980" x2="1000" y1="340" y2="340"/>
<polygon cb-classname="GraphicPolygonEntity" class="signal" id="2bQ" points="1000,340 989,336 989,344"/>
<g cb-classname="DynamicText" cb-source="0V-63A-poKG" class="signal" id="2bZ" text-anchor="end">
<text baseline-shift="5%" cb-classname="GraphicTextEntity" class="signal" fill="black" font-style="normal" font-weight="normal" id="2bw" text-anchor="end" text-decoration="normal" x="988" y="336"/>
</g>
</g>
<g cb-classname="ControlPin" cb-pin-name="cJ-xRb-0B7" id="2ip">
<line cb-classname="GraphicLineEntity" class="signalline" id="2iA" x1="980" x2="1000" y1="360" y2="360"/>
<polygon cb-classname="GraphicPolygonEntity" class="signal" id="2iK" points="1000,360 989,356 989,364"/>
<g cb-classname="DynamicText" cb-source="Hf-r0B-RuUn" class="signal" id="2iI" text-anchor="end">
<text baseline-shift="5%" cb-classname="GraphicTextEntity" class="signal" fill="black" font-style="normal" font-weight="normal" id="2iX" text-anchor="end" text-decoration="normal" x="988" y="356"/>
</g>
</g>
<g cb-classname="ControlPin" cb-pin-name="Uv-GeA-dRK" id="2is">
<line cb-classname="GraphicLineEntity" class="signalline" id="2iS" x1="980" x2="1000" y1="380" y2="380"/>
<polygon cb-classname="GraphicPolygonEntity" class="signal" id="2iQ" points="1000,380 989,376 989,384"/>
<g cb-classname="DynamicText" cb-source="zW-KdR-8MDW" class="signal" id="2iZ" text-anchor="end">
<text baseline-shift="5%" cb-classname="GraphicTextEntity" class="signal" fill="black" font-style="normal" font-weight="normal" id="2iw" text-anchor="end" text-decoration="normal" x="988" y="376"/>
</g>
</g>
<g cb-classname="ControlPin" cb-pin-name="ls-lxx-spV" id="22p">
<line cb-classname="GraphicLineEntity" class="signalline" id="22A" x1="980" x2="1000" y1="400" y2="400"/>
<polygon cb-classname="GraphicPolygonEntity" class="signal" id="22K" points="1000,400 989,396 989,404"/>
<g cb-classname="DynamicText" cb-source="cJ-6jB-SGdz" class="signal" id="22I" text-anchor="end">
<text baseline-shift="5%" cb-classname="GraphicTextEntity" class="signal" fill="black" font-style="normal" font-weight="normal" id="22X" text-anchor="end" text-decoration="normal" x="988" y="396"/>
</g>
</g>
</g>
<g cb-alg-YLu="P32HV1124_ZSH" cb-alg-YNjb="NO" cb-algorithm-id="01B" cb-classname="ExternalPointInterface" cb-function-name="INPUT" id="22s">
<ellipse cb-classname="GraphicEllipseEntity" class="algorithm" cx="480" cy="670" id="22S" rx="40" ry="40"/>
<rect cb-classname="GraphicRectangleEntity" class="algorithm" height="80" id="22Q" width="30" x="410" y="630"/>
<line cb-classname="GraphicLineEntity" class="algorithm" id="22Z" x1="410" x2="440" y1="670" y2="670"/>
<g cb-classname="PointStatusIndicator" cb-indicator-type="Highway" cb-source="02-ybJ-Mci" id="22w" visibility="hidden">
<line cb-classname="GraphicLineEntity" class="algorithmline" id="2Ep" x1="440" x2="480" y1="670" y2="630"/>
<line cb-classname="GraphicLineEntity" class="algorithmline" id="2EA" x1="480" x2="520" y1="630" y2="670"/>
<line cb-classname="GraphicLineEntity" class="algorithmline" id="2EK" x1="520" x2="480" y1="670" y2="710"/>
<line cb-classname="GraphicLineEntity" class="algorithmline" id="2EI" x1="480" x2="440" y1="710" y2="670"/>
</g>
<g cb-classname="PointStatusIndicator" cb-indicator-type="hardware" cb-source="0V-rq6-cbw" id="2EX" visibility="visible">
<line cb-classname="GraphicLineEntity" class="algorithmline" id="2Es" x1="440" x2="520" y1="630" y2="630"/>
<line cb-classname="GraphicLineEntity" class="algorithmline" id="2ES" x1="520" x2="520" y1="630" y2="710"/>
<line cb-classname="GraphicLineEntity" class="algorithmline" id="2EQ" x1="520" x2="440" y1="710" y2="710"/>
</g>
<g cb-classname="PointStatusIndicator" cb-indicator-type="alarm" cb-source="B5-MuP-tjn" id="2EZ" visibility="hidden">
<text cb-classname="GraphicTextEntity" class="algorithm" fill="#000000" font-family="arial" font-size="20" id="2Ew" x="417" y="659">
A
</text>
</g>
<g cb-classname="PointStatusIndicator" cb-indicator-type="ingraphic" cb-source="iW-Unn-EiZ" id="2Op" visibility="hidden">
<text cb-classname="GraphicTextEntity" class="algorithm" fill="#000000" font-family="Arial" font-size="20" id="2OA" x="415" y="699">
G
</text>
</g>
<g baseline-shift="-50%" cb-anchor-x="392" cb-anchor-y="664" cb-classname="PointDescription" cb-content="extended" cb-labeled="false" cb-max-width="230" cb-source="02-ybJ-Mci" class="algorithm" id="2OK" text-anchor="end">
<text baseline-shift="-50%" cb-classname="GraphicTextEntity" class="algorithm" id="2OI" text-anchor="end" x="392" y="594">
vlv. HV1124 dry
</text>
<text baseline-shift="-50%" cb-classname="GraphicTextEntity" class="algorithm" id="2OX" text-anchor="end" x="392" y="630">
FG clean. dust
</text>
<text baseline-shift="-50%" cb-classname="GraphicTextEntity" class="algorithm" id="2Os" text-anchor="end" x="392" y="666">
from Unit4 -
</text>
<text baseline-shift="-50%" cb-classname="GraphicTextEntity" class="algorithm" id="2OS" text-anchor="end" x="392" y="702">
opened
</text>
<text baseline-shift="-50%" cb-classname="GraphicTextEntity" class="algorithm" id="2OQ" text-anchor="end" x="392" y="738">
(OPD - !nOPD)
</text>
</g>
<g cb-classname="DynamicText" cb-labeled="false" cb-pin-name="fuX" cb-source="cG-yOV-lMo" class="algorithm" id="2OZ" text-anchor="start">
<text baseline-shift="0%" cb-classname="GraphicTextEntity" class="algorithm" fill="black" font-family="Arial" font-size="20" font-style="normal" font-weight="normal" id="2Ow" text-anchor="start" text-decoration="normal" x="540" y="650"/>
</g>
<g baseline-shift="-100%" cb-anchor-x="540" cb-anchor-y="670" cb-classname="PointReferences" cb-max-width="230" cb-originator="true" cb-source="DU-SzB-xIv" class="signal" id="3Qp" text-anchor="start">
<text baseline-shift="-100%" cb-classname="GraphicTextEntity" class="algorithm" id="3QA" text-anchor="start" x="540" y="670">
-
</text>
</g>
<g cb-classname="ControlPin" cb-pin-name="Hf-f77-qbn" id="3QK">
<line cb-classname="GraphicLineEntity" class="signalline" id="3QI" x1="520" x2="540" y1="670" y2="670"/>
<g cb-classname="SignalSegment" id="3QX">
<line cb-classname="GraphicLineEntity" class="signalline" id="3Qs" stroke="#1e12bf" stroke-dasharray="5,4" x1="540" x2="820" y1="670" y2="670"/>
<g cb-classname="SignalConnection" cb-graphic-line="$305$" cb-input-pin="$Omk$" id="3QS"/>
</g>
</g>
</g>
<g cb-alg-NvL="$275$cb-alg-out$" cb-algorithm-id="01F" cb-classname="FastBooleanAlgorithm" cb-function-name="NOT" id="3QQ">
<rect cb-classname="GraphicRectangleEntity" class="algorithm" height="40" id="3QZ" width="40" x="840" y="650"/>
<text baseline-shift="-50%" cb-classname="GraphicTextEntity" class="algorithm" font-size="28" id="3Qw" text-anchor="middle" x="859" y="662">
N
</text>
<g cb-classname="ControlPin" cb-pin-name="0V-rq6-uMG" id="3Vp">
<line cb-classname="GraphicLineEntity" class="signalline" id="3VA" x1="820" x2="840" y1="670" y2="670"/>
<polygon cb-classname="GraphicPolygonEntity" class="signal" id="3VK" points="840,670 829,666 829,674"/>
<g cb-classname="DynamicText" cb-source="DU-8VP-ByPL" class="signal" id="3VI" text-anchor="end">
<text baseline-shift="5%" cb-classname="GraphicTextEntity" class="signal" fill="black" font-style="normal" font-weight="normal" id="3VX" text-anchor="end" text-decoration="normal" x="835" y="662"/>
</g>
</g>
<g cb-classname="ControlPin" cb-pin-name="Hf-f77-qbn" id="3Vs">
<line cb-classname="GraphicLineEntity" class="signalline" id="3VS" x1="880" x2="900" y1="670" y2="670"/>
<g cb-classname="DynamicText" cb-source="Uv-lNR-9lPN" class="signal" id="3VQ">
<text baseline-shift="5%" cb-classname="GraphicTextEntity" class="signal" fill="black" font-style="normal" font-weight="normal" id="3VZ" text-decoration="normal" x="892" y="662"/>
</g>
<g cb-classname="SignalSegment" cb-start-x="860" cb-start-y="1490" id="3Vw">
<line cb-classname="GraphicLineEntity" class="signalline" id="3Fp" stroke="#1e12bf" stroke-dasharray="5,4" x1="900" x2="1100" y1="670" y2="670"/>
<g cb-classname="SignalConnection" cb-graphic-line="$320$" cb-input-pin="$yFD$" id="3FA"/>
</g>
</g>
</g>
<g cb-alg-qNdB="NO" cb-alg-qbn="P32RV1128_PSTA" cb-algorithm-id="01C" cb-classname="ExternalPointInterface" cb-function-name="INPUT" id="3FK">
<ellipse cb-classname="GraphicEllipseEntity" class="algorithm" cx="480" cy="780" id="3FI" rx="40" ry="40"/>
<rect cb-classname="GraphicRectangleEntity" class="algorithm" height="80" id="3FX" width="30" x="410" y="740"/>
<line cb-classname="GraphicLineEntity" class="algorithm" id="3Fs" x1="410" x2="440" y1="780" y2="780"/>
<g cb-classname="PointStatusIndicator" cb-indicator-type="Highway" cb-source="DU-SzB-xIv" id="3FS" visibility="hidden">
<line cb-classname="GraphicLineEntity" class="algorithmline" id="3FQ" x1="440" x2="480" y1="780" y2="740"/>
<line cb-classname="GraphicLineEntity" class="algorithmline" id="3FZ" x1="480" x2="520" y1="740" y2="780"/>
<line cb-classname="GraphicLineEntity" class="algorithmline" id="3Fw" x1="520" x2="480" y1="780" y2="820"/>
<line cb-classname="GraphicLineEntity" class="algorithmline" id="31p" x1="480" x2="440" y1="820" y2="780"/>
</g>
<g cb-classname="PointStatusIndicator" cb-indicator-type="hardware" cb-source="02-ybJ-Mci" id="31A" visibility="hidden">
<line cb-classname="GraphicLineEntity" class="algorithmline" id="31K" x1="440" x2="520" y1="740" y2="740"/>
<line cb-classname="GraphicLineEntity" class="algorithmline" id="31I" x1="520" x2="520" y1="740" y2="820"/>
<line cb-classname="GraphicLineEntity" class="algorithmline" id="31X" x1="520" x2="440" y1="820" y2="820"/>
</g>
<g cb-classname="PointStatusIndicator" cb-indicator-type="alarm" cb-source="ls-lxx-I8L" id="31s" visibility="hidden">
<text cb-classname="GraphicTextEntity" class="algorithm" fill="#000000" font-family="arial" font-size="20" id="31S" x="417" y="769">
A
</text>
</g>
<g cb-classname="PointStatusIndicator" cb-indicator-type="ingraphic" cb-source="cG-yOV-lMo" id="31Q" visibility="hidden">
<text cb-classname="GraphicTextEntity" class="algorithm" fill="#000000" font-family="Arial" font-size="20" id="31Z" x="415" y="809">
G
</text>
</g>
<g baseline-shift="-50%" cb-anchor-x="392" cb-anchor-y="774" cb-classname="PointDescription" cb-content="extended" cb-labeled="false" cb-max-width="230" cb-source="DU-SzB-xIv" class="algorithm" id="31w" text-anchor="end">
<text baseline-shift="-50%" cb-classname="GraphicTextEntity" class="algorithm" id="3jp" text-anchor="end" x="392" y="739">
Rotary vlv
</text>
<text baseline-shift="-50%" cb-classname="GraphicTextEntity" class="algorithm" id="3jA" text-anchor="end" x="392" y="775">
RV1128 dry FG
</text>
<text baseline-shift="-50%" cb-classname="GraphicTextEntity" class="algorithm" id="3jK" text-anchor="end" x="392" y="811">
clean
</text>
</g>
<g cb-classname="DynamicText" cb-labeled="false" cb-pin-name="pia" cb-source="Uv-GeA-Y9i" class="algorithm" id="3jI" text-anchor="start">
<text baseline-shift="0%" cb-classname="GraphicTextEntity" class="algorithm" fill="black" font-family="Arial" font-size="20" font-style="normal" font-weight="normal" id="3jX" text-anchor="start" text-decoration="normal" x="540" y="760"/>
</g>
<g baseline-shift="-100%" cb-anchor-x="540" cb-anchor-y="780" cb-classname="PointReferences" cb-max-width="230" cb-originator="true" cb-source="M1-gia-uhi" class="signal" id="3js" text-anchor="start">
<text baseline-shift="-100%" cb-classname="GraphicTextEntity" class="algorithm" id="3jS" text-anchor="start" x="540" y="780">
12/123400
</text>
</g>
<g cb-classname="ControlPin" cb-pin-name="4h-ST3-9Aa" id="3jQ">
<line cb-classname="GraphicLineEntity" class="signalline" id="3jZ" x1="520" x2="540" y1="780" y2="780"/>
<g cb-classname="SignalSegment" id="3jw">
<g cb-classname="SignalConnection" cb-graphic-line="$351$" cb-input-pin="$xKD$" id="3bp"/>
<line cb-classname="GraphicLineEntity" class="signalline" id="3bA" x1="540" x2="740" y1="780" y2="780"/>
</g>
</g>
</g>
<g cb-alg-SOlG="NO" cb-alg-Scu="P32TSL1104" cb-algorithm-id="01D" cb-classname="ExternalPointInterface" cb-function-name="INPUT" id="3bK">
<ellipse cb-classname="GraphicEllipseEntity" class="algorithm" cx="480" cy="1060" id="3bI" rx="40" ry="40"/>
<rect cb-classname="GraphicRectangleEntity" class="algorithm" height="80" id="3bX" width="30" x="410" y="1020"/>
<line cb-classname="GraphicLineEntity" class="algorithm" id="3bs" x1="410" x2="440" y1="1060" y2="1060"/>
<g cb-classname="PointStatusIndicator" cb-indicator-type="Highway" cb-source="Uv-GeA-Y9i" id="3bS" visibility="hidden">
<line cb-classname="GraphicLineEntity" class="algorithmline" id="3bQ" x1="440" x2="480" y1="1060" y2="1020"/>
<line cb-classname="GraphicLineEntity" class="algorithmline" id="3bZ" x1="480" x2="520" y1="1020" y2="1060"/>
<line cb-classname="GraphicLineEntity" class="algorithmline" id="3bw" x1="520" x2="480" y1="1060" y2="1100"/>
<line cb-classname="GraphicLineEntity" class="algorithmline" id="3ip" x1="480" x2="440" y1="1100" y2="1060"/>
</g>
<g cb-classname="PointStatusIndicator" cb-indicator-type="hardware" cb-source="ls-lxx-I8L" id="3iA" visibility="visible">
<line cb-classname="GraphicLineEntity" class="algorithmline" id="3iK" x1="440" x2="520" y1="1020" y2="1020"/>
<line cb-classname="GraphicLineEntity" class="algorithmline" id="3iI" x1="520" x2="520" y1="1020" y2="1100"/>
<line cb-classname="GraphicLineEntity" class="algorithmline" id="3iX" x1="520" x2="440" y1="1100" y2="1100"/>
</g>
<g cb-classname="PointStatusIndicator" cb-indicator-type="alarm" cb-source="DU-SzB-xIv" id="3is" visibility="hidden">
<text cb-classname="GraphicTextEntity" class="algorithm" fill="#000000" font-family="arial" font-size="20" id="3iS" x="417" y="1049">
A
</text>
</g>
<g cb-classname="PointStatusIndicator" cb-indicator-type="ingraphic" cb-source="Hf-f77-qbn" id="3iQ" visibility="hidden">
<text cb-classname="GraphicTextEntity" class="algorithm" fill="#000000" font-family="Arial" font-size="20" id="3iZ" x="415" y="1089">
G
</text>
</g>
<g baseline-shift="-50%" cb-anchor-x="392" cb-anchor-y="1054" cb-classname="PointDescription" cb-content="extended" cb-labeled="false" cb-max-width="230" cb-source="Uv-GeA-Y9i" class="algorithm" id="3iw" text-anchor="end">
<text baseline-shift="-50%" cb-classname="GraphicTextEntity" class="algorithm" id="32p" text-anchor="end" x="392" y="1002">
temp. L TSL1104
</text>
<text baseline-shift="-50%" cb-classname="GraphicTextEntity" class="algorithm" id="32A" text-anchor="end" x="392" y="1038">
dry FG clean.
</text>
<text baseline-shift="-50%" cb-classname="GraphicTextEntity" class="algorithm" id="32K" text-anchor="end" x="392" y="1074">
hopper Unit4
</text>
<text baseline-shift="-50%" cb-classname="GraphicTextEntity" class="algorithm" id="32I" text-anchor="end" x="392" y="1110">
(nL - !L)
</text>
</g>
<g cb-classname="DynamicText" cb-labeled="false" cb-pin-name="Evl" cb-source="ls-lxx-I8L" class="algorithm" id="32X" text-anchor="start">
<text baseline-shift="0%" cb-classname="GraphicTextEntity" class="algorithm" fill="black" font-family="Arial" font-size="20" font-style="normal" font-weight="normal" id="32s" text-anchor="start" text-decoration="normal" x="540" y="1040"/>
</g>
<g baseline-shift="-100%" cb-anchor-x="540" cb-anchor-y="1060" cb-classname="PointReferences" cb-max-width="230" cb-originator="true" cb-source="cG-yOV-lMo" class="signal" id="32S" text-anchor="start">
<text baseline-shift="-100%" cb-classname="GraphicTextEntity" class="algorithm" id="32Q" text-anchor="start" x="540" y="1060">
-
</text>
</g>
<g cb-classname="ControlPin" cb-pin-name="DU-SzB-xIv" id="32Z">
<line cb-classname="GraphicLineEntity" class="signalline" id="32w" x1="520" x2="540" y1="1060" y2="1060"/>
<g cb-classname="SignalSegment" id="3Ep">
<line cb-classname="GraphicLineEntity" class="signalline" id="3EA" stroke="#1e12bf" stroke-dasharray="5,4" x1="540" x2="650" y1="1060" y2="1060"/>
<g cb-classname="SignalConnection" cb-graphic-line="$381$" cb-input-pin="$ZbM$" id="3EK"/>
</g>
</g>
</g>
<g cb-alg-YSJ="$352$cb-alg-out$" cb-algorithm-id="024" cb-classname="FastBooleanAlgorithm" cb-function-name="NOT" cb-modify-id="00000001" id="3EI">
<rect cb-classname="GraphicRectangleEntity" class="algorithm" height="40" id="3EX" width="40" x="670" y="1040"/>
<text baseline-shift="-50%" cb-classname="GraphicTextEntity" class="algorithm" font-size="28" id="3Es" text-anchor="middle" x="689" y="1052">
N
</text>
<g cb-classname="ControlPin" cb-pin-name="4h-ST3-xHF" id="3ES">
<line cb-classname="GraphicLineEntity" class="signalline" id="3EQ" x1="650" x2="670" y1="1060" y2="1060"/>
<polygon cb-classname="GraphicPolygonEntity" class="signal" id="3EZ" points="670,1060 659,1056 659,1064"/>
<g cb-classname="DynamicText" cb-source="cG-LxH-M6B8" class="signal" id="3Ew" text-anchor="end">
<text baseline-shift="5%" cb-classname="GraphicTextEntity" class="signal" fill="black" font-style="normal" font-weight="normal" id="3Op" text-anchor="end" text-decoration="normal" x="665" y="1052"/>
</g>
</g>
<g cb-classname="ControlPin" cb-pin-name="DU-SzB-xIv" id="3OA">
<line cb-classname="GraphicLineEntity" class="signalline" id="3OK" x1="710" x2="730" y1="1060" y2="1060"/>
<g cb-classname="DynamicText" cb-source="Hf-r0B-RuUn" class="signal" id="3OI">
<text baseline-shift="5%" cb-classname="GraphicTextEntity" class="signal" fill="black" font-style="normal" font-weight="normal" id="3OX" text-decoration="normal" x="722" y="1052"/>
</g>
<g cb-classname="SignalSegment" cb-start-x="690" cb-start-y="1880" id="3Os">
<line cb-classname="GraphicLineEntity" class="signalline" id="3OS" stroke="#1e12bf" stroke-dasharray="5,4" x1="730" x2="790" y1="1060" y2="1060"/>
<g cb-classname="SignalSegment" id="3OQ">
<line cb-classname="GraphicLineEntity" class="signalline" id="3OZ" stroke="#1e12bf" stroke-dasharray="5,4" x1="790" x2="790" y1="1060" y2="1080"/>
<g cb-classname="SignalSegment" id="3Ow">
<line cb-classname="GraphicLineEntity" class="signalline" id="4Qp" stroke="#1e12bf" stroke-dasharray="5,4" x1="790" x2="910" y1="1080" y2="1080"/>
<g cb-classname="SignalConnection" cb-graphic-line="$400$" cb-input-pin="$TA1$" id="4QA"/>
</g>
<line cb-classname="GraphicLineEntity" class="signalline" id="4QK" stroke="#1e12bf" stroke-dasharray="5,4" x1="790" x2="910" y1="1060" y2="1060"/>
<g cb-classname="SignalConnection" cb-graphic-line="$402$" cb-input-pin="$jpi$" id="4QI"/>
<ellipse cb-classname="GraphicEllipseEntity" class="signal" cx="790" cy="1060" fill="#1e12bf" id="4QX" rx="5" ry="5" stroke="#1e12bf" stroke-dasharray="5,4"/>
</g>
</g>
</g>
</g>
<g cb-alg-UxsY="3600" cb-alg-VlSb="96" cb-alg-rzfz="$383$cb-alg-out$" cb-alg-uxJb="10" cb-alg-yzY="$383$cb-alg-out$" cb-algorithm-id="023" cb-classname="ControlAlgorithm" cb-function-name="ONDELAY" cb-modify-id="00000001" id="4Qs">
<rect cb-classname="GraphicRectangleEntity" class="algorithm" height="60" id="4QS" width="60" x="930" y="1040"/>
<text baseline-shift="-50%" cb-classname="GraphicTextEntity" class="algorithm" font-size="18" id="4QQ" text-anchor="middle" x="959" y="1052">
TD
</text>
<text cb-classname="GraphicTextEntity" class="algorithm" font-size="18" id="4QZ" text-anchor="middle" x="959" y="1087">
ON
</text>
<g cb-classname="ControlPin" cb-pin-name="02-ybJ-a5X" id="4Qw">
<line cb-classname="GraphicLineEntity" class="signalline" id="4Vp" x1="910" x2="930" y1="1060" y2="1060"/>
<polygon cb-classname="GraphicPolygonEntity" class="signal" id="4VA" points="930,1060 919,1056 919,1064"/>
<g cb-classname="DynamicText" cb-source="4h-za5-AROF" class="signal" id="4VK" text-anchor="end">
<text baseline-shift="5%" cb-classname="GraphicTextEntity" class="signal" fill="black" font-style="normal" font-weight="normal" id="4VI" text-anchor="end" text-decoration="normal" x="894" y="1056"/>
</g>
</g>
<g cb-classname="ControlPin" cb-pin-name="0V-rq6-cbw" id="4VX">
<line cb-classname="GraphicLineEntity" class="signalline" id="4Vs" x1="990" x2="1010" y1="1060" y2="1060"/>
<g cb-classname="DynamicText" cb-source="cJ-6jB-SGdz" class="signal" id="4VS">
<text baseline-shift="5%" cb-classname="GraphicTextEntity" class="signal" fill="black" font-style="normal" font-weight="normal" id="4VQ" text-decoration="normal" x="1026" y="1056"/>
</g>
<g cb-classname="SignalSegment" cb-start-x="970" cb-start-y="1880" id="4VZ">
<line cb-classname="GraphicLineEntity" class="signalline" id="4Vw" stroke="#1e12bf" stroke-dasharray="5,4" x1="1010" x2="1090" y1="1060" y2="1060"/>
<g cb-classname="SignalSegment" id="4Fp">
<line cb-classname="GraphicLineEntity" class="signalline" id="4FA" stroke="#1e12bf" stroke-dasharray="5,4" x1="1090" x2="1090" y1="1060" y2="750"/>
<g cb-classname="SignalSegment" id="4FK">
<line cb-classname="GraphicLineEntity" class="signalline" id="4FI" stroke="#1e12bf" stroke-dasharray="5,4" x1="1090" x2="1100" y1="750" y2="750"/>
<g cb-classname="SignalConnection" cb-graphic-line="$423$" cb-input-pin="$TZ5$" id="4FX"/>
</g>
</g>
</g>
</g>
<g cb-classname="ControlPin" cb-pin-name="4h-ST3-sHgE" id="4Fs">
<line cb-classname="GraphicLineEntity" class="signalline" id="4FS" x1="910" x2="930" y1="1080" y2="1080"/>
<polygon cb-classname="GraphicPolygonEntity" class="signal" id="4FQ" points="930,1080 919,1076 919,1084"/>
<g cb-classname="DynamicText" cb-source="cG-LxH-M6B8" class="signal" id="4FZ" text-anchor="end">
<text baseline-shift="5%" cb-classname="GraphicTextEntity" class="signal" fill="black" font-style="normal" font-weight="normal" id="4Fw" text-anchor="end" text-decoration="normal" x="894" y="1076"/>
</g>
</g>
<g cb-classname="GraphicShape" id="41p">
<g cb-classname="DynamicText" cb-labeled="true" cb-source="B5-MuP-UgNa" id="41A">
<text cb-classname="GraphicTextEntity" class="algorithm" id="41K" text-anchor="start" x="910" y="1030"/>
</g>
</g>
<g cb-classname="GraphicShape" id="41I">
<g cb-classname="DynamicText" cb-labeled="true" cb-source="Uv-GeA-VlWN" id="41X">
<text cb-classname="GraphicTextEntity" class="algorithm" id="41s" text-anchor="start" x="910" y="1000"/>
</g>
</g>
</g>
<g cb-alg-TANA="NO" cb-alg-TSU="P32RV1128_XU" cb-algorithm-id="021" cb-classname="ExternalPointInterface" cb-function-name="INPUT" id="41S">
<ellipse cb-classname="GraphicEllipseEntity" class="algorithm" cx="480" cy="880" id="41Q" rx="40" ry="40"/>
<rect cb-classname="GraphicRectangleEntity" class="algorithm" height="80" id="41Z" width="30" x="410" y="840"/>
<line cb-classname="GraphicLineEntity" class="algorithm" id="41w" x1="410" x2="440" y1="880" y2="880"/>
<g cb-classname="PointStatusIndicator" cb-indicator-type="Highway" cb-source="0V-rq6-cbw" id="4jp" visibility="hidden">
<line cb-classname="GraphicLineEntity" class="algorithmline" id="4jA" x1="440" x2="480" y1="880" y2="840"/>
<line cb-classname="GraphicLineEntity" class="algorithmline" id="4jK" x1="480" x2="520" y1="840" y2="880"/>
<line cb-classname="GraphicLineEntity" class="algorithmline" id="4jI" x1="520" x2="480" y1="880" y2="920"/>
<line cb-classname="GraphicLineEntity" class="algorithmline" id="4jX" x1="480" x2="440" y1="920" y2="880"/>
</g>
<g cb-classname="PointStatusIndicator" cb-indicator-type="hardware" cb-source="Hf-f77-qbn" id="4js" visibility="hidden">
<line cb-classname="GraphicLineEntity" class="algorithmline" id="4jS" x1="440" x2="520" y1="840" y2="840"/>
<line cb-classname="GraphicLineEntity" class="algorithmline" id="4jQ" x1="520" x2="520" y1="840" y2="920"/>
<line cb-classname="GraphicLineEntity" class="algorithmline" id="4jZ" x1="520" x2="440" y1="920" y2="920"/>
</g>
<g cb-classname="PointStatusIndicator" cb-indicator-type="alarm" cb-source="M1-gia-uhi" id="4jw" visibility="hidden">
<text cb-classname="GraphicTextEntity" class="algorithm" fill="#000000" font-family="arial" font-size="20" id="4bp" x="417" y="869">
A
</text>
</g>
<g cb-classname="PointStatusIndicator" cb-indicator-type="ingraphic" cb-source="4h-ST3-9Aa" id="4bA" visibility="hidden">
<text cb-classname="GraphicTextEntity" class="algorithm" fill="#000000" font-family="Arial" font-size="20" id="4bK" x="415" y="909">
G
</text>
</g>
<g baseline-shift="-50%" cb-anchor-x="392" cb-anchor-y="874" cb-classname="PointDescription" cb-content="extended" cb-labeled="false" cb-max-width="230" cb-source="0V-rq6-cbw" class="algorithm" id="4bI" text-anchor="end">
<text baseline-shift="-50%" cb-classname="GraphicTextEntity" class="algorithm" id="4bX" text-anchor="end" x="392" y="839">
Rotary vlv
</text>
<text baseline-shift="-50%" cb-classname="GraphicTextEntity" class="algorithm" id="4bs" text-anchor="end" x="392" y="875">
RV1128 dry FG
</text>
<text baseline-shift="-50%" cb-classname="GraphicTextEntity" class="algorithm" id="4bS" text-anchor="end" x="392" y="911">
clean
</text>
</g>
<g cb-classname="DynamicText" cb-labeled="false" cb-pin-name="iPw" cb-source="B5-MuP-tjn" class="algorithm" id="4bQ" text-anchor="start">
<text baseline-shift="0%" cb-classname="GraphicTextEntity" class="algorithm" fill="black" font-family="Arial" font-size="20" font-style="normal" font-weight="normal" id="4bZ" text-anchor="start" text-decoration="normal" x="540" y="860"/>
</g>
<g baseline-shift="-100%" cb-anchor-x="540" cb-anchor-y="880" cb-classname="PointReferences" cb-max-width="230" cb-originator="true" cb-source="iW-Unn-EiZ" class="signal" id="4bw" text-anchor="start">
<text baseline-shift="-100%" cb-classname="GraphicTextEntity" class="algorithm" id="4ip" text-anchor="start" x="540" y="880">
12/123399
</text>
</g>
<g cb-classname="ControlPin" cb-pin-name="02-ybJ-Mci" id="4iA">
<line cb-classname="GraphicLineEntity" class="signalline" id="4iK" x1="520" x2="540" y1="880" y2="880"/>
<g cb-classname="SignalSegment" id="4iI">
<g cb-classname="SignalConnection" cb-graphic-line="$465$" cb-input-pin="$iB7$" id="4iX"/>
<line cb-classname="GraphicLineEntity" class="signalline" id="4is" x1="540" x2="740" y1="880" y2="880"/>
</g>
</g>
</g>
<g cb-alg-0DDvX-4uoE="69" cb-alg-0DDvX-MCEM="1" cb-alg-0DDvX-Rp="DVALGEN" cb-alg-0DxbX-2aow="2W" cb-alg-0DxbX-4uoE="86" cb-alg-0DxbX-Rp="PNTSTATUS" cb-alg-0DxbX-ruL6="27" cb-alg-0DxbX-ruLW="28" cb-alg-0WWKou-CM="DVALGEN" cb-alg-0WWKou-kP69="69" cb-alg-K1Zr="$322$cb-alg-out$" cb-alg-TSTNN="0" cb-alg-ji="$436$cb-alg-out$" cb-algorithm-id="020" cb-classname="ControlMacroReference" cb-function-name="EDEV_ANOMALY" cb-macro-crc="44408" cb-modify-id="00000001" id="4iS">
<rect cb-classname="GraphicRectangleEntity" class="algorithm-function" fill="white" height="120" id="4iQ" width="130" x="760" y="770"/>
<text baseline-shift="0%" cb-classname="GraphicTextEntity" class="annotation" fill="#000000" font-family="MS Shell Dlg 2" font-size="20" id="4iZ" x="780" y="818">
Edevice
</text>
<text baseline-shift="0%" cb-classname="GraphicTextEntity" class="annotation" fill="#000000" font-family="MS Shell Dlg 2" font-size="20" id="4iw" x="780" y="853">
Anomaly
</text>
<g cb-classname="ControlPin" cb-pin-name="B5-MuP-omnS" id="42p">
<line cb-classname="GraphicLineEntity" class="signalline" id="42A" x1="740" x2="760" y1="780" y2="780"/>
<polygon cb-classname="GraphicPolygonEntity" class="signal" id="42K" points="760,780 749,774 749,785"/>
<g cb-classname="DynamicText" cb-source="Uv-lNR-9lPN" id="42I">
<text cb-classname="GraphicTextEntity" class="signal" id="42X" text-anchor="end" x="745" y="777"/>
</g>
</g>
<g cb-classname="ControlPin" cb-pin-name="M1-gia-9h" id="42s">
<line cb-classname="GraphicLineEntity" class="signalline" id="42S" x1="740" x2="760" y1="880" y2="880"/>
<polygon cb-classname="GraphicPolygonEntity" class="signal" id="42Q" points="760,880 749,874 749,885"/>
<g cb-classname="DynamicText" cb-source="ls-q28-HCU0" id="42Z">
<text cb-classname="GraphicTextEntity" class="signal" id="42w" text-anchor="end" x="745" y="877"/>
</g>
</g>
<g cb-classname="ControlPin" cb-pin-name="cG-yOV-oMot" id="4Ep">
<line cb-classname="GraphicLineEntity" class="signalline" id="4EA" x1="890" x2="910" y1="880" y2="880"/>
<g cb-classname="DynamicText" cb-source="DU-8VP-ByPL" id="4EK">
<text cb-classname="GraphicTextEntity" class="signal" id="4EI" text-anchor="start" x="904" y="877"/>
</g>
</g>
<g cb-classname="ControlPin" cb-pin-name="Hf-f77-gCYIrq" id="4EX">
<line cb-classname="GraphicLineEntity" class="signalline" id="4Es" x1="890" x2="910" y1="780" y2="780"/>
<g cb-classname="DynamicText" cb-source="Uv-lNR-9lPN" id="4ES">
<text cb-classname="GraphicTextEntity" class="signal" id="4EQ" text-anchor="start" x="904" y="777"/>
</g>
<g cb-classname="SignalSegment" id="4EZ">
<g cb-classname="SignalConnection" cb-graphic-line="$490$" cb-input-pin="$bY3$" id="4Ew"/>
<line cb-classname="GraphicLineEntity" class="signalline" id="4Op" stroke="#1e12bf" stroke-dasharray="5,4" x1="910" x2="970" y1="780" y2="780"/>
</g>
</g>
</g>
<g cb-alg-dCW="$466$cb-alg-anomal$" cb-algorithm-id="022" cb-classname="FastBooleanAlgorithm" cb-function-name="NOT" id="4OA">
<rect cb-classname="GraphicRectangleEntity" class="algorithm" height="40" id="4OK" width="40" x="990" y="760"/>
<text baseline-shift="-50%" cb-classname="GraphicTextEntity" class="algorithm" font-size="28" id="4OI" text-anchor="middle" x="1009" y="772">
N
</text>
<g cb-classname="ControlPin" cb-pin-name="cJ-xRb-0Bm" id="4OX">
<line cb-classname="GraphicLineEntity" class="signalline" id="4Os" x1="970" x2="990" y1="780" y2="780"/>
<polygon cb-classname="GraphicPolygonEntity" class="signal" id="4OS" points="990,780 979,776 979,784"/>
<g cb-classname="DynamicText" cb-source="Hf-r0B-RuUn" class="signal" id="4OQ" text-anchor="end">
<text baseline-shift="5%" cb-classname="GraphicTextEntity" class="signal" fill="black" font-style="normal" font-weight="normal" id="4OZ" text-anchor="end" text-decoration="normal" x="985" y="772"/>
</g>
</g>
<g cb-classname="ControlPin" cb-pin-name="Uv-GeA-Y9i" id="4Ow">
<line cb-classname="GraphicLineEntity" class="signalline" id="5Qp" x1="1030" x2="1050" y1="780" y2="780"/>
<g cb-classname="DynamicText" cb-source="M1-cd9-5yJu" class="signal" id="5QA">
<text baseline-shift="5%" cb-classname="GraphicTextEntity" class="signal" fill="black" font-style="normal" font-weight="normal" id="5QK" text-decoration="normal" x="1042" y="772"/>
</g>
<g cb-classname="SignalSegment" id="5QI">
<line cb-classname="GraphicLineEntity" class="signalline" id="5QX" stroke="#1e12bf" stroke-dasharray="5,4" x1="1050" x2="1050" y1="780" y2="710"/>
<g cb-classname="SignalSegment" id="5Qs">
<line cb-classname="GraphicLineEntity" class="signalline" id="5QS" stroke="#1e12bf" stroke-dasharray="5,4" x1="1050" x2="1100" y1="710" y2="710"/>
<g cb-classname="SignalConnection" cb-graphic-line="$506$" cb-input-pin="$bIs$" id="5QQ"/>
</g>
</g>
</g>
</g>
<g cb-alg-g83="$307$cb-alg-out$" cb-alg-g8h="$405$cb-alg-out$" cb-alg-g8s="$491$cb-alg-out$" cb-algorithm-id="01A" cb-classname="FastBooleanAlgorithm" cb-function-name="OR" id="5QZ">
<ellipse cb-classname="GraphicEllipseEntity" class="algorithm" cx="1160" cy="710" id="5Qw" rx="40" ry="40"/>
<text baseline-shift="-50%" cb-classname="GraphicTextEntity" class="algorithm" id="5Vp" text-anchor="middle" x="1160" y="709">
OR
</text>
<line cb-classname="GraphicLineEntity" class="algorithmline" id="5VA" x1="1120" x2="1120" y1="650" y2="770"/>
<g cb-classname="ControlPin" cb-pin-name="Uv-GeA-dRv" id="5VK">
<line cb-classname="GraphicLineEntity" class="signalline" id="5VI" x1="1100" x2="1120" y1="670" y2="670"/>
<polygon cb-classname="GraphicPolygonEntity" class="signal" id="5VX" points="1120,670 1109,666 1109,674"/>
<g cb-classname="DynamicText" cb-source="zW-KdR-8MDW" class="signal" id="5Vs" text-anchor="end">
<text baseline-shift="5%" cb-classname="GraphicTextEntity" class="signal" fill="black" font-style="normal" font-weight="normal" id="5VS" text-anchor="end" text-decoration="normal" x="1119" y="664"/>
</g>
</g>
<g cb-classname="ControlPin" cb-pin-name="ls-lxx-I8L" id="5VQ">
<line cb-classname="GraphicLineEntity" class="signalline" id="5VZ" x1="1200" x2="1220" y1="710" y2="710"/>
<g cb-classname="DynamicText" cb-source="cG-LxH-M6B8" class="signal" id="5Vw">
<text baseline-shift="5%" cb-classname="GraphicTextEntity" class="signal" fill="black" font-style="normal" font-weight="normal" id="5Fp" text-decoration="normal" x="1214" y="701"/>
</g>
<g cb-classname="SignalSegment" id="5FA">
<line cb-classname="GraphicLineEntity" class="signalline" id="5FK" stroke="#1e12bf" stroke-dasharray="5,4" x1="1220" x2="1300" y1="710" y2="710"/>
<g cb-classname="SignalSegment" id="5FI">
<line cb-classname="GraphicLineEntity" class="signalline" id="5FX" stroke="#1e12bf" stroke-dasharray="5,4" x1="1300" x2="1300" y1="710" y2="220"/>
<g cb-classname="SignalSegment" id="5Fs">
<line cb-classname="GraphicLineEntity" class="signalline" id="5FS" stroke="#1e12bf" stroke-dasharray="5,4" x1="1300" x2="1470" y1="220" y2="220"/>
<g cb-classname="SignalConnection" cb-graphic-line="$526$" cb-input-pin="$CTi$" id="5FQ"/>
</g>
</g>
</g>
</g>
<g cb-classname="ControlPin" cb-pin-name="zW-u3B-3An" id="5FZ">
<line cb-classname="GraphicLineEntity" class="signalline" id="5Fw" x1="1100" x2="1120" y1="750" y2="750"/>
<polygon cb-classname="GraphicPolygonEntity" class="signal" id="51p" points="1120,750 1109,746 1109,754"/>
<g cb-classname="DynamicText" cb-source="0V-63A-poKG" class="signal" id="51A" text-anchor="end">
<text baseline-shift="5%" cb-classname="GraphicTextEntity" class="signal" fill="black" font-style="normal" font-weight="normal" id="51K" text-anchor="end" text-decoration="normal" x="1118" y="744"/>
</g>
</g>
<g cb-classname="ControlPin" cb-pin-name="cJ-xRb-0BX" id="51I">
<line cb-classname="GraphicLineEntity" class="signalline" id="51X" x1="1100" x2="1120" y1="710" y2="710"/>
<polygon cb-classname="GraphicPolygonEntity" class="signal" id="51s" points="1120,710 1109,706 1109,714"/>
<g cb-classname="DynamicText" cb-source="Hf-r0B-RuUn" class="signal" id="51S" text-anchor="end">
<text baseline-shift="5%" cb-classname="GraphicTextEntity" class="signal" fill="black" font-style="normal" font-weight="normal" id="51Q" text-anchor="end" text-decoration="normal" x="1118" y="704"/>
</g>
</g>
</g>
<g cb-alg-VPE="$508$cb-alg-out$" cb-alg-VPh="$220$cb-alg-out$" cb-alg-VPs="$65$cb-alg-out$" cb-algorithm-id="01E" cb-classname="FastBooleanAlgorithm" cb-function-name="AND" id="51Z">
<rect cb-classname="GraphicRectangleEntity" class="algorithm" height="60" id="51w" width="80" x="1490" y="150"/>
<text baseline-shift="-50%" cb-classname="GraphicTextEntity" class="algorithm" id="5jp" text-anchor="middle" x="1530" y="179">
AND
</text>
<line cb-classname="GraphicLineEntity" class="algorithmline" id="5jA" x1="1490" x2="1490" y1="120" y2="240"/>
<g cb-classname="ControlPin" cb-pin-name="4h-ST3-xHF" id="5jK">
<line cb-classname="GraphicLineEntity" class="signalline" id="5jI" x1="1470" x2="1490" y1="140" y2="140"/>
<polygon cb-classname="GraphicPolygonEntity" class="signal" id="5jX" points="1490,140 1479,136 1479,144"/>
<g cb-classname="DynamicText" cb-source="cG-LxH-M6B8" class="signal" id="5js" text-anchor="end">
<text baseline-shift="5%" cb-classname="GraphicTextEntity" class="signal" fill="black" font-style="normal" font-weight="normal" id="5jS" text-anchor="end" text-decoration="normal" x="1483" y="132"/>
</g>
</g>
<g cb-classname="ControlPin" cb-pin-name="DU-SzB-xIv" id="5jQ">
<line cb-classname="GraphicLineEntity" class="signalline" id="5jZ" x1="1570" x2="1590" y1="180" y2="180"/>
<g cb-classname="DynamicText" cb-source="Hf-r0B-RuUn" class="signal" id="5jw">
<text baseline-shift="5%" cb-classname="GraphicTextEntity" class="signal" fill="black" font-style="normal" font-weight="normal" id="5bp" text-decoration="normal" x="1582" y="172"/>
</g>
<g cb-classname="SignalSegment" id="5bA">
<g cb-classname="SignalConnection" cb-graphic-line="$553$" cb-input-pin="$ujb$" id="5bK"/>
<line cb-classname="GraphicLineEntity" class="signalline" id="5bI" stroke="#1e12bf" stroke-dasharray="5,4" x1="1590" x2="1850" y1="180" y2="180"/>
</g>
</g>
<g cb-classname="ControlPin" cb-pin-name="zW-u3B-3An" id="5bX">
<line cb-classname="GraphicLineEntity" class="signalline" id="5bs" x1="1470" x2="1490" y1="220" y2="220"/>
<polygon cb-classname="GraphicPolygonEntity" class="signal" id="5bS" points="1490,220 1479,216 1479,224"/>
<g cb-classname="DynamicText" cb-source="0V-63A-poKG" class="signal" id="5bQ" text-anchor="end">
<text baseline-shift="5%" cb-classname="GraphicTextEntity" class="signal" fill="black" font-style="normal" font-weight="normal" id="5bZ" text-anchor="end" text-decoration="normal" x="1480" y="210"/>
</g>
</g>
<g cb-classname="ControlPin" cb-pin-name="cJ-xRb-0BX" id="5bw">
<line cb-classname="GraphicLineEntity" class="signalline" id="5ip" x1="1470" x2="1490" y1="180" y2="180"/>
<polygon cb-classname="GraphicPolygonEntity" class="signal" id="5iA" points="1490,180 1479,176 1479,184"/>
<g cb-classname="DynamicText" cb-source="Hf-r0B-RuUn" class="signal" id="5iK" text-anchor="end">
<text baseline-shift="5%" cb-classname="GraphicTextEntity" class="signal" fill="black" font-style="normal" font-weight="normal" id="5iI" text-anchor="end" text-decoration="normal" x="1480" y="170"/>
</g>
</g>
</g>
<g cb-alg-IYU7="128" cb-alg-MuP="P32FFCELL4_BLOCK_KBD" cb-alg-z1S7="1" cb-algorithm-id="026" cb-classname="ControlAlgorithm" cb-function-name="KEYBOARD" cb-modify-id="00000001" id="5iX">
<rect cb-classname="GraphicRectangleEntity" class="algorithm" height="100" id="5is" width="100" x="1590" y="300"/>
<text cb-classname="GraphicTextEntity" class="algorithm" font-size="18" id="5iS" text-anchor="middle" x="1640" y="338">
KEY
</text>
<text cb-classname="GraphicTextEntity" class="algorithm" font-size="18" id="5iQ" text-anchor="middle" x="1640" y="364">
BOARD
</text>
<g cb-classname="DynamicText" cb-source="4h-ST3-M8H" class="algorithm" id="5iZ">
<text baseline-shift="5%" cb-classname="GraphicTextEntity" class="algorithm" fill="black" font-family="Arial" font-size="12" font-style="normal" font-weight="normal" id="5iw" text-decoration="normal" x="1590" y="427"/>
</g>
<g cb-classname="ControlPin" cb-pin-name="0V-rq6-ZsG" id="52p">
<line cb-classname="GraphicLineEntity" class="signalline" id="52A" x1="1690" x2="1720" y1="330" y2="330"/>
<g cb-classname="DynamicText" cb-source="cJ-6jB-SGdz" id="52K">
<text cb-classname="GraphicTextEntity" class="signal" id="52I" text-anchor="start" x="1704" y="327"/>
</g>
<g cb-classname="SignalSegment" id="52X">
<line cb-classname="GraphicLineEntity" class="signalline" id="52s" stroke="#1e12bf" stroke-dasharray="5,4" x1="1720" x2="1780" y1="330" y2="330"/>
<g cb-classname="SignalSegment" id="52S">
<line cb-classname="GraphicLineEntity" class="signalline" id="52Q" stroke="#1e12bf" stroke-dasharray="5,4" x1="1780" x2="1780" y1="330" y2="220"/>
<g cb-classname="SignalSegment" id="52Z">
<line cb-classname="GraphicLineEntity" class="signalline" id="52w" stroke="#1e12bf" stroke-dasharray="5,4" x1="1780" x2="1850" y1="220" y2="220"/>
<g cb-classname="SignalConnection" cb-graphic-line="$579$" cb-input-pin="$TYX$" id="5Ep"/>
</g>
</g>
</g>
</g>
</g>
<g cb-alg-3zn="$538$cb-alg-out$" cb-alg-U5Kj="RESET" cb-alg-imLn="$564$cb-alg-pk1$" cb-alg-tjn="P32FFCELL4_BLOCK" cb-algorithm-id="027" cb-classname="FastBooleanAlgorithm" cb-function-name="FLIPFLOP" id="5EA">
<rect cb-classname="GraphicRectangleEntity" class="algorithm" height="80" id="5EK" width="80" x="1870" y="160"/>
<text baseline-shift="-50%" cb-classname="GraphicTextEntity" class="algorithm" id="5EI" text-anchor="middle" x="1887" y="175">
S
</text>
<text baseline-shift="-50%" cb-classname="GraphicTextEntity" class="algorithm" id="5EX" text-anchor="middle" x="1889" y="216">
R
</text>
<text baseline-shift="-50%" cb-classname="GraphicTextEntity" class="algorithm" id="5Es" text-anchor="middle" x="1931" y="177">
1
</text>
<text baseline-shift="-50%" cb-classname="GraphicTextEntity" class="algorithm" id="5ES" text-anchor="middle" x="1930" y="217">
0
</text>
<g cb-classname="ControlPin" cb-pin-name="B5-MuP-tjn" id="5EQ">
<line cb-classname="GraphicLineEntity" class="signalline" id="5EZ" x1="1950" x2="1970" y1="180" y2="180"/>
<g cb-classname="DynamicText" cb-source="iW-CNv-CSIZ" class="signal" id="5Ew">
<text baseline-shift="5%" cb-classname="GraphicTextEntity" class="signal" fill="black" font-style="normal" font-weight="normal" id="5Op" text-decoration="normal" x="1965" y="171"/>
</g>
<g cb-classname="SignalSegment" id="5OA">
<g cb-classname="SignalConnection" cb-graphic-line="$593$" cb-input-pin="$MXL$" id="5OK"/>
<line cb-classname="GraphicLineEntity" class="signalline" id="5OI" stroke="#1e12bf" stroke-dasharray="5,4" x1="1970" x2="4440" y1="180" y2="180"/>
</g>
</g>
<g cb-classname="ControlPin" cb-pin-name="4h-ST3-1ua" id="5OX">
<line cb-classname="GraphicLineEntity" class="signalline" id="5Os" x1="1850" x2="1870" y1="180" y2="180"/>
<polygon cb-classname="GraphicPolygonEntity" class="signal" id="5OS" points="1870,180 1859,176 1859,184"/>
<g cb-classname="DynamicText" cb-source="cG-LxH-M6B8" class="signal" id="5OQ" text-anchor="end">
<text baseline-shift="5%" cb-classname="GraphicTextEntity" class="signal" fill="black" font-style="normal" font-weight="normal" id="5OZ" text-anchor="end" text-decoration="normal" x="1854" y="170"/>
</g>
</g>
<g cb-classname="ControlPin" cb-pin-name="DU-SzB-A3zn" id="5Ow">
<line cb-classname="GraphicLineEntity" class="signalline" id="6Qp" x1="1850" x2="1870" y1="220" y2="220"/>
<polygon cb-classname="GraphicPolygonEntity" class="signal" id="6QA" points="1870,220 1859,216 1859,224"/>
<g cb-classname="DynamicText" cb-source="iW-CNv-CSIZ" class="signal" id="6QK" text-anchor="end">
<text baseline-shift="5%" cb-classname="GraphicTextEntity" class="signal" fill="black" font-style="normal" font-weight="normal" id="6QI" text-anchor="end" text-decoration="normal" x="1851" y="211"/>
</g>
</g>
</g>
<g cb-alg-YS="$581$cb-alg-out$" cb-algorithm-id="025" cb-classname="ExternalPointInterface" cb-function-name="OUTPUT" id="6QX">
<ellipse cb-classname="GraphicEllipseEntity" class="algorithm" cx="4500" cy="180" id="6Qs" rx="40" ry="40"/>
<rect cb-classname="GraphicRectangleEntity" class="algorithm" height="80" id="6QS" width="30" x="4540" y="140"/>
<line cb-classname="GraphicLineEntity" class="algorithm" id="6QQ" x1="4540" x2="4570" y1="180" y2="180"/>
<g cb-classname="PointStatusIndicator" cb-indicator-type="highway" cb-source="ls-lxx-sp" id="6QZ" visibility="hidden">
<line cb-classname="GraphicLineEntity" class="algorithmline" id="6Qw" x1="4460" x2="4500" y1="180" y2="140"/>
<line cb-classname="GraphicLineEntity" class="algorithmline" id="6Vp" x1="4500" x2="4540" y1="140" y2="180"/>
<line cb-classname="GraphicLineEntity" class="algorithmline" id="6VA" x1="4540" x2="4500" y1="180" y2="220"/>
<line cb-classname="GraphicLineEntity" class="algorithmline" id="6VK" x1="4500" x2="4460" y1="220" y2="180"/>
</g>
<g cb-classname="PointStatusIndicator" cb-indicator-type="hardware" cb-source="B5-MuP-NR" id="6VI" visibility="hidden">
<line cb-classname="GraphicLineEntity" class="algorithmline" id="6VX" x1="4540" x2="4460" y1="140" y2="140"/>
<line cb-classname="GraphicLineEntity" class="algorithmline" id="6Vs" x1="4460" x2="4460" y1="140" y2="220"/>
<line cb-classname="GraphicLineEntity" class="algorithmline" id="6VS" x1="4460" x2="4540" y1="220" y2="220"/>
</g>
<g cb-classname="PointStatusIndicator" cb-indicator-type="alarm" cb-source="02-ybJ-a5" id="6VQ" visibility="visible">
<text cb-classname="GraphicTextEntity" class="algorithm" fill="#000000" font-family="Arial" font-size="20" id="6VZ" x="4547" y="169">
A
</text>
</g>
<g cb-classname="PointStatusIndicator" cb-indicator-type="ingraphic" cb-source="zW-u3B-3A" id="6Vw" visibility="hidden">
<text cb-classname="GraphicTextEntity" class="algorithm" fill="#000000" font-family="Arial" font-size="20" id="6Fp" x="4545" y="210">
G
</text>
</g>
<g cb-classname="DynamicText" cb-labeled="false" cb-pin-name="eV" cb-source="ls-lxx-sp" class="algorithm" id="6FA" text-anchor="end">
<text baseline-shift="0%" cb-classname="GraphicTextEntity" class="algorithm" fill="black" font-family="Arial" font-size="20" font-style="normal" font-weight="normal" id="6FK" text-anchor="end" text-decoration="normal" x="4437" y="159"/>
</g>
<g baseline-shift="-100%" cb-anchor-x="4438" cb-anchor-y="196" cb-classname="PointReferences" cb-max-width="240" cb-originator="false" cb-source="cG-yOV-PH" class="signal" id="6FI" text-anchor="end">
<text baseline-shift="-100%" cb-classname="GraphicTextEntity" class="algorithm" id="6FX" text-anchor="end" x="4438" y="196">
-
</text>
</g>
<g baseline-shift="-50%" cb-anchor-x="4591" cb-anchor-y="178" cb-classname="PointDescription" cb-content="extended" cb-labeled="false" cb-max-width="240" cb-source="DU-SzB-Nv" class="algorithm" id="6Fs" text-anchor="start">
<text baseline-shift="-50%" cb-classname="GraphicTextEntity" class="algorithm" id="6FS" text-anchor="start" x="4591" y="108">
FF CELL4 SOLID
</text>
<text baseline-shift="-50%" cb-classname="GraphicTextEntity" class="algorithm" id="6FQ" text-anchor="start" x="4591" y="144">
RESIDUE BLOCK
</text>
<text baseline-shift="-50%" cb-classname="GraphicTextEntity" class="algorithm" id="6FZ" text-anchor="start" x="4591" y="180">
ALARM
</text>
<text baseline-shift="-50%" cb-classname="GraphicTextEntity" class="algorithm" id="61S" text-anchor="start" x="4591" y="216">
(ALARM -
</text>
<text baseline-shift="-50%" cb-classname="GraphicTextEntity" class="algorithm" id="61Q" text-anchor="start" x="4591" y="252">
!nALARM)
</text>
</g>
<g cb-classname="ControlPin" cb-pin-name="M1-gia-28" id="61A">
<line cb-classname="GraphicLineEntity" class="signalline" id="61K" x1="4440" x2="4460" y1="180" y2="180"/>
<polygon cb-classname="GraphicPolygonEntity" class="signal" id="61I" points="4460,180 4449,174 4449,185"/>
</g>
</g>
</g>
<g cb-classname="IncludeDocument" cb-modify-time="12/03/2019 14:33:51" cb-objectname="frame" id="5">
<text cb-classname="GraphicTextEntity" class="frame" font-size="50" id="6" x="3660" y="3146">
HERA
</text>
<g baseline-shift="-50%" cb-classname="DynamicText" cb-source="M1-TNYq-3X" class="frame" id="7">
<text cb-classname="GraphicTextEntity" class="frame" fill="black" font-family="arial" font-size="25" font-style="normal" font-weight="normal" id="8" text-decoration="normal" x="4715" y="3325">
12
</text>
</g>
<g baseline-shift="-50%" cb-classname="DynamicText" cb-source="4h-BwuL-sk" class="frame" id="9" text-anchor="middle">
<text cb-classname="GraphicTextEntity" class="frame" fill="black" font-family="arial" font-size="48" font-style="normal" font-weight="normal" id="1Q" text-anchor="middle" text-decoration="normal" x="4900" y="3320">
12
</text>
</g>
<g baseline-shift="-50%" cb-classname="DynamicText" cb-source="0V-iy1q-PN" class="frame" id="1V" text-anchor="middle">
<text cb-classname="GraphicTextEntity" class="frame" fill="black" font-family="arial" font-size="48" font-style="normal" font-weight="normal" id="1F" text-anchor="middle" text-decoration="normal" x="5067" y="3324">
3
</text>
</g>
<g cb-classname="DynamicText" cb-source="cJ-wxY16-Udn3n" class="frame" id="11">
<text cb-classname="GraphicTextEntity" class="frame" fill="black" font-family="arial" font-size="48" font-style="normal" font-weight="normal" id="1j" text-decoration="normal" x="3660" y="3224">
Dry flue gas interlocks - 2
</text>
</g>
<g baseline-shift="-50%" cb-classname="DynamicText" cb-source="B5-y8NhU-CiIoNG" class="frame" id="1b" text-anchor="middle">
<text cb-classname="GraphicTextEntity" class="frame" fill="black" font-family="arial" font-size="48" font-style="normal" font-weight="normal" id="1i" text-anchor="middle" text-decoration="normal" x="5270" y="3324">
123161
</text>
</g>
<g baseline-shift="0%" cb-classname="DynamicText" cb-source="iW-5hzdydM5" class="frame" id="12" text-anchor="middle">
<text cb-classname="GraphicTextEntity" class="frame" fill="black" font-family="arial" font-size="36" font-style="normal" font-weight="normal" id="1E" text-anchor="middle" text-decoration="normal" x="5270" y="3150">
A
</text>
</g>
<g baseline-shift="0%" cb-classname="DynamicText" cb-source="02-izTd82VA-aPKG" class="frame" id="1O" text-anchor="middle">
<text cb-classname="GraphicTextEntity" class="frame" fill="black" font-family="arial" font-size="20" font-style="normal" font-weight="normal" id="2Q" text-anchor="middle" text-decoration="normal" x="5270" y="3230">

</text>
</g>
<g baseline-shift="-50%" cb-classname="DynamicText" cb-source="zW-L9B28sub" class="frame" id="2V" text-anchor="end">
<text cb-classname="GraphicTextEntity" class="frame" fill="black" font-family="arial" font-size="26" font-style="normal" font-weight="normal" id="2F" text-anchor="end" text-decoration="normal" x="4500" y="3420">

</text>
</g>
<g baseline-shift="-50%" cb-classname="DynamicText" cb-source="ls-wZsxusFv" class="frame" id="21" text-anchor="end">
<text cb-classname="GraphicTextEntity" class="frame" fill="black" font-family="arial" font-size="26" font-style="normal" font-weight="normal" id="2j" text-anchor="end" text-decoration="normal" x="5353" y="3420">

</text>
</g>
<g cb-classname="GraphicShape" cb-tag="BORDER" id="2b">
<line cb-classname="GraphicLineEntity" class="frameline" id="2i" x1="40" x2="40" y1="40" y2="3460"/>
<line cb-classname="GraphicLineEntity" class="frameline" id="22" x1="40" x2="5380" y1="3460" y2="3460"/>
<line cb-classname="GraphicLineEntity" class="frameline" id="2E" x1="5380" x2="5380" y1="3460" y2="40"/>
<line cb-classname="GraphicLineEntity" class="frameline" id="2O" x1="5380" x2="40" y1="40" y2="40"/>
<line cb-classname="GraphicLineEntity" class="frame" id="3Q" x1="5430" x2="5440" y1="3510" y2="3510"/>
</g>
<g cb-classname="GraphicShape" cb-tag="TITLE BOX" id="3V">
<line cb-classname="GraphicLineEntity" class="frameline" id="3F" x1="2340" x2="2340" y1="3080" y2="3460"/>
<line cb-classname="GraphicLineEntity" class="frameline" id="31" x1="2340" x2="5380" y1="3080" y2="3080"/>
<line cb-classname="GraphicLineEntity" class="frameline" id="3j" x1="3650" x2="3650" y1="3460" y2="3080"/>
<line cb-classname="GraphicLineEntity" class="frameline" id="3b" x1="3650" x2="5380" y1="3240" y2="3240"/>
<line cb-classname="GraphicLineEntity" class="frameline" id="3i" x1="3650" x2="5380" y1="3390" y2="3390"/>
<line cb-classname="GraphicLineEntity" class="frameline" id="32" x1="3650" x2="5380" y1="3160" y2="3160"/>
<line cb-classname="GraphicLineEntity" class="frameline" id="3E" x1="3650" x2="4520" y1="3320" y2="3320"/>
<line cb-classname="GraphicLineEntity" class="frameline" id="3O" x1="4520" x2="5380" y1="3290" y2="3290"/>
<line cb-classname="GraphicLineEntity" class="frameline" id="4Q" x1="4520" x2="5380" y1="3240" y2="3240"/>
<line cb-classname="GraphicLineEntity" class="frameline" id="4V" x1="4520" x2="4520" y1="3240" y2="3460"/>
<line cb-classname="GraphicLineEntity" class="frameline" id="4F" x1="4810" x2="4810" y1="3240" y2="3390"/>
<line cb-classname="GraphicLineEntity" class="frameline" id="41" x1="4990" x2="4990" y1="3240" y2="3390"/>
<line cb-classname="GraphicLineEntity" class="frameline" id="4j" x1="5150" x2="5150" y1="3080" y2="3390"/>
</g>
<g cb-classname="GraphicShape" cb-tag="TEXT LABELS" id="4b">
<text baseline-shift="-50%" cb-classname="GraphicTextEntity" class="frame" font-size="25" id="4i" text-anchor="middle" x="4890" y="3252">
Drop
</text>
<text baseline-shift="-50%" cb-classname="GraphicTextEntity" class="frame" font-size="25" id="42" text-anchor="middle" x="5075" y="3252">
Task
</text>
<text baseline-shift="-50%" cb-classname="GraphicTextEntity" class="frame" font-size="25" id="4E" text-anchor="middle" x="5265" y="3252">
Sheet
</text>
<text cb-classname="GraphicTextEntity" class="frame" font-size="25" id="4O" x="5152" y="3107">
Rev.
</text>
<text cb-classname="GraphicTextEntity" class="frame" font-size="25" id="5Q" x="3653" y="3418">
Engineer
</text>
<text cb-classname="GraphicTextEntity" class="frame" font-size="25" id="5V" x="4528" y="3419">
Approved
</text>
<text cb-classname="GraphicTextEntity" class="frame" font-size="25" id="5F" x="5152" y="3187">
Date
</text>
<text baseline-shift="-50%" cb-classname="GraphicTextEntity" class="frame" font-size="25" id="51" text-anchor="middle" x="4660" y="3252">
Drawing Number
</text>
<text baseline-shift="-50%" cb-classname="GraphicTextEntity" class="frame" font-size="25" id="5j" text-anchor="middle" x="4680" y="3325">
CTL
</text>
</g>
<text baseline-shift="-50%" cb-classname="GraphicTextEntity" class="frame" font-size="48" id="5b" text-anchor="middle" x="3000" y="3100">
EMERSON PROCESS MANAGEMENT
</text>
<g baseline-shift="-100%" cb-anchor-x="2360" cb-anchor-y="3140" cb-classname="GroupText" cb-max-width="1260" fill="black" id="5i">
<text baseline-shift="-100%" cb-classname="GraphicTextEntity" class="frame" fill="black" font-family="arial" font-size="22" font-weight="normal" id="52" text-anchor="start" text-decoration="normal" x="2360" y="3140">
THIS DOCUMENT CONTAINS INFORMATION PROPRIETARY TO EMERSON PROCESS
</text>
<text baseline-shift="-100%" cb-classname="GraphicTextEntity" class="frame" fill="black" font-family="arial" font-size="22" font-weight="normal" id="5E" text-anchor="start" text-decoration="normal" x="2360" y="3176">
MANAGEMENT POWER &amp; WATER SOLUTIONS, INC. IT IS SUBMITTED IN CONFIDENCE AND
</text>
<text baseline-shift="-100%" cb-classname="GraphicTextEntity" class="frame" fill="black" font-family="arial" font-size="22" font-weight="normal" id="5O" text-anchor="start" text-decoration="normal" x="2360" y="3212">
TRUST, IS TO BE USED BY YOU SOLELY FOR THE PURPOSES FOR WHICH IT IS
</text>
<text baseline-shift="-100%" cb-classname="GraphicTextEntity" class="frame" fill="black" font-family="arial" font-size="22" font-weight="normal" id="6Q" text-anchor="start" text-decoration="normal" x="2360" y="3248">
FURNISHED AND IS TO BE RETURNED UPON REQUEST. THIS DOCUMENT AND ANY
</text>
<text baseline-shift="-100%" cb-classname="GraphicTextEntity" class="frame" fill="black" font-family="arial" font-size="22" font-weight="normal" id="6V" text-anchor="start" text-decoration="normal" x="2360" y="3284">
OTHER INFORMATION PROVIDED TO YOU IS NOT TO BE REPRODUCED, TRANSMITTED,
</text>
<text baseline-shift="-100%" cb-classname="GraphicTextEntity" class="frame" fill="black" font-family="arial" font-size="22" font-weight="normal" id="6F" text-anchor="start" text-decoration="normal" x="2360" y="3320">
DISCLOSED, OR USED OTHERWISE IN WHOLE OR IN PART WITHOUT THE PRIOR
</text>
<text baseline-shift="-100%" cb-classname="GraphicTextEntity" class="frame" fill="black" font-family="arial" font-size="22" font-weight="normal" id="61" text-anchor="start" text-decoration="normal" x="2360" y="3356">
WRITTEN AUTHORIZATION OF EMERSON PROCESS MANAGEMENT POWER &amp; WATER
</text>
<text baseline-shift="-100%" cb-classname="GraphicTextEntity" class="frame" fill="black" font-family="arial" font-size="22" font-weight="normal" id="6j" text-anchor="start" text-decoration="normal" x="2360" y="3392">
SOLUTIONS,INC.
</text>
</g>
</g>
</svg>